2014-12-07 05:58:03,584 INFO     repeater     task nb300_lastensq starting 0.6 seconds late
2014-12-07 05:58:05,779 INFO     repeater     task nb300_lastensq ended after 2.2 seconds
2014-12-07 05:58:05,780 INFO     repeater     task nb300_lastensq: Time from /home/data/SP1411/proc/nb300/load/wrote_ens_time: 2014/12/07 05:57:53
2014-12-07 06:00:05,930 INFO     repeater     task nb300_lastensq starting 2.9 seconds late
2014-12-07 06:00:08,079 INFO     repeater     task nb300_lastensq ended after 2.1 seconds
2014-12-07 06:00:08,080 INFO     repeater     task nb300_lastensq: Time from /home/data/SP1411/proc/nb300/load/wrote_ens_time: 2014/12/07 05:59:53
2014-12-07 06:01:58,208 INFO     repeater     task nb300_quick starting 5.0 seconds late
2014-12-07 06:02:02,235 INFO     repeater     task nb300_quick ended after 4.0 seconds
2014-12-07 06:02:02,236 INFO     repeater     task nb300_3dayplots starting 9.0 seconds late
2014-12-07 06:02:06,723 INFO     repeater     task nb300_3dayplots ended after 4.5 seconds
2014-12-07 06:02:06,723 INFO     repeater     task nb300_beamplots starting 13.5 seconds late
2014-12-07 06:02:08,384 INFO     repeater     task nb300_beamplots output:
Starting procsetup

2014-12-07 06:02:08,384 INFO     repeater     task nb300_beamplots ended after 1.7 seconds
2014-12-07 06:02:08,384 INFO     repeater     task nb300_beamplots starting 15.1 seconds late
2014-12-07 06:02:09,993 INFO     repeater     task nb300_beamplots output:
Starting procsetup

2014-12-07 06:02:09,993 INFO     repeater     task nb300_beamplots ended after 1.6 seconds
2014-12-07 06:02:09,993 INFO     repeater     task ashtech_hcorrstats starting 16.7 seconds late
2014-12-07 06:02:10,924 INFO     repeater     task ashtech_hcorrstats ended after 0.9 seconds
2014-12-07 06:02:15,930 INFO     repeater     task nb300_lastensq starting 12.9 seconds late
2014-12-07 06:02:18,035 INFO     repeater     task nb300_lastensq ended after 2.1 seconds
2014-12-07 06:02:18,035 INFO     repeater     task nb300_lastensq: Time from /home/data/SP1411/proc/nb300/load/wrote_ens_time: 2014/12/07 06:01:53
2014-12-07 06:04:03,161 INFO     repeater     task nb300_lastensq starting 0.2 seconds late
2014-12-07 06:04:05,214 INFO     repeater     task nb300_lastensq ended after 2.1 seconds
2014-12-07 06:04:05,214 INFO     repeater     task nb300_lastensq: Time from /home/data/SP1411/proc/nb300/load/wrote_ens_time: 2014/12/07 06:03:53
2014-12-07 06:06:05,351 INFO     repeater     task nb300_lastensq starting 2.4 seconds late
2014-12-07 06:06:07,449 INFO     repeater     task nb300_lastensq ended after 2.1 seconds
2014-12-07 06:06:07,449 INFO     repeater     task nb300_lastensq: Time from /home/data/SP1411/proc/nb300/load/wrote_ens_time: 2014/12/07 06:05:53
2014-12-07 06:06:57,509 INFO     repeater     task ashtech_hcorrstats starting 4.2 seconds late
2014-12-07 06:06:58,449 INFO     repeater     task ashtech_hcorrstats ended after 0.9 seconds
2014-12-07 06:08:03,530 INFO     repeater     task nb300_lastensq starting 0.5 seconds late
2014-12-07 06:08:05,635 INFO     repeater     task nb300_lastensq ended after 2.1 seconds
2014-12-07 06:08:05,636 INFO     repeater     task nb300_lastensq: Time from /home/data/SP1411/proc/nb300/load/wrote_ens_time: 2014/12/07 06:07:53
2014-12-07 06:10:05,784 INFO     repeater     task nb300_lastensq starting 2.8 seconds late
2014-12-07 06:10:07,901 INFO     repeater     task nb300_lastensq ended after 2.1 seconds
2014-12-07 06:10:07,902 INFO     repeater     task nb300_lastensq: Time from /home/data/SP1411/proc/nb300/load/wrote_ens_time: 2014/12/07 06:09:53
2014-12-07 06:11:58,022 INFO     repeater     task nb300_beamplots starting 4.7 seconds late
2014-12-07 06:11:59,626 INFO     repeater     task nb300_beamplots output:
Starting procsetup

2014-12-07 06:11:59,626 INFO     repeater     task nb300_beamplots ended after 1.6 seconds
2014-12-07 06:11:59,627 INFO     repeater     task nb300_beamplots starting 6.4 seconds late
2014-12-07 06:12:01,363 INFO     repeater     task nb300_beamplots output:
Starting procsetup

2014-12-07 06:12:01,363 INFO     repeater     task nb300_beamplots ended after 1.7 seconds
2014-12-07 06:12:01,364 INFO     repeater     task ashtech_hcorrstats starting 8.1 seconds late
2014-12-07 06:12:02,289 INFO     repeater     task ashtech_hcorrstats ended after 0.9 seconds
2014-12-07 06:12:07,294 INFO     repeater     task nb300_lastensq starting 4.3 seconds late
2014-12-07 06:12:09,424 INFO     repeater     task nb300_lastensq ended after 2.1 seconds
2014-12-07 06:12:09,424 INFO     repeater     task nb300_lastensq: Time from /home/data/SP1411/proc/nb300/load/wrote_ens_time: 2014/12/07 06:11:53
2014-12-07 06:14:04,543 INFO     repeater     task nb300_lastensq starting 1.5 seconds late
2014-12-07 06:14:06,647 INFO     repeater     task nb300_lastensq ended after 2.1 seconds
2014-12-07 06:14:06,647 INFO     repeater     task nb300_lastensq: Time from /home/data/SP1411/proc/nb300/load/wrote_ens_time: 2014/12/07 06:13:53
2014-12-07 06:16:06,794 INFO     repeater     task nb300_lastensq starting 3.8 seconds late
2014-12-07 06:16:08,849 INFO     repeater     task nb300_lastensq ended after 2.1 seconds
2014-12-07 06:16:08,849 INFO     repeater     task nb300_lastensq: Time from /home/data/SP1411/proc/nb300/load/wrote_ens_time: 2014/12/07 06:15:53
2014-12-07 06:16:53,899 INFO     repeater     task ashtech_hcorrstats starting 0.6 seconds late
2014-12-07 06:16:54,850 INFO     repeater     task ashtech_hcorrstats ended after 1.0 seconds
2014-12-07 06:18:04,922 INFO     repeater     task nb300_lastensq starting 1.9 seconds late
2014-12-07 06:18:06,979 INFO     repeater     task nb300_lastensq ended after 2.1 seconds
2014-12-07 06:18:06,980 INFO     repeater     task nb300_lastensq: Time from /home/data/SP1411/proc/nb300/load/wrote_ens_time: 2014/12/07 06:17:53
2014-12-07 06:20:07,121 INFO     repeater     task nb300_lastensq starting 4.1 seconds late
2014-12-07 06:20:09,238 INFO     repeater     task nb300_lastensq ended after 2.1 seconds
2014-12-07 06:20:09,238 INFO     repeater     task nb300_lastensq: Time from /home/data/SP1411/proc/nb300/load/wrote_ens_time: 2014/12/07 06:19:53
2014-12-07 06:21:54,362 INFO     repeater     task nb300_beamplots starting 1.1 seconds late
2014-12-07 06:21:55,952 INFO     repeater     task nb300_beamplots output:
Starting procsetup

2014-12-07 06:21:55,952 INFO     repeater     task nb300_beamplots ended after 1.6 seconds
2014-12-07 06:21:55,952 INFO     repeater     task nb300_beamplots starting 2.7 seconds late
2014-12-07 06:21:57,684 INFO     repeater     task nb300_beamplots output:
Starting procsetup

2014-12-07 06:21:57,684 INFO     repeater     task nb300_beamplots ended after 1.7 seconds
2014-12-07 06:21:57,684 INFO     repeater     task ashtech_hcorrstats starting 4.4 seconds late
2014-12-07 06:21:58,614 INFO     repeater     task ashtech_hcorrstats ended after 0.9 seconds
2014-12-07 06:22:03,619 INFO     repeater     task nb300_lastensq starting 0.6 seconds late
2014-12-07 06:22:05,728 INFO     repeater     task nb300_lastensq ended after 2.1 seconds
2014-12-07 06:22:05,729 INFO     repeater     task nb300_lastensq: Time from /home/data/SP1411/proc/nb300/load/wrote_ens_time: 2014/12/07 06:21:53
2014-12-07 06:24:05,879 INFO     repeater     task nb300_lastensq starting 2.9 seconds late
2014-12-07 06:24:08,013 INFO     repeater     task nb300_lastensq ended after 2.1 seconds
2014-12-07 06:24:08,013 INFO     repeater     task nb300_lastensq: Time from /home/data/SP1411/proc/nb300/load/wrote_ens_time: 2014/12/07 06:23:53
2014-12-07 06:26:03,141 INFO     repeater     task nb300_lastensq starting 0.1 seconds late
2014-12-07 06:26:05,212 INFO     repeater     task nb300_lastensq ended after 2.1 seconds
2014-12-07 06:26:05,212 INFO     repeater     task nb300_lastensq: Time from /home/data/SP1411/proc/nb300/load/wrote_ens_time: 2014/12/07 06:25:53
2014-12-07 06:26:55,270 INFO     repeater     task ashtech_hcorrstats starting 2.0 seconds late
2014-12-07 06:26:56,215 INFO     repeater     task ashtech_hcorrstats ended after 0.9 seconds
2014-12-07 06:28:06,295 INFO     repeater     task nb300_lastensq starting 3.3 seconds late
2014-12-07 06:28:08,378 INFO     repeater     task nb300_lastensq ended after 2.1 seconds
2014-12-07 06:28:08,379 INFO     repeater     task nb300_lastensq: Time from /home/data/SP1411/proc/nb300/load/wrote_ens_time: 2014/12/07 06:27:53
2014-12-07 06:30:03,511 INFO     repeater     task nb300_lastensq starting 0.5 seconds late
2014-12-07 06:30:05,593 INFO     repeater     task nb300_lastensq ended after 2.1 seconds
2014-12-07 06:30:05,594 INFO     repeater     task nb300_lastensq: Time from /home/data/SP1411/proc/nb300/load/wrote_ens_time: 2014/12/07 06:29:53
2014-12-07 06:31:55,721 INFO     repeater     task nb300_quick starting 2.5 seconds late
2014-12-07 06:31:59,760 INFO     repeater     task nb300_quick ended after 4.0 seconds
2014-12-07 06:31:59,761 INFO     repeater     task nb300_3dayplots starting 6.5 seconds late
2014-12-07 06:32:04,215 INFO     repeater     task nb300_3dayplots ended after 4.5 seconds
2014-12-07 06:32:04,215 INFO     repeater     task nb300_beamplots starting 10.9 seconds late
2014-12-07 06:32:05,871 INFO     repeater     task nb300_beamplots output:
Starting procsetup

2014-12-07 06:32:05,872 INFO     repeater     task nb300_beamplots ended after 1.7 seconds
2014-12-07 06:32:05,872 INFO     repeater     task nb300_beamplots starting 12.6 seconds late
2014-12-07 06:32:07,577 INFO     repeater     task nb300_beamplots output:
Starting procsetup

2014-12-07 06:32:07,577 INFO     repeater     task nb300_beamplots ended after 1.7 seconds
2014-12-07 06:32:07,577 INFO     repeater     task ashtech_hcorrstats starting 14.3 seconds late
2014-12-07 06:32:08,495 INFO     repeater     task ashtech_hcorrstats ended after 0.9 seconds
2014-12-07 06:32:13,501 INFO     repeater     task nb300_lastensq starting 10.5 seconds late
2014-12-07 06:32:15,623 INFO     repeater     task nb300_lastensq ended after 2.1 seconds
2014-12-07 06:32:15,623 INFO     repeater     task nb300_lastensq: Time from /home/data/SP1411/proc/nb300/load/wrote_ens_time: 2014/12/07 06:31:53
2014-12-07 06:34:05,754 INFO     repeater     task nb300_lastensq starting 2.8 seconds late
2014-12-07 06:34:07,908 INFO     repeater     task nb300_lastensq ended after 2.2 seconds
2014-12-07 06:34:07,908 INFO     repeater     task nb300_lastensq: Time from /home/data/SP1411/proc/nb300/load/wrote_ens_time: 2014/12/07 06:33:53
2014-12-07 06:36:03,030 INFO     repeater     task nb300_lastensq starting 0.0 seconds late
2014-12-07 06:36:05,112 INFO     repeater     task nb300_lastensq ended after 2.1 seconds
2014-12-07 06:36:05,112 INFO     repeater     task nb300_lastensq: Time from /home/data/SP1411/proc/nb300/load/wrote_ens_time: 2014/12/07 06:35:53
2014-12-07 06:36:55,166 INFO     repeater     task ashtech_hcorrstats starting 1.9 seconds late
2014-12-07 06:36:56,107 INFO     repeater     task ashtech_hcorrstats ended after 0.9 seconds
2014-12-07 06:38:06,194 INFO     repeater     task nb300_lastensq starting 3.2 seconds late
2014-12-07 06:38:08,322 INFO     repeater     task nb300_lastensq ended after 2.1 seconds
2014-12-07 06:38:08,323 INFO     repeater     task nb300_lastensq: Time from /home/data/SP1411/proc/nb300/load/wrote_ens_time: 2014/12/07 06:37:53
2014-12-07 06:40:03,444 INFO     repeater     task nb300_lastensq starting 0.4 seconds late
2014-12-07 06:40:05,544 INFO     repeater     task nb300_lastensq ended after 2.1 seconds
2014-12-07 06:40:05,545 INFO     repeater     task nb300_lastensq: Time from /home/data/SP1411/proc/nb300/load/wrote_ens_time: 2014/12/07 06:39:53
2014-12-07 06:41:55,672 INFO     repeater     task nb300_beamplots starting 2.4 seconds late
2014-12-07 06:41:57,333 INFO     repeater     task nb300_beamplots output:
Starting procsetup

2014-12-07 06:41:57,333 INFO     repeater     task nb300_beamplots ended after 1.7 seconds
2014-12-07 06:41:57,334 INFO     repeater     task nb300_beamplots starting 4.1 seconds late
2014-12-07 06:41:59,041 INFO     repeater     task nb300_beamplots output:
Starting procsetup

2014-12-07 06:41:59,042 INFO     repeater     task nb300_beamplots ended after 1.7 seconds
2014-12-07 06:41:59,042 INFO     repeater     task ashtech_hcorrstats starting 5.8 seconds late
2014-12-07 06:41:59,963 INFO     repeater     task ashtech_hcorrstats ended after 0.9 seconds
2014-12-07 06:42:04,964 INFO     repeater     task nb300_lastensq starting 2.0 seconds late
2014-12-07 06:42:07,108 INFO     repeater     task nb300_lastensq ended after 2.1 seconds
2014-12-07 06:42:07,108 INFO     repeater     task nb300_lastensq: Time from /home/data/SP1411/proc/nb300/load/wrote_ens_time: 2014/12/07 06:41:53
2014-12-07 06:44:07,247 INFO     repeater     task nb300_lastensq starting 4.2 seconds late
2014-12-07 06:44:09,333 INFO     repeater     task nb300_lastensq ended after 2.1 seconds
2014-12-07 06:44:09,334 INFO     repeater     task nb300_lastensq: Time from /home/data/SP1411/proc/nb300/load/wrote_ens_time: 2014/12/07 06:43:53
2014-12-07 06:46:04,471 INFO     repeater     task nb300_lastensq starting 1.5 seconds late
2014-12-07 06:46:06,596 INFO     repeater     task nb300_lastensq ended after 2.1 seconds
2014-12-07 06:46:06,597 INFO     repeater     task nb300_lastensq: Time from /home/data/SP1411/proc/nb300/load/wrote_ens_time: 2014/12/07 06:45:53
2014-12-07 06:46:56,662 INFO     repeater     task ashtech_hcorrstats starting 3.4 seconds late
2014-12-07 06:46:57,601 INFO     repeater     task ashtech_hcorrstats ended after 0.9 seconds
2014-12-07 06:48:07,683 INFO     repeater     task nb300_lastensq starting 4.7 seconds late
2014-12-07 06:48:09,760 INFO     repeater     task nb300_lastensq ended after 2.1 seconds
2014-12-07 06:48:09,762 INFO     repeater     task nb300_lastensq: Time from /home/data/SP1411/proc/nb300/load/wrote_ens_time: 2014/12/07 06:47:53
2014-12-07 06:50:04,889 INFO     repeater     task nb300_lastensq starting 1.9 seconds late
2014-12-07 06:50:06,974 INFO     repeater     task nb300_lastensq ended after 2.1 seconds
2014-12-07 06:50:06,974 INFO     repeater     task nb300_lastensq: Time from /home/data/SP1411/proc/nb300/load/wrote_ens_time: 2014/12/07 06:49:53
2014-12-07 06:51:57,112 INFO     repeater     task nb300_beamplots starting 3.8 seconds late
2014-12-07 06:51:58,819 INFO     repeater     task nb300_beamplots output:
Starting procsetup

2014-12-07 06:51:58,819 INFO     repeater     task nb300_beamplots ended after 1.7 seconds
2014-12-07 06:51:58,820 INFO     repeater     task nb300_beamplots starting 5.5 seconds late
2014-12-07 06:52:00,549 INFO     repeater     task nb300_beamplots output:
Starting procsetup

2014-12-07 06:52:00,549 INFO     repeater     task nb300_beamplots ended after 1.7 seconds
2014-12-07 06:52:00,549 INFO     repeater     task ashtech_hcorrstats starting 7.3 seconds late
2014-12-07 06:52:01,480 INFO     repeater     task ashtech_hcorrstats ended after 0.9 seconds
2014-12-07 06:52:06,481 INFO     repeater     task nb300_lastensq starting 3.5 seconds late
2014-12-07 06:52:08,561 INFO     repeater     task nb300_lastensq ended after 2.1 seconds
2014-12-07 06:52:08,561 INFO     repeater     task nb300_lastensq: Time from /home/data/SP1411/proc/nb300/load/wrote_ens_time: 2014/12/07 06:51:53
2014-12-07 06:54:03,700 INFO     repeater     task nb300_lastensq starting 0.7 seconds late
2014-12-07 06:54:05,851 INFO     repeater     task nb300_lastensq ended after 2.2 seconds
2014-12-07 06:54:05,854 INFO     repeater     task nb300_lastensq: Time from /home/data/SP1411/proc/nb300/load/wrote_ens_time: 2014/12/07 06:53:53
2014-12-07 06:56:05,998 INFO     repeater     task nb300_lastensq starting 3.0 seconds late
2014-12-07 06:56:08,144 INFO     repeater     task nb300_lastensq ended after 2.1 seconds
2014-12-07 06:56:08,145 INFO     repeater     task nb300_lastensq: Time from /home/data/SP1411/proc/nb300/load/wrote_ens_time: 2014/12/07 06:55:53
2014-12-07 06:56:58,204 INFO     repeater     task ashtech_hcorrstats starting 4.9 seconds late
2014-12-07 06:56:59,146 INFO     repeater     task ashtech_hcorrstats ended after 0.9 seconds
2014-12-07 06:58:04,218 INFO     repeater     task nb300_lastensq starting 1.2 seconds late
2014-12-07 06:58:06,314 INFO     repeater     task nb300_lastensq ended after 2.1 seconds
2014-12-07 06:58:06,315 INFO     repeater     task nb300_lastensq: Time from /home/data/SP1411/proc/nb300/load/wrote_ens_time: 2014/12/07 06:57:53
2014-12-07 07:00:06,458 INFO     repeater     task nb300_lastensq starting 3.5 seconds late
2014-12-07 07:00:08,555 INFO     repeater     task nb300_lastensq ended after 2.1 seconds
2014-12-07 07:00:08,555 INFO     repeater     task nb300_lastensq: Time from /home/data/SP1411/proc/nb300/load/wrote_ens_time: 2014/12/07 06:59:53
2014-12-07 07:01:53,683 INFO     repeater     task nb300_quick starting 0.4 seconds late
2014-12-07 07:01:57,752 INFO     repeater     task nb300_quick ended after 4.1 seconds
2014-12-07 07:01:57,753 INFO     repeater     task nb300_3dayplots starting 4.5 seconds late
2014-12-07 07:02:02,229 INFO     repeater     task nb300_3dayplots ended after 4.5 seconds
2014-12-07 07:02:02,229 INFO     repeater     task nb300_beamplots starting 9.0 seconds late
2014-12-07 07:02:03,921 INFO     repeater     task nb300_beamplots output:
Starting procsetup

2014-12-07 07:02:03,921 INFO     repeater     task nb300_beamplots ended after 1.7 seconds
2014-12-07 07:02:03,922 INFO     repeater     task nb300_beamplots starting 10.6 seconds late
2014-12-07 07:02:05,562 INFO     repeater     task nb300_beamplots output:
Starting procsetup

2014-12-07 07:02:05,562 INFO     repeater     task nb300_beamplots ended after 1.6 seconds
2014-12-07 07:02:05,563 INFO     repeater     task ashtech_hcorrstats starting 12.3 seconds late
2014-12-07 07:02:06,506 INFO     repeater     task ashtech_hcorrstats ended after 0.9 seconds
2014-12-07 07:02:11,511 INFO     repeater     task nb300_lastensq starting 8.5 seconds late
2014-12-07 07:02:13,624 INFO     repeater     task nb300_lastensq ended after 2.1 seconds
2014-12-07 07:02:13,625 INFO     repeater     task nb300_lastensq: Time from /home/data/SP1411/proc/nb300/load/wrote_ens_time: 2014/12/07 07:01:53
2014-12-07 07:04:03,750 INFO     repeater     task nb300_lastensq starting 0.8 seconds late
2014-12-07 07:04:05,912 INFO     repeater     task nb300_lastensq ended after 2.2 seconds
2014-12-07 07:04:05,912 INFO     repeater     task nb300_lastensq: Time from /home/data/SP1411/proc/nb300/load/wrote_ens_time: 2014/12/07 07:03:53
2014-12-07 07:06:06,054 INFO     repeater     task nb300_lastensq starting 3.1 seconds late
2014-12-07 07:06:08,203 INFO     repeater     task nb300_lastensq ended after 2.1 seconds
2014-12-07 07:06:08,203 INFO     repeater     task nb300_lastensq: Time from /home/data/SP1411/proc/nb300/load/wrote_ens_time: 2014/12/07 07:05:53
2014-12-07 07:06:58,252 INFO     repeater     task ashtech_hcorrstats starting 5.0 seconds late
2014-12-07 07:06:59,196 INFO     repeater     task ashtech_hcorrstats ended after 0.9 seconds
2014-12-07 07:08:04,271 INFO     repeater     task nb300_lastensq starting 1.3 seconds late
2014-12-07 07:08:06,431 INFO     repeater     task nb300_lastensq ended after 2.2 seconds
2014-12-07 07:08:06,431 INFO     repeater     task nb300_lastensq: Time from /home/data/SP1411/proc/nb300/load/wrote_ens_time: 2014/12/07 07:07:53
2014-12-07 07:10:06,561 INFO     repeater     task nb300_lastensq starting 3.6 seconds late
2014-12-07 07:10:08,668 INFO     repeater     task nb300_lastensq ended after 2.1 seconds
2014-12-07 07:10:08,668 INFO     repeater     task nb300_lastensq: Time from /home/data/SP1411/proc/nb300/load/wrote_ens_time: 2014/12/07 07:09:53
2014-12-07 07:11:53,793 INFO     repeater     task nb300_beamplots starting 0.5 seconds late
2014-12-07 07:11:55,496 INFO     repeater     task nb300_beamplots output:
Starting procsetup

2014-12-07 07:11:55,496 INFO     repeater     task nb300_beamplots ended after 1.7 seconds
2014-12-07 07:11:55,497 INFO     repeater     task nb300_beamplots starting 2.2 seconds late
2014-12-07 07:11:57,135 INFO     repeater     task nb300_beamplots output:
Starting procsetup

2014-12-07 07:11:57,135 INFO     repeater     task nb300_beamplots ended after 1.6 seconds
2014-12-07 07:11:57,136 INFO     repeater     task ashtech_hcorrstats starting 3.9 seconds late
2014-12-07 07:11:58,066 INFO     repeater     task ashtech_hcorrstats ended after 0.9 seconds
2014-12-07 07:12:03,071 INFO     repeater     task nb300_lastensq starting 0.1 seconds late
2014-12-07 07:12:05,180 INFO     repeater     task nb300_lastensq ended after 2.1 seconds
2014-12-07 07:12:05,181 INFO     repeater     task nb300_lastensq: Time from /home/data/SP1411/proc/nb300/load/wrote_ens_time: 2014/12/07 07:11:53
2014-12-07 07:14:05,311 INFO     repeater     task nb300_lastensq starting 2.3 seconds late
2014-12-07 07:14:07,468 INFO     repeater     task nb300_lastensq ended after 2.2 seconds
2014-12-07 07:14:07,469 INFO     repeater     task nb300_lastensq: Time from /home/data/SP1411/proc/nb300/load/wrote_ens_time: 2014/12/07 07:13:53
2014-12-07 07:16:07,610 INFO     repeater     task nb300_lastensq starting 4.6 seconds late
2014-12-07 07:16:09,698 INFO     repeater     task nb300_lastensq ended after 2.1 seconds
2014-12-07 07:16:09,698 INFO     repeater     task nb300_lastensq: Time from /home/data/SP1411/proc/nb300/load/wrote_ens_time: 2014/12/07 07:15:53
2014-12-07 07:16:54,752 INFO     repeater     task ashtech_hcorrstats starting 1.5 seconds late
2014-12-07 07:16:55,700 INFO     repeater     task ashtech_hcorrstats ended after 0.9 seconds
2014-12-07 07:18:05,767 INFO     repeater     task nb300_lastensq starting 2.8 seconds late
2014-12-07 07:18:07,909 INFO     repeater     task nb300_lastensq ended after 2.1 seconds
2014-12-07 07:18:07,909 INFO     repeater     task nb300_lastensq: Time from /home/data/SP1411/proc/nb300/load/wrote_ens_time: 2014/12/07 07:17:53
2014-12-07 07:20:03,040 INFO     repeater     task nb300_lastensq starting 0.0 seconds late
2014-12-07 07:20:05,187 INFO     repeater     task nb300_lastensq ended after 2.1 seconds
2014-12-07 07:20:05,188 INFO     repeater     task nb300_lastensq: Time from /home/data/SP1411/proc/nb300/load/wrote_ens_time: 2014/12/07 07:19:53
2014-12-07 07:21:55,312 INFO     repeater     task nb300_beamplots starting 2.0 seconds late
2014-12-07 07:21:57,021 INFO     repeater     task nb300_beamplots output:
Starting procsetup

2014-12-07 07:21:57,022 INFO     repeater     task nb300_beamplots ended after 1.7 seconds
2014-12-07 07:21:57,022 INFO     repeater     task nb300_beamplots starting 3.7 seconds late
2014-12-07 07:21:58,641 INFO     repeater     task nb300_beamplots output:
Starting procsetup

2014-12-07 07:21:58,641 INFO     repeater     task nb300_beamplots ended after 1.6 seconds
2014-12-07 07:21:58,641 INFO     repeater     task ashtech_hcorrstats starting 5.4 seconds late
2014-12-07 07:21:59,566 INFO     repeater     task ashtech_hcorrstats ended after 0.9 seconds
2014-12-07 07:22:04,571 INFO     repeater     task nb300_lastensq starting 1.6 seconds late
2014-12-07 07:22:06,748 INFO     repeater     task nb300_lastensq ended after 2.2 seconds
2014-12-07 07:22:06,748 INFO     repeater     task nb300_lastensq: Time from /home/data/SP1411/proc/nb300/load/wrote_ens_time: 2014/12/07 07:21:53
2014-12-07 07:24:06,894 INFO     repeater     task nb300_lastensq starting 3.9 seconds late
2014-12-07 07:24:09,044 INFO     repeater     task nb300_lastensq ended after 2.1 seconds
2014-12-07 07:24:09,044 INFO     repeater     task nb300_lastensq: Time from /home/data/SP1411/proc/nb300/load/wrote_ens_time: 2014/12/07 07:23:53
2014-12-07 07:26:04,167 INFO     repeater     task nb300_lastensq starting 1.2 seconds late
2014-12-07 07:26:06,340 INFO     repeater     task nb300_lastensq ended after 2.2 seconds
2014-12-07 07:26:06,341 INFO     repeater     task nb300_lastensq: Time from /home/data/SP1411/proc/nb300/load/wrote_ens_time: 2014/12/07 07:25:53
2014-12-07 07:26:56,393 INFO     repeater     task ashtech_hcorrstats starting 3.1 seconds late
2014-12-07 07:26:57,333 INFO     repeater     task ashtech_hcorrstats ended after 0.9 seconds
2014-12-07 07:28:07,423 INFO     repeater     task nb300_lastensq starting 4.4 seconds late
2014-12-07 07:28:09,583 INFO     repeater     task nb300_lastensq ended after 2.2 seconds
2014-12-07 07:28:09,583 INFO     repeater     task nb300_lastensq: Time from /home/data/SP1411/proc/nb300/load/wrote_ens_time: 2014/12/07 07:27:53
2014-12-07 07:30:04,717 INFO     repeater     task nb300_lastensq starting 1.7 seconds late
2014-12-07 07:30:06,902 INFO     repeater     task nb300_lastensq ended after 2.2 seconds
2014-12-07 07:30:06,902 INFO     repeater     task nb300_lastensq: Time from /home/data/SP1411/proc/nb300/load/wrote_ens_time: 2014/12/07 07:29:53
2014-12-07 07:31:57,031 INFO     repeater     task nb300_quick starting 3.8 seconds late
2014-12-07 07:32:01,118 INFO     repeater     task nb300_quick ended after 4.1 seconds
2014-12-07 07:32:01,118 INFO     repeater     task nb300_3dayplots starting 7.9 seconds late
2014-12-07 07:32:05,587 INFO     repeater     task nb300_3dayplots ended after 4.5 seconds
2014-12-07 07:32:05,587 INFO     repeater     task nb300_beamplots starting 12.3 seconds late
2014-12-07 07:32:07,164 INFO     repeater     task nb300_beamplots output:
Starting procsetup

2014-12-07 07:32:07,164 INFO     repeater     task nb300_beamplots ended after 1.6 seconds
2014-12-07 07:32:07,164 INFO     repeater     task nb300_beamplots starting 13.9 seconds late
2014-12-07 07:32:08,877 INFO     repeater     task nb300_beamplots output:
Starting procsetup

2014-12-07 07:32:08,878 INFO     repeater     task nb300_beamplots ended after 1.7 seconds
2014-12-07 07:32:08,878 INFO     repeater     task ashtech_hcorrstats starting 15.6 seconds late
2014-12-07 07:32:09,805 INFO     repeater     task ashtech_hcorrstats ended after 0.9 seconds
2014-12-07 07:32:14,810 INFO     repeater     task nb300_lastensq starting 11.8 seconds late
2014-12-07 07:32:16,961 INFO     repeater     task nb300_lastensq ended after 2.2 seconds
2014-12-07 07:32:16,962 INFO     repeater     task nb300_lastensq: Time from /home/data/SP1411/proc/nb300/load/wrote_ens_time: 2014/12/07 07:31:53
2014-12-07 07:34:07,088 INFO     repeater     task nb300_lastensq starting 4.1 seconds late
2014-12-07 07:34:09,258 INFO     repeater     task nb300_lastensq ended after 2.2 seconds
2014-12-07 07:34:09,258 INFO     repeater     task nb300_lastensq: Time from /home/data/SP1411/proc/nb300/load/wrote_ens_time: 2014/12/07 07:33:53
2014-12-07 07:36:04,378 INFO     repeater     task nb300_lastensq starting 1.4 seconds late
2014-12-07 07:36:06,507 INFO     repeater     task nb300_lastensq ended after 2.1 seconds
2014-12-07 07:36:06,508 INFO     repeater     task nb300_lastensq: Time from /home/data/SP1411/proc/nb300/load/wrote_ens_time: 2014/12/07 07:35:53
2014-12-07 07:36:56,572 INFO     repeater     task ashtech_hcorrstats starting 3.3 seconds late
2014-12-07 07:36:57,474 INFO     repeater     task ashtech_hcorrstats ended after 0.9 seconds
2014-12-07 07:38:07,558 INFO     repeater     task nb300_lastensq starting 4.6 seconds late
2014-12-07 07:38:09,767 INFO     repeater     task nb300_lastensq ended after 2.2 seconds
2014-12-07 07:38:09,767 INFO     repeater     task nb300_lastensq: Time from /home/data/SP1411/proc/nb300/load/wrote_ens_time: 2014/12/07 07:37:53
2014-12-07 07:40:04,908 INFO     repeater     task nb300_lastensq starting 1.9 seconds late
2014-12-07 07:40:07,044 INFO     repeater     task nb300_lastensq ended after 2.1 seconds
2014-12-07 07:40:07,045 INFO     repeater     task nb300_lastensq: Time from /home/data/SP1411/proc/nb300/load/wrote_ens_time: 2014/12/07 07:39:53
2014-12-07 07:41:57,179 INFO     repeater     task nb300_beamplots starting 3.9 seconds late
2014-12-07 07:41:58,848 INFO     repeater     task nb300_beamplots output:
Starting procsetup

2014-12-07 07:41:58,849 INFO     repeater     task nb300_beamplots ended after 1.7 seconds
2014-12-07 07:41:58,849 INFO     repeater     task nb300_beamplots starting 5.6 seconds late
2014-12-07 07:42:00,471 INFO     repeater     task nb300_beamplots output:
Starting procsetup

2014-12-07 07:42:00,471 INFO     repeater     task nb300_beamplots ended after 1.6 seconds
2014-12-07 07:42:00,471 INFO     repeater     task ashtech_hcorrstats starting 7.2 seconds late
2014-12-07 07:42:01,359 INFO     repeater     task ashtech_hcorrstats ended after 0.9 seconds
2014-12-07 07:42:06,364 INFO     repeater     task nb300_lastensq starting 3.4 seconds late
2014-12-07 07:42:08,549 INFO     repeater     task nb300_lastensq ended after 2.2 seconds
2014-12-07 07:42:08,549 INFO     repeater     task nb300_lastensq: Time from /home/data/SP1411/proc/nb300/load/wrote_ens_time: 2014/12/07 07:41:53
2014-12-07 07:44:03,674 INFO     repeater     task nb300_lastensq starting 0.7 seconds late
2014-12-07 07:44:05,855 INFO     repeater     task nb300_lastensq ended after 2.2 seconds
2014-12-07 07:44:05,855 INFO     repeater     task nb300_lastensq: Time from /home/data/SP1411/proc/nb300/load/wrote_ens_time: 2014/12/07 07:43:53
2014-12-07 07:46:05,998 INFO     repeater     task nb300_lastensq starting 3.0 seconds late
2014-12-07 07:46:08,119 INFO     repeater     task nb300_lastensq ended after 2.1 seconds
2014-12-07 07:46:08,119 INFO     repeater     task nb300_lastensq: Time from /home/data/SP1411/proc/nb300/load/wrote_ens_time: 2014/12/07 07:45:53
2014-12-07 07:46:58,175 INFO     repeater     task ashtech_hcorrstats starting 4.9 seconds late
2014-12-07 07:46:59,090 INFO     repeater     task ashtech_hcorrstats ended after 0.9 seconds
2014-12-07 07:48:04,170 INFO     repeater     task nb300_lastensq starting 1.2 seconds late
2014-12-07 07:48:06,326 INFO     repeater     task nb300_lastensq ended after 2.2 seconds
2014-12-07 07:48:06,326 INFO     repeater     task nb300_lastensq: Time from /home/data/SP1411/proc/nb300/load/wrote_ens_time: 2014/12/07 07:47:53
2014-12-07 07:50:06,461 INFO     repeater     task nb300_lastensq starting 3.5 seconds late
2014-12-07 07:50:08,651 INFO     repeater     task nb300_lastensq ended after 2.2 seconds
2014-12-07 07:50:08,652 INFO     repeater     task nb300_lastensq: Time from /home/data/SP1411/proc/nb300/load/wrote_ens_time: 2014/12/07 07:49:53
2014-12-07 07:51:53,779 INFO     repeater     task nb300_beamplots starting 0.5 seconds late
2014-12-07 07:51:55,459 INFO     repeater     task nb300_beamplots output:
Starting procsetup

2014-12-07 07:51:55,459 INFO     repeater     task nb300_beamplots ended after 1.7 seconds
2014-12-07 07:51:55,459 INFO     repeater     task nb300_beamplots starting 2.2 seconds late
2014-12-07 07:51:57,075 INFO     repeater     task nb300_beamplots output:
Starting procsetup

2014-12-07 07:51:57,076 INFO     repeater     task nb300_beamplots ended after 1.6 seconds
2014-12-07 07:51:57,076 INFO     repeater     task ashtech_hcorrstats starting 3.8 seconds late
2014-12-07 07:51:57,970 INFO     repeater     task ashtech_hcorrstats ended after 0.9 seconds
2014-12-07 07:52:07,982 INFO     repeater     task nb300_lastensq starting 5.0 seconds late
2014-12-07 07:52:10,144 INFO     repeater     task nb300_lastensq ended after 2.2 seconds
2014-12-07 07:52:10,144 INFO     repeater     task nb300_lastensq: Time from /home/data/SP1411/proc/nb300/load/wrote_ens_time: 2014/12/07 07:51:53
2014-12-07 07:54:05,275 INFO     repeater     task nb300_lastensq starting 2.3 seconds late
2014-12-07 07:54:07,478 INFO     repeater     task nb300_lastensq ended after 2.2 seconds
2014-12-07 07:54:07,478 INFO     repeater     task nb300_lastensq: Time from /home/data/SP1411/proc/nb300/load/wrote_ens_time: 2014/12/07 07:53:53
2014-12-07 07:56:07,620 INFO     repeater     task nb300_lastensq starting 4.6 seconds late
2014-12-07 07:56:09,766 INFO     repeater     task nb300_lastensq ended after 2.1 seconds
2014-12-07 07:56:09,766 INFO     repeater     task nb300_lastensq: Time from /home/data/SP1411/proc/nb300/load/wrote_ens_time: 2014/12/07 07:55:53
2014-12-07 07:56:54,819 INFO     repeater     task ashtech_hcorrstats starting 1.5 seconds late
2014-12-07 07:56:55,716 INFO     repeater     task ashtech_hcorrstats ended after 0.9 seconds
2014-12-07 07:58:05,799 INFO     repeater     task nb300_lastensq starting 2.8 seconds late
2014-12-07 07:58:07,950 INFO     repeater     task nb300_lastensq ended after 2.2 seconds
2014-12-07 07:58:07,951 INFO     repeater     task nb300_lastensq: Time from /home/data/SP1411/proc/nb300/load/wrote_ens_time: 2014/12/07 07:57:53
2014-12-07 08:00:03,078 INFO     repeater     task nb300_lastensq starting 0.1 seconds late
2014-12-07 08:00:05,248 INFO     repeater     task nb300_lastensq ended after 2.2 seconds
2014-12-07 08:00:05,248 INFO     repeater     task nb300_lastensq: Time from /home/data/SP1411/proc/nb300/load/wrote_ens_time: 2014/12/07 07:59:53
2014-12-07 08:01:55,371 INFO     repeater     task nb300_quick starting 2.1 seconds late
2014-12-07 08:01:59,423 INFO     repeater     task nb300_quick ended after 4.1 seconds
2014-12-07 08:01:59,424 INFO     repeater     task nb300_3dayplots starting 6.2 seconds late
2014-12-07 08:02:03,900 INFO     repeater     task nb300_3dayplots ended after 4.5 seconds
2014-12-07 08:02:03,900 INFO     repeater     task nb300_beamplots starting 10.6 seconds late
2014-12-07 08:02:05,591 INFO     repeater     task nb300_beamplots output:
Starting procsetup

2014-12-07 08:02:05,592 INFO     repeater     task nb300_beamplots ended after 1.7 seconds
2014-12-07 08:02:05,592 INFO     repeater     task nb300_beamplots starting 12.3 seconds late
2014-12-07 08:02:07,222 INFO     repeater     task nb300_beamplots output:
Starting procsetup

2014-12-07 08:02:07,222 INFO     repeater     task nb300_beamplots ended after 1.6 seconds
2014-12-07 08:02:07,222 INFO     repeater     task ashtech_hcorrstats starting 13.9 seconds late
2014-12-07 08:02:08,131 INFO     repeater     task ashtech_hcorrstats ended after 0.9 seconds
2014-12-07 08:02:13,137 INFO     repeater     task nb300_lastensq starting 10.1 seconds late
2014-12-07 08:02:15,203 INFO     repeater     task nb300_lastensq ended after 2.1 seconds
2014-12-07 08:02:15,203 INFO     repeater     task nb300_lastensq: Time from /home/data/SP1411/proc/nb300/load/wrote_ens_time: 2014/12/07 08:01:53
2014-12-07 08:04:05,334 INFO     repeater     task nb300_lastensq starting 2.3 seconds late
2014-12-07 08:04:07,451 INFO     repeater     task nb300_lastensq ended after 2.1 seconds
2014-12-07 08:04:07,451 INFO     repeater     task nb300_lastensq: Time from /home/data/SP1411/proc/nb300/load/wrote_ens_time: 2014/12/07 08:03:53
2014-12-07 08:06:07,591 INFO     repeater     task nb300_lastensq starting 4.6 seconds late
2014-12-07 08:06:09,671 INFO     repeater     task nb300_lastensq ended after 2.1 seconds
2014-12-07 08:06:09,672 INFO     repeater     task nb300_lastensq: Time from /home/data/SP1411/proc/nb300/load/wrote_ens_time: 2014/12/07 08:05:53
2014-12-07 08:06:54,722 INFO     repeater     task ashtech_hcorrstats starting 1.4 seconds late
2014-12-07 08:06:55,627 INFO     repeater     task ashtech_hcorrstats ended after 0.9 seconds
2014-12-07 08:08:05,718 INFO     repeater     task nb300_lastensq starting 2.7 seconds late
2014-12-07 08:08:07,775 INFO     repeater     task nb300_lastensq ended after 2.1 seconds
2014-12-07 08:08:07,776 INFO     repeater     task nb300_lastensq: Time from /home/data/SP1411/proc/nb300/load/wrote_ens_time: 2014/12/07 08:07:53
2014-12-07 08:10:07,922 INFO     repeater     task nb300_lastensq starting 4.9 seconds late
2014-12-07 08:10:10,054 INFO     repeater     task nb300_lastensq ended after 2.1 seconds
2014-12-07 08:10:10,054 INFO     repeater     task nb300_lastensq: Time from /home/data/SP1411/proc/nb300/load/wrote_ens_time: 2014/12/07 08:09:53
2014-12-07 08:11:55,188 INFO     repeater     task nb300_beamplots starting 1.9 seconds late
2014-12-07 08:11:56,899 INFO     repeater     task nb300_beamplots output:
Starting procsetup

2014-12-07 08:11:56,899 INFO     repeater     task nb300_beamplots ended after 1.7 seconds
2014-12-07 08:11:56,900 INFO     repeater     task nb300_beamplots starting 3.6 seconds late
2014-12-07 08:11:58,633 INFO     repeater     task nb300_beamplots output:
Starting procsetup

2014-12-07 08:11:58,633 INFO     repeater     task nb300_beamplots ended after 1.7 seconds
2014-12-07 08:11:58,633 INFO     repeater     task ashtech_hcorrstats starting 5.4 seconds late
2014-12-07 08:11:59,532 INFO     repeater     task ashtech_hcorrstats ended after 0.9 seconds
2014-12-07 08:12:04,538 INFO     repeater     task nb300_lastensq starting 1.5 seconds late
2014-12-07 08:12:06,615 INFO     repeater     task nb300_lastensq ended after 2.1 seconds
2014-12-07 08:12:06,615 INFO     repeater     task nb300_lastensq: Time from /home/data/SP1411/proc/nb300/load/wrote_ens_time: 2014/12/07 08:11:53
2014-12-07 08:14:06,744 INFO     repeater     task nb300_lastensq starting 3.7 seconds late
2014-12-07 08:14:08,865 INFO     repeater     task nb300_lastensq ended after 2.1 seconds
2014-12-07 08:14:08,865 INFO     repeater     task nb300_lastensq: Time from /home/data/SP1411/proc/nb300/load/wrote_ens_time: 2014/12/07 08:13:53
2014-12-07 08:16:03,998 INFO     repeater     task nb300_lastensq starting 1.0 seconds late
2014-12-07 08:16:06,055 INFO     repeater     task nb300_lastensq ended after 2.1 seconds
2014-12-07 08:16:06,055 INFO     repeater     task nb300_lastensq: Time from /home/data/SP1411/proc/nb300/load/wrote_ens_time: 2014/12/07 08:15:53
2014-12-07 08:16:56,109 INFO     repeater     task ashtech_hcorrstats starting 2.8 seconds late
2014-12-07 08:16:57,006 INFO     repeater     task ashtech_hcorrstats ended after 0.9 seconds
2014-12-07 08:18:07,083 INFO     repeater     task nb300_lastensq starting 4.1 seconds late
2014-12-07 08:18:09,200 INFO     repeater     task nb300_lastensq ended after 2.1 seconds
2014-12-07 08:18:09,201 INFO     repeater     task nb300_lastensq: Time from /home/data/SP1411/proc/nb300/load/wrote_ens_time: 2014/12/07 08:17:53
2014-12-07 08:20:04,331 INFO     repeater     task nb300_lastensq starting 1.3 seconds late
2014-12-07 08:20:06,395 INFO     repeater     task nb300_lastensq ended after 2.1 seconds
2014-12-07 08:20:06,396 INFO     repeater     task nb300_lastensq: Time from /home/data/SP1411/proc/nb300/load/wrote_ens_time: 2014/12/07 08:19:53
2014-12-07 08:21:56,528 INFO     repeater     task nb300_beamplots starting 3.3 seconds late
2014-12-07 08:21:58,207 INFO     repeater     task nb300_beamplots output:
Starting procsetup

2014-12-07 08:21:58,207 INFO     repeater     task nb300_beamplots ended after 1.7 seconds
2014-12-07 08:21:58,208 INFO     repeater     task nb300_beamplots starting 4.9 seconds late
2014-12-07 08:21:59,904 INFO     repeater     task nb300_beamplots output:
Starting procsetup

2014-12-07 08:21:59,905 INFO     repeater     task nb300_beamplots ended after 1.7 seconds
2014-12-07 08:21:59,905 INFO     repeater     task ashtech_hcorrstats starting 6.6 seconds late
2014-12-07 08:22:00,795 INFO     repeater     task ashtech_hcorrstats ended after 0.9 seconds
2014-12-07 08:22:05,801 INFO     repeater     task nb300_lastensq starting 2.8 seconds late
2014-12-07 08:22:07,916 INFO     repeater     task nb300_lastensq ended after 2.1 seconds
2014-12-07 08:22:07,917 INFO     repeater     task nb300_lastensq: Time from /home/data/SP1411/proc/nb300/load/wrote_ens_time: 2014/12/07 08:21:53
2014-12-07 08:24:03,051 INFO     repeater     task nb300_lastensq starting 0.1 seconds late
2014-12-07 08:24:05,121 INFO     repeater     task nb300_lastensq ended after 2.1 seconds
2014-12-07 08:24:05,121 INFO     repeater     task nb300_lastensq: Time from /home/data/SP1411/proc/nb300/load/wrote_ens_time: 2014/12/07 08:23:53
2014-12-07 08:26:05,276 INFO     repeater     task nb300_lastensq starting 2.3 seconds late
2014-12-07 08:26:07,347 INFO     repeater     task nb300_lastensq ended after 2.1 seconds
2014-12-07 08:26:07,347 INFO     repeater     task nb300_lastensq: Time from /home/data/SP1411/proc/nb300/load/wrote_ens_time: 2014/12/07 08:25:53
2014-12-07 08:26:57,415 INFO     repeater     task ashtech_hcorrstats starting 4.1 seconds late
2014-12-07 08:26:58,329 INFO     repeater     task ashtech_hcorrstats ended after 0.9 seconds
2014-12-07 08:28:03,408 INFO     repeater     task nb300_lastensq starting 0.4 seconds late
2014-12-07 08:28:05,487 INFO     repeater     task nb300_lastensq ended after 2.1 seconds
2014-12-07 08:28:05,488 INFO     repeater     task nb300_lastensq: Time from /home/data/SP1411/proc/nb300/load/wrote_ens_time: 2014/12/07 08:27:53
2014-12-07 08:30:05,637 INFO     repeater     task nb300_lastensq starting 2.6 seconds late
2014-12-07 08:30:07,704 INFO     repeater     task nb300_lastensq ended after 2.1 seconds
2014-12-07 08:30:07,705 INFO     repeater     task nb300_lastensq: Time from /home/data/SP1411/proc/nb300/load/wrote_ens_time: 2014/12/07 08:29:53
2014-12-07 08:31:57,831 INFO     repeater     task nb300_quick starting 4.6 seconds late
2014-12-07 08:32:01,894 INFO     repeater     task nb300_quick ended after 4.1 seconds
2014-12-07 08:32:01,895 INFO     repeater     task nb300_3dayplots starting 8.7 seconds late
2014-12-07 08:32:06,364 INFO     repeater     task nb300_3dayplots ended after 4.5 seconds
2014-12-07 08:32:06,364 INFO     repeater     task nb300_beamplots starting 13.1 seconds late
2014-12-07 08:32:08,029 INFO     repeater     task nb300_beamplots output:
Starting procsetup

2014-12-07 08:32:08,029 INFO     repeater     task nb300_beamplots ended after 1.7 seconds
2014-12-07 08:32:08,030 INFO     repeater     task nb300_beamplots starting 14.8 seconds late
2014-12-07 08:32:09,730 INFO     repeater     task nb300_beamplots output:
Starting procsetup

2014-12-07 08:32:09,730 INFO     repeater     task nb300_beamplots ended after 1.7 seconds
2014-12-07 08:32:09,730 INFO     repeater     task ashtech_hcorrstats starting 16.5 seconds late
2014-12-07 08:32:10,620 INFO     repeater     task ashtech_hcorrstats ended after 0.9 seconds
2014-12-07 08:32:15,624 INFO     repeater     task nb300_lastensq starting 12.6 seconds late
2014-12-07 08:32:17,753 INFO     repeater     task nb300_lastensq ended after 2.1 seconds
2014-12-07 08:32:17,753 INFO     repeater     task nb300_lastensq: Time from /home/data/SP1411/proc/nb300/load/wrote_ens_time: 2014/12/07 08:31:53
2014-12-07 08:34:07,889 INFO     repeater     task nb300_lastensq starting 4.9 seconds late
2014-12-07 08:34:10,044 INFO     repeater     task nb300_lastensq ended after 2.2 seconds
2014-12-07 08:34:10,045 INFO     repeater     task nb300_lastensq: Time from /home/data/SP1411/proc/nb300/load/wrote_ens_time: 2014/12/07 08:33:53
2014-12-07 08:36:05,178 INFO     repeater     task nb300_lastensq starting 2.2 seconds late
2014-12-07 08:36:07,298 INFO     repeater     task nb300_lastensq ended after 2.1 seconds
2014-12-07 08:36:07,298 INFO     repeater     task nb300_lastensq: Time from /home/data/SP1411/proc/nb300/load/wrote_ens_time: 2014/12/07 08:35:53
2014-12-07 08:36:57,353 INFO     repeater     task ashtech_hcorrstats starting 4.1 seconds late
2014-12-07 08:36:58,259 INFO     repeater     task ashtech_hcorrstats ended after 0.9 seconds
2014-12-07 08:38:03,331 INFO     repeater     task nb300_lastensq starting 0.3 seconds late
2014-12-07 08:38:05,407 INFO     repeater     task nb300_lastensq ended after 2.1 seconds
2014-12-07 08:38:05,408 INFO     repeater     task nb300_lastensq: Time from /home/data/SP1411/proc/nb300/load/wrote_ens_time: 2014/12/07 08:37:53
2014-12-07 08:40:05,541 INFO     repeater     task nb300_lastensq starting 2.5 seconds late
2014-12-07 08:40:07,623 INFO     repeater     task nb300_lastensq ended after 2.1 seconds
2014-12-07 08:40:07,624 INFO     repeater     task nb300_lastensq: Time from /home/data/SP1411/proc/nb300/load/wrote_ens_time: 2014/12/07 08:39:53
2014-12-07 08:41:57,744 INFO     repeater     task nb300_beamplots starting 4.5 seconds late
2014-12-07 08:41:59,441 INFO     repeater     task nb300_beamplots output:
Starting procsetup

2014-12-07 08:41:59,442 INFO     repeater     task nb300_beamplots ended after 1.7 seconds
2014-12-07 08:41:59,442 INFO     repeater     task nb300_beamplots starting 6.2 seconds late
2014-12-07 08:42:01,169 INFO     repeater     task nb300_beamplots output:
Starting procsetup

2014-12-07 08:42:01,169 INFO     repeater     task nb300_beamplots ended after 1.7 seconds
2014-12-07 08:42:01,169 INFO     repeater     task ashtech_hcorrstats starting 7.9 seconds late
2014-12-07 08:42:02,071 INFO     repeater     task ashtech_hcorrstats ended after 0.9 seconds
2014-12-07 08:42:07,077 INFO     repeater     task nb300_lastensq starting 4.1 seconds late
2014-12-07 08:42:09,172 INFO     repeater     task nb300_lastensq ended after 2.1 seconds
2014-12-07 08:42:09,172 INFO     repeater     task nb300_lastensq: Time from /home/data/SP1411/proc/nb300/load/wrote_ens_time: 2014/12/07 08:41:53
2014-12-07 08:44:04,307 INFO     repeater     task nb300_lastensq starting 1.3 seconds late
2014-12-07 08:44:06,437 INFO     repeater     task nb300_lastensq ended after 2.1 seconds
2014-12-07 08:44:06,437 INFO     repeater     task nb300_lastensq: Time from /home/data/SP1411/proc/nb300/load/wrote_ens_time: 2014/12/07 08:43:53
2014-12-07 08:46:06,567 INFO     repeater     task nb300_lastensq starting 3.6 seconds late
2014-12-07 08:46:08,716 INFO     repeater     task nb300_lastensq ended after 2.1 seconds
2014-12-07 08:46:08,716 INFO     repeater     task nb300_lastensq: Time from /home/data/SP1411/proc/nb300/load/wrote_ens_time: 2014/12/07 08:45:53
2014-12-07 08:46:53,772 INFO     repeater     task ashtech_hcorrstats starting 0.5 seconds late
2014-12-07 08:46:54,687 INFO     repeater     task ashtech_hcorrstats ended after 0.9 seconds
2014-12-07 08:48:04,758 INFO     repeater     task nb300_lastensq starting 1.8 seconds late
2014-12-07 08:48:06,910 INFO     repeater     task nb300_lastensq ended after 2.2 seconds
2014-12-07 08:48:06,911 INFO     repeater     task nb300_lastensq: Time from /home/data/SP1411/proc/nb300/load/wrote_ens_time: 2014/12/07 08:47:53
2014-12-07 08:50:07,040 INFO     repeater     task nb300_lastensq starting 4.0 seconds late
2014-12-07 08:50:09,191 INFO     repeater     task nb300_lastensq ended after 2.2 seconds
2014-12-07 08:50:09,192 INFO     repeater     task nb300_lastensq: Time from /home/data/SP1411/proc/nb300/load/wrote_ens_time: 2014/12/07 08:49:53
2014-12-07 08:51:54,306 INFO     repeater     task nb300_beamplots starting 1.0 seconds late
2014-12-07 08:51:56,021 INFO     repeater     task nb300_beamplots output:
Starting procsetup

2014-12-07 08:51:56,022 INFO     repeater     task nb300_beamplots ended after 1.7 seconds
2014-12-07 08:51:56,022 INFO     repeater     task nb300_beamplots starting 2.7 seconds late
2014-12-07 08:51:57,730 INFO     repeater     task nb300_beamplots output:
Starting procsetup

2014-12-07 08:51:57,730 INFO     repeater     task nb300_beamplots ended after 1.7 seconds
2014-12-07 08:51:57,730 INFO     repeater     task ashtech_hcorrstats starting 4.5 seconds late
2014-12-07 08:51:58,618 INFO     repeater     task ashtech_hcorrstats ended after 0.9 seconds
2014-12-07 08:52:03,624 INFO     repeater     task nb300_lastensq starting 0.6 seconds late
2014-12-07 08:52:05,762 INFO     repeater     task nb300_lastensq ended after 2.1 seconds
2014-12-07 08:52:05,762 INFO     repeater     task nb300_lastensq: Time from /home/data/SP1411/proc/nb300/load/wrote_ens_time: 2014/12/07 08:51:53
2014-12-07 08:54:05,904 INFO     repeater     task nb300_lastensq starting 2.9 seconds late
2014-12-07 08:54:08,050 INFO     repeater     task nb300_lastensq ended after 2.1 seconds
2014-12-07 08:54:08,050 INFO     repeater     task nb300_lastensq: Time from /home/data/SP1411/proc/nb300/load/wrote_ens_time: 2014/12/07 08:53:53
2014-12-07 08:56:03,181 INFO     repeater     task nb300_lastensq starting 0.2 seconds late
2014-12-07 08:56:05,277 INFO     repeater     task nb300_lastensq ended after 2.1 seconds
2014-12-07 08:56:05,277 INFO     repeater     task nb300_lastensq: Time from /home/data/SP1411/proc/nb300/load/wrote_ens_time: 2014/12/07 08:55:53
2014-12-07 08:56:55,322 INFO     repeater     task ashtech_hcorrstats starting 2.0 seconds late
2014-12-07 08:56:56,215 INFO     repeater     task ashtech_hcorrstats ended after 0.9 seconds
2014-12-07 08:58:06,291 INFO     repeater     task nb300_lastensq starting 3.3 seconds late
2014-12-07 08:58:08,388 INFO     repeater     task nb300_lastensq ended after 2.1 seconds
2014-12-07 08:58:08,388 INFO     repeater     task nb300_lastensq: Time from /home/data/SP1411/proc/nb300/load/wrote_ens_time: 2014/12/07 08:57:53
2014-12-07 09:00:03,531 INFO     repeater     task nb300_lastensq starting 0.5 seconds late
2014-12-07 09:00:05,695 INFO     repeater     task nb300_lastensq ended after 2.2 seconds
2014-12-07 09:00:05,696 INFO     repeater     task nb300_lastensq: Time from /home/data/SP1411/proc/nb300/load/wrote_ens_time: 2014/12/07 08:59:53
2014-12-07 09:01:55,821 INFO     repeater     task nb300_quick starting 2.6 seconds late
2014-12-07 09:01:59,952 INFO     repeater     task nb300_quick ended after 4.1 seconds
2014-12-07 09:01:59,953 INFO     repeater     task nb300_3dayplots starting 6.7 seconds late
2014-12-07 09:02:04,460 INFO     repeater     task nb300_3dayplots ended after 4.5 seconds
2014-12-07 09:02:04,461 INFO     repeater     task nb300_beamplots starting 11.2 seconds late
2014-12-07 09:02:06,131 INFO     repeater     task nb300_beamplots output:
Starting procsetup

2014-12-07 09:02:06,131 INFO     repeater     task nb300_beamplots ended after 1.7 seconds
2014-12-07 09:02:06,131 INFO     repeater     task nb300_beamplots starting 12.9 seconds late
2014-12-07 09:02:07,832 INFO     repeater     task nb300_beamplots output:
Starting procsetup

2014-12-07 09:02:07,832 INFO     repeater     task nb300_beamplots ended after 1.7 seconds
2014-12-07 09:02:07,833 INFO     repeater     task ashtech_hcorrstats starting 14.6 seconds late
2014-12-07 09:02:08,731 INFO     repeater     task ashtech_hcorrstats ended after 0.9 seconds
2014-12-07 09:02:13,734 INFO     repeater     task nb300_lastensq starting 10.7 seconds late
2014-12-07 09:02:15,872 INFO     repeater     task nb300_lastensq ended after 2.1 seconds
2014-12-07 09:02:15,872 INFO     repeater     task nb300_lastensq: Time from /home/data/SP1411/proc/nb300/load/wrote_ens_time: 2014/12/07 09:01:53
2014-12-07 09:04:06,001 INFO     repeater     task nb300_lastensq starting 3.0 seconds late
2014-12-07 09:04:08,087 INFO     repeater     task nb300_lastensq ended after 2.1 seconds
2014-12-07 09:04:08,088 INFO     repeater     task nb300_lastensq: Time from /home/data/SP1411/proc/nb300/load/wrote_ens_time: 2014/12/07 09:03:53
2014-12-07 09:06:03,220 INFO     repeater     task nb300_lastensq starting 0.2 seconds late
2014-12-07 09:06:05,379 INFO     repeater     task nb300_lastensq ended after 2.2 seconds
2014-12-07 09:06:05,379 INFO     repeater     task nb300_lastensq: Time from /home/data/SP1411/proc/nb300/load/wrote_ens_time: 2014/12/07 09:05:53
2014-12-07 09:06:55,438 INFO     repeater     task ashtech_hcorrstats starting 2.2 seconds late
2014-12-07 09:06:56,333 INFO     repeater     task ashtech_hcorrstats ended after 0.9 seconds
2014-12-07 09:08:06,408 INFO     repeater     task nb300_lastensq starting 3.4 seconds late
2014-12-07 09:08:08,517 INFO     repeater     task nb300_lastensq ended after 2.1 seconds
2014-12-07 09:08:08,517 INFO     repeater     task nb300_lastensq: Time from /home/data/SP1411/proc/nb300/load/wrote_ens_time: 2014/12/07 09:07:53
2014-12-07 09:10:03,645 INFO     repeater     task nb300_lastensq starting 0.6 seconds late
2014-12-07 09:10:05,773 INFO     repeater     task nb300_lastensq ended after 2.1 seconds
2014-12-07 09:10:05,774 INFO     repeater     task nb300_lastensq: Time from /home/data/SP1411/proc/nb300/load/wrote_ens_time: 2014/12/07 09:09:53
2014-12-07 09:11:55,904 INFO     repeater     task nb300_beamplots starting 2.6 seconds late
2014-12-07 09:11:57,595 INFO     repeater     task nb300_beamplots output:
Starting procsetup

2014-12-07 09:11:57,595 INFO     repeater     task nb300_beamplots ended after 1.7 seconds
2014-12-07 09:11:57,596 INFO     repeater     task nb300_beamplots starting 4.3 seconds late
2014-12-07 09:11:59,209 INFO     repeater     task nb300_beamplots output:
Starting procsetup

2014-12-07 09:11:59,209 INFO     repeater     task nb300_beamplots ended after 1.6 seconds
2014-12-07 09:11:59,210 INFO     repeater     task ashtech_hcorrstats starting 5.9 seconds late
2014-12-07 09:12:00,106 INFO     repeater     task ashtech_hcorrstats ended after 0.9 seconds
2014-12-07 09:12:05,111 INFO     repeater     task nb300_lastensq starting 2.1 seconds late
2014-12-07 09:12:07,214 INFO     repeater     task nb300_lastensq ended after 2.1 seconds
2014-12-07 09:12:07,215 INFO     repeater     task nb300_lastensq: Time from /home/data/SP1411/proc/nb300/load/wrote_ens_time: 2014/12/07 09:11:53
2014-12-07 09:14:07,346 INFO     repeater     task nb300_lastensq starting 4.3 seconds late
2014-12-07 09:14:09,518 INFO     repeater     task nb300_lastensq ended after 2.2 seconds
2014-12-07 09:14:09,519 INFO     repeater     task nb300_lastensq: Time from /home/data/SP1411/proc/nb300/load/wrote_ens_time: 2014/12/07 09:13:53
2014-12-07 09:16:04,664 INFO     repeater     task nb300_lastensq starting 1.7 seconds late
2014-12-07 09:16:06,820 INFO     repeater     task nb300_lastensq ended after 2.2 seconds
2014-12-07 09:16:06,820 INFO     repeater     task nb300_lastensq: Time from /home/data/SP1411/proc/nb300/load/wrote_ens_time: 2014/12/07 09:15:53
2014-12-07 09:16:56,879 INFO     repeater     task ashtech_hcorrstats starting 3.6 seconds late
2014-12-07 09:16:57,782 INFO     repeater     task ashtech_hcorrstats ended after 0.9 seconds
2014-12-07 09:18:07,854 INFO     repeater     task nb300_lastensq starting 4.9 seconds late
2014-12-07 09:18:10,015 INFO     repeater     task nb300_lastensq ended after 2.2 seconds
2014-12-07 09:18:10,016 INFO     repeater     task nb300_lastensq: Time from /home/data/SP1411/proc/nb300/load/wrote_ens_time: 2014/12/07 09:17:53
2014-12-07 09:20:05,144 INFO     repeater     task nb300_lastensq starting 2.1 seconds late
2014-12-07 09:20:07,321 INFO     repeater     task nb300_lastensq ended after 2.2 seconds
2014-12-07 09:20:07,321 INFO     repeater     task nb300_lastensq: Time from /home/data/SP1411/proc/nb300/load/wrote_ens_time: 2014/12/07 09:19:53
2014-12-07 09:21:57,452 INFO     repeater     task nb300_beamplots starting 4.2 seconds late
2014-12-07 09:21:59,170 INFO     repeater     task nb300_beamplots output:
Starting procsetup

2014-12-07 09:21:59,170 INFO     repeater     task nb300_beamplots ended after 1.7 seconds
2014-12-07 09:21:59,171 INFO     repeater     task nb300_beamplots starting 5.9 seconds late
2014-12-07 09:22:00,875 INFO     repeater     task nb300_beamplots output:
Starting procsetup

2014-12-07 09:22:00,875 INFO     repeater     task nb300_beamplots ended after 1.7 seconds
2014-12-07 09:22:00,875 INFO     repeater     task ashtech_hcorrstats starting 7.6 seconds late
2014-12-07 09:22:01,767 INFO     repeater     task ashtech_hcorrstats ended after 0.9 seconds
2014-12-07 09:22:06,773 INFO     repeater     task nb300_lastensq starting 3.8 seconds late
2014-12-07 09:22:08,931 INFO     repeater     task nb300_lastensq ended after 2.2 seconds
2014-12-07 09:22:08,932 INFO     repeater     task nb300_lastensq: Time from /home/data/SP1411/proc/nb300/load/wrote_ens_time: 2014/12/07 09:21:53
2014-12-07 09:24:04,058 INFO     repeater     task nb300_lastensq starting 1.1 seconds late
2014-12-07 09:24:06,220 INFO     repeater     task nb300_lastensq ended after 2.2 seconds
2014-12-07 09:24:06,220 INFO     repeater     task nb300_lastensq: Time from /home/data/SP1411/proc/nb300/load/wrote_ens_time: 2014/12/07 09:23:53
2014-12-07 09:26:06,351 INFO     repeater     task nb300_lastensq starting 3.4 seconds late
2014-12-07 09:26:08,459 INFO     repeater     task nb300_lastensq ended after 2.1 seconds
2014-12-07 09:26:08,460 INFO     repeater     task nb300_lastensq: Time from /home/data/SP1411/proc/nb300/load/wrote_ens_time: 2014/12/07 09:25:53
2014-12-07 09:26:53,518 INFO     repeater     task ashtech_hcorrstats starting 0.2 seconds late
2014-12-07 09:26:54,412 INFO     repeater     task ashtech_hcorrstats ended after 0.9 seconds
2014-12-07 09:28:04,494 INFO     repeater     task nb300_lastensq starting 1.5 seconds late
2014-12-07 09:28:06,626 INFO     repeater     task nb300_lastensq ended after 2.1 seconds
2014-12-07 09:28:06,626 INFO     repeater     task nb300_lastensq: Time from /home/data/SP1411/proc/nb300/load/wrote_ens_time: 2014/12/07 09:27:53
2014-12-07 09:30:06,768 INFO     repeater     task nb300_lastensq starting 3.8 seconds late
2014-12-07 09:30:08,951 INFO     repeater     task nb300_lastensq ended after 2.2 seconds
2014-12-07 09:30:08,951 INFO     repeater     task nb300_lastensq: Time from /home/data/SP1411/proc/nb300/load/wrote_ens_time: 2014/12/07 09:29:53
2014-12-07 09:31:54,074 INFO     repeater     task nb300_quick starting 0.8 seconds late
2014-12-07 09:31:58,272 INFO     repeater     task nb300_quick ended after 4.2 seconds
2014-12-07 09:31:58,272 INFO     repeater     task nb300_3dayplots starting 5.0 seconds late
2014-12-07 09:32:02,791 INFO     repeater     task nb300_3dayplots ended after 4.5 seconds
2014-12-07 09:32:02,791 INFO     repeater     task nb300_beamplots starting 9.5 seconds late
2014-12-07 09:32:04,462 INFO     repeater     task nb300_beamplots output:
Starting procsetup

2014-12-07 09:32:04,462 INFO     repeater     task nb300_beamplots ended after 1.7 seconds
2014-12-07 09:32:04,463 INFO     repeater     task nb300_beamplots starting 11.2 seconds late
2014-12-07 09:32:06,085 INFO     repeater     task nb300_beamplots output:
Starting procsetup

2014-12-07 09:32:06,085 INFO     repeater     task nb300_beamplots ended after 1.6 seconds
2014-12-07 09:32:06,086 INFO     repeater     task ashtech_hcorrstats starting 12.8 seconds late
2014-12-07 09:32:06,980 INFO     repeater     task ashtech_hcorrstats ended after 0.9 seconds
2014-12-07 09:32:11,986 INFO     repeater     task nb300_lastensq starting 9.0 seconds late
2014-12-07 09:32:14,180 INFO     repeater     task nb300_lastensq ended after 2.2 seconds
2014-12-07 09:32:14,181 INFO     repeater     task nb300_lastensq: Time from /home/data/SP1411/proc/nb300/load/wrote_ens_time: 2014/12/07 09:31:53
2014-12-07 09:34:04,307 INFO     repeater     task nb300_lastensq starting 1.3 seconds late
2014-12-07 09:34:06,423 INFO     repeater     task nb300_lastensq ended after 2.1 seconds
2014-12-07 09:34:06,424 INFO     repeater     task nb300_lastensq: Time from /home/data/SP1411/proc/nb300/load/wrote_ens_time: 2014/12/07 09:33:53
2014-12-07 09:36:06,558 INFO     repeater     task nb300_lastensq starting 3.6 seconds late
2014-12-07 09:36:08,747 INFO     repeater     task nb300_lastensq ended after 2.2 seconds
2014-12-07 09:36:08,748 INFO     repeater     task nb300_lastensq: Time from /home/data/SP1411/proc/nb300/load/wrote_ens_time: 2014/12/07 09:35:53
2014-12-07 09:36:53,793 INFO     repeater     task ashtech_hcorrstats starting 0.5 seconds late
2014-12-07 09:36:54,693 INFO     repeater     task ashtech_hcorrstats ended after 0.9 seconds
2014-12-07 09:38:04,770 INFO     repeater     task nb300_lastensq starting 1.8 seconds late
2014-12-07 09:38:06,891 INFO     repeater     task nb300_lastensq ended after 2.1 seconds
2014-12-07 09:38:06,892 INFO     repeater     task nb300_lastensq: Time from /home/data/SP1411/proc/nb300/load/wrote_ens_time: 2014/12/07 09:37:53
2014-12-07 09:40:07,018 INFO     repeater     task nb300_lastensq starting 4.0 seconds late
2014-12-07 09:40:09,181 INFO     repeater     task nb300_lastensq ended after 2.2 seconds
2014-12-07 09:40:09,182 INFO     repeater     task nb300_lastensq: Time from /home/data/SP1411/proc/nb300/load/wrote_ens_time: 2014/12/07 09:39:53
2014-12-07 09:41:54,292 INFO     repeater     task nb300_beamplots starting 1.0 seconds late
2014-12-07 09:41:56,016 INFO     repeater     task nb300_beamplots output:
Starting procsetup

2014-12-07 09:41:56,016 INFO     repeater     task nb300_beamplots ended after 1.7 seconds
2014-12-07 09:41:56,016 INFO     repeater     task nb300_beamplots starting 2.7 seconds late
2014-12-07 09:41:57,753 INFO     repeater     task nb300_beamplots output:
Starting procsetup

2014-12-07 09:41:57,753 INFO     repeater     task nb300_beamplots ended after 1.7 seconds
2014-12-07 09:41:57,753 INFO     repeater     task ashtech_hcorrstats starting 4.5 seconds late
2014-12-07 09:41:58,659 INFO     repeater     task ashtech_hcorrstats ended after 0.9 seconds
2014-12-07 09:42:03,661 INFO     repeater     task nb300_lastensq starting 0.7 seconds late
2014-12-07 09:42:05,791 INFO     repeater     task nb300_lastensq ended after 2.1 seconds
2014-12-07 09:42:05,791 INFO     repeater     task nb300_lastensq: Time from /home/data/SP1411/proc/nb300/load/wrote_ens_time: 2014/12/07 09:41:53
2014-12-07 09:44:05,924 INFO     repeater     task nb300_lastensq starting 2.9 seconds late
2014-12-07 09:44:08,111 INFO     repeater     task nb300_lastensq ended after 2.2 seconds
2014-12-07 09:44:08,111 INFO     repeater     task nb300_lastensq: Time from /home/data/SP1411/proc/nb300/load/wrote_ens_time: 2014/12/07 09:43:53
2014-12-07 09:46:03,244 INFO     repeater     task nb300_lastensq starting 0.2 seconds late
2014-12-07 09:46:05,430 INFO     repeater     task nb300_lastensq ended after 2.2 seconds
2014-12-07 09:46:05,430 INFO     repeater     task nb300_lastensq: Time from /home/data/SP1411/proc/nb300/load/wrote_ens_time: 2014/12/07 09:45:53
2014-12-07 09:46:55,486 INFO     repeater     task ashtech_hcorrstats starting 2.2 seconds late
2014-12-07 09:46:56,398 INFO     repeater     task ashtech_hcorrstats ended after 0.9 seconds
2014-12-07 09:48:06,474 INFO     repeater     task nb300_lastensq starting 3.5 seconds late
2014-12-07 09:48:08,644 INFO     repeater     task nb300_lastensq ended after 2.2 seconds
2014-12-07 09:48:08,644 INFO     repeater     task nb300_lastensq: Time from /home/data/SP1411/proc/nb300/load/wrote_ens_time: 2014/12/07 09:47:53
2014-12-07 09:50:03,784 INFO     repeater     task nb300_lastensq starting 0.8 seconds late
2014-12-07 09:50:05,963 INFO     repeater     task nb300_lastensq ended after 2.2 seconds
2014-12-07 09:50:05,964 INFO     repeater     task nb300_lastensq: Time from /home/data/SP1411/proc/nb300/load/wrote_ens_time: 2014/12/07 09:49:53
2014-12-07 09:51:56,094 INFO     repeater     task nb300_beamplots starting 2.8 seconds late
2014-12-07 09:51:57,803 INFO     repeater     task nb300_beamplots output:
Starting procsetup

2014-12-07 09:51:57,803 INFO     repeater     task nb300_beamplots ended after 1.7 seconds
2014-12-07 09:51:57,804 INFO     repeater     task nb300_beamplots starting 4.5 seconds late
2014-12-07 09:51:59,448 INFO     repeater     task nb300_beamplots output:
Starting procsetup

2014-12-07 09:51:59,448 INFO     repeater     task nb300_beamplots ended after 1.6 seconds
2014-12-07 09:51:59,449 INFO     repeater     task ashtech_hcorrstats starting 6.2 seconds late
2014-12-07 09:52:00,337 INFO     repeater     task ashtech_hcorrstats ended after 0.9 seconds
2014-12-07 09:52:05,341 INFO     repeater     task nb300_lastensq starting 2.3 seconds late
2014-12-07 09:52:07,488 INFO     repeater     task nb300_lastensq ended after 2.1 seconds
2014-12-07 09:52:07,489 INFO     repeater     task nb300_lastensq: Time from /home/data/SP1411/proc/nb300/load/wrote_ens_time: 2014/12/07 09:51:53
2014-12-07 09:54:07,638 INFO     repeater     task nb300_lastensq starting 4.6 seconds late
2014-12-07 09:54:09,833 INFO     repeater     task nb300_lastensq ended after 2.2 seconds
2014-12-07 09:54:09,833 INFO     repeater     task nb300_lastensq: Time from /home/data/SP1411/proc/nb300/load/wrote_ens_time: 2014/12/07 09:53:53
2014-12-07 09:56:04,977 INFO     repeater     task nb300_lastensq starting 2.0 seconds late
2014-12-07 09:56:07,143 INFO     repeater     task nb300_lastensq ended after 2.2 seconds
2014-12-07 09:56:07,144 INFO     repeater     task nb300_lastensq: Time from /home/data/SP1411/proc/nb300/load/wrote_ens_time: 2014/12/07 09:55:53
2014-12-07 09:56:57,199 INFO     repeater     task ashtech_hcorrstats starting 3.9 seconds late
2014-12-07 09:56:58,096 INFO     repeater     task ashtech_hcorrstats ended after 0.9 seconds
2014-12-07 09:58:03,168 INFO     repeater     task nb300_lastensq starting 0.2 seconds late
2014-12-07 09:58:05,369 INFO     repeater     task nb300_lastensq ended after 2.2 seconds
2014-12-07 09:58:05,370 INFO     repeater     task nb300_lastensq: Time from /home/data/SP1411/proc/nb300/load/wrote_ens_time: 2014/12/07 09:57:53
2014-12-07 10:00:05,494 INFO     repeater     task nb300_lastensq starting 2.5 seconds late
2014-12-07 10:00:07,697 INFO     repeater     task nb300_lastensq ended after 2.2 seconds
2014-12-07 10:00:07,697 INFO     repeater     task nb300_lastensq: Time from /home/data/SP1411/proc/nb300/load/wrote_ens_time: 2014/12/07 09:59:53
2014-12-07 10:01:57,828 INFO     repeater     task nb300_quick starting 4.6 seconds late
2014-12-07 10:02:01,934 INFO     repeater     task nb300_quick ended after 4.1 seconds
2014-12-07 10:02:01,935 INFO     repeater     task nb300_3dayplots starting 8.7 seconds late
2014-12-07 10:02:06,377 INFO     repeater     task nb300_3dayplots ended after 4.4 seconds
2014-12-07 10:02:06,377 INFO     repeater     task nb300_beamplots starting 13.1 seconds late
2014-12-07 10:02:08,045 INFO     repeater     task nb300_beamplots output:
Starting procsetup

2014-12-07 10:02:08,045 INFO     repeater     task nb300_beamplots ended after 1.7 seconds
2014-12-07 10:02:08,045 INFO     repeater     task nb300_beamplots starting 14.8 seconds late
2014-12-07 10:02:09,750 INFO     repeater     task nb300_beamplots output:
Starting procsetup

2014-12-07 10:02:09,750 INFO     repeater     task nb300_beamplots ended after 1.7 seconds
2014-12-07 10:02:09,751 INFO     repeater     task ashtech_hcorrstats starting 16.5 seconds late
2014-12-07 10:02:10,650 INFO     repeater     task ashtech_hcorrstats ended after 0.9 seconds
2014-12-07 10:02:15,656 INFO     repeater     task nb300_lastensq starting 12.7 seconds late
2014-12-07 10:02:17,773 INFO     repeater     task nb300_lastensq ended after 2.1 seconds
2014-12-07 10:02:17,773 INFO     repeater     task nb300_lastensq: Time from /home/data/SP1411/proc/nb300/load/wrote_ens_time: 2014/12/07 10:01:53
2014-12-07 10:04:07,889 INFO     repeater     task nb300_lastensq starting 4.9 seconds late
2014-12-07 10:04:09,955 INFO     repeater     task nb300_lastensq ended after 2.1 seconds
2014-12-07 10:04:09,955 INFO     repeater     task nb300_lastensq: Time from /home/data/SP1411/proc/nb300/load/wrote_ens_time: 2014/12/07 10:03:53
2014-12-07 10:06:05,103 INFO     repeater     task nb300_lastensq starting 2.1 seconds late
2014-12-07 10:06:07,230 INFO     repeater     task nb300_lastensq ended after 2.1 seconds
2014-12-07 10:06:07,231 INFO     repeater     task nb300_lastensq: Time from /home/data/SP1411/proc/nb300/load/wrote_ens_time: 2014/12/07 10:05:53
2014-12-07 10:06:57,285 INFO     repeater     task ashtech_hcorrstats starting 4.0 seconds late
2014-12-07 10:06:58,180 INFO     repeater     task ashtech_hcorrstats ended after 0.9 seconds
2014-12-07 10:08:03,251 INFO     repeater     task nb300_lastensq starting 0.3 seconds late
2014-12-07 10:08:05,302 INFO     repeater     task nb300_lastensq ended after 2.1 seconds
2014-12-07 10:08:05,302 INFO     repeater     task nb300_lastensq: Time from /home/data/SP1411/proc/nb300/load/wrote_ens_time: 2014/12/07 10:07:53
2014-12-07 10:10:05,447 INFO     repeater     task nb300_lastensq starting 2.4 seconds late
2014-12-07 10:10:07,537 INFO     repeater     task nb300_lastensq ended after 2.1 seconds
2014-12-07 10:10:07,538 INFO     repeater     task nb300_lastensq: Time from /home/data/SP1411/proc/nb300/load/wrote_ens_time: 2014/12/07 10:09:53
2014-12-07 10:11:57,647 INFO     repeater     task nb300_beamplots starting 4.4 seconds late
2014-12-07 10:11:59,259 INFO     repeater     task nb300_beamplots output:
Starting procsetup

2014-12-07 10:11:59,259 INFO     repeater     task nb300_beamplots ended after 1.6 seconds
2014-12-07 10:11:59,259 INFO     repeater     task nb300_beamplots starting 6.0 seconds late
2014-12-07 10:12:00,985 INFO     repeater     task nb300_beamplots output:
Starting procsetup

2014-12-07 10:12:00,985 INFO     repeater     task nb300_beamplots ended after 1.7 seconds
2014-12-07 10:12:00,986 INFO     repeater     task ashtech_hcorrstats starting 7.7 seconds late
2014-12-07 10:12:01,879 INFO     repeater     task ashtech_hcorrstats ended after 0.9 seconds
2014-12-07 10:12:06,881 INFO     repeater     task nb300_lastensq starting 3.9 seconds late
2014-12-07 10:12:08,941 INFO     repeater     task nb300_lastensq ended after 2.1 seconds
2014-12-07 10:12:08,941 INFO     repeater     task nb300_lastensq: Time from /home/data/SP1411/proc/nb300/load/wrote_ens_time: 2014/12/07 10:11:53
2014-12-07 10:14:04,074 INFO     repeater     task nb300_lastensq starting 1.1 seconds late
2014-12-07 10:14:06,191 INFO     repeater     task nb300_lastensq ended after 2.1 seconds
2014-12-07 10:14:06,191 INFO     repeater     task nb300_lastensq: Time from /home/data/SP1411/proc/nb300/load/wrote_ens_time: 2014/12/07 10:13:53
2014-12-07 10:16:06,320 INFO     repeater     task nb300_lastensq starting 3.3 seconds late
2014-12-07 10:16:08,381 INFO     repeater     task nb300_lastensq ended after 2.1 seconds
2014-12-07 10:16:08,382 INFO     repeater     task nb300_lastensq: Time from /home/data/SP1411/proc/nb300/load/wrote_ens_time: 2014/12/07 10:15:53
2014-12-07 10:16:53,433 INFO     repeater     task ashtech_hcorrstats starting 0.2 seconds late
2014-12-07 10:16:54,351 INFO     repeater     task ashtech_hcorrstats ended after 0.9 seconds
2014-12-07 10:18:04,433 INFO     repeater     task nb300_lastensq starting 1.4 seconds late
2014-12-07 10:18:06,555 INFO     repeater     task nb300_lastensq ended after 2.1 seconds
2014-12-07 10:18:06,555 INFO     repeater     task nb300_lastensq: Time from /home/data/SP1411/proc/nb300/load/wrote_ens_time: 2014/12/07 10:17:53
2014-12-07 10:20:06,701 INFO     repeater     task nb300_lastensq starting 3.7 seconds late
2014-12-07 10:20:08,822 INFO     repeater     task nb300_lastensq ended after 2.1 seconds
2014-12-07 10:20:08,822 INFO     repeater     task nb300_lastensq: Time from /home/data/SP1411/proc/nb300/load/wrote_ens_time: 2014/12/07 10:19:53
2014-12-07 10:21:53,938 INFO     repeater     task nb300_beamplots starting 0.7 seconds late
2014-12-07 10:21:55,618 INFO     repeater     task nb300_beamplots output:
Starting procsetup

2014-12-07 10:21:55,619 INFO     repeater     task nb300_beamplots ended after 1.7 seconds
2014-12-07 10:21:55,619 INFO     repeater     task nb300_beamplots starting 2.3 seconds late
2014-12-07 10:21:57,233 INFO     repeater     task nb300_beamplots output:
Starting procsetup

2014-12-07 10:21:57,233 INFO     repeater     task nb300_beamplots ended after 1.6 seconds
2014-12-07 10:21:57,234 INFO     repeater     task ashtech_hcorrstats starting 4.0 seconds late
2014-12-07 10:21:58,140 INFO     repeater     task ashtech_hcorrstats ended after 0.9 seconds
2014-12-07 10:22:03,146 INFO     repeater     task nb300_lastensq starting 0.1 seconds late
2014-12-07 10:22:05,259 INFO     repeater     task nb300_lastensq ended after 2.1 seconds
2014-12-07 10:22:05,259 INFO     repeater     task nb300_lastensq: Time from /home/data/SP1411/proc/nb300/load/wrote_ens_time: 2014/12/07 10:21:53
2014-12-07 10:24:05,404 INFO     repeater     task nb300_lastensq starting 2.4 seconds late
2014-12-07 10:24:07,526 INFO     repeater     task nb300_lastensq ended after 2.1 seconds
2014-12-07 10:24:07,526 INFO     repeater     task nb300_lastensq: Time from /home/data/SP1411/proc/nb300/load/wrote_ens_time: 2014/12/07 10:23:53
2014-12-07 10:26:07,671 INFO     repeater     task nb300_lastensq starting 4.7 seconds late
2014-12-07 10:26:09,806 INFO     repeater     task nb300_lastensq ended after 2.1 seconds
2014-12-07 10:26:09,806 INFO     repeater     task nb300_lastensq: Time from /home/data/SP1411/proc/nb300/load/wrote_ens_time: 2014/12/07 10:25:53
2014-12-07 10:26:54,861 INFO     repeater     task ashtech_hcorrstats starting 1.6 seconds late
2014-12-07 10:26:55,765 INFO     repeater     task ashtech_hcorrstats ended after 0.9 seconds
2014-12-07 10:28:05,841 INFO     repeater     task nb300_lastensq starting 2.8 seconds late
2014-12-07 10:28:07,930 INFO     repeater     task nb300_lastensq ended after 2.1 seconds
2014-12-07 10:28:07,930 INFO     repeater     task nb300_lastensq: Time from /home/data/SP1411/proc/nb300/load/wrote_ens_time: 2014/12/07 10:27:53
2014-12-07 10:30:03,057 INFO     repeater     task nb300_lastensq starting 0.1 seconds late
2014-12-07 10:30:05,149 INFO     repeater     task nb300_lastensq ended after 2.1 seconds
2014-12-07 10:30:05,150 INFO     repeater     task nb300_lastensq: Time from /home/data/SP1411/proc/nb300/load/wrote_ens_time: 2014/12/07 10:29:53
2014-12-07 10:31:55,265 INFO     repeater     task nb300_quick starting 2.0 seconds late
2014-12-07 10:31:59,389 INFO     repeater     task nb300_quick ended after 4.1 seconds
2014-12-07 10:31:59,389 INFO     repeater     task nb300_3dayplots starting 6.1 seconds late
2014-12-07 10:32:03,927 INFO     repeater     task nb300_3dayplots ended after 4.5 seconds
2014-12-07 10:32:03,928 INFO     repeater     task nb300_beamplots starting 10.7 seconds late
2014-12-07 10:32:05,612 INFO     repeater     task nb300_beamplots output:
Starting procsetup

2014-12-07 10:32:05,613 INFO     repeater     task nb300_beamplots ended after 1.7 seconds
2014-12-07 10:32:05,613 INFO     repeater     task nb300_beamplots starting 12.3 seconds late
2014-12-07 10:32:07,247 INFO     repeater     task nb300_beamplots output:
Starting procsetup

2014-12-07 10:32:07,247 INFO     repeater     task nb300_beamplots ended after 1.6 seconds
2014-12-07 10:32:07,247 INFO     repeater     task ashtech_hcorrstats starting 14.0 seconds late
2014-12-07 10:32:08,145 INFO     repeater     task ashtech_hcorrstats ended after 0.9 seconds
2014-12-07 10:32:13,151 INFO     repeater     task nb300_lastensq starting 10.2 seconds late
2014-12-07 10:32:15,238 INFO     repeater     task nb300_lastensq ended after 2.1 seconds
2014-12-07 10:32:15,239 INFO     repeater     task nb300_lastensq: Time from /home/data/SP1411/proc/nb300/load/wrote_ens_time: 2014/12/07 10:31:53
2014-12-07 10:34:05,361 INFO     repeater     task nb300_lastensq starting 2.4 seconds late
2014-12-07 10:34:07,438 INFO     repeater     task nb300_lastensq ended after 2.1 seconds
2014-12-07 10:34:07,438 INFO     repeater     task nb300_lastensq: Time from /home/data/SP1411/proc/nb300/load/wrote_ens_time: 2014/12/07 10:33:53
2014-12-07 10:36:07,581 INFO     repeater     task nb300_lastensq starting 4.6 seconds late
2014-12-07 10:36:09,714 INFO     repeater     task nb300_lastensq ended after 2.1 seconds
2014-12-07 10:36:09,714 INFO     repeater     task nb300_lastensq: Time from /home/data/SP1411/proc/nb300/load/wrote_ens_time: 2014/12/07 10:35:53
2014-12-07 10:36:54,762 INFO     repeater     task ashtech_hcorrstats starting 1.5 seconds late
2014-12-07 10:36:55,689 INFO     repeater     task ashtech_hcorrstats ended after 0.9 seconds
2014-12-07 10:38:05,760 INFO     repeater     task nb300_lastensq starting 2.8 seconds late
2014-12-07 10:38:07,827 INFO     repeater     task nb300_lastensq ended after 2.1 seconds
2014-12-07 10:38:07,827 INFO     repeater     task nb300_lastensq: Time from /home/data/SP1411/proc/nb300/load/wrote_ens_time: 2014/12/07 10:37:53
2014-12-07 10:40:07,967 INFO     repeater     task nb300_lastensq starting 5.0 seconds late
2014-12-07 10:40:10,062 INFO     repeater     task nb300_lastensq ended after 2.1 seconds
2014-12-07 10:40:10,063 INFO     repeater     task nb300_lastensq: Time from /home/data/SP1411/proc/nb300/load/wrote_ens_time: 2014/12/07 10:39:53
2014-12-07 10:41:55,189 INFO     repeater     task nb300_beamplots starting 1.9 seconds late
2014-12-07 10:41:56,880 INFO     repeater     task nb300_beamplots output:
Starting procsetup

2014-12-07 10:41:56,881 INFO     repeater     task nb300_beamplots ended after 1.7 seconds
2014-12-07 10:41:56,881 INFO     repeater     task nb300_beamplots starting 3.6 seconds late
2014-12-07 10:41:58,594 INFO     repeater     task nb300_beamplots output:
Starting procsetup

2014-12-07 10:41:58,594 INFO     repeater     task nb300_beamplots ended after 1.7 seconds
2014-12-07 10:41:58,594 INFO     repeater     task ashtech_hcorrstats starting 5.3 seconds late
2014-12-07 10:41:59,485 INFO     repeater     task ashtech_hcorrstats ended after 0.9 seconds
2014-12-07 10:42:04,491 INFO     repeater     task nb300_lastensq starting 1.5 seconds late
2014-12-07 10:42:06,590 INFO     repeater     task nb300_lastensq ended after 2.1 seconds
2014-12-07 10:42:06,590 INFO     repeater     task nb300_lastensq: Time from /home/data/SP1411/proc/nb300/load/wrote_ens_time: 2014/12/07 10:41:53
2014-12-07 10:44:06,738 INFO     repeater     task nb300_lastensq starting 3.7 seconds late
2014-12-07 10:44:08,832 INFO     repeater     task nb300_lastensq ended after 2.1 seconds
2014-12-07 10:44:08,833 INFO     repeater     task nb300_lastensq: Time from /home/data/SP1411/proc/nb300/load/wrote_ens_time: 2014/12/07 10:43:53
2014-12-07 10:46:03,968 INFO     repeater     task nb300_lastensq starting 1.0 seconds late
2014-12-07 10:46:06,070 INFO     repeater     task nb300_lastensq ended after 2.1 seconds
2014-12-07 10:46:06,070 INFO     repeater     task nb300_lastensq: Time from /home/data/SP1411/proc/nb300/load/wrote_ens_time: 2014/12/07 10:45:53
2014-12-07 10:46:56,129 INFO     repeater     task ashtech_hcorrstats starting 2.9 seconds late
2014-12-07 10:46:57,029 INFO     repeater     task ashtech_hcorrstats ended after 0.9 seconds
2014-12-07 10:48:07,114 INFO     repeater     task nb300_lastensq starting 4.1 seconds late
2014-12-07 10:48:09,253 INFO     repeater     task nb300_lastensq ended after 2.1 seconds
2014-12-07 10:48:09,253 INFO     repeater     task nb300_lastensq: Time from /home/data/SP1411/proc/nb300/load/wrote_ens_time: 2014/12/07 10:47:53
2014-12-07 10:50:04,381 INFO     repeater     task nb300_lastensq starting 1.4 seconds late
2014-12-07 10:50:06,497 INFO     repeater     task nb300_lastensq ended after 2.1 seconds
2014-12-07 10:50:06,497 INFO     repeater     task nb300_lastensq: Time from /home/data/SP1411/proc/nb300/load/wrote_ens_time: 2014/12/07 10:49:53
2014-12-07 10:51:56,621 INFO     repeater     task nb300_beamplots starting 3.3 seconds late
2014-12-07 10:51:58,316 INFO     repeater     task nb300_beamplots output:
Starting procsetup

2014-12-07 10:51:58,316 INFO     repeater     task nb300_beamplots ended after 1.7 seconds
2014-12-07 10:51:58,317 INFO     repeater     task nb300_beamplots starting 5.0 seconds late
2014-12-07 10:52:00,061 INFO     repeater     task nb300_beamplots output:
Starting procsetup

2014-12-07 10:52:00,061 INFO     repeater     task nb300_beamplots ended after 1.7 seconds
2014-12-07 10:52:00,062 INFO     repeater     task ashtech_hcorrstats starting 6.8 seconds late
2014-12-07 10:52:00,962 INFO     repeater     task ashtech_hcorrstats ended after 0.9 seconds
2014-12-07 10:52:05,968 INFO     repeater     task nb300_lastensq starting 3.0 seconds late
2014-12-07 10:52:08,118 INFO     repeater     task nb300_lastensq ended after 2.1 seconds
2014-12-07 10:52:08,118 INFO     repeater     task nb300_lastensq: Time from /home/data/SP1411/proc/nb300/load/wrote_ens_time: 2014/12/07 10:51:53
2014-12-07 10:54:03,237 INFO     repeater     task nb300_lastensq starting 0.2 seconds late
2014-12-07 10:54:05,376 INFO     repeater     task nb300_lastensq ended after 2.1 seconds
2014-12-07 10:54:05,376 INFO     repeater     task nb300_lastensq: Time from /home/data/SP1411/proc/nb300/load/wrote_ens_time: 2014/12/07 10:53:53
2014-12-07 10:56:05,518 INFO     repeater     task nb300_lastensq starting 2.5 seconds late
2014-12-07 10:56:07,645 INFO     repeater     task nb300_lastensq ended after 2.1 seconds
2014-12-07 10:56:07,645 INFO     repeater     task nb300_lastensq: Time from /home/data/SP1411/proc/nb300/load/wrote_ens_time: 2014/12/07 10:55:53
2014-12-07 10:56:57,708 INFO     repeater     task ashtech_hcorrstats starting 4.4 seconds late
2014-12-07 10:56:58,619 INFO     repeater     task ashtech_hcorrstats ended after 0.9 seconds
2014-12-07 10:58:03,691 INFO     repeater     task nb300_lastensq starting 0.7 seconds late
2014-12-07 10:58:05,781 INFO     repeater     task nb300_lastensq ended after 2.1 seconds
2014-12-07 10:58:05,781 INFO     repeater     task nb300_lastensq: Time from /home/data/SP1411/proc/nb300/load/wrote_ens_time: 2014/12/07 10:57:53
2014-12-07 11:00:05,922 INFO     repeater     task nb300_lastensq starting 2.9 seconds late
2014-12-07 11:00:08,090 INFO     repeater     task nb300_lastensq ended after 2.2 seconds
2014-12-07 11:00:08,090 INFO     repeater     task nb300_lastensq: Time from /home/data/SP1411/proc/nb300/load/wrote_ens_time: 2014/12/07 10:59:53
2014-12-07 11:01:58,215 INFO     repeater     task nb300_quick starting 5.0 seconds late
2014-12-07 11:02:02,274 INFO     repeater     task nb300_quick ended after 4.1 seconds
2014-12-07 11:02:02,275 INFO     repeater     task nb300_3dayplots starting 9.0 seconds late
2014-12-07 11:02:06,794 INFO     repeater     task nb300_3dayplots ended after 4.5 seconds
2014-12-07 11:02:06,794 INFO     repeater     task nb300_beamplots starting 13.5 seconds late
2014-12-07 11:02:08,491 INFO     repeater     task nb300_beamplots output:
Starting procsetup

2014-12-07 11:02:08,491 INFO     repeater     task nb300_beamplots ended after 1.7 seconds
2014-12-07 11:02:08,492 INFO     repeater     task nb300_beamplots starting 15.2 seconds late
2014-12-07 11:02:10,122 INFO     repeater     task nb300_beamplots output:
Starting procsetup

2014-12-07 11:02:10,122 INFO     repeater     task nb300_beamplots ended after 1.6 seconds
2014-12-07 11:02:10,123 INFO     repeater     task ashtech_hcorrstats starting 16.8 seconds late
2014-12-07 11:02:11,022 INFO     repeater     task ashtech_hcorrstats ended after 0.9 seconds
2014-12-07 11:02:16,027 INFO     repeater     task nb300_lastensq starting 13.0 seconds late
2014-12-07 11:02:18,136 INFO     repeater     task nb300_lastensq ended after 2.1 seconds
2014-12-07 11:02:18,136 INFO     repeater     task nb300_lastensq: Time from /home/data/SP1411/proc/nb300/load/wrote_ens_time: 2014/12/07 11:01:53
2014-12-07 11:04:03,257 INFO     repeater     task nb300_lastensq starting 0.3 seconds late
2014-12-07 11:04:05,401 INFO     repeater     task nb300_lastensq ended after 2.1 seconds
2014-12-07 11:04:05,401 INFO     repeater     task nb300_lastensq: Time from /home/data/SP1411/proc/nb300/load/wrote_ens_time: 2014/12/07 11:03:53
2014-12-07 11:06:05,534 INFO     repeater     task nb300_lastensq starting 2.5 seconds late
2014-12-07 11:06:07,625 INFO     repeater     task nb300_lastensq ended after 2.1 seconds
2014-12-07 11:06:07,625 INFO     repeater     task nb300_lastensq: Time from /home/data/SP1411/proc/nb300/load/wrote_ens_time: 2014/12/07 11:05:53
2014-12-07 11:06:57,682 INFO     repeater     task ashtech_hcorrstats starting 4.4 seconds late
2014-12-07 11:06:58,599 INFO     repeater     task ashtech_hcorrstats ended after 0.9 seconds
2014-12-07 11:08:03,678 INFO     repeater     task nb300_lastensq starting 0.7 seconds late
2014-12-07 11:08:05,833 INFO     repeater     task nb300_lastensq ended after 2.2 seconds
2014-12-07 11:08:05,834 INFO     repeater     task nb300_lastensq: Time from /home/data/SP1411/proc/nb300/load/wrote_ens_time: 2014/12/07 11:07:53
2014-12-07 11:10:05,964 INFO     repeater     task nb300_lastensq starting 3.0 seconds late
2014-12-07 11:10:08,054 INFO     repeater     task nb300_lastensq ended after 2.1 seconds
2014-12-07 11:10:08,054 INFO     repeater     task nb300_lastensq: Time from /home/data/SP1411/proc/nb300/load/wrote_ens_time: 2014/12/07 11:09:53
2014-12-07 11:11:58,182 INFO     repeater     task nb300_beamplots starting 4.9 seconds late
2014-12-07 11:11:59,865 INFO     repeater     task nb300_beamplots output:
Starting procsetup

2014-12-07 11:11:59,865 INFO     repeater     task nb300_beamplots ended after 1.7 seconds
2014-12-07 11:11:59,866 INFO     repeater     task nb300_beamplots starting 6.6 seconds late
2014-12-07 11:12:01,562 INFO     repeater     task nb300_beamplots output:
Starting procsetup

2014-12-07 11:12:01,562 INFO     repeater     task nb300_beamplots ended after 1.7 seconds
2014-12-07 11:12:01,562 INFO     repeater     task ashtech_hcorrstats starting 8.3 seconds late
2014-12-07 11:12:02,450 INFO     repeater     task ashtech_hcorrstats ended after 0.9 seconds
2014-12-07 11:12:07,455 INFO     repeater     task nb300_lastensq starting 4.5 seconds late
2014-12-07 11:12:09,565 INFO     repeater     task nb300_lastensq ended after 2.1 seconds
2014-12-07 11:12:09,565 INFO     repeater     task nb300_lastensq: Time from /home/data/SP1411/proc/nb300/load/wrote_ens_time: 2014/12/07 11:11:53
2014-12-07 11:14:04,710 INFO     repeater     task nb300_lastensq starting 1.7 seconds late
2014-12-07 11:14:06,890 INFO     repeater     task nb300_lastensq ended after 2.2 seconds
2014-12-07 11:14:06,890 INFO     repeater     task nb300_lastensq: Time from /home/data/SP1411/proc/nb300/load/wrote_ens_time: 2014/12/07 11:13:53
2014-12-07 11:16:07,020 INFO     repeater     task nb300_lastensq starting 4.0 seconds late
2014-12-07 11:16:09,134 INFO     repeater     task nb300_lastensq ended after 2.1 seconds
2014-12-07 11:16:09,134 INFO     repeater     task nb300_lastensq: Time from /home/data/SP1411/proc/nb300/load/wrote_ens_time: 2014/12/07 11:15:53
2014-12-07 11:16:54,192 INFO     repeater     task ashtech_hcorrstats starting 0.9 seconds late
2014-12-07 11:16:55,087 INFO     repeater     task ashtech_hcorrstats ended after 0.9 seconds
2014-12-07 11:18:05,171 INFO     repeater     task nb300_lastensq starting 2.2 seconds late
2014-12-07 11:18:07,338 INFO     repeater     task nb300_lastensq ended after 2.2 seconds
2014-12-07 11:18:07,338 INFO     repeater     task nb300_lastensq: Time from /home/data/SP1411/proc/nb300/load/wrote_ens_time: 2014/12/07 11:17:53
2014-12-07 11:20:07,481 INFO     repeater     task nb300_lastensq starting 4.5 seconds late
2014-12-07 11:20:09,585 INFO     repeater     task nb300_lastensq ended after 2.1 seconds
2014-12-07 11:20:09,586 INFO     repeater     task nb300_lastensq: Time from /home/data/SP1411/proc/nb300/load/wrote_ens_time: 2014/12/07 11:19:53
2014-12-07 11:21:54,704 INFO     repeater     task nb300_beamplots starting 1.4 seconds late
2014-12-07 11:21:56,386 INFO     repeater     task nb300_beamplots output:
Starting procsetup

2014-12-07 11:21:56,386 INFO     repeater     task nb300_beamplots ended after 1.7 seconds
2014-12-07 11:21:56,387 INFO     repeater     task nb300_beamplots starting 3.1 seconds late
2014-12-07 11:21:58,107 INFO     repeater     task nb300_beamplots output:
Starting procsetup

2014-12-07 11:21:58,107 INFO     repeater     task nb300_beamplots ended after 1.7 seconds
2014-12-07 11:21:58,108 INFO     repeater     task ashtech_hcorrstats starting 4.8 seconds late
2014-12-07 11:21:59,001 INFO     repeater     task ashtech_hcorrstats ended after 0.9 seconds
2014-12-07 11:22:04,004 INFO     repeater     task nb300_lastensq starting 1.0 seconds late
2014-12-07 11:22:06,161 INFO     repeater     task nb300_lastensq ended after 2.2 seconds
2014-12-07 11:22:06,161 INFO     repeater     task nb300_lastensq: Time from /home/data/SP1411/proc/nb300/load/wrote_ens_time: 2014/12/07 11:21:53
2014-12-07 11:24:06,304 INFO     repeater     task nb300_lastensq starting 3.3 seconds late
2014-12-07 11:24:08,486 INFO     repeater     task nb300_lastensq ended after 2.2 seconds
2014-12-07 11:24:08,486 INFO     repeater     task nb300_lastensq: Time from /home/data/SP1411/proc/nb300/load/wrote_ens_time: 2014/12/07 11:23:53
2014-12-07 11:26:03,624 INFO     repeater     task nb300_lastensq starting 0.6 seconds late
2014-12-07 11:26:05,791 INFO     repeater     task nb300_lastensq ended after 2.2 seconds
2014-12-07 11:26:05,792 INFO     repeater     task nb300_lastensq: Time from /home/data/SP1411/proc/nb300/load/wrote_ens_time: 2014/12/07 11:25:53
2014-12-07 11:26:55,852 INFO     repeater     task ashtech_hcorrstats starting 2.6 seconds late
2014-12-07 11:26:56,764 INFO     repeater     task ashtech_hcorrstats ended after 0.9 seconds
2014-12-07 11:28:06,847 INFO     repeater     task nb300_lastensq starting 3.8 seconds late
2014-12-07 11:28:09,010 INFO     repeater     task nb300_lastensq ended after 2.2 seconds
2014-12-07 11:28:09,010 INFO     repeater     task nb300_lastensq: Time from /home/data/SP1411/proc/nb300/load/wrote_ens_time: 2014/12/07 11:27:53
2014-12-07 11:30:04,148 INFO     repeater     task nb300_lastensq starting 1.1 seconds late
2014-12-07 11:30:06,341 INFO     repeater     task nb300_lastensq ended after 2.2 seconds
2014-12-07 11:30:06,342 INFO     repeater     task nb300_lastensq: Time from /home/data/SP1411/proc/nb300/load/wrote_ens_time: 2014/12/07 11:29:53
2014-12-07 11:31:56,460 INFO     repeater     task nb300_quick starting 3.2 seconds late
2014-12-07 11:32:00,628 INFO     repeater     task nb300_quick ended after 4.2 seconds
2014-12-07 11:32:00,628 INFO     repeater     task nb300_3dayplots starting 7.4 seconds late
2014-12-07 11:32:05,201 INFO     repeater     task nb300_3dayplots ended after 4.6 seconds
2014-12-07 11:32:05,202 INFO     repeater     task nb300_beamplots starting 11.9 seconds late
2014-12-07 11:32:06,902 INFO     repeater     task nb300_beamplots output:
Starting procsetup

2014-12-07 11:32:06,902 INFO     repeater     task nb300_beamplots ended after 1.7 seconds
2014-12-07 11:32:06,902 INFO     repeater     task nb300_beamplots starting 13.6 seconds late
2014-12-07 11:32:08,538 INFO     repeater     task nb300_beamplots output:
Starting procsetup

2014-12-07 11:32:08,539 INFO     repeater     task nb300_beamplots ended after 1.6 seconds
2014-12-07 11:32:08,539 INFO     repeater     task ashtech_hcorrstats starting 15.3 seconds late
2014-12-07 11:32:09,426 INFO     repeater     task ashtech_hcorrstats ended after 0.9 seconds
2014-12-07 11:32:14,432 INFO     repeater     task nb300_lastensq starting 11.4 seconds late
2014-12-07 11:32:16,605 INFO     repeater     task nb300_lastensq ended after 2.2 seconds
2014-12-07 11:32:16,606 INFO     repeater     task nb300_lastensq: Time from /home/data/SP1411/proc/nb300/load/wrote_ens_time: 2014/12/07 11:31:53
2014-12-07 11:34:06,723 INFO     repeater     task nb300_lastensq starting 3.7 seconds late
2014-12-07 11:34:08,849 INFO     repeater     task nb300_lastensq ended after 2.1 seconds
2014-12-07 11:34:08,849 INFO     repeater     task nb300_lastensq: Time from /home/data/SP1411/proc/nb300/load/wrote_ens_time: 2014/12/07 11:33:53
2014-12-07 11:36:03,990 INFO     repeater     task nb300_lastensq starting 1.0 seconds late
2014-12-07 11:36:06,155 INFO     repeater     task nb300_lastensq ended after 2.2 seconds
2014-12-07 11:36:06,156 INFO     repeater     task nb300_lastensq: Time from /home/data/SP1411/proc/nb300/load/wrote_ens_time: 2014/12/07 11:35:53
2014-12-07 11:36:56,215 INFO     repeater     task ashtech_hcorrstats starting 2.9 seconds late
2014-12-07 11:36:57,149 INFO     repeater     task ashtech_hcorrstats ended after 0.9 seconds
2014-12-07 11:38:07,230 INFO     repeater     task nb300_lastensq starting 4.2 seconds late
2014-12-07 11:38:09,428 INFO     repeater     task nb300_lastensq ended after 2.2 seconds
2014-12-07 11:38:09,428 INFO     repeater     task nb300_lastensq: Time from /home/data/SP1411/proc/nb300/load/wrote_ens_time: 2014/12/07 11:37:53
2014-12-07 11:40:04,553 INFO     repeater     task nb300_lastensq starting 1.6 seconds late
2014-12-07 11:40:06,667 INFO     repeater     task nb300_lastensq ended after 2.1 seconds
2014-12-07 11:40:06,668 INFO     repeater     task nb300_lastensq: Time from /home/data/SP1411/proc/nb300/load/wrote_ens_time: 2014/12/07 11:39:53
2014-12-07 11:41:56,789 INFO     repeater     task nb300_beamplots starting 3.5 seconds late
2014-12-07 11:41:58,483 INFO     repeater     task nb300_beamplots output:
Starting procsetup

2014-12-07 11:41:58,483 INFO     repeater     task nb300_beamplots ended after 1.7 seconds
2014-12-07 11:41:58,484 INFO     repeater     task nb300_beamplots starting 5.2 seconds late
2014-12-07 11:42:00,193 INFO     repeater     task nb300_beamplots output:
Starting procsetup

2014-12-07 11:42:00,193 INFO     repeater     task nb300_beamplots ended after 1.7 seconds
2014-12-07 11:42:00,194 INFO     repeater     task ashtech_hcorrstats starting 6.9 seconds late
2014-12-07 11:42:01,118 INFO     repeater     task ashtech_hcorrstats ended after 0.9 seconds
2014-12-07 11:42:06,123 INFO     repeater     task nb300_lastensq starting 3.1 seconds late
2014-12-07 11:42:08,316 INFO     repeater     task nb300_lastensq ended after 2.2 seconds
2014-12-07 11:42:08,317 INFO     repeater     task nb300_lastensq: Time from /home/data/SP1411/proc/nb300/load/wrote_ens_time: 2014/12/07 11:41:53
2014-12-07 11:44:03,438 INFO     repeater     task nb300_lastensq starting 0.4 seconds late
2014-12-07 11:44:05,578 INFO     repeater     task nb300_lastensq ended after 2.1 seconds
2014-12-07 11:44:05,579 INFO     repeater     task nb300_lastensq: Time from /home/data/SP1411/proc/nb300/load/wrote_ens_time: 2014/12/07 11:43:53
2014-12-07 11:46:05,721 INFO     repeater     task nb300_lastensq starting 2.7 seconds late
2014-12-07 11:46:07,846 INFO     repeater     task nb300_lastensq ended after 2.1 seconds
2014-12-07 11:46:07,846 INFO     repeater     task nb300_lastensq: Time from /home/data/SP1411/proc/nb300/load/wrote_ens_time: 2014/12/07 11:45:53
2014-12-07 11:46:57,911 INFO     repeater     task ashtech_hcorrstats starting 4.6 seconds late
2014-12-07 11:46:58,844 INFO     repeater     task ashtech_hcorrstats ended after 0.9 seconds
2014-12-07 11:48:03,921 INFO     repeater     task nb300_lastensq starting 0.9 seconds late
2014-12-07 11:48:06,100 INFO     repeater     task nb300_lastensq ended after 2.2 seconds
2014-12-07 11:48:06,100 INFO     repeater     task nb300_lastensq: Time from /home/data/SP1411/proc/nb300/load/wrote_ens_time: 2014/12/07 11:47:53
2014-12-07 11:50:06,248 INFO     repeater     task nb300_lastensq starting 3.2 seconds late
2014-12-07 11:50:08,387 INFO     repeater     task nb300_lastensq ended after 2.1 seconds
2014-12-07 11:50:08,388 INFO     repeater     task nb300_lastensq: Time from /home/data/SP1411/proc/nb300/load/wrote_ens_time: 2014/12/07 11:49:53
2014-12-07 11:51:53,492 INFO     repeater     task nb300_beamplots starting 0.2 seconds late
2014-12-07 11:51:55,156 INFO     repeater     task nb300_beamplots output:
Starting procsetup

2014-12-07 11:51:55,156 INFO     repeater     task nb300_beamplots ended after 1.7 seconds
2014-12-07 11:51:55,156 INFO     repeater     task nb300_beamplots starting 1.9 seconds late
2014-12-07 11:51:56,869 INFO     repeater     task nb300_beamplots output:
Starting procsetup

2014-12-07 11:51:56,869 INFO     repeater     task nb300_beamplots ended after 1.7 seconds
2014-12-07 11:51:56,870 INFO     repeater     task ashtech_hcorrstats starting 3.6 seconds late
2014-12-07 11:51:57,786 INFO     repeater     task ashtech_hcorrstats ended after 0.9 seconds
2014-12-07 11:52:07,799 INFO     repeater     task nb300_lastensq starting 4.8 seconds late
2014-12-07 11:52:09,982 INFO     repeater     task nb300_lastensq ended after 2.2 seconds
2014-12-07 11:52:09,982 INFO     repeater     task nb300_lastensq: Time from /home/data/SP1411/proc/nb300/load/wrote_ens_time: 2014/12/07 11:51:53
2014-12-07 11:54:05,115 INFO     repeater     task nb300_lastensq starting 2.1 seconds late
2014-12-07 11:54:07,372 INFO     repeater     task nb300_lastensq ended after 2.3 seconds
2014-12-07 11:54:07,373 INFO     repeater     task nb300_lastensq: Time from /home/data/SP1411/proc/nb300/load/wrote_ens_time: 2014/12/07 11:53:53
2014-12-07 11:56:07,511 INFO     repeater     task nb300_lastensq starting 4.5 seconds late
2014-12-07 11:56:09,660 INFO     repeater     task nb300_lastensq ended after 2.1 seconds
2014-12-07 11:56:09,661 INFO     repeater     task nb300_lastensq: Time from /home/data/SP1411/proc/nb300/load/wrote_ens_time: 2014/12/07 11:55:53
2014-12-07 11:56:54,715 INFO     repeater     task ashtech_hcorrstats starting 1.4 seconds late
2014-12-07 11:56:55,638 INFO     repeater     task ashtech_hcorrstats ended after 0.9 seconds
2014-12-07 11:58:05,714 INFO     repeater     task nb300_lastensq starting 2.7 seconds late
2014-12-07 11:58:07,928 INFO     repeater     task nb300_lastensq ended after 2.2 seconds
2014-12-07 11:58:07,928 INFO     repeater     task nb300_lastensq: Time from /home/data/SP1411/proc/nb300/load/wrote_ens_time: 2014/12/07 11:57:53
2014-12-07 12:00:03,061 INFO     repeater     task nb300_lastensq starting 0.1 seconds late
2014-12-07 12:00:05,298 INFO     repeater     task nb300_lastensq ended after 2.2 seconds
2014-12-07 12:00:05,299 INFO     repeater     task nb300_lastensq: Time from /home/data/SP1411/proc/nb300/load/wrote_ens_time: 2014/12/07 11:59:53
2014-12-07 12:01:55,428 INFO     repeater     task nb300_quick starting 2.2 seconds late
2014-12-07 12:01:59,537 INFO     repeater     task nb300_quick ended after 4.1 seconds
2014-12-07 12:01:59,537 INFO     repeater     task nb300_3dayplots starting 6.3 seconds late
2014-12-07 12:02:04,003 INFO     repeater     task nb300_3dayplots ended after 4.5 seconds
2014-12-07 12:02:04,004 INFO     repeater     task nb300_beamplots starting 10.7 seconds late
2014-12-07 12:02:05,668 INFO     repeater     task nb300_beamplots output:
Starting procsetup

2014-12-07 12:02:05,668 INFO     repeater     task nb300_beamplots ended after 1.7 seconds
2014-12-07 12:02:05,669 INFO     repeater     task nb300_beamplots starting 12.4 seconds late
2014-12-07 12:02:07,305 INFO     repeater     task nb300_beamplots output:
Starting procsetup

2014-12-07 12:02:07,305 INFO     repeater     task nb300_beamplots ended after 1.6 seconds
2014-12-07 12:02:07,305 INFO     repeater     task ashtech_hcorrstats starting 14.0 seconds late
2014-12-07 12:02:08,231 INFO     repeater     task ashtech_hcorrstats ended after 0.9 seconds
2014-12-07 12:02:13,237 INFO     repeater     task nb300_lastensq starting 10.2 seconds late
2014-12-07 12:02:15,362 INFO     repeater     task nb300_lastensq ended after 2.1 seconds
2014-12-07 12:02:15,363 INFO     repeater     task nb300_lastensq: Time from /home/data/SP1411/proc/nb300/load/wrote_ens_time: 2014/12/07 12:01:53
2014-12-07 12:04:05,481 INFO     repeater     task nb300_lastensq starting 2.5 seconds late
2014-12-07 12:04:07,546 INFO     repeater     task nb300_lastensq ended after 2.1 seconds
2014-12-07 12:04:07,547 INFO     repeater     task nb300_lastensq: Time from /home/data/SP1411/proc/nb300/load/wrote_ens_time: 2014/12/07 12:03:53
2014-12-07 12:06:07,691 INFO     repeater     task nb300_lastensq starting 4.7 seconds late
2014-12-07 12:06:09,769 INFO     repeater     task nb300_lastensq ended after 2.1 seconds
