2014-12-07 18:16:05,793 INFO     repeater     task nb300_lastensq: Time from /home/data/SP1411/proc/nb300/load/wrote_ens_time: 2014/12/07 18:15:53
2014-12-07 18:16:55,872 INFO     repeater     task ashtech_hcorrstats starting 2.6 seconds late
2014-12-07 18:16:56,774 INFO     repeater     task ashtech_hcorrstats ended after 0.9 seconds
2014-12-07 18:18:06,847 INFO     repeater     task nb300_lastensq starting 3.8 seconds late
2014-12-07 18:18:08,990 INFO     repeater     task nb300_lastensq ended after 2.1 seconds
2014-12-07 18:18:08,990 INFO     repeater     task nb300_lastensq: Time from /home/data/SP1411/proc/nb300/load/wrote_ens_time: 2014/12/07 18:17:53
2014-12-07 18:20:04,122 INFO     repeater     task nb300_lastensq starting 1.1 seconds late
2014-12-07 18:20:06,242 INFO     repeater     task nb300_lastensq ended after 2.1 seconds
2014-12-07 18:20:06,242 INFO     repeater     task nb300_lastensq: Time from /home/data/SP1411/proc/nb300/load/wrote_ens_time: 2014/12/07 18:19:53
2014-12-07 18:21:56,378 INFO     repeater     task nb300_beamplots starting 3.1 seconds late
2014-12-07 18:21:58,068 INFO     repeater     task nb300_beamplots output:
Starting procsetup

2014-12-07 18:21:58,069 INFO     repeater     task nb300_beamplots ended after 1.7 seconds
2014-12-07 18:21:58,069 INFO     repeater     task nb300_beamplots starting 4.8 seconds late
2014-12-07 18:21:59,785 INFO     repeater     task nb300_beamplots output:
Starting procsetup

2014-12-07 18:21:59,785 INFO     repeater     task nb300_beamplots ended after 1.7 seconds
2014-12-07 18:21:59,785 INFO     repeater     task ashtech_hcorrstats starting 6.5 seconds late
2014-12-07 18:22:00,683 INFO     repeater     task ashtech_hcorrstats ended after 0.9 seconds
2014-12-07 18:22:05,684 INFO     repeater     task nb300_lastensq starting 2.7 seconds late
2014-12-07 18:22:07,822 INFO     repeater     task nb300_lastensq ended after 2.1 seconds
2014-12-07 18:22:07,822 INFO     repeater     task nb300_lastensq: Time from /home/data/SP1411/proc/nb300/load/wrote_ens_time: 2014/12/07 18:21:53
2014-12-07 18:24:07,961 INFO     repeater     task nb300_lastensq starting 5.0 seconds late
2014-12-07 18:24:10,036 INFO     repeater     task nb300_lastensq ended after 2.1 seconds
2014-12-07 18:24:10,036 INFO     repeater     task nb300_lastensq: Time from /home/data/SP1411/proc/nb300/load/wrote_ens_time: 2014/12/07 18:23:53
2014-12-07 18:26:05,171 INFO     repeater     task nb300_lastensq starting 2.2 seconds late
2014-12-07 18:26:07,289 INFO     repeater     task nb300_lastensq ended after 2.1 seconds
2014-12-07 18:26:07,289 INFO     repeater     task nb300_lastensq: Time from /home/data/SP1411/proc/nb300/load/wrote_ens_time: 2014/12/07 18:25:53
2014-12-07 18:26:57,342 INFO     repeater     task ashtech_hcorrstats starting 4.1 seconds late
2014-12-07 18:26:58,256 INFO     repeater     task ashtech_hcorrstats ended after 0.9 seconds
2014-12-07 18:28:03,331 INFO     repeater     task nb300_lastensq starting 0.3 seconds late
2014-12-07 18:28:05,405 INFO     repeater     task nb300_lastensq ended after 2.1 seconds
2014-12-07 18:28:05,406 INFO     repeater     task nb300_lastensq: Time from /home/data/SP1411/proc/nb300/load/wrote_ens_time: 2014/12/07 18:27:53
2014-12-07 18:30:05,544 INFO     repeater     task nb300_lastensq starting 2.5 seconds late
2014-12-07 18:30:07,627 INFO     repeater     task nb300_lastensq ended after 2.1 seconds
2014-12-07 18:30:07,627 INFO     repeater     task nb300_lastensq: Time from /home/data/SP1411/proc/nb300/load/wrote_ens_time: 2014/12/07 18:29:53
2014-12-07 18:31:57,761 INFO     repeater     task nb300_quick starting 4.5 seconds late
2014-12-07 18:32:02,050 INFO     repeater     task nb300_quick ended after 4.3 seconds
2014-12-07 18:32:02,051 INFO     repeater     task nb300_3dayplots starting 8.8 seconds late
2014-12-07 18:32:06,574 INFO     repeater     task nb300_3dayplots ended after 4.5 seconds
2014-12-07 18:32:06,574 INFO     repeater     task nb300_beamplots starting 13.3 seconds late
2014-12-07 18:32:08,244 INFO     repeater     task nb300_beamplots output:
Starting procsetup

2014-12-07 18:32:08,245 INFO     repeater     task nb300_beamplots ended after 1.7 seconds
2014-12-07 18:32:08,245 INFO     repeater     task nb300_beamplots starting 15.0 seconds late
2014-12-07 18:32:09,937 INFO     repeater     task nb300_beamplots output:
Starting procsetup

2014-12-07 18:32:09,938 INFO     repeater     task nb300_beamplots ended after 1.7 seconds
2014-12-07 18:32:09,938 INFO     repeater     task ashtech_hcorrstats starting 16.7 seconds late
2014-12-07 18:32:10,832 INFO     repeater     task ashtech_hcorrstats ended after 0.9 seconds
2014-12-07 18:32:15,837 INFO     repeater     task nb300_lastensq starting 12.8 seconds late
2014-12-07 18:32:17,992 INFO     repeater     task nb300_lastensq ended after 2.2 seconds
2014-12-07 18:32:17,992 INFO     repeater     task nb300_lastensq: Time from /home/data/SP1411/proc/nb300/load/wrote_ens_time: 2014/12/07 18:31:53
2014-12-07 18:34:03,108 INFO     repeater     task nb300_lastensq starting 0.1 seconds late
2014-12-07 18:34:05,273 INFO     repeater     task nb300_lastensq ended after 2.2 seconds
2014-12-07 18:34:05,273 INFO     repeater     task nb300_lastensq: Time from /home/data/SP1411/proc/nb300/load/wrote_ens_time: 2014/12/07 18:33:53
2014-12-07 18:36:05,418 INFO     repeater     task nb300_lastensq starting 2.4 seconds late
2014-12-07 18:36:07,507 INFO     repeater     task nb300_lastensq ended after 2.1 seconds
2014-12-07 18:36:07,507 INFO     repeater     task nb300_lastensq: Time from /home/data/SP1411/proc/nb300/load/wrote_ens_time: 2014/12/07 18:35:53
2014-12-07 18:36:57,569 INFO     repeater     task ashtech_hcorrstats starting 4.3 seconds late
2014-12-07 18:36:58,480 INFO     repeater     task ashtech_hcorrstats ended after 0.9 seconds
2014-12-07 18:38:03,550 INFO     repeater     task nb300_lastensq starting 0.6 seconds late
2014-12-07 18:38:05,634 INFO     repeater     task nb300_lastensq ended after 2.1 seconds
2014-12-07 18:38:05,634 INFO     repeater     task nb300_lastensq: Time from /home/data/SP1411/proc/nb300/load/wrote_ens_time: 2014/12/07 18:37:53
2014-12-07 18:40:05,771 INFO     repeater     task nb300_lastensq starting 2.8 seconds late
2014-12-07 18:40:07,860 INFO     repeater     task nb300_lastensq ended after 2.1 seconds
2014-12-07 18:40:07,860 INFO     repeater     task nb300_lastensq: Time from /home/data/SP1411/proc/nb300/load/wrote_ens_time: 2014/12/07 18:39:53
2014-12-07 18:41:57,978 INFO     repeater     task nb300_beamplots starting 4.7 seconds late
2014-12-07 18:41:59,558 INFO     repeater     task nb300_beamplots output:
Starting procsetup

2014-12-07 18:41:59,559 INFO     repeater     task nb300_beamplots ended after 1.6 seconds
2014-12-07 18:41:59,559 INFO     repeater     task nb300_beamplots starting 6.3 seconds late
2014-12-07 18:42:01,266 INFO     repeater     task nb300_beamplots output:
Starting procsetup

2014-12-07 18:42:01,266 INFO     repeater     task nb300_beamplots ended after 1.7 seconds
2014-12-07 18:42:01,267 INFO     repeater     task ashtech_hcorrstats starting 8.0 seconds late
2014-12-07 18:42:02,156 INFO     repeater     task ashtech_hcorrstats ended after 0.9 seconds
2014-12-07 18:42:07,162 INFO     repeater     task nb300_lastensq starting 4.2 seconds late
2014-12-07 18:42:09,289 INFO     repeater     task nb300_lastensq ended after 2.1 seconds
2014-12-07 18:42:09,289 INFO     repeater     task nb300_lastensq: Time from /home/data/SP1411/proc/nb300/load/wrote_ens_time: 2014/12/07 18:41:53
2014-12-07 18:44:04,414 INFO     repeater     task nb300_lastensq starting 1.4 seconds late
2014-12-07 18:44:06,560 INFO     repeater     task nb300_lastensq ended after 2.1 seconds
2014-12-07 18:44:06,560 INFO     repeater     task nb300_lastensq: Time from /home/data/SP1411/proc/nb300/load/wrote_ens_time: 2014/12/07 18:43:53
2014-12-07 18:46:06,702 INFO     repeater     task nb300_lastensq starting 3.7 seconds late
2014-12-07 18:46:08,787 INFO     repeater     task nb300_lastensq ended after 2.1 seconds
2014-12-07 18:46:08,788 INFO     repeater     task nb300_lastensq: Time from /home/data/SP1411/proc/nb300/load/wrote_ens_time: 2014/12/07 18:45:53
2014-12-07 18:46:53,843 INFO     repeater     task ashtech_hcorrstats starting 0.6 seconds late
2014-12-07 18:46:54,755 INFO     repeater     task ashtech_hcorrstats ended after 0.9 seconds
2014-12-07 18:48:04,835 INFO     repeater     task nb300_lastensq starting 1.8 seconds late
2014-12-07 18:48:06,969 INFO     repeater     task nb300_lastensq ended after 2.1 seconds
2014-12-07 18:48:06,969 INFO     repeater     task nb300_lastensq: Time from /home/data/SP1411/proc/nb300/load/wrote_ens_time: 2014/12/07 18:47:53
2014-12-07 18:50:07,094 INFO     repeater     task nb300_lastensq starting 4.1 seconds late
2014-12-07 18:50:09,239 INFO     repeater     task nb300_lastensq ended after 2.1 seconds
2014-12-07 18:50:09,240 INFO     repeater     task nb300_lastensq: Time from /home/data/SP1411/proc/nb300/load/wrote_ens_time: 2014/12/07 18:49:53
2014-12-07 18:51:54,362 INFO     repeater     task nb300_beamplots starting 1.1 seconds late
2014-12-07 18:51:56,025 INFO     repeater     task nb300_beamplots output:
Starting procsetup

2014-12-07 18:51:56,025 INFO     repeater     task nb300_beamplots ended after 1.7 seconds
2014-12-07 18:51:56,025 INFO     repeater     task nb300_beamplots starting 2.8 seconds late
2014-12-07 18:51:57,630 INFO     repeater     task nb300_beamplots output:
Starting procsetup

2014-12-07 18:51:57,630 INFO     repeater     task nb300_beamplots ended after 1.6 seconds
2014-12-07 18:51:57,630 INFO     repeater     task ashtech_hcorrstats starting 4.4 seconds late
2014-12-07 18:51:58,527 INFO     repeater     task ashtech_hcorrstats ended after 0.9 seconds
2014-12-07 18:52:03,533 INFO     repeater     task nb300_lastensq starting 0.5 seconds late
2014-12-07 18:52:05,663 INFO     repeater     task nb300_lastensq ended after 2.1 seconds
2014-12-07 18:52:05,664 INFO     repeater     task nb300_lastensq: Time from /home/data/SP1411/proc/nb300/load/wrote_ens_time: 2014/12/07 18:51:53
2014-12-07 18:54:05,814 INFO     repeater     task nb300_lastensq starting 2.8 seconds late
2014-12-07 18:54:07,950 INFO     repeater     task nb300_lastensq ended after 2.1 seconds
2014-12-07 18:54:07,951 INFO     repeater     task nb300_lastensq: Time from /home/data/SP1411/proc/nb300/load/wrote_ens_time: 2014/12/07 18:53:53
2014-12-07 18:56:03,081 INFO     repeater     task nb300_lastensq starting 0.1 seconds late
2014-12-07 18:56:05,179 INFO     repeater     task nb300_lastensq ended after 2.1 seconds
2014-12-07 18:56:05,179 INFO     repeater     task nb300_lastensq: Time from /home/data/SP1411/proc/nb300/load/wrote_ens_time: 2014/12/07 18:55:53
2014-12-07 18:56:55,235 INFO     repeater     task ashtech_hcorrstats starting 2.0 seconds late
2014-12-07 18:56:56,152 INFO     repeater     task ashtech_hcorrstats ended after 0.9 seconds
2014-12-07 18:58:06,231 INFO     repeater     task nb300_lastensq starting 3.2 seconds late
2014-12-07 18:58:08,316 INFO     repeater     task nb300_lastensq ended after 2.1 seconds
2014-12-07 18:58:08,317 INFO     repeater     task nb300_lastensq: Time from /home/data/SP1411/proc/nb300/load/wrote_ens_time: 2014/12/07 18:57:53
2014-12-07 19:00:03,447 INFO     repeater     task nb300_lastensq starting 0.4 seconds late
2014-12-07 19:00:05,601 INFO     repeater     task nb300_lastensq ended after 2.2 seconds
2014-12-07 19:00:05,601 INFO     repeater     task nb300_lastensq: Time from /home/data/SP1411/proc/nb300/load/wrote_ens_time: 2014/12/07 18:59:53
2014-12-07 19:01:55,721 INFO     repeater     task nb300_quick starting 2.5 seconds late
2014-12-07 19:02:00,138 INFO     repeater     task nb300_quick ended after 4.4 seconds
2014-12-07 19:02:00,139 INFO     repeater     task nb300_3dayplots starting 6.9 seconds late
2014-12-07 19:02:04,720 INFO     repeater     task nb300_3dayplots ended after 4.6 seconds
2014-12-07 19:02:04,721 INFO     repeater     task nb300_beamplots starting 11.4 seconds late
2014-12-07 19:02:06,319 INFO     repeater     task nb300_beamplots output:
Starting procsetup

2014-12-07 19:02:06,319 INFO     repeater     task nb300_beamplots ended after 1.6 seconds
2014-12-07 19:02:06,320 INFO     repeater     task nb300_beamplots starting 13.0 seconds late
2014-12-07 19:02:08,032 INFO     repeater     task nb300_beamplots output:
Starting procsetup

2014-12-07 19:02:08,033 INFO     repeater     task nb300_beamplots ended after 1.7 seconds
2014-12-07 19:02:08,033 INFO     repeater     task ashtech_hcorrstats starting 14.8 seconds late
2014-12-07 19:02:08,935 INFO     repeater     task ashtech_hcorrstats ended after 0.9 seconds
2014-12-07 19:02:13,941 INFO     repeater     task nb300_lastensq starting 10.9 seconds late
2014-12-07 19:02:16,039 INFO     repeater     task nb300_lastensq ended after 2.1 seconds
2014-12-07 19:02:16,039 INFO     repeater     task nb300_lastensq: Time from /home/data/SP1411/proc/nb300/load/wrote_ens_time: 2014/12/07 19:01:53
2014-12-07 19:04:06,158 INFO     repeater     task nb300_lastensq starting 3.2 seconds late
2014-12-07 19:04:08,326 INFO     repeater     task nb300_lastensq ended after 2.2 seconds
2014-12-07 19:04:08,326 INFO     repeater     task nb300_lastensq: Time from /home/data/SP1411/proc/nb300/load/wrote_ens_time: 2014/12/07 19:03:53
2014-12-07 19:06:03,448 INFO     repeater     task nb300_lastensq starting 0.4 seconds late
2014-12-07 19:06:05,563 INFO     repeater     task nb300_lastensq ended after 2.1 seconds
2014-12-07 19:06:05,564 INFO     repeater     task nb300_lastensq: Time from /home/data/SP1411/proc/nb300/load/wrote_ens_time: 2014/12/07 19:05:53
2014-12-07 19:06:55,629 INFO     repeater     task ashtech_hcorrstats starting 2.4 seconds late
2014-12-07 19:06:56,522 INFO     repeater     task ashtech_hcorrstats ended after 0.9 seconds
2014-12-07 19:08:06,605 INFO     repeater     task nb300_lastensq starting 3.6 seconds late
2014-12-07 19:08:08,733 INFO     repeater     task nb300_lastensq ended after 2.1 seconds
2014-12-07 19:08:08,734 INFO     repeater     task nb300_lastensq: Time from /home/data/SP1411/proc/nb300/load/wrote_ens_time: 2014/12/07 19:07:53
2014-12-07 19:10:03,871 INFO     repeater     task nb300_lastensq starting 0.9 seconds late
2014-12-07 19:10:06,019 INFO     repeater     task nb300_lastensq ended after 2.1 seconds
2014-12-07 19:10:06,019 INFO     repeater     task nb300_lastensq: Time from /home/data/SP1411/proc/nb300/load/wrote_ens_time: 2014/12/07 19:09:53
2014-12-07 19:11:56,151 INFO     repeater     task nb300_beamplots starting 2.9 seconds late
2014-12-07 19:11:57,841 INFO     repeater     task nb300_beamplots output:
Starting procsetup

2014-12-07 19:11:57,841 INFO     repeater     task nb300_beamplots ended after 1.7 seconds
2014-12-07 19:11:57,842 INFO     repeater     task nb300_beamplots starting 4.6 seconds late
2014-12-07 19:11:59,574 INFO     repeater     task nb300_beamplots output:
Starting procsetup

2014-12-07 19:11:59,574 INFO     repeater     task nb300_beamplots ended after 1.7 seconds
2014-12-07 19:11:59,574 INFO     repeater     task ashtech_hcorrstats starting 6.3 seconds late
2014-12-07 19:12:00,482 INFO     repeater     task ashtech_hcorrstats ended after 0.9 seconds
2014-12-07 19:12:05,483 INFO     repeater     task nb300_lastensq starting 2.5 seconds late
2014-12-07 19:12:07,575 INFO     repeater     task nb300_lastensq ended after 2.1 seconds
2014-12-07 19:12:07,575 INFO     repeater     task nb300_lastensq: Time from /home/data/SP1411/proc/nb300/load/wrote_ens_time: 2014/12/07 19:11:53
2014-12-07 19:14:07,727 INFO     repeater     task nb300_lastensq starting 4.7 seconds late
2014-12-07 19:14:09,886 INFO     repeater     task nb300_lastensq ended after 2.2 seconds
2014-12-07 19:14:09,886 INFO     repeater     task nb300_lastensq: Time from /home/data/SP1411/proc/nb300/load/wrote_ens_time: 2014/12/07 19:13:53
2014-12-07 19:16:05,030 INFO     repeater     task nb300_lastensq starting 2.0 seconds late
2014-12-07 19:16:07,190 INFO     repeater     task nb300_lastensq ended after 2.2 seconds
2014-12-07 19:16:07,191 INFO     repeater     task nb300_lastensq: Time from /home/data/SP1411/proc/nb300/load/wrote_ens_time: 2014/12/07 19:15:53
2014-12-07 19:16:57,245 INFO     repeater     task ashtech_hcorrstats starting 4.0 seconds late
2014-12-07 19:16:58,141 INFO     repeater     task ashtech_hcorrstats ended after 0.9 seconds
2014-12-07 19:18:03,220 INFO     repeater     task nb300_lastensq starting 0.2 seconds late
2014-12-07 19:18:05,384 INFO     repeater     task nb300_lastensq ended after 2.2 seconds
2014-12-07 19:18:05,384 INFO     repeater     task nb300_lastensq: Time from /home/data/SP1411/proc/nb300/load/wrote_ens_time: 2014/12/07 19:17:53
2014-12-07 19:20:05,524 INFO     repeater     task nb300_lastensq starting 2.5 seconds late
2014-12-07 19:20:07,692 INFO     repeater     task nb300_lastensq ended after 2.2 seconds
2014-12-07 19:20:07,692 INFO     repeater     task nb300_lastensq: Time from /home/data/SP1411/proc/nb300/load/wrote_ens_time: 2014/12/07 19:19:53
2014-12-07 19:21:57,818 INFO     repeater     task nb300_beamplots starting 4.5 seconds late
2014-12-07 19:21:59,418 INFO     repeater     task nb300_beamplots output:
Starting procsetup

2014-12-07 19:21:59,418 INFO     repeater     task nb300_beamplots ended after 1.6 seconds
2014-12-07 19:21:59,418 INFO     repeater     task nb300_beamplots starting 6.1 seconds late
2014-12-07 19:22:01,110 INFO     repeater     task nb300_beamplots output:
Starting procsetup

2014-12-07 19:22:01,110 INFO     repeater     task nb300_beamplots ended after 1.7 seconds
2014-12-07 19:22:01,110 INFO     repeater     task ashtech_hcorrstats starting 7.8 seconds late
2014-12-07 19:22:02,011 INFO     repeater     task ashtech_hcorrstats ended after 0.9 seconds
2014-12-07 19:22:07,014 INFO     repeater     task nb300_lastensq starting 4.0 seconds late
2014-12-07 19:22:09,187 INFO     repeater     task nb300_lastensq ended after 2.2 seconds
2014-12-07 19:22:09,188 INFO     repeater     task nb300_lastensq: Time from /home/data/SP1411/proc/nb300/load/wrote_ens_time: 2014/12/07 19:21:53
2014-12-07 19:24:04,308 INFO     repeater     task nb300_lastensq starting 1.3 seconds late
2014-12-07 19:24:06,423 INFO     repeater     task nb300_lastensq ended after 2.1 seconds
2014-12-07 19:24:06,424 INFO     repeater     task nb300_lastensq: Time from /home/data/SP1411/proc/nb300/load/wrote_ens_time: 2014/12/07 19:23:53
2014-12-07 19:26:06,557 INFO     repeater     task nb300_lastensq starting 3.6 seconds late
2014-12-07 19:26:08,742 INFO     repeater     task nb300_lastensq ended after 2.2 seconds
2014-12-07 19:26:08,742 INFO     repeater     task nb300_lastensq: Time from /home/data/SP1411/proc/nb300/load/wrote_ens_time: 2014/12/07 19:25:53
2014-12-07 19:26:53,792 INFO     repeater     task ashtech_hcorrstats starting 0.5 seconds late
2014-12-07 19:26:54,720 INFO     repeater     task ashtech_hcorrstats ended after 0.9 seconds
2014-12-07 19:28:04,804 INFO     repeater     task nb300_lastensq starting 1.8 seconds late
2014-12-07 19:28:06,986 INFO     repeater     task nb300_lastensq ended after 2.2 seconds
2014-12-07 19:28:06,986 INFO     repeater     task nb300_lastensq: Time from /home/data/SP1411/proc/nb300/load/wrote_ens_time: 2014/12/07 19:27:53
2014-12-07 19:30:07,128 INFO     repeater     task nb300_lastensq starting 4.1 seconds late
2014-12-07 19:30:09,316 INFO     repeater     task nb300_lastensq ended after 2.2 seconds
2014-12-07 19:30:09,316 INFO     repeater     task nb300_lastensq: Time from /home/data/SP1411/proc/nb300/load/wrote_ens_time: 2014/12/07 19:29:53
2014-12-07 19:31:54,432 INFO     repeater     task nb300_quick starting 1.2 seconds late
2014-12-07 19:31:58,803 INFO     repeater     task nb300_quick ended after 4.4 seconds
2014-12-07 19:31:58,804 INFO     repeater     task nb300_3dayplots starting 5.6 seconds late
2014-12-07 19:32:03,395 INFO     repeater     task nb300_3dayplots ended after 4.6 seconds
2014-12-07 19:32:03,396 INFO     repeater     task nb300_beamplots starting 10.1 seconds late
2014-12-07 19:32:05,065 INFO     repeater     task nb300_beamplots output:
Starting procsetup

2014-12-07 19:32:05,065 INFO     repeater     task nb300_beamplots ended after 1.7 seconds
2014-12-07 19:32:05,065 INFO     repeater     task nb300_beamplots starting 11.8 seconds late
2014-12-07 19:32:06,772 INFO     repeater     task nb300_beamplots output:
Starting procsetup

2014-12-07 19:32:06,772 INFO     repeater     task nb300_beamplots ended after 1.7 seconds
2014-12-07 19:32:06,773 INFO     repeater     task ashtech_hcorrstats starting 13.5 seconds late
2014-12-07 19:32:07,694 INFO     repeater     task ashtech_hcorrstats ended after 0.9 seconds
2014-12-07 19:32:12,700 INFO     repeater     task nb300_lastensq starting 9.7 seconds late
2014-12-07 19:32:14,894 INFO     repeater     task nb300_lastensq ended after 2.2 seconds
2014-12-07 19:32:14,894 INFO     repeater     task nb300_lastensq: Time from /home/data/SP1411/proc/nb300/load/wrote_ens_time: 2014/12/07 19:31:53
2014-12-07 19:34:05,021 INFO     repeater     task nb300_lastensq starting 2.0 seconds late
2014-12-07 19:34:07,133 INFO     repeater     task nb300_lastensq ended after 2.1 seconds
2014-12-07 19:34:07,133 INFO     repeater     task nb300_lastensq: Time from /home/data/SP1411/proc/nb300/load/wrote_ens_time: 2014/12/07 19:33:53
2014-12-07 19:36:07,278 INFO     repeater     task nb300_lastensq starting 4.3 seconds late
2014-12-07 19:36:09,457 INFO     repeater     task nb300_lastensq ended after 2.2 seconds
2014-12-07 19:36:09,458 INFO     repeater     task nb300_lastensq: Time from /home/data/SP1411/proc/nb300/load/wrote_ens_time: 2014/12/07 19:35:53
2014-12-07 19:36:54,509 INFO     repeater     task ashtech_hcorrstats starting 1.2 seconds late
2014-12-07 19:36:55,454 INFO     repeater     task ashtech_hcorrstats ended after 0.9 seconds
2014-12-07 19:38:05,531 INFO     repeater     task nb300_lastensq starting 2.5 seconds late
2014-12-07 19:38:07,659 INFO     repeater     task nb300_lastensq ended after 2.1 seconds
2014-12-07 19:38:07,660 INFO     repeater     task nb300_lastensq: Time from /home/data/SP1411/proc/nb300/load/wrote_ens_time: 2014/12/07 19:37:53
2014-12-07 19:40:07,798 INFO     repeater     task nb300_lastensq starting 4.8 seconds late
2014-12-07 19:40:09,982 INFO     repeater     task nb300_lastensq ended after 2.2 seconds
2014-12-07 19:40:09,982 INFO     repeater     task nb300_lastensq: Time from /home/data/SP1411/proc/nb300/load/wrote_ens_time: 2014/12/07 19:39:53
2014-12-07 19:41:55,111 INFO     repeater     task nb300_beamplots starting 1.8 seconds late
2014-12-07 19:41:56,798 INFO     repeater     task nb300_beamplots output:
Starting procsetup

2014-12-07 19:41:56,799 INFO     repeater     task nb300_beamplots ended after 1.7 seconds
2014-12-07 19:41:56,799 INFO     repeater     task nb300_beamplots starting 3.5 seconds late
2014-12-07 19:41:58,424 INFO     repeater     task nb300_beamplots output:
Starting procsetup

2014-12-07 19:41:58,424 INFO     repeater     task nb300_beamplots ended after 1.6 seconds
2014-12-07 19:41:58,425 INFO     repeater     task ashtech_hcorrstats starting 5.1 seconds late
2014-12-07 19:41:59,354 INFO     repeater     task ashtech_hcorrstats ended after 0.9 seconds
2014-12-07 19:42:04,360 INFO     repeater     task nb300_lastensq starting 1.4 seconds late
2014-12-07 19:42:06,482 INFO     repeater     task nb300_lastensq ended after 2.1 seconds
2014-12-07 19:42:06,482 INFO     repeater     task nb300_lastensq: Time from /home/data/SP1411/proc/nb300/load/wrote_ens_time: 2014/12/07 19:41:53
2014-12-07 19:44:06,600 INFO     repeater     task nb300_lastensq starting 3.6 seconds late
2014-12-07 19:44:08,736 INFO     repeater     task nb300_lastensq ended after 2.1 seconds
2014-12-07 19:44:08,737 INFO     repeater     task nb300_lastensq: Time from /home/data/SP1411/proc/nb300/load/wrote_ens_time: 2014/12/07 19:43:53
2014-12-07 19:46:03,864 INFO     repeater     task nb300_lastensq starting 0.9 seconds late
2014-12-07 19:46:06,032 INFO     repeater     task nb300_lastensq ended after 2.2 seconds
2014-12-07 19:46:06,032 INFO     repeater     task nb300_lastensq: Time from /home/data/SP1411/proc/nb300/load/wrote_ens_time: 2014/12/07 19:45:53
2014-12-07 19:46:56,082 INFO     repeater     task ashtech_hcorrstats starting 2.8 seconds late
2014-12-07 19:46:57,031 INFO     repeater     task ashtech_hcorrstats ended after 0.9 seconds
2014-12-07 19:48:07,114 INFO     repeater     task nb300_lastensq starting 4.1 seconds late
2014-12-07 19:48:09,314 INFO     repeater     task nb300_lastensq ended after 2.2 seconds
2014-12-07 19:48:09,314 INFO     repeater     task nb300_lastensq: Time from /home/data/SP1411/proc/nb300/load/wrote_ens_time: 2014/12/07 19:47:53
2014-12-07 19:50:04,441 INFO     repeater     task nb300_lastensq starting 1.4 seconds late
2014-12-07 19:50:06,581 INFO     repeater     task nb300_lastensq ended after 2.1 seconds
2014-12-07 19:50:06,581 INFO     repeater     task nb300_lastensq: Time from /home/data/SP1411/proc/nb300/load/wrote_ens_time: 2014/12/07 19:49:53
2014-12-07 19:51:56,704 INFO     repeater     task nb300_beamplots starting 3.4 seconds late
2014-12-07 19:51:58,403 INFO     repeater     task nb300_beamplots output:
Starting procsetup

2014-12-07 19:51:58,403 INFO     repeater     task nb300_beamplots ended after 1.7 seconds
2014-12-07 19:51:58,403 INFO     repeater     task nb300_beamplots starting 5.1 seconds late
2014-12-07 19:52:00,018 INFO     repeater     task nb300_beamplots output:
Starting procsetup

2014-12-07 19:52:00,018 INFO     repeater     task nb300_beamplots ended after 1.6 seconds
2014-12-07 19:52:00,018 INFO     repeater     task ashtech_hcorrstats starting 6.7 seconds late
2014-12-07 19:52:00,956 INFO     repeater     task ashtech_hcorrstats ended after 0.9 seconds
2014-12-07 19:52:05,962 INFO     repeater     task nb300_lastensq starting 3.0 seconds late
2014-12-07 19:52:08,146 INFO     repeater     task nb300_lastensq ended after 2.2 seconds
2014-12-07 19:52:08,147 INFO     repeater     task nb300_lastensq: Time from /home/data/SP1411/proc/nb300/load/wrote_ens_time: 2014/12/07 19:51:53
2014-12-07 19:54:03,278 INFO     repeater     task nb300_lastensq starting 0.3 seconds late
2014-12-07 19:54:05,477 INFO     repeater     task nb300_lastensq ended after 2.2 seconds
2014-12-07 19:54:05,478 INFO     repeater     task nb300_lastensq: Time from /home/data/SP1411/proc/nb300/load/wrote_ens_time: 2014/12/07 19:53:53
2014-12-07 19:56:05,619 INFO     repeater     task nb300_lastensq starting 2.6 seconds late
2014-12-07 19:56:07,793 INFO     repeater     task nb300_lastensq ended after 2.2 seconds
2014-12-07 19:56:07,793 INFO     repeater     task nb300_lastensq: Time from /home/data/SP1411/proc/nb300/load/wrote_ens_time: 2014/12/07 19:55:53
2014-12-07 19:56:57,861 INFO     repeater     task ashtech_hcorrstats starting 4.6 seconds late
2014-12-07 19:56:58,804 INFO     repeater     task ashtech_hcorrstats ended after 0.9 seconds
2014-12-07 19:58:03,875 INFO     repeater     task nb300_lastensq starting 0.9 seconds late
2014-12-07 19:58:06,068 INFO     repeater     task nb300_lastensq ended after 2.2 seconds
2014-12-07 19:58:06,068 INFO     repeater     task nb300_lastensq: Time from /home/data/SP1411/proc/nb300/load/wrote_ens_time: 2014/12/07 19:57:53
2014-12-07 20:00:06,194 INFO     repeater     task nb300_lastensq starting 3.2 seconds late
2014-12-07 20:00:08,412 INFO     repeater     task nb300_lastensq ended after 2.2 seconds
2014-12-07 20:00:08,413 INFO     repeater     task nb300_lastensq: Time from /home/data/SP1411/proc/nb300/load/wrote_ens_time: 2014/12/07 19:59:53
2014-12-07 20:01:53,521 INFO     repeater     task nb300_quick starting 0.3 seconds late
2014-12-07 20:01:57,870 INFO     repeater     task nb300_quick ended after 4.3 seconds
2014-12-07 20:01:57,870 INFO     repeater     task nb300_3dayplots starting 4.6 seconds late
2014-12-07 20:02:02,474 INFO     repeater     task nb300_3dayplots ended after 4.6 seconds
2014-12-07 20:02:02,577 INFO     repeater     task nb300_beamplots starting 9.3 seconds late
2014-12-07 20:02:04,254 INFO     repeater     task nb300_beamplots output:
Starting procsetup

2014-12-07 20:02:04,254 INFO     repeater     task nb300_beamplots ended after 1.7 seconds
2014-12-07 20:02:04,255 INFO     repeater     task nb300_beamplots starting 11.0 seconds late
2014-12-07 20:02:05,958 INFO     repeater     task nb300_beamplots output:
Starting procsetup

2014-12-07 20:02:05,958 INFO     repeater     task nb300_beamplots ended after 1.7 seconds
2014-12-07 20:02:05,959 INFO     repeater     task ashtech_hcorrstats starting 12.7 seconds late
2014-12-07 20:02:06,882 INFO     repeater     task ashtech_hcorrstats ended after 0.9 seconds
2014-12-07 20:02:11,888 INFO     repeater     task nb300_lastensq starting 8.9 seconds late
2014-12-07 20:02:14,033 INFO     repeater     task nb300_lastensq ended after 2.1 seconds
2014-12-07 20:02:14,034 INFO     repeater     task nb300_lastensq: Time from /home/data/SP1411/proc/nb300/load/wrote_ens_time: 2014/12/07 20:01:53
2014-12-07 20:04:04,171 INFO     repeater     task nb300_lastensq starting 1.2 seconds late
2014-12-07 20:04:06,231 INFO     repeater     task nb300_lastensq ended after 2.1 seconds
2014-12-07 20:04:06,232 INFO     repeater     task nb300_lastensq: Time from /home/data/SP1411/proc/nb300/load/wrote_ens_time: 2014/12/07 20:03:53
2014-12-07 20:06:06,358 INFO     repeater     task nb300_lastensq starting 3.4 seconds late
2014-12-07 20:06:08,427 INFO     repeater     task nb300_lastensq ended after 2.1 seconds
2014-12-07 20:06:08,428 INFO     repeater     task nb300_lastensq: Time from /home/data/SP1411/proc/nb300/load/wrote_ens_time: 2014/12/07 20:05:53
2014-12-07 20:06:53,485 INFO     repeater     task ashtech_hcorrstats starting 0.2 seconds late
2014-12-07 20:06:54,446 INFO     repeater     task ashtech_hcorrstats ended after 1.0 seconds
2014-12-07 20:08:04,531 INFO     repeater     task nb300_lastensq starting 1.5 seconds late
2014-12-07 20:08:06,628 INFO     repeater     task nb300_lastensq ended after 2.1 seconds
2014-12-07 20:08:06,629 INFO     repeater     task nb300_lastensq: Time from /home/data/SP1411/proc/nb300/load/wrote_ens_time: 2014/12/07 20:07:53
2014-12-07 20:10:06,761 INFO     repeater     task nb300_lastensq starting 3.8 seconds late
2014-12-07 20:10:08,815 INFO     repeater     task nb300_lastensq ended after 2.1 seconds
2014-12-07 20:10:08,816 INFO     repeater     task nb300_lastensq: Time from /home/data/SP1411/proc/nb300/load/wrote_ens_time: 2014/12/07 20:09:53
2014-12-07 20:11:53,940 INFO     repeater     task nb300_beamplots starting 0.7 seconds late
2014-12-07 20:11:55,647 INFO     repeater     task nb300_beamplots output:
Starting procsetup

2014-12-07 20:11:55,648 INFO     repeater     task nb300_beamplots ended after 1.7 seconds
2014-12-07 20:11:55,648 INFO     repeater     task nb300_beamplots starting 2.4 seconds late
2014-12-07 20:11:57,364 INFO     repeater     task nb300_beamplots output:
Starting procsetup

2014-12-07 20:11:57,364 INFO     repeater     task nb300_beamplots ended after 1.7 seconds
2014-12-07 20:11:57,364 INFO     repeater     task ashtech_hcorrstats starting 4.1 seconds late
2014-12-07 20:11:58,298 INFO     repeater     task ashtech_hcorrstats ended after 0.9 seconds
2014-12-07 20:12:03,301 INFO     repeater     task nb300_lastensq starting 0.3 seconds late
2014-12-07 20:12:05,366 INFO     repeater     task nb300_lastensq ended after 2.1 seconds
2014-12-07 20:12:05,367 INFO     repeater     task nb300_lastensq: Time from /home/data/SP1411/proc/nb300/load/wrote_ens_time: 2014/12/07 20:11:53
2014-12-07 20:14:05,510 INFO     repeater     task nb300_lastensq starting 2.5 seconds late
2014-12-07 20:14:07,641 INFO     repeater     task nb300_lastensq ended after 2.1 seconds
2014-12-07 20:14:07,641 INFO     repeater     task nb300_lastensq: Time from /home/data/SP1411/proc/nb300/load/wrote_ens_time: 2014/12/07 20:13:53
2014-12-07 20:16:07,784 INFO     repeater     task nb300_lastensq starting 4.8 seconds late
2014-12-07 20:16:09,904 INFO     repeater     task nb300_lastensq ended after 2.1 seconds
2014-12-07 20:16:09,904 INFO     repeater     task nb300_lastensq: Time from /home/data/SP1411/proc/nb300/load/wrote_ens_time: 2014/12/07 20:15:53
2014-12-07 20:16:54,963 INFO     repeater     task ashtech_hcorrstats starting 1.7 seconds late
2014-12-07 20:16:55,893 INFO     repeater     task ashtech_hcorrstats ended after 0.9 seconds
2014-12-07 20:18:05,984 INFO     repeater     task nb300_lastensq starting 3.0 seconds late
2014-12-07 20:18:08,127 INFO     repeater     task nb300_lastensq ended after 2.1 seconds
2014-12-07 20:18:08,127 INFO     repeater     task nb300_lastensq: Time from /home/data/SP1411/proc/nb300/load/wrote_ens_time: 2014/12/07 20:17:53
2014-12-07 20:20:03,261 INFO     repeater     task nb300_lastensq starting 0.3 seconds late
2014-12-07 20:20:05,381 INFO     repeater     task nb300_lastensq ended after 2.1 seconds
2014-12-07 20:20:05,381 INFO     repeater     task nb300_lastensq: Time from /home/data/SP1411/proc/nb300/load/wrote_ens_time: 2014/12/07 20:19:53
2014-12-07 20:21:55,508 INFO     repeater     task nb300_beamplots starting 2.2 seconds late
2014-12-07 20:21:57,172 INFO     repeater     task nb300_beamplots output:
Starting procsetup

2014-12-07 20:21:57,172 INFO     repeater     task nb300_beamplots ended after 1.7 seconds
2014-12-07 20:21:57,172 INFO     repeater     task nb300_beamplots starting 3.9 seconds late
2014-12-07 20:21:58,888 INFO     repeater     task nb300_beamplots output:
Starting procsetup

2014-12-07 20:21:58,888 INFO     repeater     task nb300_beamplots ended after 1.7 seconds
2014-12-07 20:21:58,888 INFO     repeater     task ashtech_hcorrstats starting 5.6 seconds late
2014-12-07 20:21:59,810 INFO     repeater     task ashtech_hcorrstats ended after 0.9 seconds
2014-12-07 20:22:04,814 INFO     repeater     task nb300_lastensq starting 1.8 seconds late
2014-12-07 20:22:06,949 INFO     repeater     task nb300_lastensq ended after 2.1 seconds
2014-12-07 20:22:06,950 INFO     repeater     task nb300_lastensq: Time from /home/data/SP1411/proc/nb300/load/wrote_ens_time: 2014/12/07 20:21:53
2014-12-07 20:24:07,095 INFO     repeater     task nb300_lastensq starting 4.1 seconds late
2014-12-07 20:24:09,185 INFO     repeater     task nb300_lastensq ended after 2.1 seconds
2014-12-07 20:24:09,185 INFO     repeater     task nb300_lastensq: Time from /home/data/SP1411/proc/nb300/load/wrote_ens_time: 2014/12/07 20:23:53
2014-12-07 20:26:04,307 INFO     repeater     task nb300_lastensq starting 1.3 seconds late
2014-12-07 20:26:06,436 INFO     repeater     task nb300_lastensq ended after 2.1 seconds
2014-12-07 20:26:06,437 INFO     repeater     task nb300_lastensq: Time from /home/data/SP1411/proc/nb300/load/wrote_ens_time: 2014/12/07 20:25:53
2014-12-07 20:26:56,489 INFO     repeater     task ashtech_hcorrstats starting 3.2 seconds late
2014-12-07 20:26:57,428 INFO     repeater     task ashtech_hcorrstats ended after 0.9 seconds
2014-12-07 20:28:07,501 INFO     repeater     task nb300_lastensq starting 4.5 seconds late
2014-12-07 20:28:09,621 INFO     repeater     task nb300_lastensq ended after 2.1 seconds
2014-12-07 20:28:09,622 INFO     repeater     task nb300_lastensq: Time from /home/data/SP1411/proc/nb300/load/wrote_ens_time: 2014/12/07 20:27:53
2014-12-07 20:30:04,757 INFO     repeater     task nb300_lastensq starting 1.8 seconds late
2014-12-07 20:30:06,849 INFO     repeater     task nb300_lastensq ended after 2.1 seconds
2014-12-07 20:30:06,849 INFO     repeater     task nb300_lastensq: Time from /home/data/SP1411/proc/nb300/load/wrote_ens_time: 2014/12/07 20:29:53
2014-12-07 20:31:56,981 INFO     repeater     task nb300_quick starting 3.7 seconds late
2014-12-07 20:32:01,292 INFO     repeater     task nb300_quick ended after 4.3 seconds
2014-12-07 20:32:01,292 INFO     repeater     task nb300_3dayplots starting 8.1 seconds late
2014-12-07 20:32:05,848 INFO     repeater     task nb300_3dayplots ended after 4.6 seconds
2014-12-07 20:32:05,849 INFO     repeater     task nb300_beamplots starting 12.6 seconds late
2014-12-07 20:32:07,504 INFO     repeater     task nb300_beamplots output:
Starting procsetup

2014-12-07 20:32:07,504 INFO     repeater     task nb300_beamplots ended after 1.7 seconds
2014-12-07 20:32:07,504 INFO     repeater     task nb300_beamplots starting 14.2 seconds late
2014-12-07 20:32:09,106 INFO     repeater     task nb300_beamplots output:
Starting procsetup

2014-12-07 20:32:09,106 INFO     repeater     task nb300_beamplots ended after 1.6 seconds
2014-12-07 20:32:09,107 INFO     repeater     task ashtech_hcorrstats starting 15.8 seconds late
2014-12-07 20:32:10,021 INFO     repeater     task ashtech_hcorrstats ended after 0.9 seconds
2014-12-07 20:32:15,026 INFO     repeater     task nb300_lastensq starting 12.0 seconds late
2014-12-07 20:32:17,155 INFO     repeater     task nb300_lastensq ended after 2.1 seconds
2014-12-07 20:32:17,155 INFO     repeater     task nb300_lastensq: Time from /home/data/SP1411/proc/nb300/load/wrote_ens_time: 2014/12/07 20:31:53
2014-12-07 20:34:07,271 INFO     repeater     task nb300_lastensq starting 4.3 seconds late
2014-12-07 20:34:09,352 INFO     repeater     task nb300_lastensq ended after 2.1 seconds
2014-12-07 20:34:09,353 INFO     repeater     task nb300_lastensq: Time from /home/data/SP1411/proc/nb300/load/wrote_ens_time: 2014/12/07 20:33:53
2014-12-07 20:36:04,490 INFO     repeater     task nb300_lastensq starting 1.5 seconds late
2014-12-07 20:36:06,612 INFO     repeater     task nb300_lastensq ended after 2.1 seconds
2014-12-07 20:36:06,612 INFO     repeater     task nb300_lastensq: Time from /home/data/SP1411/proc/nb300/load/wrote_ens_time: 2014/12/07 20:35:53
2014-12-07 20:36:56,669 INFO     repeater     task ashtech_hcorrstats starting 3.4 seconds late
2014-12-07 20:36:57,619 INFO     repeater     task ashtech_hcorrstats ended after 0.9 seconds
2014-12-07 20:38:07,696 INFO     repeater     task nb300_lastensq starting 4.7 seconds late
2014-12-07 20:38:09,838 INFO     repeater     task nb300_lastensq ended after 2.1 seconds
2014-12-07 20:38:09,838 INFO     repeater     task nb300_lastensq: Time from /home/data/SP1411/proc/nb300/load/wrote_ens_time: 2014/12/07 20:37:53
2014-12-07 20:40:04,961 INFO     repeater     task nb300_lastensq starting 2.0 seconds late
2014-12-07 20:40:07,042 INFO     repeater     task nb300_lastensq ended after 2.1 seconds
2014-12-07 20:40:07,042 INFO     repeater     task nb300_lastensq: Time from /home/data/SP1411/proc/nb300/load/wrote_ens_time: 2014/12/07 20:39:53
2014-12-07 20:41:57,172 INFO     repeater     task nb300_beamplots starting 3.9 seconds late
2014-12-07 20:41:58,776 INFO     repeater     task nb300_beamplots output:
Starting procsetup

2014-12-07 20:41:58,776 INFO     repeater     task nb300_beamplots ended after 1.6 seconds
2014-12-07 20:41:58,776 INFO     repeater     task nb300_beamplots starting 5.5 seconds late
2014-12-07 20:42:00,508 INFO     repeater     task nb300_beamplots output:
Starting procsetup

2014-12-07 20:42:00,509 INFO     repeater     task nb300_beamplots ended after 1.7 seconds
2014-12-07 20:42:00,509 INFO     repeater     task ashtech_hcorrstats starting 7.2 seconds late
2014-12-07 20:42:01,441 INFO     repeater     task ashtech_hcorrstats ended after 0.9 seconds
2014-12-07 20:42:06,447 INFO     repeater     task nb300_lastensq starting 3.4 seconds late
2014-12-07 20:42:08,532 INFO     repeater     task nb300_lastensq ended after 2.1 seconds
2014-12-07 20:42:08,532 INFO     repeater     task nb300_lastensq: Time from /home/data/SP1411/proc/nb300/load/wrote_ens_time: 2014/12/07 20:41:53
2014-12-07 20:44:03,671 INFO     repeater     task nb300_lastensq starting 0.7 seconds late
2014-12-07 20:44:05,766 INFO     repeater     task nb300_lastensq ended after 2.1 seconds
2014-12-07 20:44:05,766 INFO     repeater     task nb300_lastensq: Time from /home/data/SP1411/proc/nb300/load/wrote_ens_time: 2014/12/07 20:43:53
2014-12-07 20:46:05,898 INFO     repeater     task nb300_lastensq starting 2.9 seconds late
2014-12-07 20:46:07,981 INFO     repeater     task nb300_lastensq ended after 2.1 seconds
2014-12-07 20:46:07,981 INFO     repeater     task nb300_lastensq: Time from /home/data/SP1411/proc/nb300/load/wrote_ens_time: 2014/12/07 20:45:53
2014-12-07 20:46:58,039 INFO     repeater     task ashtech_hcorrstats starting 4.8 seconds late
2014-12-07 20:46:58,959 INFO     repeater     task ashtech_hcorrstats ended after 0.9 seconds
2014-12-07 20:48:04,031 INFO     repeater     task nb300_lastensq starting 1.0 seconds late
2014-12-07 20:48:06,171 INFO     repeater     task nb300_lastensq ended after 2.1 seconds
2014-12-07 20:48:06,171 INFO     repeater     task nb300_lastensq: Time from /home/data/SP1411/proc/nb300/load/wrote_ens_time: 2014/12/07 20:47:53
2014-12-07 20:50:06,303 INFO     repeater     task nb300_lastensq starting 3.3 seconds late
2014-12-07 20:50:08,472 INFO     repeater     task nb300_lastensq ended after 2.2 seconds
2014-12-07 20:50:08,472 INFO     repeater     task nb300_lastensq: Time from /home/data/SP1411/proc/nb300/load/wrote_ens_time: 2014/12/07 20:49:53
2014-12-07 20:51:53,588 INFO     repeater     task nb300_beamplots starting 0.3 seconds late
2014-12-07 20:51:55,189 INFO     repeater     task nb300_beamplots output:
Starting procsetup

2014-12-07 20:51:55,189 INFO     repeater     task nb300_beamplots ended after 1.6 seconds
2014-12-07 20:51:55,189 INFO     repeater     task nb300_beamplots starting 1.9 seconds late
2014-12-07 20:51:56,913 INFO     repeater     task nb300_beamplots output:
Starting procsetup

2014-12-07 20:51:56,913 INFO     repeater     task nb300_beamplots ended after 1.7 seconds
2014-12-07 20:51:56,913 INFO     repeater     task ashtech_hcorrstats starting 3.6 seconds late
2014-12-07 20:51:57,844 INFO     repeater     task ashtech_hcorrstats ended after 0.9 seconds
2014-12-07 20:52:07,856 INFO     repeater     task nb300_lastensq starting 4.9 seconds late
2014-12-07 20:52:09,997 INFO     repeater     task nb300_lastensq ended after 2.1 seconds
2014-12-07 20:52:09,997 INFO     repeater     task nb300_lastensq: Time from /home/data/SP1411/proc/nb300/load/wrote_ens_time: 2014/12/07 20:51:53
2014-12-07 20:54:05,131 INFO     repeater     task nb300_lastensq starting 2.1 seconds late
2014-12-07 20:54:07,225 INFO     repeater     task nb300_lastensq ended after 2.1 seconds
2014-12-07 20:54:07,225 INFO     repeater     task nb300_lastensq: Time from /home/data/SP1411/proc/nb300/load/wrote_ens_time: 2014/12/07 20:53:53
2014-12-07 20:56:07,364 INFO     repeater     task nb300_lastensq starting 4.4 seconds late
2014-12-07 20:56:09,494 INFO     repeater     task nb300_lastensq ended after 2.1 seconds
2014-12-07 20:56:09,494 INFO     repeater     task nb300_lastensq: Time from /home/data/SP1411/proc/nb300/load/wrote_ens_time: 2014/12/07 20:55:53
2014-12-07 20:56:54,552 INFO     repeater     task ashtech_hcorrstats starting 1.3 seconds late
2014-12-07 20:56:55,478 INFO     repeater     task ashtech_hcorrstats ended after 0.9 seconds
2014-12-07 20:58:05,557 INFO     repeater     task nb300_lastensq starting 2.6 seconds late
2014-12-07 20:58:07,661 INFO     repeater     task nb300_lastensq ended after 2.1 seconds
2014-12-07 20:58:07,661 INFO     repeater     task nb300_lastensq: Time from /home/data/SP1411/proc/nb300/load/wrote_ens_time: 2014/12/07 20:57:53
2014-12-07 21:00:07,804 INFO     repeater     task nb300_lastensq starting 4.8 seconds late
2014-12-07 21:00:09,962 INFO     repeater     task nb300_lastensq ended after 2.2 seconds
2014-12-07 21:00:09,963 INFO     repeater     task nb300_lastensq: Time from /home/data/SP1411/proc/nb300/load/wrote_ens_time: 2014/12/07 20:59:53
2014-12-07 21:01:55,071 INFO     repeater     task nb300_quick starting 1.8 seconds late
2014-12-07 21:01:59,328 INFO     repeater     task nb300_quick ended after 4.3 seconds
2014-12-07 21:01:59,329 INFO     repeater     task nb300_3dayplots starting 6.1 seconds late
2014-12-07 21:02:03,944 INFO     repeater     task nb300_3dayplots ended after 4.6 seconds
2014-12-07 21:02:03,944 INFO     repeater     task nb300_beamplots starting 10.7 seconds late
2014-12-07 21:02:05,547 INFO     repeater     task nb300_beamplots output:
Starting procsetup

2014-12-07 21:02:05,547 INFO     repeater     task nb300_beamplots ended after 1.6 seconds
2014-12-07 21:02:05,547 INFO     repeater     task nb300_beamplots starting 12.3 seconds late
2014-12-07 21:02:07,275 INFO     repeater     task nb300_beamplots output:
Starting procsetup

2014-12-07 21:02:07,275 INFO     repeater     task nb300_beamplots ended after 1.7 seconds
2014-12-07 21:02:07,276 INFO     repeater     task ashtech_hcorrstats starting 14.0 seconds late
2014-12-07 21:02:08,192 INFO     repeater     task ashtech_hcorrstats ended after 0.9 seconds
2014-12-07 21:02:13,195 INFO     repeater     task nb300_lastensq starting 10.2 seconds late
2014-12-07 21:02:15,389 INFO     repeater     task nb300_lastensq ended after 2.2 seconds
2014-12-07 21:02:15,389 INFO     repeater     task nb300_lastensq: Time from /home/data/SP1411/proc/nb300/load/wrote_ens_time: 2014/12/07 21:01:53
2014-12-07 21:04:05,517 INFO     repeater     task nb300_lastensq starting 2.5 seconds late
2014-12-07 21:04:07,663 INFO     repeater     task nb300_lastensq ended after 2.1 seconds
2014-12-07 21:04:07,663 INFO     repeater     task nb300_lastensq: Time from /home/data/SP1411/proc/nb300/load/wrote_ens_time: 2014/12/07 21:03:53
2014-12-07 21:06:07,798 INFO     repeater     task nb300_lastensq starting 4.8 seconds late
2014-12-07 21:06:09,889 INFO     repeater     task nb300_lastensq ended after 2.1 seconds
2014-12-07 21:06:09,889 INFO     repeater     task nb300_lastensq: Time from /home/data/SP1411/proc/nb300/load/wrote_ens_time: 2014/12/07 21:05:53
2014-12-07 21:06:54,945 INFO     repeater     task ashtech_hcorrstats starting 1.7 seconds late
2014-12-07 21:06:55,864 INFO     repeater     task ashtech_hcorrstats ended after 0.9 seconds
2014-12-07 21:08:05,945 INFO     repeater     task nb300_lastensq starting 2.9 seconds late
2014-12-07 21:08:08,105 INFO     repeater     task nb300_lastensq ended after 2.2 seconds
2014-12-07 21:08:08,105 INFO     repeater     task nb300_lastensq: Time from /home/data/SP1411/proc/nb300/load/wrote_ens_time: 2014/12/07 21:07:53
2014-12-07 21:10:03,237 INFO     repeater     task nb300_lastensq starting 0.2 seconds late
2014-12-07 21:10:05,332 INFO     repeater     task nb300_lastensq ended after 2.1 seconds
2014-12-07 21:10:05,332 INFO     repeater     task nb300_lastensq: Time from /home/data/SP1411/proc/nb300/load/wrote_ens_time: 2014/12/07 21:09:53
2014-12-07 21:11:55,469 INFO     repeater     task nb300_beamplots starting 2.2 seconds late
2014-12-07 21:11:57,066 INFO     repeater     task nb300_beamplots output:
Starting procsetup

2014-12-07 21:11:57,066 INFO     repeater     task nb300_beamplots ended after 1.6 seconds
2014-12-07 21:11:57,066 INFO     repeater     task nb300_beamplots starting 3.8 seconds late
2014-12-07 21:11:58,671 INFO     repeater     task nb300_beamplots output:
Starting procsetup

2014-12-07 21:11:58,671 INFO     repeater     task nb300_beamplots ended after 1.6 seconds
2014-12-07 21:11:58,671 INFO     repeater     task ashtech_hcorrstats starting 5.4 seconds late
2014-12-07 21:11:59,588 INFO     repeater     task ashtech_hcorrstats ended after 0.9 seconds
2014-12-07 21:12:04,593 INFO     repeater     task nb300_lastensq starting 1.6 seconds late
2014-12-07 21:12:06,739 INFO     repeater     task nb300_lastensq ended after 2.1 seconds
2014-12-07 21:12:06,740 INFO     repeater     task nb300_lastensq: Time from /home/data/SP1411/proc/nb300/load/wrote_ens_time: 2014/12/07 21:11:53
2014-12-07 21:14:06,877 INFO     repeater     task nb300_lastensq starting 3.9 seconds late
2014-12-07 21:14:09,047 INFO     repeater     task nb300_lastensq ended after 2.2 seconds
2014-12-07 21:14:09,048 INFO     repeater     task nb300_lastensq: Time from /home/data/SP1411/proc/nb300/load/wrote_ens_time: 2014/12/07 21:13:53
2014-12-07 21:16:04,179 INFO     repeater     task nb300_lastensq starting 1.2 seconds late
2014-12-07 21:16:06,287 INFO     repeater     task nb300_lastensq ended after 2.1 seconds
2014-12-07 21:16:06,288 INFO     repeater     task nb300_lastensq: Time from /home/data/SP1411/proc/nb300/load/wrote_ens_time: 2014/12/07 21:15:53
2014-12-07 21:16:56,345 INFO     repeater     task ashtech_hcorrstats starting 3.1 seconds late
2014-12-07 21:16:57,285 INFO     repeater     task ashtech_hcorrstats ended after 0.9 seconds
2014-12-07 21:18:07,364 INFO     repeater     task nb300_lastensq starting 4.4 seconds late
2014-12-07 21:18:09,476 INFO     repeater     task nb300_lastensq ended after 2.1 seconds
2014-12-07 21:18:09,476 INFO     repeater     task nb300_lastensq: Time from /home/data/SP1411/proc/nb300/load/wrote_ens_time: 2014/12/07 21:17:53
2014-12-07 21:20:04,604 INFO     repeater     task nb300_lastensq starting 1.6 seconds late
2014-12-07 21:20:06,710 INFO     repeater     task nb300_lastensq ended after 2.1 seconds
2014-12-07 21:20:06,710 INFO     repeater     task nb300_lastensq: Time from /home/data/SP1411/proc/nb300/load/wrote_ens_time: 2014/12/07 21:19:53
2014-12-07 21:21:56,832 INFO     repeater     task nb300_beamplots starting 3.6 seconds late
2014-12-07 21:21:58,436 INFO     repeater     task nb300_beamplots output:
Starting procsetup

2014-12-07 21:21:58,437 INFO     repeater     task nb300_beamplots ended after 1.6 seconds
2014-12-07 21:21:58,437 INFO     repeater     task nb300_beamplots starting 5.2 seconds late
2014-12-07 21:22:00,172 INFO     repeater     task nb300_beamplots output:
Starting procsetup

2014-12-07 21:22:00,172 INFO     repeater     task nb300_beamplots ended after 1.7 seconds
2014-12-07 21:22:00,172 INFO     repeater     task ashtech_hcorrstats starting 6.9 seconds late
2014-12-07 21:22:01,093 INFO     repeater     task ashtech_hcorrstats ended after 0.9 seconds
2014-12-07 21:22:06,098 INFO     repeater     task nb300_lastensq starting 3.1 seconds late
2014-12-07 21:22:08,269 INFO     repeater     task nb300_lastensq ended after 2.2 seconds
2014-12-07 21:22:08,269 INFO     repeater     task nb300_lastensq: Time from /home/data/SP1411/proc/nb300/load/wrote_ens_time: 2014/12/07 21:21:53
2014-12-07 21:24:03,404 INFO     repeater     task nb300_lastensq starting 0.4 seconds late
2014-12-07 21:24:05,569 INFO     repeater     task nb300_lastensq ended after 2.2 seconds
2014-12-07 21:24:05,570 INFO     repeater     task nb300_lastensq: Time from /home/data/SP1411/proc/nb300/load/wrote_ens_time: 2014/12/07 21:23:53
2014-12-07 21:26:05,707 INFO     repeater     task nb300_lastensq starting 2.7 seconds late
2014-12-07 21:26:07,892 INFO     repeater     task nb300_lastensq ended after 2.2 seconds
2014-12-07 21:26:07,892 INFO     repeater     task nb300_lastensq: Time from /home/data/SP1411/proc/nb300/load/wrote_ens_time: 2014/12/07 21:25:53
2014-12-07 21:26:57,948 INFO     repeater     task ashtech_hcorrstats starting 4.7 seconds late
2014-12-07 21:26:58,867 INFO     repeater     task ashtech_hcorrstats ended after 0.9 seconds
2014-12-07 21:28:03,948 INFO     repeater     task nb300_lastensq starting 0.9 seconds late
2014-12-07 21:28:06,069 INFO     repeater     task nb300_lastensq ended after 2.1 seconds
2014-12-07 21:28:06,069 INFO     repeater     task nb300_lastensq: Time from /home/data/SP1411/proc/nb300/load/wrote_ens_time: 2014/12/07 21:27:53
2014-12-07 21:30:06,210 INFO     repeater     task nb300_lastensq starting 3.2 seconds late
2014-12-07 21:30:08,336 INFO     repeater     task nb300_lastensq ended after 2.1 seconds
2014-12-07 21:30:08,336 INFO     repeater     task nb300_lastensq: Time from /home/data/SP1411/proc/nb300/load/wrote_ens_time: 2014/12/07 21:29:53
2014-12-07 21:31:53,462 INFO     repeater     task nb300_quick starting 0.2 seconds late
2014-12-07 21:31:57,842 INFO     repeater     task nb300_quick ended after 4.4 seconds
2014-12-07 21:31:57,842 INFO     repeater     task nb300_3dayplots starting 4.6 seconds late
2014-12-07 21:32:02,483 INFO     repeater     task nb300_3dayplots ended after 4.6 seconds
2014-12-07 21:32:02,484 INFO     repeater     task nb300_beamplots starting 9.2 seconds late
2014-12-07 21:32:04,088 INFO     repeater     task nb300_beamplots output:
Starting procsetup

2014-12-07 21:32:04,089 INFO     repeater     task nb300_beamplots ended after 1.6 seconds
2014-12-07 21:32:04,089 INFO     repeater     task nb300_beamplots starting 10.8 seconds late
2014-12-07 21:32:05,814 INFO     repeater     task nb300_beamplots output:
Starting procsetup

2014-12-07 21:32:05,815 INFO     repeater     task nb300_beamplots ended after 1.7 seconds
2014-12-07 21:32:05,815 INFO     repeater     task ashtech_hcorrstats starting 12.5 seconds late
2014-12-07 21:32:06,746 INFO     repeater     task ashtech_hcorrstats ended after 0.9 seconds
2014-12-07 21:32:11,751 INFO     repeater     task nb300_lastensq starting 8.8 seconds late
2014-12-07 21:32:13,883 INFO     repeater     task nb300_lastensq ended after 2.1 seconds
2014-12-07 21:32:13,883 INFO     repeater     task nb300_lastensq: Time from /home/data/SP1411/proc/nb300/load/wrote_ens_time: 2014/12/07 21:31:53
2014-12-07 21:34:04,001 INFO     repeater     task nb300_lastensq starting 1.0 seconds late
2014-12-07 21:34:06,135 INFO     repeater     task nb300_lastensq ended after 2.1 seconds
2014-12-07 21:34:06,135 INFO     repeater     task nb300_lastensq: Time from /home/data/SP1411/proc/nb300/load/wrote_ens_time: 2014/12/07 21:33:53
2014-12-07 21:36:06,275 INFO     repeater     task nb300_lastensq starting 3.3 seconds late
2014-12-07 21:36:08,454 INFO     repeater     task nb300_lastensq ended after 2.2 seconds
2014-12-07 21:36:08,454 INFO     repeater     task nb300_lastensq: Time from /home/data/SP1411/proc/nb300/load/wrote_ens_time: 2014/12/07 21:35:53
2014-12-07 21:36:53,508 INFO     repeater     task ashtech_hcorrstats starting 0.2 seconds late
2014-12-07 21:36:54,435 INFO     repeater     task ashtech_hcorrstats ended after 0.9 seconds
2014-12-07 21:38:04,514 INFO     repeater     task nb300_lastensq starting 1.5 seconds late
2014-12-07 21:38:06,713 INFO     repeater     task nb300_lastensq ended after 2.2 seconds
2014-12-07 21:38:06,714 INFO     repeater     task nb300_lastensq: Time from /home/data/SP1411/proc/nb300/load/wrote_ens_time: 2014/12/07 21:37:53
2014-12-07 21:40:06,850 INFO     repeater     task nb300_lastensq starting 3.9 seconds late
2014-12-07 21:40:09,031 INFO     repeater     task nb300_lastensq ended after 2.2 seconds
2014-12-07 21:40:09,032 INFO     repeater     task nb300_lastensq: Time from /home/data/SP1411/proc/nb300/load/wrote_ens_time: 2014/12/07 21:39:53
2014-12-07 21:41:54,144 INFO     repeater     task nb300_beamplots starting 0.9 seconds late
2014-12-07 21:41:55,830 INFO     repeater     task nb300_beamplots output:
Starting procsetup

2014-12-07 21:41:55,830 INFO     repeater     task nb300_beamplots ended after 1.7 seconds
2014-12-07 21:41:55,830 INFO     repeater     task nb300_beamplots starting 2.6 seconds late
2014-12-07 21:41:57,450 INFO     repeater     task nb300_beamplots output:
Starting procsetup

2014-12-07 21:41:57,450 INFO     repeater     task nb300_beamplots ended after 1.6 seconds
2014-12-07 21:41:57,450 INFO     repeater     task ashtech_hcorrstats starting 4.2 seconds late
2014-12-07 21:41:58,368 INFO     repeater     task ashtech_hcorrstats ended after 0.9 seconds
2014-12-07 21:42:03,374 INFO     repeater     task nb300_lastensq starting 0.4 seconds late
2014-12-07 21:42:05,554 INFO     repeater     task nb300_lastensq ended after 2.2 seconds
2014-12-07 21:42:05,555 INFO     repeater     task nb300_lastensq: Time from /home/data/SP1411/proc/nb300/load/wrote_ens_time: 2014/12/07 21:41:53
2014-12-07 21:44:05,708 INFO     repeater     task nb300_lastensq starting 2.7 seconds late
2014-12-07 21:44:07,920 INFO     repeater     task nb300_lastensq ended after 2.2 seconds
2014-12-07 21:44:07,921 INFO     repeater     task nb300_lastensq: Time from /home/data/SP1411/proc/nb300/load/wrote_ens_time: 2014/12/07 21:43:53
2014-12-07 21:46:03,058 INFO     repeater     task nb300_lastensq starting 0.1 seconds late
2014-12-07 21:46:05,187 INFO     repeater     task nb300_lastensq ended after 2.1 seconds
2014-12-07 21:46:05,187 INFO     repeater     task nb300_lastensq: Time from /home/data/SP1411/proc/nb300/load/wrote_ens_time: 2014/12/07 21:45:53
2014-12-07 21:46:55,245 INFO     repeater     task ashtech_hcorrstats starting 2.0 seconds late
2014-12-07 21:46:56,167 INFO     repeater     task ashtech_hcorrstats ended after 0.9 seconds
2014-12-07 21:48:06,252 INFO     repeater     task nb300_lastensq starting 3.3 seconds late
2014-12-07 21:48:08,408 INFO     repeater     task nb300_lastensq ended after 2.2 seconds
2014-12-07 21:48:08,408 INFO     repeater     task nb300_lastensq: Time from /home/data/SP1411/proc/nb300/load/wrote_ens_time: 2014/12/07 21:47:53
2014-12-07 21:50:03,534 INFO     repeater     task nb300_lastensq starting 0.5 seconds late
2014-12-07 21:50:05,717 INFO     repeater     task nb300_lastensq ended after 2.2 seconds
2014-12-07 21:50:05,717 INFO     repeater     task nb300_lastensq: Time from /home/data/SP1411/proc/nb300/load/wrote_ens_time: 2014/12/07 21:49:53
2014-12-07 21:51:55,851 INFO     repeater     task nb300_beamplots starting 2.6 seconds late
2014-12-07 21:51:57,555 INFO     repeater     task nb300_beamplots output:
Starting procsetup

2014-12-07 21:51:57,556 INFO     repeater     task nb300_beamplots ended after 1.7 seconds
2014-12-07 21:51:57,556 INFO     repeater     task nb300_beamplots starting 4.3 seconds late
2014-12-07 21:51:59,209 INFO     repeater     task nb300_beamplots output:
Starting procsetup

2014-12-07 21:51:59,209 INFO     repeater     task nb300_beamplots ended after 1.7 seconds
2014-12-07 21:51:59,209 INFO     repeater     task ashtech_hcorrstats starting 5.9 seconds late
2014-12-07 21:52:00,138 INFO     repeater     task ashtech_hcorrstats ended after 0.9 seconds
2014-12-07 21:52:05,141 INFO     repeater     task nb300_lastensq starting 2.1 seconds late
2014-12-07 21:52:07,267 INFO     repeater     task nb300_lastensq ended after 2.1 seconds
2014-12-07 21:52:07,267 INFO     repeater     task nb300_lastensq: Time from /home/data/SP1411/proc/nb300/load/wrote_ens_time: 2014/12/07 21:51:53
2014-12-07 21:54:07,414 INFO     repeater     task nb300_lastensq starting 4.4 seconds late
2014-12-07 21:54:09,565 INFO     repeater     task nb300_lastensq ended after 2.2 seconds
2014-12-07 21:54:09,566 INFO     repeater     task nb300_lastensq: Time from /home/data/SP1411/proc/nb300/load/wrote_ens_time: 2014/12/07 21:53:53
2014-12-07 21:56:04,709 INFO     repeater     task nb300_lastensq starting 1.7 seconds late
2014-12-07 21:56:06,844 INFO     repeater     task nb300_lastensq ended after 2.1 seconds
2014-12-07 21:56:06,845 INFO     repeater     task nb300_lastensq: Time from /home/data/SP1411/proc/nb300/load/wrote_ens_time: 2014/12/07 21:55:53
2014-12-07 21:56:56,899 INFO     repeater     task ashtech_hcorrstats starting 3.6 seconds late
2014-12-07 21:56:57,826 INFO     repeater     task ashtech_hcorrstats ended after 0.9 seconds
2014-12-07 21:58:07,911 INFO     repeater     task nb300_lastensq starting 4.9 seconds late
2014-12-07 21:58:10,102 INFO     repeater     task nb300_lastensq ended after 2.2 seconds
2014-12-07 21:58:10,102 INFO     repeater     task nb300_lastensq: Time from /home/data/SP1411/proc/nb300/load/wrote_ens_time: 2014/12/07 21:57:53
2014-12-07 22:00:05,224 INFO     repeater     task nb300_lastensq starting 2.2 seconds late
2014-12-07 22:00:07,409 INFO     repeater     task nb300_lastensq ended after 2.2 seconds
2014-12-07 22:00:07,409 INFO     repeater     task nb300_lastensq: Time from /home/data/SP1411/proc/nb300/load/wrote_ens_time: 2014/12/07 21:59:53
2014-12-07 22:01:57,535 INFO     repeater     task nb300_quick starting 4.3 seconds late
2014-12-07 22:02:01,836 INFO     repeater     task nb300_quick ended after 4.3 seconds
2014-12-07 22:02:01,837 INFO     repeater     task nb300_3dayplots starting 8.6 seconds late
2014-12-07 22:02:06,398 INFO     repeater     task nb300_3dayplots ended after 4.6 seconds
2014-12-07 22:02:06,398 INFO     repeater     task nb300_beamplots starting 13.1 seconds late
2014-12-07 22:02:08,084 INFO     repeater     task nb300_beamplots output:
Starting procsetup

2014-12-07 22:02:08,084 INFO     repeater     task nb300_beamplots ended after 1.7 seconds
2014-12-07 22:02:08,084 INFO     repeater     task nb300_beamplots starting 14.8 seconds late
2014-12-07 22:02:09,813 INFO     repeater     task nb300_beamplots output:
Starting procsetup

2014-12-07 22:02:09,814 INFO     repeater     task nb300_beamplots ended after 1.7 seconds
2014-12-07 22:02:09,814 INFO     repeater     task ashtech_hcorrstats starting 16.5 seconds late
2014-12-07 22:02:10,737 INFO     repeater     task ashtech_hcorrstats ended after 0.9 seconds
2014-12-07 22:02:15,743 INFO     repeater     task nb300_lastensq starting 12.7 seconds late
2014-12-07 22:02:17,817 INFO     repeater     task nb300_lastensq ended after 2.1 seconds
2014-12-07 22:02:17,818 INFO     repeater     task nb300_lastensq: Time from /home/data/SP1411/proc/nb300/load/wrote_ens_time: 2014/12/07 22:01:53
2014-12-07 22:04:07,944 INFO     repeater     task nb300_lastensq starting 4.9 seconds late
2014-12-07 22:04:10,063 INFO     repeater     task nb300_lastensq ended after 2.1 seconds
2014-12-07 22:04:10,064 INFO     repeater     task nb300_lastensq: Time from /home/data/SP1411/proc/nb300/load/wrote_ens_time: 2014/12/07 22:03:53
2014-12-07 22:06:05,197 INFO     repeater     task nb300_lastensq starting 2.2 seconds late
2014-12-07 22:06:07,261 INFO     repeater     task nb300_lastensq ended after 2.1 seconds
2014-12-07 22:06:07,261 INFO     repeater     task nb300_lastensq: Time from /home/data/SP1411/proc/nb300/load/wrote_ens_time: 2014/12/07 22:05:53
2014-12-07 22:06:57,319 INFO     repeater     task ashtech_hcorrstats starting 4.0 seconds late
2014-12-07 22:06:58,270 INFO     repeater     task ashtech_hcorrstats ended after 1.0 seconds
2014-12-07 22:08:03,343 INFO     repeater     task nb300_lastensq starting 0.3 seconds late
2014-12-07 22:08:05,451 INFO     repeater     task nb300_lastensq ended after 2.1 seconds
2014-12-07 22:08:05,452 INFO     repeater     task nb300_lastensq: Time from /home/data/SP1411/proc/nb300/load/wrote_ens_time: 2014/12/07 22:07:53
2014-12-07 22:10:05,600 INFO     repeater     task nb300_lastensq starting 2.6 seconds late
2014-12-07 22:10:07,718 INFO     repeater     task nb300_lastensq ended after 2.1 seconds
2014-12-07 22:10:07,718 INFO     repeater     task nb300_lastensq: Time from /home/data/SP1411/proc/nb300/load/wrote_ens_time: 2014/12/07 22:09:53
2014-12-07 22:11:57,854 INFO     repeater     task nb300_beamplots starting 4.6 seconds late
2014-12-07 22:11:59,540 INFO     repeater     task nb300_beamplots output:
Starting procsetup

2014-12-07 22:11:59,540 INFO     repeater     task nb300_beamplots ended after 1.7 seconds
2014-12-07 22:11:59,541 INFO     repeater     task nb300_beamplots starting 6.3 seconds late
2014-12-07 22:12:01,145 INFO     repeater     task nb300_beamplots output:
Starting procsetup

2014-12-07 22:12:01,146 INFO     repeater     task nb300_beamplots ended after 1.6 seconds
2014-12-07 22:12:01,146 INFO     repeater     task ashtech_hcorrstats starting 7.9 seconds late
2014-12-07 22:12:02,074 INFO     repeater     task ashtech_hcorrstats ended after 0.9 seconds
2014-12-07 22:12:07,080 INFO     repeater     task nb300_lastensq starting 4.1 seconds late
2014-12-07 22:12:09,181 INFO     repeater     task nb300_lastensq ended after 2.1 seconds
2014-12-07 22:12:09,182 INFO     repeater     task nb300_lastensq: Time from /home/data/SP1411/proc/nb300/load/wrote_ens_time: 2014/12/07 22:11:53
2014-12-07 22:14:04,308 INFO     repeater     task nb300_lastensq starting 1.3 seconds late
2014-12-07 22:14:06,445 INFO     repeater     task nb300_lastensq ended after 2.1 seconds
2014-12-07 22:14:06,445 INFO     repeater     task nb300_lastensq: Time from /home/data/SP1411/proc/nb300/load/wrote_ens_time: 2014/12/07 22:13:53
2014-12-07 22:16:06,587 INFO     repeater     task nb300_lastensq starting 3.6 seconds late
2014-12-07 22:16:08,706 INFO     repeater     task nb300_lastensq ended after 2.1 seconds
2014-12-07 22:16:08,706 INFO     repeater     task nb300_lastensq: Time from /home/data/SP1411/proc/nb300/load/wrote_ens_time: 2014/12/07 22:15:53
2014-12-07 22:16:53,762 INFO     repeater     task ashtech_hcorrstats starting 0.5 seconds late
2014-12-07 22:16:54,692 INFO     repeater     task ashtech_hcorrstats ended after 0.9 seconds
2014-12-07 22:18:04,781 INFO     repeater     task nb300_lastensq starting 1.8 seconds late
2014-12-07 22:18:06,862 INFO     repeater     task nb300_lastensq ended after 2.1 seconds
2014-12-07 22:18:06,862 INFO     repeater     task nb300_lastensq: Time from /home/data/SP1411/proc/nb300/load/wrote_ens_time: 2014/12/07 22:17:53
2014-12-07 22:20:06,997 INFO     repeater     task nb300_lastensq starting 4.0 seconds late
2014-12-07 22:20:09,112 INFO     repeater     task nb300_lastensq ended after 2.1 seconds
2014-12-07 22:20:09,112 INFO     repeater     task nb300_lastensq: Time from /home/data/SP1411/proc/nb300/load/wrote_ens_time: 2014/12/07 22:19:53
2014-12-07 22:21:54,232 INFO     repeater     task nb300_beamplots starting 1.0 seconds late
2014-12-07 22:21:55,926 INFO     repeater     task nb300_beamplots output:
Starting procsetup

2014-12-07 22:21:55,927 INFO     repeater     task nb300_beamplots ended after 1.7 seconds
2014-12-07 22:21:55,927 INFO     repeater     task nb300_beamplots starting 2.7 seconds late
2014-12-07 22:21:57,561 INFO     repeater     task nb300_beamplots output:
Starting procsetup

2014-12-07 22:21:57,561 INFO     repeater     task nb300_beamplots ended after 1.6 seconds
2014-12-07 22:21:57,562 INFO     repeater     task ashtech_hcorrstats starting 4.3 seconds late
2014-12-07 22:21:58,494 INFO     repeater     task ashtech_hcorrstats ended after 0.9 seconds
2014-12-07 22:22:03,500 INFO     repeater     task nb300_lastensq starting 0.5 seconds late
2014-12-07 22:22:05,582 INFO     repeater     task nb300_lastensq ended after 2.1 seconds
2014-12-07 22:22:05,582 INFO     repeater     task nb300_lastensq: Time from /home/data/SP1411/proc/nb300/load/wrote_ens_time: 2014/12/07 22:21:53
2014-12-07 22:24:05,720 INFO     repeater     task nb300_lastensq starting 2.7 seconds late
2014-12-07 22:24:07,852 INFO     repeater     task nb300_lastensq ended after 2.1 seconds
2014-12-07 22:24:07,853 INFO     repeater     task nb300_lastensq: Time from /home/data/SP1411/proc/nb300/load/wrote_ens_time: 2014/12/07 22:23:53
2014-12-07 22:26:07,976 INFO     repeater     task nb300_lastensq starting 5.0 seconds late
2014-12-07 22:26:10,048 INFO     repeater     task nb300_lastensq ended after 2.1 seconds
2014-12-07 22:26:10,048 INFO     repeater     task nb300_lastensq: Time from /home/data/SP1411/proc/nb300/load/wrote_ens_time: 2014/12/07 22:25:53
2014-12-07 22:26:55,109 INFO     repeater     task ashtech_hcorrstats starting 1.8 seconds late
2014-12-07 22:26:56,042 INFO     repeater     task ashtech_hcorrstats ended after 0.9 seconds
2014-12-07 22:28:06,118 INFO     repeater     task nb300_lastensq starting 3.1 seconds late
2014-12-07 22:28:08,244 INFO     repeater     task nb300_lastensq ended after 2.1 seconds
2014-12-07 22:28:08,245 INFO     repeater     task nb300_lastensq: Time from /home/data/SP1411/proc/nb300/load/wrote_ens_time: 2014/12/07 22:27:53
2014-12-07 22:30:03,384 INFO     repeater     task nb300_lastensq starting 0.4 seconds late
2014-12-07 22:30:05,520 INFO     repeater     task nb300_lastensq ended after 2.1 seconds
2014-12-07 22:30:05,521 INFO     repeater     task nb300_lastensq: Time from /home/data/SP1411/proc/nb300/load/wrote_ens_time: 2014/12/07 22:29:53
2014-12-07 22:31:55,647 INFO     repeater     task nb300_quick starting 2.4 seconds late
2014-12-07 22:32:00,028 INFO     repeater     task nb300_quick ended after 4.4 seconds
2014-12-07 22:32:00,028 INFO     repeater     task nb300_3dayplots starting 6.8 seconds late
2014-12-07 22:32:04,648 INFO     repeater     task nb300_3dayplots ended after 4.6 seconds
2014-12-07 22:32:04,649 INFO     repeater     task nb300_beamplots starting 11.4 seconds late
2014-12-07 22:32:06,311 INFO     repeater     task nb300_beamplots output:
Starting procsetup

2014-12-07 22:32:06,311 INFO     repeater     task nb300_beamplots ended after 1.7 seconds
2014-12-07 22:32:06,311 INFO     repeater     task nb300_beamplots starting 13.0 seconds late
2014-12-07 22:32:08,035 INFO     repeater     task nb300_beamplots output:
Starting procsetup

2014-12-07 22:32:08,036 INFO     repeater     task nb300_beamplots ended after 1.7 seconds
2014-12-07 22:32:08,036 INFO     repeater     task ashtech_hcorrstats starting 14.8 seconds late
2014-12-07 22:32:08,972 INFO     repeater     task ashtech_hcorrstats ended after 0.9 seconds
2014-12-07 22:32:13,978 INFO     repeater     task nb300_lastensq starting 11.0 seconds late
2014-12-07 22:32:16,121 INFO     repeater     task nb300_lastensq ended after 2.1 seconds
2014-12-07 22:32:16,122 INFO     repeater     task nb300_lastensq: Time from /home/data/SP1411/proc/nb300/load/wrote_ens_time: 2014/12/07 22:31:53
2014-12-07 22:34:06,237 INFO     repeater     task nb300_lastensq starting 3.2 seconds late
2014-12-07 22:34:08,346 INFO     repeater     task nb300_lastensq ended after 2.1 seconds
2014-12-07 22:34:08,346 INFO     repeater     task nb300_lastensq: Time from /home/data/SP1411/proc/nb300/load/wrote_ens_time: 2014/12/07 22:33:53
2014-12-07 22:36:03,481 INFO     repeater     task nb300_lastensq starting 0.5 seconds late
2014-12-07 22:36:05,553 INFO     repeater     task nb300_lastensq ended after 2.1 seconds
2014-12-07 22:36:05,553 INFO     repeater     task nb300_lastensq: Time from /home/data/SP1411/proc/nb300/load/wrote_ens_time: 2014/12/07 22:35:53
2014-12-07 22:36:55,603 INFO     repeater     task ashtech_hcorrstats starting 2.3 seconds late
2014-12-07 22:36:56,560 INFO     repeater     task ashtech_hcorrstats ended after 1.0 seconds
2014-12-07 22:38:06,648 INFO     repeater     task nb300_lastensq starting 3.6 seconds late
2014-12-07 22:38:08,733 INFO     repeater     task nb300_lastensq ended after 2.1 seconds
2014-12-07 22:38:08,734 INFO     repeater     task nb300_lastensq: Time from /home/data/SP1411/proc/nb300/load/wrote_ens_time: 2014/12/07 22:37:53
2014-12-07 22:40:03,865 INFO     repeater     task nb300_lastensq starting 0.9 seconds late
2014-12-07 22:40:05,945 INFO     repeater     task nb300_lastensq ended after 2.1 seconds
2014-12-07 22:40:05,946 INFO     repeater     task nb300_lastensq: Time from /home/data/SP1411/proc/nb300/load/wrote_ens_time: 2014/12/07 22:39:53
2014-12-07 22:41:56,074 INFO     repeater     task nb300_beamplots starting 2.8 seconds late
2014-12-07 22:41:57,741 INFO     repeater     task nb300_beamplots output:
Starting procsetup

2014-12-07 22:41:57,742 INFO     repeater     task nb300_beamplots ended after 1.7 seconds
2014-12-07 22:41:57,742 INFO     repeater     task nb300_beamplots starting 4.5 seconds late
2014-12-07 22:41:59,345 INFO     repeater     task nb300_beamplots output:
Starting procsetup

2014-12-07 22:41:59,345 INFO     repeater     task nb300_beamplots ended after 1.6 seconds
2014-12-07 22:41:59,345 INFO     repeater     task ashtech_hcorrstats starting 6.1 seconds late
2014-12-07 22:42:00,270 INFO     repeater     task ashtech_hcorrstats ended after 0.9 seconds
2014-12-07 22:42:05,271 INFO     repeater     task nb300_lastensq starting 2.3 seconds late
2014-12-07 22:42:07,354 INFO     repeater     task nb300_lastensq ended after 2.1 seconds
2014-12-07 22:42:07,355 INFO     repeater     task nb300_lastensq: Time from /home/data/SP1411/proc/nb300/load/wrote_ens_time: 2014/12/07 22:41:53
2014-12-07 22:44:07,488 INFO     repeater     task nb300_lastensq starting 4.5 seconds late
2014-12-07 22:44:09,644 INFO     repeater     task nb300_lastensq ended after 2.2 seconds
2014-12-07 22:44:09,645 INFO     repeater     task nb300_lastensq: Time from /home/data/SP1411/proc/nb300/load/wrote_ens_time: 2014/12/07 22:43:53
2014-12-07 22:46:04,778 INFO     repeater     task nb300_lastensq starting 1.8 seconds late
2014-12-07 22:46:06,895 INFO     repeater     task nb300_lastensq ended after 2.1 seconds
2014-12-07 22:46:06,895 INFO     repeater     task nb300_lastensq: Time from /home/data/SP1411/proc/nb300/load/wrote_ens_time: 2014/12/07 22:45:53
2014-12-07 22:46:56,950 INFO     repeater     task ashtech_hcorrstats starting 3.7 seconds late
2014-12-07 22:46:57,888 INFO     repeater     task ashtech_hcorrstats ended after 0.9 seconds
2014-12-07 22:48:07,967 INFO     repeater     task nb300_lastensq starting 5.0 seconds late
2014-12-07 22:48:10,072 INFO     repeater     task nb300_lastensq ended after 2.1 seconds
2014-12-07 22:48:10,073 INFO     repeater     task nb300_lastensq: Time from /home/data/SP1411/proc/nb300/load/wrote_ens_time: 2014/12/07 22:47:53
2014-12-07 22:50:05,208 INFO     repeater     task nb300_lastensq starting 2.2 seconds late
2014-12-07 22:50:07,291 INFO     repeater     task nb300_lastensq ended after 2.1 seconds
2014-12-07 22:50:07,292 INFO     repeater     task nb300_lastensq: Time from /home/data/SP1411/proc/nb300/load/wrote_ens_time: 2014/12/07 22:49:53
2014-12-07 22:51:57,429 INFO     repeater     task nb300_beamplots starting 4.2 seconds late
2014-12-07 22:51:59,094 INFO     repeater     task nb300_beamplots output:
Starting procsetup

2014-12-07 22:51:59,094 INFO     repeater     task nb300_beamplots ended after 1.7 seconds
2014-12-07 22:51:59,095 INFO     repeater     task nb300_beamplots starting 5.8 seconds late
2014-12-07 22:52:00,811 INFO     repeater     task nb300_beamplots output:
Starting procsetup

2014-12-07 22:52:00,811 INFO     repeater     task nb300_beamplots ended after 1.7 seconds
2014-12-07 22:52:00,811 INFO     repeater     task ashtech_hcorrstats starting 7.5 seconds late
2014-12-07 22:52:01,744 INFO     repeater     task ashtech_hcorrstats ended after 0.9 seconds
2014-12-07 22:52:06,750 INFO     repeater     task nb300_lastensq starting 3.8 seconds late
2014-12-07 22:52:08,834 INFO     repeater     task nb300_lastensq ended after 2.1 seconds
2014-12-07 22:52:08,834 INFO     repeater     task nb300_lastensq: Time from /home/data/SP1411/proc/nb300/load/wrote_ens_time: 2014/12/07 22:51:53
2014-12-07 22:54:03,968 INFO     repeater     task nb300_lastensq starting 1.0 seconds late
2014-12-07 22:54:06,118 INFO     repeater     task nb300_lastensq ended after 2.1 seconds
2014-12-07 22:54:06,118 INFO     repeater     task nb300_lastensq: Time from /home/data/SP1411/proc/nb300/load/wrote_ens_time: 2014/12/07 22:53:53
2014-12-07 22:56:06,241 INFO     repeater     task nb300_lastensq starting 3.2 seconds late
2014-12-07 22:56:08,338 INFO     repeater     task nb300_lastensq ended after 2.1 seconds
2014-12-07 22:56:08,338 INFO     repeater     task nb300_lastensq: Time from /home/data/SP1411/proc/nb300/load/wrote_ens_time: 2014/12/07 22:55:53
2014-12-07 22:56:53,389 INFO     repeater     task ashtech_hcorrstats starting 0.1 seconds late
2014-12-07 22:56:54,326 INFO     repeater     task ashtech_hcorrstats ended after 0.9 seconds
2014-12-07 22:58:04,411 INFO     repeater     task nb300_lastensq starting 1.4 seconds late
2014-12-07 22:58:06,552 INFO     repeater     task nb300_lastensq ended after 2.1 seconds
2014-12-07 22:58:06,552 INFO     repeater     task nb300_lastensq: Time from /home/data/SP1411/proc/nb300/load/wrote_ens_time: 2014/12/07 22:57:53
2014-12-07 23:00:06,702 INFO     repeater     task nb300_lastensq starting 3.7 seconds late
2014-12-07 23:00:08,859 INFO     repeater     task nb300_lastensq ended after 2.2 seconds
2014-12-07 23:00:08,860 INFO     repeater     task nb300_lastensq: Time from /home/data/SP1411/proc/nb300/load/wrote_ens_time: 2014/12/07 22:59:53
2014-12-07 23:01:53,971 INFO     repeater     task nb300_quick starting 0.7 seconds late
2014-12-07 23:01:58,285 INFO     repeater     task nb300_quick ended after 4.3 seconds
2014-12-07 23:01:58,286 INFO     repeater     task nb300_3dayplots starting 5.0 seconds late
2014-12-07 23:02:02,892 INFO     repeater     task nb300_3dayplots ended after 4.6 seconds
2014-12-07 23:02:02,893 INFO     repeater     task nb300_beamplots starting 9.6 seconds late
2014-12-07 23:02:04,565 INFO     repeater     task nb300_beamplots output:
Starting procsetup

2014-12-07 23:02:04,565 INFO     repeater     task nb300_beamplots ended after 1.7 seconds
2014-12-07 23:02:04,566 INFO     repeater     task nb300_beamplots starting 11.3 seconds late
2014-12-07 23:02:06,261 INFO     repeater     task nb300_beamplots output:
Starting procsetup

2014-12-07 23:02:06,261 INFO     repeater     task nb300_beamplots ended after 1.7 seconds
2014-12-07 23:02:06,261 INFO     repeater     task ashtech_hcorrstats starting 13.0 seconds late
2014-12-07 23:02:07,183 INFO     repeater     task ashtech_hcorrstats ended after 0.9 seconds
2014-12-07 23:02:12,188 INFO     repeater     task nb300_lastensq starting 9.2 seconds late
2014-12-07 23:02:14,348 INFO     repeater     task nb300_lastensq ended after 2.2 seconds
2014-12-07 23:02:14,348 INFO     repeater     task nb300_lastensq: Time from /home/data/SP1411/proc/nb300/load/wrote_ens_time: 2014/12/07 23:01:53
2014-12-07 23:04:04,467 INFO     repeater     task nb300_lastensq starting 1.5 seconds late
2014-12-07 23:04:06,621 INFO     repeater     task nb300_lastensq ended after 2.2 seconds
2014-12-07 23:04:06,621 INFO     repeater     task nb300_lastensq: Time from /home/data/SP1411/proc/nb300/load/wrote_ens_time: 2014/12/07 23:03:53
2014-12-07 23:06:06,754 INFO     repeater     task nb300_lastensq starting 3.8 seconds late
2014-12-07 23:06:08,888 INFO     repeater     task nb300_lastensq ended after 2.1 seconds
2014-12-07 23:06:08,888 INFO     repeater     task nb300_lastensq: Time from /home/data/SP1411/proc/nb300/load/wrote_ens_time: 2014/12/07 23:05:53
2014-12-07 23:06:53,942 INFO     repeater     task ashtech_hcorrstats starting 0.7 seconds late
2014-12-07 23:06:54,886 INFO     repeater     task ashtech_hcorrstats ended after 0.9 seconds
2014-12-07 23:08:04,970 INFO     repeater     task nb300_lastensq starting 2.0 seconds late
2014-12-07 23:08:07,117 INFO     repeater     task nb300_lastensq ended after 2.1 seconds
2014-12-07 23:08:07,118 INFO     repeater     task nb300_lastensq: Time from /home/data/SP1411/proc/nb300/load/wrote_ens_time: 2014/12/07 23:07:53
2014-12-07 23:10:07,254 INFO     repeater     task nb300_lastensq starting 4.3 seconds late
2014-12-07 23:10:09,398 INFO     repeater     task nb300_lastensq ended after 2.1 seconds
2014-12-07 23:10:09,398 INFO     repeater     task nb300_lastensq: Time from /home/data/SP1411/proc/nb300/load/wrote_ens_time: 2014/12/07 23:09:53
2014-12-07 23:11:54,519 INFO     repeater     task nb300_beamplots starting 1.2 seconds late
2014-12-07 23:11:56,100 INFO     repeater     task nb300_beamplots output:
Starting procsetup

2014-12-07 23:11:56,100 INFO     repeater     task nb300_beamplots ended after 1.6 seconds
2014-12-07 23:11:56,101 INFO     repeater     task nb300_beamplots starting 2.8 seconds late
2014-12-07 23:11:57,792 INFO     repeater     task nb300_beamplots output:
Starting procsetup

2014-12-07 23:11:57,793 INFO     repeater     task nb300_beamplots ended after 1.7 seconds
2014-12-07 23:11:57,793 INFO     repeater     task ashtech_hcorrstats starting 4.5 seconds late
2014-12-07 23:11:58,715 INFO     repeater     task ashtech_hcorrstats ended after 0.9 seconds
2014-12-07 23:12:03,721 INFO     repeater     task nb300_lastensq starting 0.7 seconds late
2014-12-07 23:12:05,901 INFO     repeater     task nb300_lastensq ended after 2.2 seconds
2014-12-07 23:12:05,902 INFO     repeater     task nb300_lastensq: Time from /home/data/SP1411/proc/nb300/load/wrote_ens_time: 2014/12/07 23:11:53
2014-12-07 23:14:06,028 INFO     repeater     task nb300_lastensq starting 3.0 seconds late
2014-12-07 23:14:08,208 INFO     repeater     task nb300_lastensq ended after 2.2 seconds
2014-12-07 23:14:08,208 INFO     repeater     task nb300_lastensq: Time from /home/data/SP1411/proc/nb300/load/wrote_ens_time: 2014/12/07 23:13:53
2014-12-07 23:16:03,330 INFO     repeater     task nb300_lastensq starting 0.3 seconds late
2014-12-07 23:16:05,445 INFO     repeater     task nb300_lastensq ended after 2.1 seconds
2014-12-07 23:16:05,446 INFO     repeater     task nb300_lastensq: Time from /home/data/SP1411/proc/nb300/load/wrote_ens_time: 2014/12/07 23:15:53
2014-12-07 23:16:55,500 INFO     repeater     task ashtech_hcorrstats starting 2.2 seconds late
2014-12-07 23:16:56,427 INFO     repeater     task ashtech_hcorrstats ended after 0.9 seconds
2014-12-07 23:18:06,511 INFO     repeater     task nb300_lastensq starting 3.5 seconds late
2014-12-07 23:18:08,660 INFO     repeater     task nb300_lastensq ended after 2.1 seconds
2014-12-07 23:18:08,661 INFO     repeater     task nb300_lastensq: Time from /home/data/SP1411/proc/nb300/load/wrote_ens_time: 2014/12/07 23:17:53
2014-12-07 23:20:03,800 INFO     repeater     task nb300_lastensq starting 0.8 seconds late
2014-12-07 23:20:05,913 INFO     repeater     task nb300_lastensq ended after 2.1 seconds
2014-12-07 23:20:05,914 INFO     repeater     task nb300_lastensq: Time from /home/data/SP1411/proc/nb300/load/wrote_ens_time: 2014/12/07 23:19:53
2014-12-07 23:21:56,033 INFO     repeater     task nb300_beamplots starting 2.8 seconds late
2014-12-07 23:21:57,632 INFO     repeater     task nb300_beamplots output:
Starting procsetup

2014-12-07 23:21:57,632 INFO     repeater     task nb300_beamplots ended after 1.6 seconds
2014-12-07 23:21:57,632 INFO     repeater     task nb300_beamplots starting 4.4 seconds late
2014-12-07 23:21:59,365 INFO     repeater     task nb300_beamplots output:
Starting procsetup

2014-12-07 23:21:59,365 INFO     repeater     task nb300_beamplots ended after 1.7 seconds
2014-12-07 23:21:59,366 INFO     repeater     task ashtech_hcorrstats starting 6.1 seconds late
2014-12-07 23:22:00,301 INFO     repeater     task ashtech_hcorrstats ended after 0.9 seconds
2014-12-07 23:22:05,307 INFO     repeater     task nb300_lastensq starting 2.3 seconds late
2014-12-07 23:22:07,452 INFO     repeater     task nb300_lastensq ended after 2.1 seconds
2014-12-07 23:22:07,453 INFO     repeater     task nb300_lastensq: Time from /home/data/SP1411/proc/nb300/load/wrote_ens_time: 2014/12/07 23:21:53
2014-12-07 23:24:07,583 INFO     repeater     task nb300_lastensq starting 4.6 seconds late
2014-12-07 23:24:09,711 INFO     repeater     task nb300_lastensq ended after 2.1 seconds
2014-12-07 23:24:09,712 INFO     repeater     task nb300_lastensq: Time from /home/data/SP1411/proc/nb300/load/wrote_ens_time: 2014/12/07 23:23:53
2014-12-07 23:26:04,854 INFO     repeater     task nb300_lastensq starting 1.9 seconds late
2014-12-07 23:26:07,013 INFO     repeater     task nb300_lastensq ended after 2.2 seconds
2014-12-07 23:26:07,014 INFO     repeater     task nb300_lastensq: Time from /home/data/SP1411/proc/nb300/load/wrote_ens_time: 2014/12/07 23:25:53
2014-12-07 23:26:57,075 INFO     repeater     task ashtech_hcorrstats starting 3.8 seconds late
2014-12-07 23:26:58,021 INFO     repeater     task ashtech_hcorrstats ended after 0.9 seconds
2014-12-07 23:28:03,088 INFO     repeater     task nb300_lastensq starting 0.1 seconds late
2014-12-07 23:28:05,242 INFO     repeater     task nb300_lastensq ended after 2.2 seconds
2014-12-07 23:28:05,242 INFO     repeater     task nb300_lastensq: Time from /home/data/SP1411/proc/nb300/load/wrote_ens_time: 2014/12/07 23:27:53
2014-12-07 23:30:05,374 INFO     repeater     task nb300_lastensq starting 2.4 seconds late
2014-12-07 23:30:07,565 INFO     repeater     task nb300_lastensq ended after 2.2 seconds
2014-12-07 23:30:07,566 INFO     repeater     task nb300_lastensq: Time from /home/data/SP1411/proc/nb300/load/wrote_ens_time: 2014/12/07 23:29:53
2014-12-07 23:31:57,692 INFO     repeater     task nb300_quick starting 4.5 seconds late
2014-12-07 23:32:02,069 INFO     repeater     task nb300_quick ended after 4.4 seconds
2014-12-07 23:32:02,069 INFO     repeater     task nb300_3dayplots starting 8.8 seconds late
2014-12-07 23:32:06,649 INFO     repeater     task nb300_3dayplots ended after 4.6 seconds
2014-12-07 23:32:06,650 INFO     repeater     task nb300_beamplots starting 13.4 seconds late
2014-12-07 23:32:08,305 INFO     repeater     task nb300_beamplots output:
Starting procsetup

2014-12-07 23:32:08,306 INFO     repeater     task nb300_beamplots ended after 1.7 seconds
2014-12-07 23:32:08,306 INFO     repeater     task nb300_beamplots starting 15.0 seconds late
2014-12-07 23:32:10,043 INFO     repeater     task nb300_beamplots output:
Starting procsetup

2014-12-07 23:32:10,043 INFO     repeater     task nb300_beamplots ended after 1.7 seconds
2014-12-07 23:32:10,043 INFO     repeater     task ashtech_hcorrstats starting 16.8 seconds late
2014-12-07 23:32:10,979 INFO     repeater     task ashtech_hcorrstats ended after 0.9 seconds
2014-12-07 23:32:15,981 INFO     repeater     task nb300_lastensq starting 13.0 seconds late
2014-12-07 23:32:18,119 INFO     repeater     task nb300_lastensq ended after 2.1 seconds
2014-12-07 23:32:18,119 INFO     repeater     task nb300_lastensq: Time from /home/data/SP1411/proc/nb300/load/wrote_ens_time: 2014/12/07 23:31:53
2014-12-07 23:34:03,251 INFO     repeater     task nb300_lastensq starting 0.3 seconds late
2014-12-07 23:34:05,373 INFO     repeater     task nb300_lastensq ended after 2.1 seconds
2014-12-07 23:34:05,373 INFO     repeater     task nb300_lastensq: Time from /home/data/SP1411/proc/nb300/load/wrote_ens_time: 2014/12/07 23:33:53
2014-12-07 23:36:05,504 INFO     repeater     task nb300_lastensq starting 2.5 seconds late
2014-12-07 23:36:07,642 INFO     repeater     task nb300_lastensq ended after 2.1 seconds
2014-12-07 23:36:07,642 INFO     repeater     task nb300_lastensq: Time from /home/data/SP1411/proc/nb300/load/wrote_ens_time: 2014/12/07 23:35:53
2014-12-07 23:36:57,697 INFO     repeater     task ashtech_hcorrstats starting 4.4 seconds late
2014-12-07 23:36:58,654 INFO     repeater     task ashtech_hcorrstats ended after 1.0 seconds
2014-12-07 23:38:03,735 INFO     repeater     task nb300_lastensq starting 0.7 seconds late
2014-12-07 23:38:05,869 INFO     repeater     task nb300_lastensq ended after 2.1 seconds
2014-12-07 23:38:05,869 INFO     repeater     task nb300_lastensq: Time from /home/data/SP1411/proc/nb300/load/wrote_ens_time: 2014/12/07 23:37:53
2014-12-07 23:40:06,002 INFO     repeater     task nb300_lastensq starting 3.0 seconds late
2014-12-07 23:40:08,166 INFO     repeater     task nb300_lastensq ended after 2.2 seconds
2014-12-07 23:40:08,166 INFO     repeater     task nb300_lastensq: Time from /home/data/SP1411/proc/nb300/load/wrote_ens_time: 2014/12/07 23:39:53
2014-12-07 23:41:53,282 INFO     repeater     task nb300_beamplots starting 0.0 seconds late
2014-12-07 23:41:54,984 INFO     repeater     task nb300_beamplots output:
Starting procsetup

2014-12-07 23:41:54,985 INFO     repeater     task nb300_beamplots ended after 1.7 seconds
2014-12-07 23:41:54,985 INFO     repeater     task nb300_beamplots starting 1.7 seconds late
2014-12-07 23:41:56,613 INFO     repeater     task nb300_beamplots output:
Starting procsetup

2014-12-07 23:41:56,613 INFO     repeater     task nb300_beamplots ended after 1.6 seconds
2014-12-07 23:41:56,613 INFO     repeater     task ashtech_hcorrstats starting 3.3 seconds late
2014-12-07 23:41:57,549 INFO     repeater     task ashtech_hcorrstats ended after 0.9 seconds
2014-12-07 23:42:07,558 INFO     repeater     task nb300_lastensq starting 4.6 seconds late
2014-12-07 23:42:09,757 INFO     repeater     task nb300_lastensq ended after 2.2 seconds
2014-12-07 23:42:09,757 INFO     repeater     task nb300_lastensq: Time from /home/data/SP1411/proc/nb300/load/wrote_ens_time: 2014/12/07 23:41:53
2014-12-07 23:44:04,894 INFO     repeater     task nb300_lastensq starting 1.9 seconds late
2014-12-07 23:44:07,075 INFO     repeater     task nb300_lastensq ended after 2.2 seconds
2014-12-07 23:44:07,075 INFO     repeater     task nb300_lastensq: Time from /home/data/SP1411/proc/nb300/load/wrote_ens_time: 2014/12/07 23:43:53
2014-12-07 23:46:07,202 INFO     repeater     task nb300_lastensq starting 4.2 seconds late
2014-12-07 23:46:09,378 INFO     repeater     task nb300_lastensq ended after 2.2 seconds
2014-12-07 23:46:09,378 INFO     repeater     task nb300_lastensq: Time from /home/data/SP1411/proc/nb300/load/wrote_ens_time: 2014/12/07 23:45:53
2014-12-07 23:46:54,433 INFO     repeater     task ashtech_hcorrstats starting 1.2 seconds late
2014-12-07 23:46:55,369 INFO     repeater     task ashtech_hcorrstats ended after 0.9 seconds
2014-12-07 23:48:05,454 INFO     repeater     task nb300_lastensq starting 2.5 seconds late
2014-12-07 23:48:07,594 INFO     repeater     task nb300_lastensq ended after 2.1 seconds
2014-12-07 23:48:07,594 INFO     repeater     task nb300_lastensq: Time from /home/data/SP1411/proc/nb300/load/wrote_ens_time: 2014/12/07 23:47:53
2014-12-07 23:50:07,735 INFO     repeater     task nb300_lastensq starting 4.7 seconds late
2014-12-07 23:50:09,918 INFO     repeater     task nb300_lastensq ended after 2.2 seconds
2014-12-07 23:50:09,918 INFO     repeater     task nb300_lastensq: Time from /home/data/SP1411/proc/nb300/load/wrote_ens_time: 2014/12/07 23:49:53
2014-12-07 23:51:55,040 INFO     repeater     task nb300_beamplots starting 1.8 seconds late
2014-12-07 23:51:56,709 INFO     repeater     task nb300_beamplots output:
Starting procsetup

2014-12-07 23:51:56,709 INFO     repeater     task nb300_beamplots ended after 1.7 seconds
2014-12-07 23:51:56,709 INFO     repeater     task nb300_beamplots starting 3.4 seconds late
2014-12-07 23:51:58,435 INFO     repeater     task nb300_beamplots output:
Starting procsetup

2014-12-07 23:51:58,435 INFO     repeater     task nb300_beamplots ended after 1.7 seconds
2014-12-07 23:51:58,436 INFO     repeater     task ashtech_hcorrstats starting 5.2 seconds late
2014-12-07 23:51:59,372 INFO     repeater     task ashtech_hcorrstats ended after 0.9 seconds
2014-12-07 23:52:04,378 INFO     repeater     task nb300_lastensq starting 1.4 seconds late
2014-12-07 23:52:06,520 INFO     repeater     task nb300_lastensq ended after 2.1 seconds
2014-12-07 23:52:06,521 INFO     repeater     task nb300_lastensq: Time from /home/data/SP1411/proc/nb300/load/wrote_ens_time: 2014/12/07 23:51:53
2014-12-07 23:54:06,670 INFO     repeater     task nb300_lastensq starting 3.7 seconds late
2014-12-07 23:54:08,869 INFO     repeater     task nb300_lastensq ended after 2.2 seconds
2014-12-07 23:54:08,869 INFO     repeater     task nb300_lastensq: Time from /home/data/SP1411/proc/nb300/load/wrote_ens_time: 2014/12/07 23:53:53
2014-12-07 23:56:03,994 INFO     repeater     task nb300_lastensq starting 1.0 seconds late
2014-12-07 23:56:06,178 INFO     repeater     task nb300_lastensq ended after 2.2 seconds
2014-12-07 23:56:06,179 INFO     repeater     task nb300_lastensq: Time from /home/data/SP1411/proc/nb300/load/wrote_ens_time: 2014/12/07 23:55:53
2014-12-07 23:56:56,226 INFO     repeater     task ashtech_hcorrstats starting 3.0 seconds late
2014-12-07 23:56:57,168 INFO     repeater     task ashtech_hcorrstats ended after 0.9 seconds
2014-12-07 23:58:07,244 INFO     repeater     task nb300_lastensq starting 4.2 seconds late
2014-12-07 23:58:09,411 INFO     repeater     task nb300_lastensq ended after 2.2 seconds
2014-12-07 23:58:09,411 INFO     repeater     task nb300_lastensq: Time from /home/data/SP1411/proc/nb300/load/wrote_ens_time: 2014/12/07 23:57:53
2014-12-08 00:00:04,539 INFO     repeater     task nb300_lastensq starting 1.5 seconds late
2014-12-08 00:00:06,768 INFO     repeater     task nb300_lastensq ended after 2.2 seconds
2014-12-08 00:00:06,769 INFO     repeater     task nb300_lastensq: Time from /home/data/SP1411/proc/nb300/load/wrote_ens_time: 2014/12/07 23:59:53
2014-12-08 00:01:56,901 INFO     repeater     task nb300_quick starting 3.7 seconds late
2014-12-08 00:02:01,305 INFO     repeater     task nb300_quick ended after 4.4 seconds
2014-12-08 00:02:01,305 INFO     repeater     task nb300_3dayplots starting 8.1 seconds late
2014-12-08 00:02:05,868 INFO     repeater     task nb300_3dayplots ended after 4.6 seconds
2014-12-08 00:02:05,869 INFO     repeater     task nb300_beamplots starting 12.6 seconds late
2014-12-08 00:02:07,441 INFO     repeater     task nb300_beamplots output:
Starting procsetup

2014-12-08 00:02:07,442 INFO     repeater     task nb300_beamplots ended after 1.6 seconds
2014-12-08 00:02:07,442 INFO     repeater     task nb300_beamplots starting 14.2 seconds late
2014-12-08 00:02:09,174 INFO     repeater     task nb300_beamplots output:
Starting procsetup

2014-12-08 00:02:09,174 INFO     repeater     task nb300_beamplots ended after 1.7 seconds
2014-12-08 00:02:09,175 INFO     repeater     task ashtech_hcorrstats starting 15.9 seconds late
2014-12-08 00:02:10,118 INFO     repeater     task ashtech_hcorrstats ended after 0.9 seconds
2014-12-08 00:02:15,121 INFO     repeater     task nb300_lastensq starting 12.1 seconds late
2014-12-08 00:02:17,180 INFO     repeater     task nb300_lastensq ended after 2.1 seconds
2014-12-08 00:02:17,180 INFO     repeater     task nb300_lastensq: Time from /home/data/SP1411/proc/nb300/load/wrote_ens_time: 2014/12/08 00:01:53
2014-12-08 00:04:07,311 INFO     repeater     task nb300_lastensq starting 4.3 seconds late
2014-12-08 00:04:09,391 INFO     repeater     task nb300_lastensq ended after 2.1 seconds
2014-12-08 00:04:09,391 INFO     repeater     task nb300_lastensq: Time from /home/data/SP1411/proc/nb300/load/wrote_ens_time: 2014/12/08 00:03:53
2014-12-08 00:06:04,524 INFO     repeater     task nb300_lastensq starting 1.5 seconds late
2014-12-08 00:06:06,659 INFO     repeater     task nb300_lastensq ended after 2.1 seconds
2014-12-08 00:06:06,659 INFO     repeater     task nb300_lastensq: Time from /home/data/SP1411/proc/nb300/load/wrote_ens_time: 2014/12/08 00:05:53
2014-12-08 00:06:56,716 INFO     repeater     task ashtech_hcorrstats starting 3.4 seconds late
2014-12-08 00:06:57,643 INFO     repeater     task ashtech_hcorrstats ended after 0.9 seconds
2014-12-08 00:08:07,730 INFO     repeater     task nb300_lastensq starting 4.7 seconds late
2014-12-08 00:08:09,827 INFO     repeater     task nb300_lastensq ended after 2.1 seconds
2014-12-08 00:08:09,827 INFO     repeater     task nb300_lastensq: Time from /home/data/SP1411/proc/nb300/load/wrote_ens_time: 2014/12/08 00:07:53
2014-12-08 00:10:04,952 INFO     repeater     task nb300_lastensq starting 2.0 seconds late
2014-12-08 00:10:07,094 INFO     repeater     task nb300_lastensq ended after 2.1 seconds
2014-12-08 00:10:07,095 INFO     repeater     task nb300_lastensq: Time from /home/data/SP1411/proc/nb300/load/wrote_ens_time: 2014/12/08 00:09:53
2014-12-08 00:11:57,221 INFO     repeater     task nb300_beamplots starting 3.9 seconds late
2014-12-08 00:11:58,913 INFO     repeater     task nb300_beamplots output:
Starting procsetup

2014-12-08 00:11:58,913 INFO     repeater     task nb300_beamplots ended after 1.7 seconds
2014-12-08 00:11:58,913 INFO     repeater     task nb300_beamplots starting 5.6 seconds late
2014-12-08 00:12:00,540 INFO     repeater     task nb300_beamplots output:
Starting procsetup

2014-12-08 00:12:00,540 INFO     repeater     task nb300_beamplots ended after 1.6 seconds
2014-12-08 00:12:00,540 INFO     repeater     task ashtech_hcorrstats starting 7.3 seconds late
2014-12-08 00:12:01,471 INFO     repeater     task ashtech_hcorrstats ended after 0.9 seconds
2014-12-08 00:12:06,477 INFO     repeater     task nb300_lastensq starting 3.5 seconds late
2014-12-08 00:12:08,548 INFO     repeater     task nb300_lastensq ended after 2.1 seconds
2014-12-08 00:12:08,548 INFO     repeater     task nb300_lastensq: Time from /home/data/SP1411/proc/nb300/load/wrote_ens_time: 2014/12/08 00:11:53
2014-12-08 00:14:03,690 INFO     repeater     task nb300_lastensq starting 0.7 seconds late
2014-12-08 00:14:05,809 INFO     repeater     task nb300_lastensq ended after 2.1 seconds
2014-12-08 00:14:05,810 INFO     repeater     task nb300_lastensq: Time from /home/data/SP1411/proc/nb300/load/wrote_ens_time: 2014/12/08 00:13:53
2014-12-08 00:16:05,951 INFO     repeater     task nb300_lastensq starting 3.0 seconds late
2014-12-08 00:16:08,017 INFO     repeater     task nb300_lastensq ended after 2.1 seconds
2014-12-08 00:16:08,018 INFO     repeater     task nb300_lastensq: Time from /home/data/SP1411/proc/nb300/load/wrote_ens_time: 2014/12/08 00:15:53
2014-12-08 00:16:58,075 INFO     repeater     task ashtech_hcorrstats starting 4.8 seconds late
2014-12-08 00:16:59,008 INFO     repeater     task ashtech_hcorrstats ended after 0.9 seconds
2014-12-08 00:18:04,081 INFO     repeater     task nb300_lastensq starting 1.1 seconds late
2014-12-08 00:18:06,216 INFO     repeater     task nb300_lastensq ended after 2.1 seconds
2014-12-08 00:18:06,216 INFO     repeater     task nb300_lastensq: Time from /home/data/SP1411/proc/nb300/load/wrote_ens_time: 2014/12/08 00:17:53
2014-12-08 00:20:06,354 INFO     repeater     task nb300_lastensq starting 3.4 seconds late
2014-12-08 00:20:08,455 INFO     repeater     task nb300_lastensq ended after 2.1 seconds
2014-12-08 00:20:08,456 INFO     repeater     task nb300_lastensq: Time from /home/data/SP1411/proc/nb300/load/wrote_ens_time: 2014/12/08 00:19:53
2014-12-08 00:21:53,570 INFO     repeater     task nb300_beamplots starting 0.3 seconds late
2014-12-08 00:21:55,241 INFO     repeater     task nb300_beamplots output:
Starting procsetup

2014-12-08 00:21:55,242 INFO     repeater     task nb300_beamplots ended after 1.7 seconds
2014-12-08 00:21:55,242 INFO     repeater     task nb300_beamplots starting 2.0 seconds late
2014-12-08 00:21:56,858 INFO     repeater     task nb300_beamplots output:
Starting procsetup

2014-12-08 00:21:56,858 INFO     repeater     task nb300_beamplots ended after 1.6 seconds
2014-12-08 00:21:56,858 INFO     repeater     task ashtech_hcorrstats starting 3.6 seconds late
2014-12-08 00:21:57,782 INFO     repeater     task ashtech_hcorrstats ended after 0.9 seconds
2014-12-08 00:22:07,790 INFO     repeater     task nb300_lastensq starting 4.8 seconds late
2014-12-08 00:22:09,923 INFO     repeater     task nb300_lastensq ended after 2.1 seconds
2014-12-08 00:22:09,923 INFO     repeater     task nb300_lastensq: Time from /home/data/SP1411/proc/nb300/load/wrote_ens_time: 2014/12/08 00:21:53
2014-12-08 00:24:05,050 INFO     repeater     task nb300_lastensq starting 2.1 seconds late
2014-12-08 00:24:07,155 INFO     repeater     task nb300_lastensq ended after 2.1 seconds
2014-12-08 00:24:07,156 INFO     repeater     task nb300_lastensq: Time from /home/data/SP1411/proc/nb300/load/wrote_ens_time: 2014/12/08 00:23:53
2014-12-08 00:26:07,292 INFO     repeater     task nb300_lastensq starting 4.3 seconds late
2014-12-08 00:26:09,422 INFO     repeater     task nb300_lastensq ended after 2.1 seconds
