2014-12-06 11:30:04,731 INFO     repeater     task nb300_lastensq starting 1.7 seconds late
2014-12-06 11:30:06,925 INFO     repeater     task nb300_lastensq ended after 2.2 seconds
2014-12-06 11:30:06,926 INFO     repeater     task nb300_lastensq: Time from /home/data/SP1411/proc/nb300/load/wrote_ens_time: 2014/12/06 11:29:53
2014-12-06 11:31:57,038 INFO     repeater     task nb300_quick starting 3.8 seconds late
2014-12-06 11:32:00,257 INFO     repeater     task nb300_quick ended after 3.2 seconds
2014-12-06 11:32:00,257 INFO     repeater     task nb300_3dayplots starting 7.0 seconds late
2014-12-06 11:32:04,071 INFO     repeater     task nb300_3dayplots ended after 3.8 seconds
2014-12-06 11:32:04,106 INFO     repeater     task nb300_beamplots starting 10.8 seconds late
2014-12-06 11:32:05,801 INFO     repeater     task nb300_beamplots output:
Starting procsetup

2014-12-06 11:32:05,801 INFO     repeater     task nb300_beamplots ended after 1.7 seconds
2014-12-06 11:32:05,802 INFO     repeater     task nb300_beamplots starting 12.5 seconds late
2014-12-06 11:32:07,547 INFO     repeater     task nb300_beamplots output:
Starting procsetup

2014-12-06 11:32:07,547 INFO     repeater     task nb300_beamplots ended after 1.7 seconds
2014-12-06 11:32:07,548 INFO     repeater     task ashtech_hcorrstats starting 14.3 seconds late
2014-12-06 11:32:08,432 INFO     repeater     task ashtech_hcorrstats ended after 0.9 seconds
2014-12-06 11:32:13,438 INFO     repeater     task nb300_lastensq starting 10.4 seconds late
2014-12-06 11:32:15,577 INFO     repeater     task nb300_lastensq ended after 2.1 seconds
2014-12-06 11:32:15,577 INFO     repeater     task nb300_lastensq: Time from /home/data/SP1411/proc/nb300/load/wrote_ens_time: 2014/12/06 11:31:53
2014-12-06 11:34:05,718 INFO     repeater     task nb300_lastensq starting 2.7 seconds late
2014-12-06 11:34:07,838 INFO     repeater     task nb300_lastensq ended after 2.1 seconds
2014-12-06 11:34:07,838 INFO     repeater     task nb300_lastensq: Time from /home/data/SP1411/proc/nb300/load/wrote_ens_time: 2014/12/06 11:33:53
2014-12-06 11:36:07,978 INFO     repeater     task nb300_lastensq starting 5.0 seconds late
2014-12-06 11:36:10,103 INFO     repeater     task nb300_lastensq ended after 2.1 seconds
2014-12-06 11:36:10,103 INFO     repeater     task nb300_lastensq: Time from /home/data/SP1411/proc/nb300/load/wrote_ens_time: 2014/12/06 11:35:53
2014-12-06 11:36:55,158 INFO     repeater     task ashtech_hcorrstats starting 1.9 seconds late
2014-12-06 11:36:56,043 INFO     repeater     task ashtech_hcorrstats ended after 0.9 seconds
2014-12-06 11:38:06,128 INFO     repeater     task nb300_lastensq starting 3.1 seconds late
2014-12-06 11:38:08,237 INFO     repeater     task nb300_lastensq ended after 2.1 seconds
2014-12-06 11:38:08,238 INFO     repeater     task nb300_lastensq: Time from /home/data/SP1411/proc/nb300/load/wrote_ens_time: 2014/12/06 11:37:53
2014-12-06 11:40:03,358 INFO     repeater     task nb300_lastensq starting 0.4 seconds late
2014-12-06 11:40:05,535 INFO     repeater     task nb300_lastensq ended after 2.2 seconds
2014-12-06 11:40:05,535 INFO     repeater     task nb300_lastensq: Time from /home/data/SP1411/proc/nb300/load/wrote_ens_time: 2014/12/06 11:39:53
2014-12-06 11:41:55,657 INFO     repeater     task nb300_beamplots starting 2.4 seconds late
2014-12-06 11:41:57,338 INFO     repeater     task nb300_beamplots output:
Starting procsetup

2014-12-06 11:41:57,338 INFO     repeater     task nb300_beamplots ended after 1.7 seconds
2014-12-06 11:41:57,338 INFO     repeater     task nb300_beamplots starting 4.1 seconds late
2014-12-06 11:41:59,046 INFO     repeater     task nb300_beamplots output:
Starting procsetup

2014-12-06 11:41:59,047 INFO     repeater     task nb300_beamplots ended after 1.7 seconds
2014-12-06 11:41:59,047 INFO     repeater     task ashtech_hcorrstats starting 5.8 seconds late
2014-12-06 11:41:59,921 INFO     repeater     task ashtech_hcorrstats ended after 0.9 seconds
2014-12-06 11:42:04,924 INFO     repeater     task nb300_lastensq starting 1.9 seconds late
2014-12-06 11:42:07,095 INFO     repeater     task nb300_lastensq ended after 2.2 seconds
2014-12-06 11:42:07,095 INFO     repeater     task nb300_lastensq: Time from /home/data/SP1411/proc/nb300/load/wrote_ens_time: 2014/12/06 11:41:53
2014-12-06 11:44:07,241 INFO     repeater     task nb300_lastensq starting 4.2 seconds late
2014-12-06 11:44:09,412 INFO     repeater     task nb300_lastensq ended after 2.2 seconds
2014-12-06 11:44:09,413 INFO     repeater     task nb300_lastensq: Time from /home/data/SP1411/proc/nb300/load/wrote_ens_time: 2014/12/06 11:43:53
2014-12-06 11:46:04,552 INFO     repeater     task nb300_lastensq starting 1.6 seconds late
2014-12-06 11:46:06,682 INFO     repeater     task nb300_lastensq ended after 2.1 seconds
2014-12-06 11:46:06,683 INFO     repeater     task nb300_lastensq: Time from /home/data/SP1411/proc/nb300/load/wrote_ens_time: 2014/12/06 11:45:53
2014-12-06 11:46:56,751 INFO     repeater     task ashtech_hcorrstats starting 3.5 seconds late
2014-12-06 11:46:57,656 INFO     repeater     task ashtech_hcorrstats ended after 0.9 seconds
2014-12-06 11:48:07,730 INFO     repeater     task nb300_lastensq starting 4.7 seconds late
2014-12-06 11:48:09,906 INFO     repeater     task nb300_lastensq ended after 2.2 seconds
2014-12-06 11:48:09,906 INFO     repeater     task nb300_lastensq: Time from /home/data/SP1411/proc/nb300/load/wrote_ens_time: 2014/12/06 11:47:53
2014-12-06 11:50:05,041 INFO     repeater     task nb300_lastensq starting 2.0 seconds late
2014-12-06 11:50:07,168 INFO     repeater     task nb300_lastensq ended after 2.1 seconds
2014-12-06 11:50:07,168 INFO     repeater     task nb300_lastensq: Time from /home/data/SP1411/proc/nb300/load/wrote_ens_time: 2014/12/06 11:49:53
2014-12-06 11:51:57,298 INFO     repeater     task nb300_beamplots starting 4.0 seconds late
2014-12-06 11:51:59,004 INFO     repeater     task nb300_beamplots output:
Starting procsetup

2014-12-06 11:51:59,005 INFO     repeater     task nb300_beamplots ended after 1.7 seconds
2014-12-06 11:51:59,005 INFO     repeater     task nb300_beamplots starting 5.7 seconds late
2014-12-06 11:52:00,742 INFO     repeater     task nb300_beamplots output:
Starting procsetup

2014-12-06 11:52:00,742 INFO     repeater     task nb300_beamplots ended after 1.7 seconds
2014-12-06 11:52:00,742 INFO     repeater     task ashtech_hcorrstats starting 7.5 seconds late
2014-12-06 11:52:01,632 INFO     repeater     task ashtech_hcorrstats ended after 0.9 seconds
2014-12-06 11:52:06,638 INFO     repeater     task nb300_lastensq starting 3.6 seconds late
2014-12-06 11:52:08,781 INFO     repeater     task nb300_lastensq ended after 2.1 seconds
2014-12-06 11:52:08,781 INFO     repeater     task nb300_lastensq: Time from /home/data/SP1411/proc/nb300/load/wrote_ens_time: 2014/12/06 11:51:53
2014-12-06 11:54:03,911 INFO     repeater     task nb300_lastensq starting 0.9 seconds late
2014-12-06 11:54:06,034 INFO     repeater     task nb300_lastensq ended after 2.1 seconds
2014-12-06 11:54:06,034 INFO     repeater     task nb300_lastensq: Time from /home/data/SP1411/proc/nb300/load/wrote_ens_time: 2014/12/06 11:53:53
2014-12-06 11:56:06,171 INFO     repeater     task nb300_lastensq starting 3.2 seconds late
2014-12-06 11:56:08,295 INFO     repeater     task nb300_lastensq ended after 2.1 seconds
2014-12-06 11:56:08,295 INFO     repeater     task nb300_lastensq: Time from /home/data/SP1411/proc/nb300/load/wrote_ens_time: 2014/12/06 11:55:53
2014-12-06 11:56:53,337 INFO     repeater     task ashtech_hcorrstats starting 0.1 seconds late
2014-12-06 11:56:54,231 INFO     repeater     task ashtech_hcorrstats ended after 0.9 seconds
2014-12-06 11:58:04,300 INFO     repeater     task nb300_lastensq starting 1.3 seconds late
2014-12-06 11:58:06,445 INFO     repeater     task nb300_lastensq ended after 2.1 seconds
2014-12-06 11:58:06,445 INFO     repeater     task nb300_lastensq: Time from /home/data/SP1411/proc/nb300/load/wrote_ens_time: 2014/12/06 11:57:53
2014-12-06 12:00:06,581 INFO     repeater     task nb300_lastensq starting 3.6 seconds late
2014-12-06 12:00:08,778 INFO     repeater     task nb300_lastensq ended after 2.2 seconds
2014-12-06 12:00:08,778 INFO     repeater     task nb300_lastensq: Time from /home/data/SP1411/proc/nb300/load/wrote_ens_time: 2014/12/06 11:59:53
2014-12-06 12:01:53,905 INFO     repeater     task nb300_quick starting 0.7 seconds late
2014-12-06 12:01:57,082 INFO     repeater     task nb300_quick ended after 3.2 seconds
2014-12-06 12:01:57,083 INFO     repeater     task nb300_3dayplots starting 3.8 seconds late
2014-12-06 12:02:00,881 INFO     repeater     task nb300_3dayplots ended after 3.8 seconds
2014-12-06 12:02:00,882 INFO     repeater     task nb300_beamplots starting 7.6 seconds late
2014-12-06 12:02:02,588 INFO     repeater     task nb300_beamplots output:
Starting procsetup

2014-12-06 12:02:02,588 INFO     repeater     task nb300_beamplots ended after 1.7 seconds
2014-12-06 12:02:02,588 INFO     repeater     task nb300_beamplots starting 9.3 seconds late
2014-12-06 12:02:04,329 INFO     repeater     task nb300_beamplots output:
Starting procsetup

2014-12-06 12:02:04,329 INFO     repeater     task nb300_beamplots ended after 1.7 seconds
2014-12-06 12:02:04,330 INFO     repeater     task ashtech_hcorrstats starting 11.1 seconds late
2014-12-06 12:02:05,221 INFO     repeater     task ashtech_hcorrstats ended after 0.9 seconds
2014-12-06 12:02:10,223 INFO     repeater     task nb300_lastensq starting 7.2 seconds late
2014-12-06 12:02:12,336 INFO     repeater     task nb300_lastensq ended after 2.1 seconds
2014-12-06 12:02:12,336 INFO     repeater     task nb300_lastensq: Time from /home/data/SP1411/proc/nb300/load/wrote_ens_time: 2014/12/06 12:01:53
2014-12-06 12:04:07,461 INFO     repeater     task nb300_lastensq starting 4.5 seconds late
2014-12-06 12:04:09,516 INFO     repeater     task nb300_lastensq ended after 2.1 seconds
2014-12-06 12:04:09,517 INFO     repeater     task nb300_lastensq: Time from /home/data/SP1411/proc/nb300/load/wrote_ens_time: 2014/12/06 12:03:53
2014-12-06 12:06:04,654 INFO     repeater     task nb300_lastensq starting 1.7 seconds late
2014-12-06 12:06:06,779 INFO     repeater     task nb300_lastensq ended after 2.1 seconds
2014-12-06 12:06:06,779 INFO     repeater     task nb300_lastensq: Time from /home/data/SP1411/proc/nb300/load/wrote_ens_time: 2014/12/06 12:05:53
2014-12-06 12:06:56,832 INFO     repeater     task ashtech_hcorrstats starting 3.6 seconds late
2014-12-06 12:06:57,733 INFO     repeater     task ashtech_hcorrstats ended after 0.9 seconds
2014-12-06 12:08:07,817 INFO     repeater     task nb300_lastensq starting 4.8 seconds late
2014-12-06 12:08:09,916 INFO     repeater     task nb300_lastensq ended after 2.1 seconds
2014-12-06 12:08:09,916 INFO     repeater     task nb300_lastensq: Time from /home/data/SP1411/proc/nb300/load/wrote_ens_time: 2014/12/06 12:07:53
2014-12-06 12:10:05,048 INFO     repeater     task nb300_lastensq starting 2.0 seconds late
2014-12-06 12:10:07,105 INFO     repeater     task nb300_lastensq ended after 2.1 seconds
2014-12-06 12:10:07,105 INFO     repeater     task nb300_lastensq: Time from /home/data/SP1411/proc/nb300/load/wrote_ens_time: 2014/12/06 12:09:53
2014-12-06 12:11:57,238 INFO     repeater     task nb300_beamplots starting 4.0 seconds late
2014-12-06 12:11:58,926 INFO     repeater     task nb300_beamplots output:
Starting procsetup

2014-12-06 12:11:58,926 INFO     repeater     task nb300_beamplots ended after 1.7 seconds
2014-12-06 12:11:58,927 INFO     repeater     task nb300_beamplots starting 5.7 seconds late
2014-12-06 12:12:00,630 INFO     repeater     task nb300_beamplots output:
Starting procsetup

2014-12-06 12:12:00,631 INFO     repeater     task nb300_beamplots ended after 1.7 seconds
2014-12-06 12:12:00,631 INFO     repeater     task ashtech_hcorrstats starting 7.4 seconds late
2014-12-06 12:12:01,517 INFO     repeater     task ashtech_hcorrstats ended after 0.9 seconds
2014-12-06 12:12:06,523 INFO     repeater     task nb300_lastensq starting 3.5 seconds late
2014-12-06 12:12:08,643 INFO     repeater     task nb300_lastensq ended after 2.1 seconds
2014-12-06 12:12:08,643 INFO     repeater     task nb300_lastensq: Time from /home/data/SP1411/proc/nb300/load/wrote_ens_time: 2014/12/06 12:11:53
2014-12-06 12:14:03,767 INFO     repeater     task nb300_lastensq starting 0.8 seconds late
2014-12-06 12:14:05,838 INFO     repeater     task nb300_lastensq ended after 2.1 seconds
2014-12-06 12:14:05,838 INFO     repeater     task nb300_lastensq: Time from /home/data/SP1411/proc/nb300/load/wrote_ens_time: 2014/12/06 12:13:53
2014-12-06 12:16:05,986 INFO     repeater     task nb300_lastensq starting 3.0 seconds late
2014-12-06 12:16:08,115 INFO     repeater     task nb300_lastensq ended after 2.1 seconds
2014-12-06 12:16:08,115 INFO     repeater     task nb300_lastensq: Time from /home/data/SP1411/proc/nb300/load/wrote_ens_time: 2014/12/06 12:15:53
2014-12-06 12:16:58,172 INFO     repeater     task ashtech_hcorrstats starting 4.9 seconds late
2014-12-06 12:16:59,077 INFO     repeater     task ashtech_hcorrstats ended after 0.9 seconds
2014-12-06 12:18:04,158 INFO     repeater     task nb300_lastensq starting 1.2 seconds late
2014-12-06 12:18:06,264 INFO     repeater     task nb300_lastensq ended after 2.1 seconds
2014-12-06 12:18:06,264 INFO     repeater     task nb300_lastensq: Time from /home/data/SP1411/proc/nb300/load/wrote_ens_time: 2014/12/06 12:17:53
2014-12-06 12:20:06,402 INFO     repeater     task nb300_lastensq starting 3.4 seconds late
2014-12-06 12:20:08,519 INFO     repeater     task nb300_lastensq ended after 2.1 seconds
2014-12-06 12:20:08,519 INFO     repeater     task nb300_lastensq: Time from /home/data/SP1411/proc/nb300/load/wrote_ens_time: 2014/12/06 12:19:53
2014-12-06 12:21:53,645 INFO     repeater     task nb300_beamplots starting 0.4 seconds late
2014-12-06 12:21:55,219 INFO     repeater     task nb300_beamplots output:
Starting procsetup

2014-12-06 12:21:55,219 INFO     repeater     task nb300_beamplots ended after 1.6 seconds
2014-12-06 12:21:55,220 INFO     repeater     task nb300_beamplots starting 1.9 seconds late
2014-12-06 12:21:56,922 INFO     repeater     task nb300_beamplots output:
Starting procsetup

2014-12-06 12:21:56,922 INFO     repeater     task nb300_beamplots ended after 1.7 seconds
2014-12-06 12:21:56,922 INFO     repeater     task ashtech_hcorrstats starting 3.6 seconds late
2014-12-06 12:21:57,810 INFO     repeater     task ashtech_hcorrstats ended after 0.9 seconds
2014-12-06 12:22:07,823 INFO     repeater     task nb300_lastensq starting 4.8 seconds late
2014-12-06 12:22:09,936 INFO     repeater     task nb300_lastensq ended after 2.1 seconds
2014-12-06 12:22:09,936 INFO     repeater     task nb300_lastensq: Time from /home/data/SP1411/proc/nb300/load/wrote_ens_time: 2014/12/06 12:21:53
2014-12-06 12:24:05,078 INFO     repeater     task nb300_lastensq starting 2.1 seconds late
2014-12-06 12:24:07,154 INFO     repeater     task nb300_lastensq ended after 2.1 seconds
2014-12-06 12:24:07,155 INFO     repeater     task nb300_lastensq: Time from /home/data/SP1411/proc/nb300/load/wrote_ens_time: 2014/12/06 12:23:53
2014-12-06 12:26:07,271 INFO     repeater     task nb300_lastensq starting 4.3 seconds late
2014-12-06 12:26:09,388 INFO     repeater     task nb300_lastensq ended after 2.1 seconds
2014-12-06 12:26:09,388 INFO     repeater     task nb300_lastensq: Time from /home/data/SP1411/proc/nb300/load/wrote_ens_time: 2014/12/06 12:25:53
2014-12-06 12:26:54,442 INFO     repeater     task ashtech_hcorrstats starting 1.2 seconds late
2014-12-06 12:26:55,342 INFO     repeater     task ashtech_hcorrstats ended after 0.9 seconds
2014-12-06 12:28:05,414 INFO     repeater     task nb300_lastensq starting 2.4 seconds late
2014-12-06 12:28:07,550 INFO     repeater     task nb300_lastensq ended after 2.1 seconds
2014-12-06 12:28:07,550 INFO     repeater     task nb300_lastensq: Time from /home/data/SP1411/proc/nb300/load/wrote_ens_time: 2014/12/06 12:27:53
2014-12-06 12:30:07,691 INFO     repeater     task nb300_lastensq starting 4.7 seconds late
2014-12-06 12:30:09,805 INFO     repeater     task nb300_lastensq ended after 2.1 seconds
2014-12-06 12:30:09,805 INFO     repeater     task nb300_lastensq: Time from /home/data/SP1411/proc/nb300/load/wrote_ens_time: 2014/12/06 12:29:53
2014-12-06 12:31:54,931 INFO     repeater     task nb300_quick starting 1.7 seconds late
2014-12-06 12:31:58,081 INFO     repeater     task nb300_quick ended after 3.1 seconds
2014-12-06 12:31:58,082 INFO     repeater     task nb300_3dayplots starting 4.8 seconds late
2014-12-06 12:32:01,905 INFO     repeater     task nb300_3dayplots ended after 3.8 seconds
2014-12-06 12:32:01,906 INFO     repeater     task nb300_beamplots starting 8.6 seconds late
2014-12-06 12:32:03,613 INFO     repeater     task nb300_beamplots output:
Starting procsetup

2014-12-06 12:32:03,613 INFO     repeater     task nb300_beamplots ended after 1.7 seconds
2014-12-06 12:32:03,613 INFO     repeater     task nb300_beamplots starting 10.3 seconds late
2014-12-06 12:32:05,340 INFO     repeater     task nb300_beamplots output:
Starting procsetup

2014-12-06 12:32:05,341 INFO     repeater     task nb300_beamplots ended after 1.7 seconds
2014-12-06 12:32:05,341 INFO     repeater     task ashtech_hcorrstats starting 12.1 seconds late
2014-12-06 12:32:06,238 INFO     repeater     task ashtech_hcorrstats ended after 0.9 seconds
2014-12-06 12:32:11,241 INFO     repeater     task nb300_lastensq starting 8.2 seconds late
2014-12-06 12:32:13,316 INFO     repeater     task nb300_lastensq ended after 2.1 seconds
2014-12-06 12:32:13,317 INFO     repeater     task nb300_lastensq: Time from /home/data/SP1411/proc/nb300/load/wrote_ens_time: 2014/12/06 12:31:53
2014-12-06 12:34:03,448 INFO     repeater     task nb300_lastensq starting 0.4 seconds late
2014-12-06 12:34:05,531 INFO     repeater     task nb300_lastensq ended after 2.1 seconds
2014-12-06 12:34:05,532 INFO     repeater     task nb300_lastensq: Time from /home/data/SP1411/proc/nb300/load/wrote_ens_time: 2014/12/06 12:33:53
2014-12-06 12:36:05,675 INFO     repeater     task nb300_lastensq starting 2.7 seconds late
2014-12-06 12:36:07,815 INFO     repeater     task nb300_lastensq ended after 2.1 seconds
2014-12-06 12:36:07,816 INFO     repeater     task nb300_lastensq: Time from /home/data/SP1411/proc/nb300/load/wrote_ens_time: 2014/12/06 12:35:53
2014-12-06 12:36:57,869 INFO     repeater     task ashtech_hcorrstats starting 4.6 seconds late
2014-12-06 12:36:58,770 INFO     repeater     task ashtech_hcorrstats ended after 0.9 seconds
2014-12-06 12:38:03,848 INFO     repeater     task nb300_lastensq starting 0.8 seconds late
2014-12-06 12:38:05,957 INFO     repeater     task nb300_lastensq ended after 2.1 seconds
2014-12-06 12:38:05,958 INFO     repeater     task nb300_lastensq: Time from /home/data/SP1411/proc/nb300/load/wrote_ens_time: 2014/12/06 12:37:53
2014-12-06 12:40:06,108 INFO     repeater     task nb300_lastensq starting 3.1 seconds late
2014-12-06 12:40:08,180 INFO     repeater     task nb300_lastensq ended after 2.1 seconds
2014-12-06 12:40:08,181 INFO     repeater     task nb300_lastensq: Time from /home/data/SP1411/proc/nb300/load/wrote_ens_time: 2014/12/06 12:39:53
2014-12-06 12:41:53,297 INFO     repeater     task nb300_beamplots starting 0.0 seconds late
2014-12-06 12:41:54,991 INFO     repeater     task nb300_beamplots output:
Starting procsetup

2014-12-06 12:41:54,991 INFO     repeater     task nb300_beamplots ended after 1.7 seconds
2014-12-06 12:41:54,992 INFO     repeater     task nb300_beamplots starting 1.7 seconds late
2014-12-06 12:41:56,731 INFO     repeater     task nb300_beamplots output:
Starting procsetup

2014-12-06 12:41:56,732 INFO     repeater     task nb300_beamplots ended after 1.7 seconds
2014-12-06 12:41:56,732 INFO     repeater     task ashtech_hcorrstats starting 3.5 seconds late
2014-12-06 12:41:57,624 INFO     repeater     task ashtech_hcorrstats ended after 0.9 seconds
2014-12-06 12:42:07,637 INFO     repeater     task nb300_lastensq starting 4.6 seconds late
2014-12-06 12:42:09,713 INFO     repeater     task nb300_lastensq ended after 2.1 seconds
2014-12-06 12:42:09,714 INFO     repeater     task nb300_lastensq: Time from /home/data/SP1411/proc/nb300/load/wrote_ens_time: 2014/12/06 12:41:53
2014-12-06 12:44:04,841 INFO     repeater     task nb300_lastensq starting 1.8 seconds late
2014-12-06 12:44:06,944 INFO     repeater     task nb300_lastensq ended after 2.1 seconds
2014-12-06 12:44:06,945 INFO     repeater     task nb300_lastensq: Time from /home/data/SP1411/proc/nb300/load/wrote_ens_time: 2014/12/06 12:43:53
2014-12-06 12:46:07,081 INFO     repeater     task nb300_lastensq starting 4.1 seconds late
2014-12-06 12:46:09,215 INFO     repeater     task nb300_lastensq ended after 2.1 seconds
2014-12-06 12:46:09,215 INFO     repeater     task nb300_lastensq: Time from /home/data/SP1411/proc/nb300/load/wrote_ens_time: 2014/12/06 12:45:53
2014-12-06 12:46:54,268 INFO     repeater     task ashtech_hcorrstats starting 1.0 seconds late
2014-12-06 12:46:55,162 INFO     repeater     task ashtech_hcorrstats ended after 0.9 seconds
2014-12-06 12:48:05,244 INFO     repeater     task nb300_lastensq starting 2.2 seconds late
2014-12-06 12:48:07,320 INFO     repeater     task nb300_lastensq ended after 2.1 seconds
2014-12-06 12:48:07,320 INFO     repeater     task nb300_lastensq: Time from /home/data/SP1411/proc/nb300/load/wrote_ens_time: 2014/12/06 12:47:53
2014-12-06 12:50:07,461 INFO     repeater     task nb300_lastensq starting 4.5 seconds late
2014-12-06 12:50:09,612 INFO     repeater     task nb300_lastensq ended after 2.2 seconds
2014-12-06 12:50:09,613 INFO     repeater     task nb300_lastensq: Time from /home/data/SP1411/proc/nb300/load/wrote_ens_time: 2014/12/06 12:49:53
2014-12-06 12:51:54,742 INFO     repeater     task nb300_beamplots starting 1.5 seconds late
2014-12-06 12:51:56,439 INFO     repeater     task nb300_beamplots output:
Starting procsetup

2014-12-06 12:51:56,439 INFO     repeater     task nb300_beamplots ended after 1.7 seconds
2014-12-06 12:51:56,439 INFO     repeater     task nb300_beamplots starting 3.2 seconds late
2014-12-06 12:51:58,177 INFO     repeater     task nb300_beamplots output:
Starting procsetup

2014-12-06 12:51:58,177 INFO     repeater     task nb300_beamplots ended after 1.7 seconds
2014-12-06 12:51:58,178 INFO     repeater     task ashtech_hcorrstats starting 4.9 seconds late
2014-12-06 12:51:59,084 INFO     repeater     task ashtech_hcorrstats ended after 0.9 seconds
2014-12-06 12:52:04,089 INFO     repeater     task nb300_lastensq starting 1.1 seconds late
2014-12-06 12:52:06,171 INFO     repeater     task nb300_lastensq ended after 2.1 seconds
2014-12-06 12:52:06,171 INFO     repeater     task nb300_lastensq: Time from /home/data/SP1411/proc/nb300/load/wrote_ens_time: 2014/12/06 12:51:53
2014-12-06 12:54:06,301 INFO     repeater     task nb300_lastensq starting 3.3 seconds late
2014-12-06 12:54:08,438 INFO     repeater     task nb300_lastensq ended after 2.1 seconds
2014-12-06 12:54:08,439 INFO     repeater     task nb300_lastensq: Time from /home/data/SP1411/proc/nb300/load/wrote_ens_time: 2014/12/06 12:53:53
2014-12-06 12:56:03,564 INFO     repeater     task nb300_lastensq starting 0.6 seconds late
2014-12-06 12:56:05,720 INFO     repeater     task nb300_lastensq ended after 2.2 seconds
2014-12-06 12:56:05,721 INFO     repeater     task nb300_lastensq: Time from /home/data/SP1411/proc/nb300/load/wrote_ens_time: 2014/12/06 12:55:53
2014-12-06 12:56:55,779 INFO     repeater     task ashtech_hcorrstats starting 2.5 seconds late
2014-12-06 12:56:56,669 INFO     repeater     task ashtech_hcorrstats ended after 0.9 seconds
2014-12-06 12:58:06,750 INFO     repeater     task nb300_lastensq starting 3.8 seconds late
2014-12-06 12:58:08,896 INFO     repeater     task nb300_lastensq ended after 2.1 seconds
2014-12-06 12:58:08,896 INFO     repeater     task nb300_lastensq: Time from /home/data/SP1411/proc/nb300/load/wrote_ens_time: 2014/12/06 12:57:53
2014-12-06 13:00:04,035 INFO     repeater     task nb300_lastensq starting 1.0 seconds late
2014-12-06 13:00:06,152 INFO     repeater     task nb300_lastensq ended after 2.1 seconds
2014-12-06 13:00:06,152 INFO     repeater     task nb300_lastensq: Time from /home/data/SP1411/proc/nb300/load/wrote_ens_time: 2014/12/06 12:59:53
2014-12-06 13:01:56,261 INFO     repeater     task nb300_quick starting 3.0 seconds late
2014-12-06 13:01:59,503 INFO     repeater     task nb300_quick ended after 3.2 seconds
2014-12-06 13:01:59,503 INFO     repeater     task nb300_3dayplots starting 6.3 seconds late
2014-12-06 13:02:03,379 INFO     repeater     task nb300_3dayplots ended after 3.9 seconds
2014-12-06 13:02:03,380 INFO     repeater     task nb300_beamplots starting 10.1 seconds late
2014-12-06 13:02:05,073 INFO     repeater     task nb300_beamplots output:
Starting procsetup

2014-12-06 13:02:05,074 INFO     repeater     task nb300_beamplots ended after 1.7 seconds
2014-12-06 13:02:05,074 INFO     repeater     task nb300_beamplots starting 11.8 seconds late
2014-12-06 13:02:06,817 INFO     repeater     task nb300_beamplots output:
Starting procsetup

2014-12-06 13:02:06,817 INFO     repeater     task nb300_beamplots ended after 1.7 seconds
2014-12-06 13:02:06,817 INFO     repeater     task ashtech_hcorrstats starting 13.5 seconds late
2014-12-06 13:02:07,716 INFO     repeater     task ashtech_hcorrstats ended after 0.9 seconds
2014-12-06 13:02:12,721 INFO     repeater     task nb300_lastensq starting 9.7 seconds late
2014-12-06 13:02:14,825 INFO     repeater     task nb300_lastensq ended after 2.1 seconds
2014-12-06 13:02:14,826 INFO     repeater     task nb300_lastensq: Time from /home/data/SP1411/proc/nb300/load/wrote_ens_time: 2014/12/06 13:01:53
2014-12-06 13:04:04,955 INFO     repeater     task nb300_lastensq starting 2.0 seconds late
2014-12-06 13:04:07,044 INFO     repeater     task nb300_lastensq ended after 2.1 seconds
2014-12-06 13:04:07,045 INFO     repeater     task nb300_lastensq: Time from /home/data/SP1411/proc/nb300/load/wrote_ens_time: 2014/12/06 13:03:53
2014-12-06 13:06:07,183 INFO     repeater     task nb300_lastensq starting 4.2 seconds late
2014-12-06 13:06:09,338 INFO     repeater     task nb300_lastensq ended after 2.2 seconds
2014-12-06 13:06:09,338 INFO     repeater     task nb300_lastensq: Time from /home/data/SP1411/proc/nb300/load/wrote_ens_time: 2014/12/06 13:05:53
2014-12-06 13:06:54,393 INFO     repeater     task ashtech_hcorrstats starting 1.1 seconds late
2014-12-06 13:06:55,295 INFO     repeater     task ashtech_hcorrstats ended after 0.9 seconds
2014-12-06 13:08:05,378 INFO     repeater     task nb300_lastensq starting 2.4 seconds late
2014-12-06 13:08:07,476 INFO     repeater     task nb300_lastensq ended after 2.1 seconds
2014-12-06 13:08:07,476 INFO     repeater     task nb300_lastensq: Time from /home/data/SP1411/proc/nb300/load/wrote_ens_time: 2014/12/06 13:07:53
2014-12-06 13:10:07,620 INFO     repeater     task nb300_lastensq starting 4.6 seconds late
2014-12-06 13:10:09,791 INFO     repeater     task nb300_lastensq ended after 2.2 seconds
2014-12-06 13:10:09,792 INFO     repeater     task nb300_lastensq: Time from /home/data/SP1411/proc/nb300/load/wrote_ens_time: 2014/12/06 13:09:53
2014-12-06 13:11:54,912 INFO     repeater     task nb300_beamplots starting 1.6 seconds late
2014-12-06 13:11:56,517 INFO     repeater     task nb300_beamplots output:
Starting procsetup

2014-12-06 13:11:56,517 INFO     repeater     task nb300_beamplots ended after 1.6 seconds
2014-12-06 13:11:56,518 INFO     repeater     task nb300_beamplots starting 3.2 seconds late
2014-12-06 13:11:58,251 INFO     repeater     task nb300_beamplots output:
Starting procsetup

2014-12-06 13:11:58,252 INFO     repeater     task nb300_beamplots ended after 1.7 seconds
2014-12-06 13:11:58,252 INFO     repeater     task ashtech_hcorrstats starting 5.0 seconds late
2014-12-06 13:11:59,152 INFO     repeater     task ashtech_hcorrstats ended after 0.9 seconds
2014-12-06 13:12:04,158 INFO     repeater     task nb300_lastensq starting 1.2 seconds late
2014-12-06 13:12:06,318 INFO     repeater     task nb300_lastensq ended after 2.2 seconds
2014-12-06 13:12:06,319 INFO     repeater     task nb300_lastensq: Time from /home/data/SP1411/proc/nb300/load/wrote_ens_time: 2014/12/06 13:11:53
2014-12-06 13:14:06,464 INFO     repeater     task nb300_lastensq starting 3.5 seconds late
2014-12-06 13:14:08,555 INFO     repeater     task nb300_lastensq ended after 2.1 seconds
2014-12-06 13:14:08,555 INFO     repeater     task nb300_lastensq: Time from /home/data/SP1411/proc/nb300/load/wrote_ens_time: 2014/12/06 13:13:53
2014-12-06 13:16:03,687 INFO     repeater     task nb300_lastensq starting 0.7 seconds late
2014-12-06 13:16:05,849 INFO     repeater     task nb300_lastensq ended after 2.2 seconds
2014-12-06 13:16:05,849 INFO     repeater     task nb300_lastensq: Time from /home/data/SP1411/proc/nb300/load/wrote_ens_time: 2014/12/06 13:15:53
2014-12-06 13:16:55,901 INFO     repeater     task ashtech_hcorrstats starting 2.6 seconds late
2014-12-06 13:16:56,811 INFO     repeater     task ashtech_hcorrstats ended after 0.9 seconds
2014-12-06 13:18:06,894 INFO     repeater     task nb300_lastensq starting 3.9 seconds late
2014-12-06 13:18:09,034 INFO     repeater     task nb300_lastensq ended after 2.1 seconds
2014-12-06 13:18:09,035 INFO     repeater     task nb300_lastensq: Time from /home/data/SP1411/proc/nb300/load/wrote_ens_time: 2014/12/06 13:17:53
2014-12-06 13:20:04,171 INFO     repeater     task nb300_lastensq starting 1.2 seconds late
2014-12-06 13:20:06,266 INFO     repeater     task nb300_lastensq ended after 2.1 seconds
2014-12-06 13:20:06,267 INFO     repeater     task nb300_lastensq: Time from /home/data/SP1411/proc/nb300/load/wrote_ens_time: 2014/12/06 13:19:53
2014-12-06 13:21:56,389 INFO     repeater     task nb300_beamplots starting 3.1 seconds late
2014-12-06 13:21:58,004 INFO     repeater     task nb300_beamplots output:
Starting procsetup

2014-12-06 13:21:58,004 INFO     repeater     task nb300_beamplots ended after 1.6 seconds
2014-12-06 13:21:58,004 INFO     repeater     task nb300_beamplots starting 4.7 seconds late
2014-12-06 13:21:59,728 INFO     repeater     task nb300_beamplots output:
Starting procsetup

2014-12-06 13:21:59,728 INFO     repeater     task nb300_beamplots ended after 1.7 seconds
2014-12-06 13:21:59,729 INFO     repeater     task ashtech_hcorrstats starting 6.5 seconds late
2014-12-06 13:22:00,622 INFO     repeater     task ashtech_hcorrstats ended after 0.9 seconds
2014-12-06 13:22:05,628 INFO     repeater     task nb300_lastensq starting 2.6 seconds late
2014-12-06 13:22:07,733 INFO     repeater     task nb300_lastensq ended after 2.1 seconds
2014-12-06 13:22:07,734 INFO     repeater     task nb300_lastensq: Time from /home/data/SP1411/proc/nb300/load/wrote_ens_time: 2014/12/06 13:21:53
2014-12-06 13:24:07,881 INFO     repeater     task nb300_lastensq starting 4.9 seconds late
2014-12-06 13:24:10,012 INFO     repeater     task nb300_lastensq ended after 2.1 seconds
2014-12-06 13:24:10,012 INFO     repeater     task nb300_lastensq: Time from /home/data/SP1411/proc/nb300/load/wrote_ens_time: 2014/12/06 13:23:53
2014-12-06 13:26:05,151 INFO     repeater     task nb300_lastensq starting 2.2 seconds late
2014-12-06 13:26:07,263 INFO     repeater     task nb300_lastensq ended after 2.1 seconds
2014-12-06 13:26:07,263 INFO     repeater     task nb300_lastensq: Time from /home/data/SP1411/proc/nb300/load/wrote_ens_time: 2014/12/06 13:25:53
2014-12-06 13:26:57,314 INFO     repeater     task ashtech_hcorrstats starting 4.0 seconds late
2014-12-06 13:26:58,238 INFO     repeater     task ashtech_hcorrstats ended after 0.9 seconds
2014-12-06 13:28:03,298 INFO     repeater     task nb300_lastensq starting 0.3 seconds late
2014-12-06 13:28:05,413 INFO     repeater     task nb300_lastensq ended after 2.1 seconds
2014-12-06 13:28:05,414 INFO     repeater     task nb300_lastensq: Time from /home/data/SP1411/proc/nb300/load/wrote_ens_time: 2014/12/06 13:27:53
2014-12-06 13:30:05,558 INFO     repeater     task nb300_lastensq starting 2.6 seconds late
2014-12-06 13:30:07,672 INFO     repeater     task nb300_lastensq ended after 2.1 seconds
2014-12-06 13:30:07,673 INFO     repeater     task nb300_lastensq: Time from /home/data/SP1411/proc/nb300/load/wrote_ens_time: 2014/12/06 13:29:53
2014-12-06 13:31:57,798 INFO     repeater     task nb300_quick starting 4.6 seconds late
2014-12-06 13:32:01,065 INFO     repeater     task nb300_quick ended after 3.3 seconds
2014-12-06 13:32:01,065 INFO     repeater     task nb300_3dayplots starting 7.8 seconds late
2014-12-06 13:32:04,914 INFO     repeater     task nb300_3dayplots ended after 3.8 seconds
2014-12-06 13:32:04,914 INFO     repeater     task nb300_beamplots starting 11.6 seconds late
2014-12-06 13:32:06,588 INFO     repeater     task nb300_beamplots output:
Starting procsetup

2014-12-06 13:32:06,588 INFO     repeater     task nb300_beamplots ended after 1.7 seconds
2014-12-06 13:32:06,589 INFO     repeater     task nb300_beamplots starting 13.3 seconds late
2014-12-06 13:32:08,208 INFO     repeater     task nb300_beamplots output:
Starting procsetup

2014-12-06 13:32:08,208 INFO     repeater     task nb300_beamplots ended after 1.6 seconds
2014-12-06 13:32:08,209 INFO     repeater     task ashtech_hcorrstats starting 14.9 seconds late
2014-12-06 13:32:09,100 INFO     repeater     task ashtech_hcorrstats ended after 0.9 seconds
2014-12-06 13:32:14,106 INFO     repeater     task nb300_lastensq starting 11.1 seconds late
2014-12-06 13:32:16,278 INFO     repeater     task nb300_lastensq ended after 2.2 seconds
2014-12-06 13:32:16,279 INFO     repeater     task nb300_lastensq: Time from /home/data/SP1411/proc/nb300/load/wrote_ens_time: 2014/12/06 13:31:53
2014-12-06 13:34:06,410 INFO     repeater     task nb300_lastensq starting 3.4 seconds late
2014-12-06 13:34:08,524 INFO     repeater     task nb300_lastensq ended after 2.1 seconds
2014-12-06 13:34:08,524 INFO     repeater     task nb300_lastensq: Time from /home/data/SP1411/proc/nb300/load/wrote_ens_time: 2014/12/06 13:33:53
2014-12-06 13:36:03,653 INFO     repeater     task nb300_lastensq starting 0.7 seconds late
2014-12-06 13:36:05,792 INFO     repeater     task nb300_lastensq ended after 2.1 seconds
2014-12-06 13:36:05,793 INFO     repeater     task nb300_lastensq: Time from /home/data/SP1411/proc/nb300/load/wrote_ens_time: 2014/12/06 13:35:53
2014-12-06 13:36:55,844 INFO     repeater     task ashtech_hcorrstats starting 2.6 seconds late
2014-12-06 13:36:56,742 INFO     repeater     task ashtech_hcorrstats ended after 0.9 seconds
2014-12-06 13:38:06,818 INFO     repeater     task nb300_lastensq starting 3.8 seconds late
2014-12-06 13:38:08,964 INFO     repeater     task nb300_lastensq ended after 2.1 seconds
2014-12-06 13:38:08,965 INFO     repeater     task nb300_lastensq: Time from /home/data/SP1411/proc/nb300/load/wrote_ens_time: 2014/12/06 13:37:53
2014-12-06 13:40:04,097 INFO     repeater     task nb300_lastensq starting 1.1 seconds late
2014-12-06 13:40:06,275 INFO     repeater     task nb300_lastensq ended after 2.2 seconds
2014-12-06 13:40:06,275 INFO     repeater     task nb300_lastensq: Time from /home/data/SP1411/proc/nb300/load/wrote_ens_time: 2014/12/06 13:39:53
2014-12-06 13:41:56,402 INFO     repeater     task nb300_beamplots starting 3.1 seconds late
2014-12-06 13:41:58,021 INFO     repeater     task nb300_beamplots output:
Starting procsetup

2014-12-06 13:41:58,021 INFO     repeater     task nb300_beamplots ended after 1.6 seconds
2014-12-06 13:41:58,021 INFO     repeater     task nb300_beamplots starting 4.7 seconds late
2014-12-06 13:41:59,754 INFO     repeater     task nb300_beamplots output:
Starting procsetup

2014-12-06 13:41:59,754 INFO     repeater     task nb300_beamplots ended after 1.7 seconds
2014-12-06 13:41:59,754 INFO     repeater     task ashtech_hcorrstats starting 6.5 seconds late
2014-12-06 13:42:00,652 INFO     repeater     task ashtech_hcorrstats ended after 0.9 seconds
2014-12-06 13:42:05,658 INFO     repeater     task nb300_lastensq starting 2.7 seconds late
2014-12-06 13:42:07,836 INFO     repeater     task nb300_lastensq ended after 2.2 seconds
2014-12-06 13:42:07,836 INFO     repeater     task nb300_lastensq: Time from /home/data/SP1411/proc/nb300/load/wrote_ens_time: 2014/12/06 13:41:53
2014-12-06 13:44:07,978 INFO     repeater     task nb300_lastensq starting 5.0 seconds late
2014-12-06 13:44:10,094 INFO     repeater     task nb300_lastensq ended after 2.1 seconds
2014-12-06 13:44:10,094 INFO     repeater     task nb300_lastensq: Time from /home/data/SP1411/proc/nb300/load/wrote_ens_time: 2014/12/06 13:43:53
2014-12-06 13:46:05,224 INFO     repeater     task nb300_lastensq starting 2.2 seconds late
2014-12-06 13:46:07,380 INFO     repeater     task nb300_lastensq ended after 2.2 seconds
2014-12-06 13:46:07,381 INFO     repeater     task nb300_lastensq: Time from /home/data/SP1411/proc/nb300/load/wrote_ens_time: 2014/12/06 13:45:53
2014-12-06 13:46:57,443 INFO     repeater     task ashtech_hcorrstats starting 4.2 seconds late
2014-12-06 13:46:58,346 INFO     repeater     task ashtech_hcorrstats ended after 0.9 seconds
2014-12-06 13:48:03,425 INFO     repeater     task nb300_lastensq starting 0.4 seconds late
2014-12-06 13:48:05,563 INFO     repeater     task nb300_lastensq ended after 2.1 seconds
2014-12-06 13:48:05,564 INFO     repeater     task nb300_lastensq: Time from /home/data/SP1411/proc/nb300/load/wrote_ens_time: 2014/12/06 13:47:53
2014-12-06 13:50:05,704 INFO     repeater     task nb300_lastensq starting 2.7 seconds late
2014-12-06 13:50:07,826 INFO     repeater     task nb300_lastensq ended after 2.1 seconds
2014-12-06 13:50:07,826 INFO     repeater     task nb300_lastensq: Time from /home/data/SP1411/proc/nb300/load/wrote_ens_time: 2014/12/06 13:49:53
2014-12-06 13:51:57,964 INFO     repeater     task nb300_beamplots starting 4.7 seconds late
2014-12-06 13:51:59,575 INFO     repeater     task nb300_beamplots output:
Starting procsetup

2014-12-06 13:51:59,575 INFO     repeater     task nb300_beamplots ended after 1.6 seconds
2014-12-06 13:51:59,575 INFO     repeater     task nb300_beamplots starting 6.3 seconds late
2014-12-06 13:52:01,316 INFO     repeater     task nb300_beamplots output:
Starting procsetup

2014-12-06 13:52:01,316 INFO     repeater     task nb300_beamplots ended after 1.7 seconds
2014-12-06 13:52:01,317 INFO     repeater     task ashtech_hcorrstats starting 8.0 seconds late
2014-12-06 13:52:02,224 INFO     repeater     task ashtech_hcorrstats ended after 0.9 seconds
2014-12-06 13:52:07,230 INFO     repeater     task nb300_lastensq starting 4.2 seconds late
2014-12-06 13:52:09,424 INFO     repeater     task nb300_lastensq ended after 2.2 seconds
2014-12-06 13:52:09,424 INFO     repeater     task nb300_lastensq: Time from /home/data/SP1411/proc/nb300/load/wrote_ens_time: 2014/12/06 13:51:53
2014-12-06 13:54:04,557 INFO     repeater     task nb300_lastensq starting 1.6 seconds late
2014-12-06 13:54:06,760 INFO     repeater     task nb300_lastensq ended after 2.2 seconds
2014-12-06 13:54:06,760 INFO     repeater     task nb300_lastensq: Time from /home/data/SP1411/proc/nb300/load/wrote_ens_time: 2014/12/06 13:53:53
2014-12-06 13:56:06,898 INFO     repeater     task nb300_lastensq starting 3.9 seconds late
2014-12-06 13:56:09,104 INFO     repeater     task nb300_lastensq ended after 2.2 seconds
2014-12-06 13:56:09,104 INFO     repeater     task nb300_lastensq: Time from /home/data/SP1411/proc/nb300/load/wrote_ens_time: 2014/12/06 13:55:53
2014-12-06 13:56:54,155 INFO     repeater     task ashtech_hcorrstats starting 0.9 seconds late
2014-12-06 13:56:55,066 INFO     repeater     task ashtech_hcorrstats ended after 0.9 seconds
2014-12-06 13:58:05,151 INFO     repeater     task nb300_lastensq starting 2.2 seconds late
2014-12-06 13:58:07,293 INFO     repeater     task nb300_lastensq ended after 2.1 seconds
2014-12-06 13:58:07,294 INFO     repeater     task nb300_lastensq: Time from /home/data/SP1411/proc/nb300/load/wrote_ens_time: 2014/12/06 13:57:53
2014-12-06 14:00:07,431 INFO     repeater     task nb300_lastensq starting 4.4 seconds late
2014-12-06 14:00:09,663 INFO     repeater     task nb300_lastensq ended after 2.2 seconds
2014-12-06 14:00:09,663 INFO     repeater     task nb300_lastensq: Time from /home/data/SP1411/proc/nb300/load/wrote_ens_time: 2014/12/06 13:59:53
2014-12-06 14:01:54,784 INFO     repeater     task nb300_quick starting 1.5 seconds late
2014-12-06 14:01:57,994 INFO     repeater     task nb300_quick ended after 3.2 seconds
2014-12-06 14:01:57,994 INFO     repeater     task nb300_3dayplots starting 4.8 seconds late
2014-12-06 14:02:01,955 INFO     repeater     task nb300_3dayplots ended after 4.0 seconds
2014-12-06 14:02:01,955 INFO     repeater     task nb300_beamplots starting 8.7 seconds late
2014-12-06 14:02:03,652 INFO     repeater     task nb300_beamplots output:
Starting procsetup

2014-12-06 14:02:03,652 INFO     repeater     task nb300_beamplots ended after 1.7 seconds
2014-12-06 14:02:03,652 INFO     repeater     task nb300_beamplots starting 10.4 seconds late
2014-12-06 14:02:05,252 INFO     repeater     task nb300_beamplots output:
Starting procsetup

2014-12-06 14:02:05,252 INFO     repeater     task nb300_beamplots ended after 1.6 seconds
2014-12-06 14:02:05,253 INFO     repeater     task ashtech_hcorrstats starting 12.0 seconds late
2014-12-06 14:02:06,152 INFO     repeater     task ashtech_hcorrstats ended after 0.9 seconds
2014-12-06 14:02:11,158 INFO     repeater     task nb300_lastensq starting 8.2 seconds late
2014-12-06 14:02:13,265 INFO     repeater     task nb300_lastensq ended after 2.1 seconds
2014-12-06 14:02:13,265 INFO     repeater     task nb300_lastensq: Time from /home/data/SP1411/proc/nb300/load/wrote_ens_time: 2014/12/06 14:01:53
2014-12-06 14:04:03,388 INFO     repeater     task nb300_lastensq starting 0.4 seconds late
2014-12-06 14:04:05,445 INFO     repeater     task nb300_lastensq ended after 2.1 seconds
2014-12-06 14:04:05,446 INFO     repeater     task nb300_lastensq: Time from /home/data/SP1411/proc/nb300/load/wrote_ens_time: 2014/12/06 14:03:53
2014-12-06 14:06:05,598 INFO     repeater     task nb300_lastensq starting 2.6 seconds late
2014-12-06 14:06:07,691 INFO     repeater     task nb300_lastensq ended after 2.1 seconds
2014-12-06 14:06:07,692 INFO     repeater     task nb300_lastensq: Time from /home/data/SP1411/proc/nb300/load/wrote_ens_time: 2014/12/06 14:05:53
2014-12-06 14:06:57,756 INFO     repeater     task ashtech_hcorrstats starting 4.5 seconds late
2014-12-06 14:06:58,658 INFO     repeater     task ashtech_hcorrstats ended after 0.9 seconds
2014-12-06 14:08:03,737 INFO     repeater     task nb300_lastensq starting 0.7 seconds late
2014-12-06 14:08:05,799 INFO     repeater     task nb300_lastensq ended after 2.1 seconds
2014-12-06 14:08:05,800 INFO     repeater     task nb300_lastensq: Time from /home/data/SP1411/proc/nb300/load/wrote_ens_time: 2014/12/06 14:07:53
2014-12-06 14:10:05,928 INFO     repeater     task nb300_lastensq starting 2.9 seconds late
2014-12-06 14:10:08,020 INFO     repeater     task nb300_lastensq ended after 2.1 seconds
2014-12-06 14:10:08,021 INFO     repeater     task nb300_lastensq: Time from /home/data/SP1411/proc/nb300/load/wrote_ens_time: 2014/12/06 14:09:53
2014-12-06 14:11:58,142 INFO     repeater     task nb300_beamplots starting 4.9 seconds late
2014-12-06 14:11:59,810 INFO     repeater     task nb300_beamplots output:
Starting procsetup

2014-12-06 14:11:59,811 INFO     repeater     task nb300_beamplots ended after 1.7 seconds
2014-12-06 14:11:59,811 INFO     repeater     task nb300_beamplots starting 6.5 seconds late
2014-12-06 14:12:01,520 INFO     repeater     task nb300_beamplots output:
Starting procsetup

2014-12-06 14:12:01,520 INFO     repeater     task nb300_beamplots ended after 1.7 seconds
2014-12-06 14:12:01,520 INFO     repeater     task ashtech_hcorrstats starting 8.2 seconds late
2014-12-06 14:12:02,422 INFO     repeater     task ashtech_hcorrstats ended after 0.9 seconds
2014-12-06 14:12:07,427 INFO     repeater     task nb300_lastensq starting 4.4 seconds late
2014-12-06 14:12:09,539 INFO     repeater     task nb300_lastensq ended after 2.1 seconds
2014-12-06 14:12:09,539 INFO     repeater     task nb300_lastensq: Time from /home/data/SP1411/proc/nb300/load/wrote_ens_time: 2014/12/06 14:11:53
2014-12-06 14:14:04,671 INFO     repeater     task nb300_lastensq starting 1.7 seconds late
2014-12-06 14:14:06,787 INFO     repeater     task nb300_lastensq ended after 2.1 seconds
2014-12-06 14:14:06,787 INFO     repeater     task nb300_lastensq: Time from /home/data/SP1411/proc/nb300/load/wrote_ens_time: 2014/12/06 14:13:53
2014-12-06 14:16:06,908 INFO     repeater     task nb300_lastensq starting 3.9 seconds late
2014-12-06 14:16:09,024 INFO     repeater     task nb300_lastensq ended after 2.1 seconds
2014-12-06 14:16:09,025 INFO     repeater     task nb300_lastensq: Time from /home/data/SP1411/proc/nb300/load/wrote_ens_time: 2014/12/06 14:15:53
2014-12-06 14:16:54,084 INFO     repeater     task ashtech_hcorrstats starting 0.8 seconds late
2014-12-06 14:16:54,998 INFO     repeater     task ashtech_hcorrstats ended after 0.9 seconds
2014-12-06 14:18:05,071 INFO     repeater     task nb300_lastensq starting 2.1 seconds late
2014-12-06 14:18:07,153 INFO     repeater     task nb300_lastensq ended after 2.1 seconds
2014-12-06 14:18:07,154 INFO     repeater     task nb300_lastensq: Time from /home/data/SP1411/proc/nb300/load/wrote_ens_time: 2014/12/06 14:17:53
2014-12-06 14:20:07,280 INFO     repeater     task nb300_lastensq starting 4.3 seconds late
2014-12-06 14:20:09,407 INFO     repeater     task nb300_lastensq ended after 2.1 seconds
2014-12-06 14:20:09,408 INFO     repeater     task nb300_lastensq: Time from /home/data/SP1411/proc/nb300/load/wrote_ens_time: 2014/12/06 14:19:53
2014-12-06 14:21:54,522 INFO     repeater     task nb300_beamplots starting 1.2 seconds late
2014-12-06 14:21:56,118 INFO     repeater     task nb300_beamplots output:
Starting procsetup

2014-12-06 14:21:56,118 INFO     repeater     task nb300_beamplots ended after 1.6 seconds
2014-12-06 14:21:56,118 INFO     repeater     task nb300_beamplots starting 2.8 seconds late
2014-12-06 14:21:57,829 INFO     repeater     task nb300_beamplots output:
Starting procsetup

2014-12-06 14:21:57,829 INFO     repeater     task nb300_beamplots ended after 1.7 seconds
2014-12-06 14:21:57,829 INFO     repeater     task ashtech_hcorrstats starting 4.6 seconds late
2014-12-06 14:21:58,743 INFO     repeater     task ashtech_hcorrstats ended after 0.9 seconds
2014-12-06 14:22:03,749 INFO     repeater     task nb300_lastensq starting 0.7 seconds late
2014-12-06 14:22:05,834 INFO     repeater     task nb300_lastensq ended after 2.1 seconds
2014-12-06 14:22:05,834 INFO     repeater     task nb300_lastensq: Time from /home/data/SP1411/proc/nb300/load/wrote_ens_time: 2014/12/06 14:21:53
2014-12-06 14:24:05,968 INFO     repeater     task nb300_lastensq starting 3.0 seconds late
2014-12-06 14:24:08,030 INFO     repeater     task nb300_lastensq ended after 2.1 seconds
2014-12-06 14:24:08,030 INFO     repeater     task nb300_lastensq: Time from /home/data/SP1411/proc/nb300/load/wrote_ens_time: 2014/12/06 14:23:53
2014-12-06 14:26:03,175 INFO     repeater     task nb300_lastensq starting 0.2 seconds late
2014-12-06 14:26:05,277 INFO     repeater     task nb300_lastensq ended after 2.1 seconds
2014-12-06 14:26:05,277 INFO     repeater     task nb300_lastensq: Time from /home/data/SP1411/proc/nb300/load/wrote_ens_time: 2014/12/06 14:25:53
2014-12-06 14:26:55,333 INFO     repeater     task ashtech_hcorrstats starting 2.1 seconds late
2014-12-06 14:26:56,237 INFO     repeater     task ashtech_hcorrstats ended after 0.9 seconds
2014-12-06 14:28:06,313 INFO     repeater     task nb300_lastensq starting 3.3 seconds late
2014-12-06 14:28:08,431 INFO     repeater     task nb300_lastensq ended after 2.1 seconds
2014-12-06 14:28:08,432 INFO     repeater     task nb300_lastensq: Time from /home/data/SP1411/proc/nb300/load/wrote_ens_time: 2014/12/06 14:27:53
2014-12-06 14:30:03,570 INFO     repeater     task nb300_lastensq starting 0.6 seconds late
2014-12-06 14:30:05,700 INFO     repeater     task nb300_lastensq ended after 2.1 seconds
2014-12-06 14:30:05,700 INFO     repeater     task nb300_lastensq: Time from /home/data/SP1411/proc/nb300/load/wrote_ens_time: 2014/12/06 14:29:53
2014-12-06 14:31:55,827 INFO     repeater     task nb300_quick starting 2.6 seconds late
2014-12-06 14:31:59,024 INFO     repeater     task nb300_quick ended after 3.2 seconds
2014-12-06 14:31:59,024 INFO     repeater     task nb300_3dayplots starting 5.8 seconds late
2014-12-06 14:32:02,817 INFO     repeater     task nb300_3dayplots ended after 3.8 seconds
2014-12-06 14:32:02,817 INFO     repeater     task nb300_beamplots starting 9.5 seconds late
2014-12-06 14:32:04,484 INFO     repeater     task nb300_beamplots output:
Starting procsetup

2014-12-06 14:32:04,484 INFO     repeater     task nb300_beamplots ended after 1.7 seconds
2014-12-06 14:32:04,484 INFO     repeater     task nb300_beamplots starting 11.2 seconds late
2014-12-06 14:32:06,110 INFO     repeater     task nb300_beamplots output:
Starting procsetup

2014-12-06 14:32:06,110 INFO     repeater     task nb300_beamplots ended after 1.6 seconds
2014-12-06 14:32:06,111 INFO     repeater     task ashtech_hcorrstats starting 12.8 seconds late
2014-12-06 14:32:07,016 INFO     repeater     task ashtech_hcorrstats ended after 0.9 seconds
2014-12-06 14:32:12,021 INFO     repeater     task nb300_lastensq starting 9.0 seconds late
2014-12-06 14:32:14,153 INFO     repeater     task nb300_lastensq ended after 2.1 seconds
2014-12-06 14:32:14,153 INFO     repeater     task nb300_lastensq: Time from /home/data/SP1411/proc/nb300/load/wrote_ens_time: 2014/12/06 14:31:53
2014-12-06 14:34:04,288 INFO     repeater     task nb300_lastensq starting 1.3 seconds late
2014-12-06 14:34:06,422 INFO     repeater     task nb300_lastensq ended after 2.1 seconds
2014-12-06 14:34:06,422 INFO     repeater     task nb300_lastensq: Time from /home/data/SP1411/proc/nb300/load/wrote_ens_time: 2014/12/06 14:33:53
2014-12-06 14:36:06,564 INFO     repeater     task nb300_lastensq starting 3.6 seconds late
2014-12-06 14:36:08,656 INFO     repeater     task nb300_lastensq ended after 2.1 seconds
2014-12-06 14:36:08,657 INFO     repeater     task nb300_lastensq: Time from /home/data/SP1411/proc/nb300/load/wrote_ens_time: 2014/12/06 14:35:53
2014-12-06 14:36:53,712 INFO     repeater     task ashtech_hcorrstats starting 0.4 seconds late
2014-12-06 14:36:54,623 INFO     repeater     task ashtech_hcorrstats ended after 0.9 seconds
2014-12-06 14:38:04,697 INFO     repeater     task nb300_lastensq starting 1.7 seconds late
2014-12-06 14:38:06,767 INFO     repeater     task nb300_lastensq ended after 2.1 seconds
2014-12-06 14:38:06,767 INFO     repeater     task nb300_lastensq: Time from /home/data/SP1411/proc/nb300/load/wrote_ens_time: 2014/12/06 14:37:53
2014-12-06 14:40:06,914 INFO     repeater     task nb300_lastensq starting 3.9 seconds late
2014-12-06 14:40:09,053 INFO     repeater     task nb300_lastensq ended after 2.1 seconds
2014-12-06 14:40:09,053 INFO     repeater     task nb300_lastensq: Time from /home/data/SP1411/proc/nb300/load/wrote_ens_time: 2014/12/06 14:39:53
2014-12-06 14:41:54,189 INFO     repeater     task nb300_beamplots starting 0.9 seconds late
2014-12-06 14:41:55,771 INFO     repeater     task nb300_beamplots output:
Starting procsetup

2014-12-06 14:41:55,771 INFO     repeater     task nb300_beamplots ended after 1.6 seconds
2014-12-06 14:41:55,771 INFO     repeater     task nb300_beamplots starting 2.5 seconds late
2014-12-06 14:41:57,489 INFO     repeater     task nb300_beamplots output:
Starting procsetup

2014-12-06 14:41:57,489 INFO     repeater     task nb300_beamplots ended after 1.7 seconds
2014-12-06 14:41:57,490 INFO     repeater     task ashtech_hcorrstats starting 4.2 seconds late
2014-12-06 14:41:58,403 INFO     repeater     task ashtech_hcorrstats ended after 0.9 seconds
2014-12-06 14:42:03,409 INFO     repeater     task nb300_lastensq starting 0.4 seconds late
2014-12-06 14:42:05,485 INFO     repeater     task nb300_lastensq ended after 2.1 seconds
2014-12-06 14:42:05,485 INFO     repeater     task nb300_lastensq: Time from /home/data/SP1411/proc/nb300/load/wrote_ens_time: 2014/12/06 14:41:53
2014-12-06 14:44:05,631 INFO     repeater     task nb300_lastensq starting 2.6 seconds late
2014-12-06 14:44:07,760 INFO     repeater     task nb300_lastensq ended after 2.1 seconds
2014-12-06 14:44:07,761 INFO     repeater     task nb300_lastensq: Time from /home/data/SP1411/proc/nb300/load/wrote_ens_time: 2014/12/06 14:43:53
2014-12-06 14:46:07,894 INFO     repeater     task nb300_lastensq starting 4.9 seconds late
2014-12-06 14:46:10,057 INFO     repeater     task nb300_lastensq ended after 2.2 seconds
2014-12-06 14:46:10,058 INFO     repeater     task nb300_lastensq: Time from /home/data/SP1411/proc/nb300/load/wrote_ens_time: 2014/12/06 14:45:53
2014-12-06 14:46:55,115 INFO     repeater     task ashtech_hcorrstats starting 1.8 seconds late
2014-12-06 14:46:56,034 INFO     repeater     task ashtech_hcorrstats ended after 0.9 seconds
2014-12-06 14:48:06,118 INFO     repeater     task nb300_lastensq starting 3.1 seconds late
2014-12-06 14:48:08,205 INFO     repeater     task nb300_lastensq ended after 2.1 seconds
2014-12-06 14:48:08,206 INFO     repeater     task nb300_lastensq: Time from /home/data/SP1411/proc/nb300/load/wrote_ens_time: 2014/12/06 14:47:53
2014-12-06 14:50:03,340 INFO     repeater     task nb300_lastensq starting 0.3 seconds late
2014-12-06 14:50:05,485 INFO     repeater     task nb300_lastensq ended after 2.1 seconds
2014-12-06 14:50:05,485 INFO     repeater     task nb300_lastensq: Time from /home/data/SP1411/proc/nb300/load/wrote_ens_time: 2014/12/06 14:49:53
2014-12-06 14:51:55,612 INFO     repeater     task nb300_beamplots starting 2.3 seconds late
2014-12-06 14:51:57,223 INFO     repeater     task nb300_beamplots output:
Starting procsetup

2014-12-06 14:51:57,224 INFO     repeater     task nb300_beamplots ended after 1.6 seconds
2014-12-06 14:51:57,224 INFO     repeater     task nb300_beamplots starting 4.0 seconds late
2014-12-06 14:51:58,957 INFO     repeater     task nb300_beamplots output:
Starting procsetup

2014-12-06 14:51:58,957 INFO     repeater     task nb300_beamplots ended after 1.7 seconds
2014-12-06 14:51:58,957 INFO     repeater     task ashtech_hcorrstats starting 5.7 seconds late
2014-12-06 14:51:59,850 INFO     repeater     task ashtech_hcorrstats ended after 0.9 seconds
2014-12-06 14:52:04,854 INFO     repeater     task nb300_lastensq starting 1.9 seconds late
2014-12-06 14:52:06,999 INFO     repeater     task nb300_lastensq ended after 2.1 seconds
2014-12-06 14:52:06,999 INFO     repeater     task nb300_lastensq: Time from /home/data/SP1411/proc/nb300/load/wrote_ens_time: 2014/12/06 14:51:53
2014-12-06 14:54:07,141 INFO     repeater     task nb300_lastensq starting 4.1 seconds late
2014-12-06 14:54:09,279 INFO     repeater     task nb300_lastensq ended after 2.1 seconds
2014-12-06 14:54:09,279 INFO     repeater     task nb300_lastensq: Time from /home/data/SP1411/proc/nb300/load/wrote_ens_time: 2014/12/06 14:53:53
2014-12-06 14:56:04,410 INFO     repeater     task nb300_lastensq starting 1.4 seconds late
2014-12-06 14:56:06,557 INFO     repeater     task nb300_lastensq ended after 2.1 seconds
2014-12-06 14:56:06,558 INFO     repeater     task nb300_lastensq: Time from /home/data/SP1411/proc/nb300/load/wrote_ens_time: 2014/12/06 14:55:53
2014-12-06 14:56:56,620 INFO     repeater     task ashtech_hcorrstats starting 3.3 seconds late
2014-12-06 14:56:57,541 INFO     repeater     task ashtech_hcorrstats ended after 0.9 seconds
2014-12-06 14:58:07,621 INFO     repeater     task nb300_lastensq starting 4.6 seconds late
2014-12-06 14:58:09,752 INFO     repeater     task nb300_lastensq ended after 2.1 seconds
2014-12-06 14:58:09,753 INFO     repeater     task nb300_lastensq: Time from /home/data/SP1411/proc/nb300/load/wrote_ens_time: 2014/12/06 14:57:53
2014-12-06 15:00:04,875 INFO     repeater     task nb300_lastensq starting 1.9 seconds late
2014-12-06 15:00:07,020 INFO     repeater     task nb300_lastensq ended after 2.1 seconds
2014-12-06 15:00:07,021 INFO     repeater     task nb300_lastensq: Time from /home/data/SP1411/proc/nb300/load/wrote_ens_time: 2014/12/06 14:59:53
2014-12-06 15:01:57,151 INFO     repeater     task nb300_quick starting 3.9 seconds late
2014-12-06 15:02:00,401 INFO     repeater     task nb300_quick ended after 3.2 seconds
2014-12-06 15:02:00,401 INFO     repeater     task nb300_3dayplots starting 7.2 seconds late
2014-12-06 15:02:04,254 INFO     repeater     task nb300_3dayplots ended after 3.9 seconds
2014-12-06 15:02:04,254 INFO     repeater     task nb300_beamplots starting 11.0 seconds late
2014-12-06 15:02:05,941 INFO     repeater     task nb300_beamplots output:
Starting procsetup

2014-12-06 15:02:05,941 INFO     repeater     task nb300_beamplots ended after 1.7 seconds
2014-12-06 15:02:05,942 INFO     repeater     task nb300_beamplots starting 12.7 seconds late
2014-12-06 15:02:07,576 INFO     repeater     task nb300_beamplots output:
Starting procsetup

2014-12-06 15:02:07,577 INFO     repeater     task nb300_beamplots ended after 1.6 seconds
2014-12-06 15:02:07,577 INFO     repeater     task ashtech_hcorrstats starting 14.3 seconds late
2014-12-06 15:02:08,482 INFO     repeater     task ashtech_hcorrstats ended after 0.9 seconds
2014-12-06 15:02:13,488 INFO     repeater     task nb300_lastensq starting 10.5 seconds late
2014-12-06 15:02:15,630 INFO     repeater     task nb300_lastensq ended after 2.1 seconds
2014-12-06 15:02:15,630 INFO     repeater     task nb300_lastensq: Time from /home/data/SP1411/proc/nb300/load/wrote_ens_time: 2014/12/06 15:01:53
2014-12-06 15:04:05,759 INFO     repeater     task nb300_lastensq starting 2.8 seconds late
2014-12-06 15:04:07,892 INFO     repeater     task nb300_lastensq ended after 2.1 seconds
2014-12-06 15:04:07,893 INFO     repeater     task nb300_lastensq: Time from /home/data/SP1411/proc/nb300/load/wrote_ens_time: 2014/12/06 15:03:53
2014-12-06 15:06:03,035 INFO     repeater     task nb300_lastensq starting 0.0 seconds late
2014-12-06 15:06:05,143 INFO     repeater     task nb300_lastensq ended after 2.1 seconds
2014-12-06 15:06:05,143 INFO     repeater     task nb300_lastensq: Time from /home/data/SP1411/proc/nb300/load/wrote_ens_time: 2014/12/06 15:05:53
2014-12-06 15:06:55,205 INFO     repeater     task ashtech_hcorrstats starting 1.9 seconds late
2014-12-06 15:06:56,111 INFO     repeater     task ashtech_hcorrstats ended after 0.9 seconds
2014-12-06 15:08:06,191 INFO     repeater     task nb300_lastensq starting 3.2 seconds late
2014-12-06 15:08:08,340 INFO     repeater     task nb300_lastensq ended after 2.1 seconds
2014-12-06 15:08:08,341 INFO     repeater     task nb300_lastensq: Time from /home/data/SP1411/proc/nb300/load/wrote_ens_time: 2014/12/06 15:07:53
2014-12-06 15:10:03,458 INFO     repeater     task nb300_lastensq starting 0.5 seconds late
2014-12-06 15:10:05,551 INFO     repeater     task nb300_lastensq ended after 2.1 seconds
2014-12-06 15:10:05,552 INFO     repeater     task nb300_lastensq: Time from /home/data/SP1411/proc/nb300/load/wrote_ens_time: 2014/12/06 15:09:53
2014-12-06 15:11:55,682 INFO     repeater     task nb300_beamplots starting 2.4 seconds late
2014-12-06 15:11:57,288 INFO     repeater     task nb300_beamplots output:
Starting procsetup

2014-12-06 15:11:57,288 INFO     repeater     task nb300_beamplots ended after 1.6 seconds
2014-12-06 15:11:57,289 INFO     repeater     task nb300_beamplots starting 4.0 seconds late
2014-12-06 15:11:59,014 INFO     repeater     task nb300_beamplots output:
Starting procsetup

2014-12-06 15:11:59,014 INFO     repeater     task nb300_beamplots ended after 1.7 seconds
2014-12-06 15:11:59,014 INFO     repeater     task ashtech_hcorrstats starting 5.7 seconds late
2014-12-06 15:11:59,928 INFO     repeater     task ashtech_hcorrstats ended after 0.9 seconds
2014-12-06 15:12:04,934 INFO     repeater     task nb300_lastensq starting 1.9 seconds late
2014-12-06 15:12:07,094 INFO     repeater     task nb300_lastensq ended after 2.2 seconds
2014-12-06 15:12:07,095 INFO     repeater     task nb300_lastensq: Time from /home/data/SP1411/proc/nb300/load/wrote_ens_time: 2014/12/06 15:11:53
2014-12-06 15:14:07,230 INFO     repeater     task nb300_lastensq starting 4.2 seconds late
2014-12-06 15:14:09,385 INFO     repeater     task nb300_lastensq ended after 2.2 seconds
2014-12-06 15:14:09,385 INFO     repeater     task nb300_lastensq: Time from /home/data/SP1411/proc/nb300/load/wrote_ens_time: 2014/12/06 15:13:53
2014-12-06 15:16:04,511 INFO     repeater     task nb300_lastensq starting 1.5 seconds late
2014-12-06 15:16:06,619 INFO     repeater     task nb300_lastensq ended after 2.1 seconds
2014-12-06 15:16:06,620 INFO     repeater     task nb300_lastensq: Time from /home/data/SP1411/proc/nb300/load/wrote_ens_time: 2014/12/06 15:15:53
2014-12-06 15:16:56,682 INFO     repeater     task ashtech_hcorrstats starting 3.4 seconds late
2014-12-06 15:16:57,593 INFO     repeater     task ashtech_hcorrstats ended after 0.9 seconds
2014-12-06 15:18:07,678 INFO     repeater     task nb300_lastensq starting 4.7 seconds late
2014-12-06 15:18:09,788 INFO     repeater     task nb300_lastensq ended after 2.1 seconds
2014-12-06 15:18:09,789 INFO     repeater     task nb300_lastensq: Time from /home/data/SP1411/proc/nb300/load/wrote_ens_time: 2014/12/06 15:17:53
2014-12-06 15:20:04,930 INFO     repeater     task nb300_lastensq starting 1.9 seconds late
2014-12-06 15:20:07,040 INFO     repeater     task nb300_lastensq ended after 2.1 seconds
2014-12-06 15:20:07,040 INFO     repeater     task nb300_lastensq: Time from /home/data/SP1411/proc/nb300/load/wrote_ens_time: 2014/12/06 15:19:53
2014-12-06 15:21:57,175 INFO     repeater     task nb300_beamplots starting 3.9 seconds late
2014-12-06 15:21:58,756 INFO     repeater     task nb300_beamplots output:
Starting procsetup

2014-12-06 15:21:58,756 INFO     repeater     task nb300_beamplots ended after 1.6 seconds
2014-12-06 15:21:58,757 INFO     repeater     task nb300_beamplots starting 5.5 seconds late
2014-12-06 15:22:00,496 INFO     repeater     task nb300_beamplots output:
Starting procsetup

2014-12-06 15:22:00,497 INFO     repeater     task nb300_beamplots ended after 1.7 seconds
2014-12-06 15:22:00,497 INFO     repeater     task ashtech_hcorrstats starting 7.2 seconds late
2014-12-06 15:22:01,406 INFO     repeater     task ashtech_hcorrstats ended after 0.9 seconds
2014-12-06 15:22:06,411 INFO     repeater     task nb300_lastensq starting 3.4 seconds late
2014-12-06 15:22:08,502 INFO     repeater     task nb300_lastensq ended after 2.1 seconds
2014-12-06 15:22:08,502 INFO     repeater     task nb300_lastensq: Time from /home/data/SP1411/proc/nb300/load/wrote_ens_time: 2014/12/06 15:21:53
2014-12-06 15:24:03,645 INFO     repeater     task nb300_lastensq starting 0.6 seconds late
2014-12-06 15:24:05,814 INFO     repeater     task nb300_lastensq ended after 2.2 seconds
2014-12-06 15:24:05,815 INFO     repeater     task nb300_lastensq: Time from /home/data/SP1411/proc/nb300/load/wrote_ens_time: 2014/12/06 15:23:53
2014-12-06 15:26:05,955 INFO     repeater     task nb300_lastensq starting 3.0 seconds late
2014-12-06 15:26:08,064 INFO     repeater     task nb300_lastensq ended after 2.1 seconds
2014-12-06 15:26:08,065 INFO     repeater     task nb300_lastensq: Time from /home/data/SP1411/proc/nb300/load/wrote_ens_time: 2014/12/06 15:25:53
2014-12-06 15:26:58,132 INFO     repeater     task ashtech_hcorrstats starting 4.9 seconds late
2014-12-06 15:26:59,057 INFO     repeater     task ashtech_hcorrstats ended after 0.9 seconds
2014-12-06 15:28:04,134 INFO     repeater     task nb300_lastensq starting 1.1 seconds late
2014-12-06 15:28:06,303 INFO     repeater     task nb300_lastensq ended after 2.2 seconds
2014-12-06 15:28:06,311 INFO     repeater     task nb300_lastensq: Time from /home/data/SP1411/proc/nb300/load/wrote_ens_time: 2014/12/06 15:27:53
2014-12-06 15:30:06,462 INFO     repeater     task nb300_lastensq starting 3.5 seconds late
2014-12-06 15:30:08,618 INFO     repeater     task nb300_lastensq ended after 2.2 seconds
2014-12-06 15:30:08,618 INFO     repeater     task nb300_lastensq: Time from /home/data/SP1411/proc/nb300/load/wrote_ens_time: 2014/12/06 15:29:53
2014-12-06 15:31:53,734 INFO     repeater     task nb300_quick starting 0.5 seconds late
2014-12-06 15:31:57,038 INFO     repeater     task nb300_quick ended after 3.3 seconds
2014-12-06 15:31:57,038 INFO     repeater     task nb300_3dayplots starting 3.8 seconds late
2014-12-06 15:32:00,843 INFO     repeater     task nb300_3dayplots ended after 3.8 seconds
2014-12-06 15:32:00,844 INFO     repeater     task nb300_beamplots starting 7.6 seconds late
2014-12-06 15:32:02,524 INFO     repeater     task nb300_beamplots output:
Starting procsetup

2014-12-06 15:32:02,525 INFO     repeater     task nb300_beamplots ended after 1.7 seconds
2014-12-06 15:32:02,525 INFO     repeater     task nb300_beamplots starting 9.3 seconds late
2014-12-06 15:32:04,145 INFO     repeater     task nb300_beamplots output:
Starting procsetup

2014-12-06 15:32:04,145 INFO     repeater     task nb300_beamplots ended after 1.6 seconds
2014-12-06 15:32:04,146 INFO     repeater     task ashtech_hcorrstats starting 10.9 seconds late
2014-12-06 15:32:05,044 INFO     repeater     task ashtech_hcorrstats ended after 0.9 seconds
2014-12-06 15:32:10,050 INFO     repeater     task nb300_lastensq starting 7.1 seconds late
2014-12-06 15:32:12,234 INFO     repeater     task nb300_lastensq ended after 2.2 seconds
2014-12-06 15:32:12,235 INFO     repeater     task nb300_lastensq: Time from /home/data/SP1411/proc/nb300/load/wrote_ens_time: 2014/12/06 15:31:53
2014-12-06 15:34:07,358 INFO     repeater     task nb300_lastensq starting 4.4 seconds late
2014-12-06 15:34:09,516 INFO     repeater     task nb300_lastensq ended after 2.2 seconds
2014-12-06 15:34:09,517 INFO     repeater     task nb300_lastensq: Time from /home/data/SP1411/proc/nb300/load/wrote_ens_time: 2014/12/06 15:33:53
2014-12-06 15:36:04,654 INFO     repeater     task nb300_lastensq starting 1.7 seconds late
2014-12-06 15:36:06,822 INFO     repeater     task nb300_lastensq ended after 2.2 seconds
2014-12-06 15:36:06,822 INFO     repeater     task nb300_lastensq: Time from /home/data/SP1411/proc/nb300/load/wrote_ens_time: 2014/12/06 15:35:53
2014-12-06 15:36:56,876 INFO     repeater     task ashtech_hcorrstats starting 3.6 seconds late
2014-12-06 15:36:57,788 INFO     repeater     task ashtech_hcorrstats ended after 0.9 seconds
2014-12-06 15:38:07,868 INFO     repeater     task nb300_lastensq starting 4.9 seconds late
2014-12-06 15:38:10,015 INFO     repeater     task nb300_lastensq ended after 2.1 seconds
2014-12-06 15:38:10,016 INFO     repeater     task nb300_lastensq: Time from /home/data/SP1411/proc/nb300/load/wrote_ens_time: 2014/12/06 15:37:53
2014-12-06 15:40:05,141 INFO     repeater     task nb300_lastensq starting 2.1 seconds late
2014-12-06 15:40:07,310 INFO     repeater     task nb300_lastensq ended after 2.2 seconds
2014-12-06 15:40:07,311 INFO     repeater     task nb300_lastensq: Time from /home/data/SP1411/proc/nb300/load/wrote_ens_time: 2014/12/06 15:39:53
2014-12-06 15:41:57,438 INFO     repeater     task nb300_beamplots starting 4.2 seconds late
2014-12-06 15:41:59,110 INFO     repeater     task nb300_beamplots output:
Starting procsetup

2014-12-06 15:41:59,110 INFO     repeater     task nb300_beamplots ended after 1.7 seconds
2014-12-06 15:41:59,111 INFO     repeater     task nb300_beamplots starting 5.8 seconds late
2014-12-06 15:42:00,853 INFO     repeater     task nb300_beamplots output:
Starting procsetup

2014-12-06 15:42:00,854 INFO     repeater     task nb300_beamplots ended after 1.7 seconds
2014-12-06 15:42:00,854 INFO     repeater     task ashtech_hcorrstats starting 7.6 seconds late
2014-12-06 15:42:01,765 INFO     repeater     task ashtech_hcorrstats ended after 0.9 seconds
2014-12-06 15:42:06,771 INFO     repeater     task nb300_lastensq starting 3.8 seconds late
2014-12-06 15:42:08,899 INFO     repeater     task nb300_lastensq ended after 2.1 seconds
2014-12-06 15:42:08,900 INFO     repeater     task nb300_lastensq: Time from /home/data/SP1411/proc/nb300/load/wrote_ens_time: 2014/12/06 15:41:53
2014-12-06 15:44:04,030 INFO     repeater     task nb300_lastensq starting 1.0 seconds late
2014-12-06 15:44:06,158 INFO     repeater     task nb300_lastensq ended after 2.1 seconds
2014-12-06 15:44:06,158 INFO     repeater     task nb300_lastensq: Time from /home/data/SP1411/proc/nb300/load/wrote_ens_time: 2014/12/06 15:43:53
2014-12-06 15:46:06,297 INFO     repeater     task nb300_lastensq starting 3.3 seconds late
2014-12-06 15:46:08,483 INFO     repeater     task nb300_lastensq ended after 2.2 seconds
2014-12-06 15:46:08,484 INFO     repeater     task nb300_lastensq: Time from /home/data/SP1411/proc/nb300/load/wrote_ens_time: 2014/12/06 15:45:53
2014-12-06 15:46:53,538 INFO     repeater     task ashtech_hcorrstats starting 0.3 seconds late
2014-12-06 15:46:54,451 INFO     repeater     task ashtech_hcorrstats ended after 0.9 seconds
2014-12-06 15:48:04,537 INFO     repeater     task nb300_lastensq starting 1.5 seconds late
2014-12-06 15:48:06,721 INFO     repeater     task nb300_lastensq ended after 2.2 seconds
2014-12-06 15:48:06,721 INFO     repeater     task nb300_lastensq: Time from /home/data/SP1411/proc/nb300/load/wrote_ens_time: 2014/12/06 15:47:53
2014-12-06 15:50:06,854 INFO     repeater     task nb300_lastensq starting 3.9 seconds late
2014-12-06 15:50:08,978 INFO     repeater     task nb300_lastensq ended after 2.1 seconds
2014-12-06 15:50:08,979 INFO     repeater     task nb300_lastensq: Time from /home/data/SP1411/proc/nb300/load/wrote_ens_time: 2014/12/06 15:49:53
2014-12-06 15:51:54,105 INFO     repeater     task nb300_beamplots starting 0.8 seconds late
2014-12-06 15:51:55,707 INFO     repeater     task nb300_beamplots output:
Starting procsetup

2014-12-06 15:51:55,708 INFO     repeater     task nb300_beamplots ended after 1.6 seconds
2014-12-06 15:51:55,708 INFO     repeater     task nb300_beamplots starting 2.4 seconds late
2014-12-06 15:51:57,454 INFO     repeater     task nb300_beamplots output:
Starting procsetup

2014-12-06 15:51:57,455 INFO     repeater     task nb300_beamplots ended after 1.7 seconds
2014-12-06 15:51:57,455 INFO     repeater     task ashtech_hcorrstats starting 4.2 seconds late
2014-12-06 15:51:58,370 INFO     repeater     task ashtech_hcorrstats ended after 0.9 seconds
2014-12-06 15:52:03,371 INFO     repeater     task nb300_lastensq starting 0.4 seconds late
2014-12-06 15:52:05,495 INFO     repeater     task nb300_lastensq ended after 2.1 seconds
2014-12-06 15:52:05,496 INFO     repeater     task nb300_lastensq: Time from /home/data/SP1411/proc/nb300/load/wrote_ens_time: 2014/12/06 15:51:53
2014-12-06 15:54:05,641 INFO     repeater     task nb300_lastensq starting 2.6 seconds late
2014-12-06 15:54:07,847 INFO     repeater     task nb300_lastensq ended after 2.2 seconds
2014-12-06 15:54:07,847 INFO     repeater     task nb300_lastensq: Time from /home/data/SP1411/proc/nb300/load/wrote_ens_time: 2014/12/06 15:53:53
2014-12-06 15:56:07,981 INFO     repeater     task nb300_lastensq starting 5.0 seconds late
2014-12-06 15:56:10,115 INFO     repeater     task nb300_lastensq ended after 2.1 seconds
2014-12-06 15:56:10,115 INFO     repeater     task nb300_lastensq: Time from /home/data/SP1411/proc/nb300/load/wrote_ens_time: 2014/12/06 15:55:53
2014-12-06 15:56:55,166 INFO     repeater     task ashtech_hcorrstats starting 1.9 seconds late
2014-12-06 15:56:56,077 INFO     repeater     task ashtech_hcorrstats ended after 0.9 seconds
2014-12-06 15:58:06,161 INFO     repeater     task nb300_lastensq starting 3.2 seconds late
2014-12-06 15:58:08,339 INFO     repeater     task nb300_lastensq ended after 2.2 seconds
2014-12-06 15:58:08,339 INFO     repeater     task nb300_lastensq: Time from /home/data/SP1411/proc/nb300/load/wrote_ens_time: 2014/12/06 15:57:53
2014-12-06 16:00:03,465 INFO     repeater     task nb300_lastensq starting 0.5 seconds late
2014-12-06 16:00:05,680 INFO     repeater     task nb300_lastensq ended after 2.2 seconds
2014-12-06 16:00:05,681 INFO     repeater     task nb300_lastensq: Time from /home/data/SP1411/proc/nb300/load/wrote_ens_time: 2014/12/06 15:59:53
2014-12-06 16:01:55,804 INFO     repeater     task nb300_quick starting 2.6 seconds late
2014-12-06 16:01:59,038 INFO     repeater     task nb300_quick ended after 3.2 seconds
2014-12-06 16:01:59,039 INFO     repeater     task nb300_3dayplots starting 5.8 seconds late
2014-12-06 16:02:02,910 INFO     repeater     task nb300_3dayplots ended after 3.9 seconds
2014-12-06 16:02:02,911 INFO     repeater     task nb300_beamplots starting 9.6 seconds late
2014-12-06 16:02:04,602 INFO     repeater     task nb300_beamplots output:
Starting procsetup

2014-12-06 16:02:04,602 INFO     repeater     task nb300_beamplots ended after 1.7 seconds
2014-12-06 16:02:04,602 INFO     repeater     task nb300_beamplots starting 11.3 seconds late
2014-12-06 16:02:06,238 INFO     repeater     task nb300_beamplots output:
Starting procsetup

2014-12-06 16:02:06,238 INFO     repeater     task nb300_beamplots ended after 1.6 seconds
2014-12-06 16:02:06,238 INFO     repeater     task ashtech_hcorrstats starting 13.0 seconds late
2014-12-06 16:02:07,140 INFO     repeater     task ashtech_hcorrstats ended after 0.9 seconds
2014-12-06 16:02:12,145 INFO     repeater     task nb300_lastensq starting 9.1 seconds late
2014-12-06 16:02:14,255 INFO     repeater     task nb300_lastensq ended after 2.1 seconds
2014-12-06 16:02:14,255 INFO     repeater     task nb300_lastensq: Time from /home/data/SP1411/proc/nb300/load/wrote_ens_time: 2014/12/06 16:01:53
2014-12-06 16:04:04,380 INFO     repeater     task nb300_lastensq starting 1.4 seconds late
2014-12-06 16:04:06,455 INFO     repeater     task nb300_lastensq ended after 2.1 seconds
2014-12-06 16:04:06,455 INFO     repeater     task nb300_lastensq: Time from /home/data/SP1411/proc/nb300/load/wrote_ens_time: 2014/12/06 16:03:53
2014-12-06 16:06:06,601 INFO     repeater     task nb300_lastensq starting 3.6 seconds late
2014-12-06 16:06:08,699 INFO     repeater     task nb300_lastensq ended after 2.1 seconds
2014-12-06 16:06:08,700 INFO     repeater     task nb300_lastensq: Time from /home/data/SP1411/proc/nb300/load/wrote_ens_time: 2014/12/06 16:05:53
2014-12-06 16:06:53,752 INFO     repeater     task ashtech_hcorrstats starting 0.5 seconds late
2014-12-06 16:06:54,669 INFO     repeater     task ashtech_hcorrstats ended after 0.9 seconds
2014-12-06 16:08:04,751 INFO     repeater     task nb300_lastensq starting 1.8 seconds late
2014-12-06 16:08:06,875 INFO     repeater     task nb300_lastensq ended after 2.1 seconds
2014-12-06 16:08:06,875 INFO     repeater     task nb300_lastensq: Time from /home/data/SP1411/proc/nb300/load/wrote_ens_time: 2014/12/06 16:07:53
2014-12-06 16:10:07,010 INFO     repeater     task nb300_lastensq starting 4.0 seconds late
2014-12-06 16:10:09,074 INFO     repeater     task nb300_lastensq ended after 2.1 seconds
2014-12-06 16:10:09,074 INFO     repeater     task nb300_lastensq: Time from /home/data/SP1411/proc/nb300/load/wrote_ens_time: 2014/12/06 16:09:53
2014-12-06 16:11:54,198 INFO     repeater     task nb300_beamplots starting 0.9 seconds late
2014-12-06 16:11:55,866 INFO     repeater     task nb300_beamplots output:
Starting procsetup

2014-12-06 16:11:55,866 INFO     repeater     task nb300_beamplots ended after 1.7 seconds
2014-12-06 16:11:55,867 INFO     repeater     task nb300_beamplots starting 2.6 seconds late
2014-12-06 16:11:57,622 INFO     repeater     task nb300_beamplots output:
Starting procsetup

2014-12-06 16:11:57,622 INFO     repeater     task nb300_beamplots ended after 1.8 seconds
2014-12-06 16:11:57,623 INFO     repeater     task ashtech_hcorrstats starting 4.3 seconds late
2014-12-06 16:11:58,540 INFO     repeater     task ashtech_hcorrstats ended after 0.9 seconds
2014-12-06 16:12:03,546 INFO     repeater     task nb300_lastensq starting 0.5 seconds late
2014-12-06 16:12:05,618 INFO     repeater     task nb300_lastensq ended after 2.1 seconds
2014-12-06 16:12:05,619 INFO     repeater     task nb300_lastensq: Time from /home/data/SP1411/proc/nb300/load/wrote_ens_time: 2014/12/06 16:11:53
2014-12-06 16:14:05,748 INFO     repeater     task nb300_lastensq starting 2.7 seconds late
2014-12-06 16:14:07,861 INFO     repeater     task nb300_lastensq ended after 2.1 seconds
2014-12-06 16:14:07,861 INFO     repeater     task nb300_lastensq: Time from /home/data/SP1411/proc/nb300/load/wrote_ens_time: 2014/12/06 16:13:53
2014-12-06 16:16:03,001 INFO     repeater     task nb300_lastensq starting 0.0 seconds late
2014-12-06 16:16:05,097 INFO     repeater     task nb300_lastensq ended after 2.1 seconds
2014-12-06 16:16:05,098 INFO     repeater     task nb300_lastensq: Time from /home/data/SP1411/proc/nb300/load/wrote_ens_time: 2014/12/06 16:15:53
2014-12-06 16:16:55,163 INFO     repeater     task ashtech_hcorrstats starting 1.9 seconds late
2014-12-06 16:16:56,085 INFO     repeater     task ashtech_hcorrstats ended after 0.9 seconds
2014-12-06 16:18:06,164 INFO     repeater     task nb300_lastensq starting 3.2 seconds late
2014-12-06 16:18:08,285 INFO     repeater     task nb300_lastensq ended after 2.1 seconds
2014-12-06 16:18:08,286 INFO     repeater     task nb300_lastensq: Time from /home/data/SP1411/proc/nb300/load/wrote_ens_time: 2014/12/06 16:17:53
2014-12-06 16:20:03,421 INFO     repeater     task nb300_lastensq starting 0.4 seconds late
2014-12-06 16:20:05,496 INFO     repeater     task nb300_lastensq ended after 2.1 seconds
2014-12-06 16:20:05,497 INFO     repeater     task nb300_lastensq: Time from /home/data/SP1411/proc/nb300/load/wrote_ens_time: 2014/12/06 16:19:53
2014-12-06 16:21:55,629 INFO     repeater     task nb300_beamplots starting 2.4 seconds late
2014-12-06 16:21:57,207 INFO     repeater     task nb300_beamplots output:
Starting procsetup

2014-12-06 16:21:57,208 INFO     repeater     task nb300_beamplots ended after 1.6 seconds
2014-12-06 16:21:57,208 INFO     repeater     task nb300_beamplots starting 3.9 seconds late
2014-12-06 16:21:58,936 INFO     repeater     task nb300_beamplots output:
Starting procsetup

2014-12-06 16:21:58,936 INFO     repeater     task nb300_beamplots ended after 1.7 seconds
2014-12-06 16:21:58,937 INFO     repeater     task ashtech_hcorrstats starting 5.7 seconds late
2014-12-06 16:21:59,849 INFO     repeater     task ashtech_hcorrstats ended after 0.9 seconds
2014-12-06 16:22:04,851 INFO     repeater     task nb300_lastensq starting 1.9 seconds late
2014-12-06 16:22:06,942 INFO     repeater     task nb300_lastensq ended after 2.1 seconds
2014-12-06 16:22:06,943 INFO     repeater     task nb300_lastensq: Time from /home/data/SP1411/proc/nb300/load/wrote_ens_time: 2014/12/06 16:21:53
2014-12-06 16:24:07,074 INFO     repeater     task nb300_lastensq starting 4.1 seconds late
2014-12-06 16:24:09,174 INFO     repeater     task nb300_lastensq ended after 2.1 seconds
2014-12-06 16:24:09,175 INFO     repeater     task nb300_lastensq: Time from /home/data/SP1411/proc/nb300/load/wrote_ens_time: 2014/12/06 16:23:53
2014-12-06 16:26:04,304 INFO     repeater     task nb300_lastensq starting 1.3 seconds late
2014-12-06 16:26:06,441 INFO     repeater     task nb300_lastensq ended after 2.1 seconds
2014-12-06 16:26:06,441 INFO     repeater     task nb300_lastensq: Time from /home/data/SP1411/proc/nb300/load/wrote_ens_time: 2014/12/06 16:25:53
2014-12-06 16:26:56,499 INFO     repeater     task ashtech_hcorrstats starting 3.2 seconds late
2014-12-06 16:26:57,404 INFO     repeater     task ashtech_hcorrstats ended after 0.9 seconds
2014-12-06 16:28:07,480 INFO     repeater     task nb300_lastensq starting 4.5 seconds late
2014-12-06 16:28:09,548 INFO     repeater     task nb300_lastensq ended after 2.1 seconds
2014-12-06 16:28:09,548 INFO     repeater     task nb300_lastensq: Time from /home/data/SP1411/proc/nb300/load/wrote_ens_time: 2014/12/06 16:27:53
2014-12-06 16:30:04,685 INFO     repeater     task nb300_lastensq starting 1.7 seconds late
2014-12-06 16:30:06,795 INFO     repeater     task nb300_lastensq ended after 2.1 seconds
2014-12-06 16:30:06,796 INFO     repeater     task nb300_lastensq: Time from /home/data/SP1411/proc/nb300/load/wrote_ens_time: 2014/12/06 16:29:53
2014-12-06 16:31:56,928 INFO     repeater     task nb300_quick starting 3.7 seconds late
2014-12-06 16:32:00,209 INFO     repeater     task nb300_quick ended after 3.3 seconds
2014-12-06 16:32:00,210 INFO     repeater     task nb300_3dayplots starting 7.0 seconds late
2014-12-06 16:32:04,095 INFO     repeater     task nb300_3dayplots ended after 3.9 seconds
2014-12-06 16:32:04,095 INFO     repeater     task nb300_beamplots starting 10.8 seconds late
2014-12-06 16:32:05,773 INFO     repeater     task nb300_beamplots output:
Starting procsetup

2014-12-06 16:32:05,773 INFO     repeater     task nb300_beamplots ended after 1.7 seconds
2014-12-06 16:32:05,774 INFO     repeater     task nb300_beamplots starting 12.5 seconds late
2014-12-06 16:32:07,393 INFO     repeater     task nb300_beamplots output:
Starting procsetup

2014-12-06 16:32:07,393 INFO     repeater     task nb300_beamplots ended after 1.6 seconds
2014-12-06 16:32:07,393 INFO     repeater     task ashtech_hcorrstats starting 14.1 seconds late
2014-12-06 16:32:08,327 INFO     repeater     task ashtech_hcorrstats ended after 0.9 seconds
2014-12-06 16:32:13,331 INFO     repeater     task nb300_lastensq starting 10.3 seconds late
2014-12-06 16:32:15,409 INFO     repeater     task nb300_lastensq ended after 2.1 seconds
2014-12-06 16:32:15,409 INFO     repeater     task nb300_lastensq: Time from /home/data/SP1411/proc/nb300/load/wrote_ens_time: 2014/12/06 16:31:53
2014-12-06 16:34:05,531 INFO     repeater     task nb300_lastensq starting 2.5 seconds late
2014-12-06 16:34:07,648 INFO     repeater     task nb300_lastensq ended after 2.1 seconds
2014-12-06 16:34:07,649 INFO     repeater     task nb300_lastensq: Time from /home/data/SP1411/proc/nb300/load/wrote_ens_time: 2014/12/06 16:33:53
2014-12-06 16:36:07,788 INFO     repeater     task nb300_lastensq starting 4.8 seconds late
2014-12-06 16:36:09,925 INFO     repeater     task nb300_lastensq ended after 2.1 seconds
2014-12-06 16:36:09,925 INFO     repeater     task nb300_lastensq: Time from /home/data/SP1411/proc/nb300/load/wrote_ens_time: 2014/12/06 16:35:53
2014-12-06 16:36:54,981 INFO     repeater     task ashtech_hcorrstats starting 1.7 seconds late
2014-12-06 16:36:55,898 INFO     repeater     task ashtech_hcorrstats ended after 0.9 seconds
2014-12-06 16:38:05,985 INFO     repeater     task nb300_lastensq starting 3.0 seconds late
2014-12-06 16:38:08,102 INFO     repeater     task nb300_lastensq ended after 2.1 seconds
2014-12-06 16:38:08,103 INFO     repeater     task nb300_lastensq: Time from /home/data/SP1411/proc/nb300/load/wrote_ens_time: 2014/12/06 16:37:53
2014-12-06 16:40:03,234 INFO     repeater     task nb300_lastensq starting 0.2 seconds late
2014-12-06 16:40:05,355 INFO     repeater     task nb300_lastensq ended after 2.1 seconds
2014-12-06 16:40:05,355 INFO     repeater     task nb300_lastensq: Time from /home/data/SP1411/proc/nb300/load/wrote_ens_time: 2014/12/06 16:39:53
2014-12-06 16:41:55,482 INFO     repeater     task nb300_beamplots starting 2.2 seconds late
2014-12-06 16:41:57,143 INFO     repeater     task nb300_beamplots output:
Starting procsetup

2014-12-06 16:41:57,143 INFO     repeater     task nb300_beamplots ended after 1.7 seconds
2014-12-06 16:41:57,143 INFO     repeater     task nb300_beamplots starting 3.9 seconds late
2014-12-06 16:41:58,841 INFO     repeater     task nb300_beamplots output:
Starting procsetup

2014-12-06 16:41:58,841 INFO     repeater     task nb300_beamplots ended after 1.7 seconds
2014-12-06 16:41:58,841 INFO     repeater     task ashtech_hcorrstats starting 5.6 seconds late
2014-12-06 16:41:59,746 INFO     repeater     task ashtech_hcorrstats ended after 0.9 seconds
2014-12-06 16:42:04,752 INFO     repeater     task nb300_lastensq starting 1.8 seconds late
2014-12-06 16:42:06,889 INFO     repeater     task nb300_lastensq ended after 2.1 seconds
2014-12-06 16:42:06,889 INFO     repeater     task nb300_lastensq: Time from /home/data/SP1411/proc/nb300/load/wrote_ens_time: 2014/12/06 16:41:53
2014-12-06 16:44:07,031 INFO     repeater     task nb300_lastensq starting 4.0 seconds late
2014-12-06 16:44:09,109 INFO     repeater     task nb300_lastensq ended after 2.1 seconds
2014-12-06 16:44:09,109 INFO     repeater     task nb300_lastensq: Time from /home/data/SP1411/proc/nb300/load/wrote_ens_time: 2014/12/06 16:43:53
2014-12-06 16:46:04,244 INFO     repeater     task nb300_lastensq starting 1.2 seconds late
2014-12-06 16:46:06,346 INFO     repeater     task nb300_lastensq ended after 2.1 seconds
2014-12-06 16:46:06,346 INFO     repeater     task nb300_lastensq: Time from /home/data/SP1411/proc/nb300/load/wrote_ens_time: 2014/12/06 16:45:53
2014-12-06 16:46:56,405 INFO     repeater     task ashtech_hcorrstats starting 3.1 seconds late
2014-12-06 16:46:57,339 INFO     repeater     task ashtech_hcorrstats ended after 0.9 seconds
2014-12-06 16:48:07,427 INFO     repeater     task nb300_lastensq starting 4.4 seconds late
2014-12-06 16:48:09,511 INFO     repeater     task nb300_lastensq ended after 2.1 seconds
2014-12-06 16:48:09,512 INFO     repeater     task nb300_lastensq: Time from /home/data/SP1411/proc/nb300/load/wrote_ens_time: 2014/12/06 16:47:53
2014-12-06 16:50:04,656 INFO     repeater     task nb300_lastensq starting 1.7 seconds late
2014-12-06 16:50:06,795 INFO     repeater     task nb300_lastensq ended after 2.1 seconds
2014-12-06 16:50:06,795 INFO     repeater     task nb300_lastensq: Time from /home/data/SP1411/proc/nb300/load/wrote_ens_time: 2014/12/06 16:49:53
2014-12-06 16:51:56,920 INFO     repeater     task nb300_beamplots starting 3.6 seconds late
2014-12-06 16:51:58,513 INFO     repeater     task nb300_beamplots output:
Starting procsetup

2014-12-06 16:51:58,514 INFO     repeater     task nb300_beamplots ended after 1.6 seconds
2014-12-06 16:51:58,514 INFO     repeater     task nb300_beamplots starting 5.2 seconds late
2014-12-06 16:52:00,211 INFO     repeater     task nb300_beamplots output:
Starting procsetup

2014-12-06 16:52:00,212 INFO     repeater     task nb300_beamplots ended after 1.7 seconds
2014-12-06 16:52:00,212 INFO     repeater     task ashtech_hcorrstats starting 6.9 seconds late
2014-12-06 16:52:01,123 INFO     repeater     task ashtech_hcorrstats ended after 0.9 seconds
2014-12-06 16:52:06,129 INFO     repeater     task nb300_lastensq starting 3.1 seconds late
2014-12-06 16:52:08,278 INFO     repeater     task nb300_lastensq ended after 2.1 seconds
2014-12-06 16:52:08,279 INFO     repeater     task nb300_lastensq: Time from /home/data/SP1411/proc/nb300/load/wrote_ens_time: 2014/12/06 16:51:53
2014-12-06 16:54:03,404 INFO     repeater     task nb300_lastensq starting 0.4 seconds late
2014-12-06 16:54:05,556 INFO     repeater     task nb300_lastensq ended after 2.2 seconds
2014-12-06 16:54:05,556 INFO     repeater     task nb300_lastensq: Time from /home/data/SP1411/proc/nb300/load/wrote_ens_time: 2014/12/06 16:53:53
2014-12-06 16:56:05,695 INFO     repeater     task nb300_lastensq starting 2.7 seconds late
2014-12-06 16:56:07,830 INFO     repeater     task nb300_lastensq ended after 2.1 seconds
2014-12-06 16:56:07,830 INFO     repeater     task nb300_lastensq: Time from /home/data/SP1411/proc/nb300/load/wrote_ens_time: 2014/12/06 16:55:53
2014-12-06 16:56:57,880 INFO     repeater     task ashtech_hcorrstats starting 4.6 seconds late
2014-12-06 16:56:58,790 INFO     repeater     task ashtech_hcorrstats ended after 0.9 seconds
2014-12-06 16:58:03,870 INFO     repeater     task nb300_lastensq starting 0.9 seconds late
2014-12-06 16:58:05,960 INFO     repeater     task nb300_lastensq ended after 2.1 seconds
2014-12-06 16:58:05,961 INFO     repeater     task nb300_lastensq: Time from /home/data/SP1411/proc/nb300/load/wrote_ens_time: 2014/12/06 16:57:53
2014-12-06 17:00:06,101 INFO     repeater     task nb300_lastensq starting 3.1 seconds late
2014-12-06 17:00:08,259 INFO     repeater     task nb300_lastensq ended after 2.2 seconds
2014-12-06 17:00:08,260 INFO     repeater     task nb300_lastensq: Time from /home/data/SP1411/proc/nb300/load/wrote_ens_time: 2014/12/06 16:59:53
2014-12-06 17:01:53,374 INFO     repeater     task nb300_quick starting 0.1 seconds late
2014-12-06 17:01:56,606 INFO     repeater     task nb300_quick ended after 3.2 seconds
2014-12-06 17:01:56,606 INFO     repeater     task nb300_3dayplots starting 3.4 seconds late
2014-12-06 17:02:00,536 INFO     repeater     task nb300_3dayplots ended after 3.9 seconds
2014-12-06 17:02:00,536 INFO     repeater     task nb300_beamplots starting 7.3 seconds late
2014-12-06 17:02:02,208 INFO     repeater     task nb300_beamplots output:
Starting procsetup

2014-12-06 17:02:02,208 INFO     repeater     task nb300_beamplots ended after 1.7 seconds
2014-12-06 17:02:02,208 INFO     repeater     task nb300_beamplots starting 8.9 seconds late
2014-12-06 17:02:03,812 INFO     repeater     task nb300_beamplots output:
Starting procsetup

2014-12-06 17:02:03,813 INFO     repeater     task nb300_beamplots ended after 1.6 seconds
2014-12-06 17:02:03,813 INFO     repeater     task ashtech_hcorrstats starting 10.5 seconds late
2014-12-06 17:02:04,716 INFO     repeater     task ashtech_hcorrstats ended after 0.9 seconds
2014-12-06 17:02:09,722 INFO     repeater     task nb300_lastensq starting 6.7 seconds late
2014-12-06 17:02:11,812 INFO     repeater     task nb300_lastensq ended after 2.1 seconds
2014-12-06 17:02:11,812 INFO     repeater     task nb300_lastensq: Time from /home/data/SP1411/proc/nb300/load/wrote_ens_time: 2014/12/06 17:01:53
2014-12-06 17:04:06,955 INFO     repeater     task nb300_lastensq starting 4.0 seconds late
2014-12-06 17:04:09,135 INFO     repeater     task nb300_lastensq ended after 2.2 seconds
2014-12-06 17:04:09,136 INFO     repeater     task nb300_lastensq: Time from /home/data/SP1411/proc/nb300/load/wrote_ens_time: 2014/12/06 17:03:53
2014-12-06 17:06:04,261 INFO     repeater     task nb300_lastensq starting 1.3 seconds late
2014-12-06 17:06:06,353 INFO     repeater     task nb300_lastensq ended after 2.1 seconds
2014-12-06 17:06:06,354 INFO     repeater     task nb300_lastensq: Time from /home/data/SP1411/proc/nb300/load/wrote_ens_time: 2014/12/06 17:05:53
2014-12-06 17:06:56,413 INFO     repeater     task ashtech_hcorrstats starting 3.1 seconds late
2014-12-06 17:06:57,334 INFO     repeater     task ashtech_hcorrstats ended after 0.9 seconds
2014-12-06 17:08:07,410 INFO     repeater     task nb300_lastensq starting 4.4 seconds late
2014-12-06 17:08:09,568 INFO     repeater     task nb300_lastensq ended after 2.2 seconds
2014-12-06 17:08:09,568 INFO     repeater     task nb300_lastensq: Time from /home/data/SP1411/proc/nb300/load/wrote_ens_time: 2014/12/06 17:07:53
2014-12-06 17:10:04,707 INFO     repeater     task nb300_lastensq starting 1.7 seconds late
2014-12-06 17:10:06,854 INFO     repeater     task nb300_lastensq ended after 2.1 seconds
2014-12-06 17:10:06,855 INFO     repeater     task nb300_lastensq: Time from /home/data/SP1411/proc/nb300/load/wrote_ens_time: 2014/12/06 17:09:53
2014-12-06 17:11:56,995 INFO     repeater     task nb300_beamplots starting 3.7 seconds late
2014-12-06 17:11:58,711 INFO     repeater     task nb300_beamplots output:
Starting procsetup

2014-12-06 17:11:58,712 INFO     repeater     task nb300_beamplots ended after 1.7 seconds
2014-12-06 17:11:58,712 INFO     repeater     task nb300_beamplots starting 5.4 seconds late
2014-12-06 17:12:00,443 INFO     repeater     task nb300_beamplots output:
Starting procsetup

2014-12-06 17:12:00,443 INFO     repeater     task nb300_beamplots ended after 1.7 seconds
2014-12-06 17:12:00,444 INFO     repeater     task ashtech_hcorrstats starting 7.2 seconds late
2014-12-06 17:12:01,361 INFO     repeater     task ashtech_hcorrstats ended after 0.9 seconds
2014-12-06 17:12:06,367 INFO     repeater     task nb300_lastensq starting 3.4 seconds late
2014-12-06 17:12:08,535 INFO     repeater     task nb300_lastensq ended after 2.2 seconds
2014-12-06 17:12:08,535 INFO     repeater     task nb300_lastensq: Time from /home/data/SP1411/proc/nb300/load/wrote_ens_time: 2014/12/06 17:11:53
2014-12-06 17:14:03,674 INFO     repeater     task nb300_lastensq starting 0.7 seconds late
2014-12-06 17:14:05,837 INFO     repeater     task nb300_lastensq ended after 2.2 seconds
2014-12-06 17:14:05,837 INFO     repeater     task nb300_lastensq: Time from /home/data/SP1411/proc/nb300/load/wrote_ens_time: 2014/12/06 17:13:53
2014-12-06 17:16:05,980 INFO     repeater     task nb300_lastensq starting 3.0 seconds late
2014-12-06 17:16:08,136 INFO     repeater     task nb300_lastensq ended after 2.2 seconds
2014-12-06 17:16:08,137 INFO     repeater     task nb300_lastensq: Time from /home/data/SP1411/proc/nb300/load/wrote_ens_time: 2014/12/06 17:15:53
2014-12-06 17:16:58,193 INFO     repeater     task ashtech_hcorrstats starting 4.9 seconds late
2014-12-06 17:16:59,107 INFO     repeater     task ashtech_hcorrstats ended after 0.9 seconds
2014-12-06 17:18:04,184 INFO     repeater     task nb300_lastensq starting 1.2 seconds late
2014-12-06 17:18:06,339 INFO     repeater     task nb300_lastensq ended after 2.2 seconds
2014-12-06 17:18:06,340 INFO     repeater     task nb300_lastensq: Time from /home/data/SP1411/proc/nb300/load/wrote_ens_time: 2014/12/06 17:17:53
2014-12-06 17:20:06,472 INFO     repeater     task nb300_lastensq starting 3.5 seconds late
2014-12-06 17:20:08,621 INFO     repeater     task nb300_lastensq ended after 2.1 seconds
2014-12-06 17:20:08,621 INFO     repeater     task nb300_lastensq: Time from /home/data/SP1411/proc/nb300/load/wrote_ens_time: 2014/12/06 17:19:53
2014-12-06 17:21:53,745 INFO     repeater     task nb300_beamplots starting 0.5 seconds late
2014-12-06 17:21:55,354 INFO     repeater     task nb300_beamplots output:
Starting procsetup

2014-12-06 17:21:55,355 INFO     repeater     task nb300_beamplots ended after 1.6 seconds
2014-12-06 17:21:55,355 INFO     repeater     task nb300_beamplots starting 2.1 seconds late
2014-12-06 17:21:57,087 INFO     repeater     task nb300_beamplots output:
Starting procsetup

2014-12-06 17:21:57,088 INFO     repeater     task nb300_beamplots ended after 1.7 seconds
2014-12-06 17:21:57,088 INFO     repeater     task ashtech_hcorrstats starting 3.8 seconds late
2014-12-06 17:21:58,005 INFO     repeater     task ashtech_hcorrstats ended after 0.9 seconds
2014-12-06 17:22:03,010 INFO     repeater     task nb300_lastensq starting 0.0 seconds late
2014-12-06 17:22:05,114 INFO     repeater     task nb300_lastensq ended after 2.1 seconds
2014-12-06 17:22:05,115 INFO     repeater     task nb300_lastensq: Time from /home/data/SP1411/proc/nb300/load/wrote_ens_time: 2014/12/06 17:21:53
2014-12-06 17:24:05,267 INFO     repeater     task nb300_lastensq starting 2.3 seconds late
2014-12-06 17:24:07,444 INFO     repeater     task nb300_lastensq ended after 2.2 seconds
2014-12-06 17:24:07,444 INFO     repeater     task nb300_lastensq: Time from /home/data/SP1411/proc/nb300/load/wrote_ens_time: 2014/12/06 17:23:53
2014-12-06 17:26:07,585 INFO     repeater     task nb300_lastensq starting 4.6 seconds late
2014-12-06 17:26:09,765 INFO     repeater     task nb300_lastensq ended after 2.2 seconds
2014-12-06 17:26:09,765 INFO     repeater     task nb300_lastensq: Time from /home/data/SP1411/proc/nb300/load/wrote_ens_time: 2014/12/06 17:25:53
2014-12-06 17:26:54,819 INFO     repeater     task ashtech_hcorrstats starting 1.5 seconds late
2014-12-06 17:26:55,736 INFO     repeater     task ashtech_hcorrstats ended after 0.9 seconds
2014-12-06 17:28:05,818 INFO     repeater     task nb300_lastensq starting 2.8 seconds late
2014-12-06 17:28:07,951 INFO     repeater     task nb300_lastensq ended after 2.1 seconds
2014-12-06 17:28:07,952 INFO     repeater     task nb300_lastensq: Time from /home/data/SP1411/proc/nb300/load/wrote_ens_time: 2014/12/06 17:27:53
2014-12-06 17:30:03,091 INFO     repeater     task nb300_lastensq starting 0.1 seconds late
2014-12-06 17:30:05,279 INFO     repeater     task nb300_lastensq ended after 2.2 seconds
2014-12-06 17:30:05,280 INFO     repeater     task nb300_lastensq: Time from /home/data/SP1411/proc/nb300/load/wrote_ens_time: 2014/12/06 17:29:53
2014-12-06 17:31:55,414 INFO     repeater     task nb300_quick starting 2.2 seconds late
2014-12-06 17:31:58,685 INFO     repeater     task nb300_quick ended after 3.3 seconds
2014-12-06 17:31:58,686 INFO     repeater     task nb300_3dayplots starting 5.4 seconds late
2014-12-06 17:32:02,527 INFO     repeater     task nb300_3dayplots ended after 3.8 seconds
2014-12-06 17:32:02,527 INFO     repeater     task nb300_beamplots starting 9.3 seconds late
2014-12-06 17:32:04,143 INFO     repeater     task nb300_beamplots output:
Starting procsetup

2014-12-06 17:32:04,144 INFO     repeater     task nb300_beamplots ended after 1.6 seconds
2014-12-06 17:32:04,144 INFO     repeater     task nb300_beamplots starting 10.9 seconds late
2014-12-06 17:32:05,848 INFO     repeater     task nb300_beamplots output:
Starting procsetup

2014-12-06 17:32:05,848 INFO     repeater     task nb300_beamplots ended after 1.7 seconds
2014-12-06 17:32:05,848 INFO     repeater     task ashtech_hcorrstats starting 12.6 seconds late
2014-12-06 17:32:06,755 INFO     repeater     task ashtech_hcorrstats ended after 0.9 seconds
2014-12-06 17:32:11,761 INFO     repeater     task nb300_lastensq starting 8.8 seconds late
2014-12-06 17:32:13,944 INFO     repeater     task nb300_lastensq ended after 2.2 seconds
2014-12-06 17:32:13,945 INFO     repeater     task nb300_lastensq: Time from /home/data/SP1411/proc/nb300/load/wrote_ens_time: 2014/12/06 17:31:53
2014-12-06 17:34:04,068 INFO     repeater     task nb300_lastensq starting 1.1 seconds late
2014-12-06 17:34:06,249 INFO     repeater     task nb300_lastensq ended after 2.2 seconds
2014-12-06 17:34:06,249 INFO     repeater     task nb300_lastensq: Time from /home/data/SP1411/proc/nb300/load/wrote_ens_time: 2014/12/06 17:33:53
2014-12-06 17:36:06,377 INFO     repeater     task nb300_lastensq starting 3.4 seconds late
2014-12-06 17:36:08,551 INFO     repeater     task nb300_lastensq ended after 2.2 seconds
2014-12-06 17:36:08,552 INFO     repeater     task nb300_lastensq: Time from /home/data/SP1411/proc/nb300/load/wrote_ens_time: 2014/12/06 17:35:53
2014-12-06 17:36:53,595 INFO     repeater     task ashtech_hcorrstats starting 0.3 seconds late
2014-12-06 17:36:54,511 INFO     repeater     task ashtech_hcorrstats ended after 0.9 seconds
