2014-12-07 12:06:09,770 INFO     repeater     task nb300_lastensq: Time from /home/data/SP1411/proc/nb300/load/wrote_ens_time: 2014/12/07 12:05:53
2014-12-07 12:06:54,841 INFO     repeater     task ashtech_hcorrstats starting 1.6 seconds late
2014-12-07 12:06:55,785 INFO     repeater     task ashtech_hcorrstats ended after 0.9 seconds
2014-12-07 12:08:05,866 INFO     repeater     task nb300_lastensq starting 2.9 seconds late
2014-12-07 12:08:07,935 INFO     repeater     task nb300_lastensq ended after 2.1 seconds
2014-12-07 12:08:07,935 INFO     repeater     task nb300_lastensq: Time from /home/data/SP1411/proc/nb300/load/wrote_ens_time: 2014/12/07 12:07:53
2014-12-07 12:10:03,075 INFO     repeater     task nb300_lastensq starting 0.1 seconds late
2014-12-07 12:10:05,207 INFO     repeater     task nb300_lastensq ended after 2.1 seconds
2014-12-07 12:10:05,208 INFO     repeater     task nb300_lastensq: Time from /home/data/SP1411/proc/nb300/load/wrote_ens_time: 2014/12/07 12:09:53
2014-12-07 12:11:55,332 INFO     repeater     task nb300_beamplots starting 2.1 seconds late
2014-12-07 12:11:57,026 INFO     repeater     task nb300_beamplots output:
Starting procsetup

2014-12-07 12:11:57,026 INFO     repeater     task nb300_beamplots ended after 1.7 seconds
2014-12-07 12:11:57,027 INFO     repeater     task nb300_beamplots starting 3.8 seconds late
2014-12-07 12:11:58,761 INFO     repeater     task nb300_beamplots output:
Starting procsetup

2014-12-07 12:11:58,761 INFO     repeater     task nb300_beamplots ended after 1.7 seconds
2014-12-07 12:11:58,761 INFO     repeater     task ashtech_hcorrstats starting 5.5 seconds late
2014-12-07 12:11:59,679 INFO     repeater     task ashtech_hcorrstats ended after 0.9 seconds
2014-12-07 12:12:04,684 INFO     repeater     task nb300_lastensq starting 1.7 seconds late
2014-12-07 12:12:06,833 INFO     repeater     task nb300_lastensq ended after 2.1 seconds
2014-12-07 12:12:06,833 INFO     repeater     task nb300_lastensq: Time from /home/data/SP1411/proc/nb300/load/wrote_ens_time: 2014/12/07 12:11:53
2014-12-07 12:14:06,977 INFO     repeater     task nb300_lastensq starting 4.0 seconds late
2014-12-07 12:14:09,069 INFO     repeater     task nb300_lastensq ended after 2.1 seconds
2014-12-07 12:14:09,070 INFO     repeater     task nb300_lastensq: Time from /home/data/SP1411/proc/nb300/load/wrote_ens_time: 2014/12/07 12:13:53
2014-12-07 12:16:04,211 INFO     repeater     task nb300_lastensq starting 1.2 seconds late
2014-12-07 12:16:06,337 INFO     repeater     task nb300_lastensq ended after 2.1 seconds
2014-12-07 12:16:06,337 INFO     repeater     task nb300_lastensq: Time from /home/data/SP1411/proc/nb300/load/wrote_ens_time: 2014/12/07 12:15:53
2014-12-07 12:16:56,398 INFO     repeater     task ashtech_hcorrstats starting 3.1 seconds late
2014-12-07 12:16:57,319 INFO     repeater     task ashtech_hcorrstats ended after 0.9 seconds
2014-12-07 12:18:07,401 INFO     repeater     task nb300_lastensq starting 4.4 seconds late
2014-12-07 12:18:09,534 INFO     repeater     task nb300_lastensq ended after 2.1 seconds
2014-12-07 12:18:09,534 INFO     repeater     task nb300_lastensq: Time from /home/data/SP1411/proc/nb300/load/wrote_ens_time: 2014/12/07 12:17:53
2014-12-07 12:20:04,670 INFO     repeater     task nb300_lastensq starting 1.7 seconds late
2014-12-07 12:20:06,811 INFO     repeater     task nb300_lastensq ended after 2.1 seconds
2014-12-07 12:20:06,812 INFO     repeater     task nb300_lastensq: Time from /home/data/SP1411/proc/nb300/load/wrote_ens_time: 2014/12/07 12:19:53
2014-12-07 12:21:56,932 INFO     repeater     task nb300_beamplots starting 3.7 seconds late
2014-12-07 12:21:58,598 INFO     repeater     task nb300_beamplots output:
Starting procsetup

2014-12-07 12:21:58,598 INFO     repeater     task nb300_beamplots ended after 1.7 seconds
2014-12-07 12:21:58,598 INFO     repeater     task nb300_beamplots starting 5.3 seconds late
2014-12-07 12:22:00,322 INFO     repeater     task nb300_beamplots output:
Starting procsetup

2014-12-07 12:22:00,322 INFO     repeater     task nb300_beamplots ended after 1.7 seconds
2014-12-07 12:22:00,323 INFO     repeater     task ashtech_hcorrstats starting 7.0 seconds late
2014-12-07 12:22:01,246 INFO     repeater     task ashtech_hcorrstats ended after 0.9 seconds
2014-12-07 12:22:06,251 INFO     repeater     task nb300_lastensq starting 3.3 seconds late
2014-12-07 12:22:08,348 INFO     repeater     task nb300_lastensq ended after 2.1 seconds
2014-12-07 12:22:08,349 INFO     repeater     task nb300_lastensq: Time from /home/data/SP1411/proc/nb300/load/wrote_ens_time: 2014/12/07 12:21:53
2014-12-07 12:24:03,498 INFO     repeater     task nb300_lastensq starting 0.5 seconds late
2014-12-07 12:24:05,652 INFO     repeater     task nb300_lastensq ended after 2.2 seconds
2014-12-07 12:24:05,652 INFO     repeater     task nb300_lastensq: Time from /home/data/SP1411/proc/nb300/load/wrote_ens_time: 2014/12/07 12:23:53
2014-12-07 12:26:05,784 INFO     repeater     task nb300_lastensq starting 2.8 seconds late
2014-12-07 12:26:07,915 INFO     repeater     task nb300_lastensq ended after 2.1 seconds
2014-12-07 12:26:07,915 INFO     repeater     task nb300_lastensq: Time from /home/data/SP1411/proc/nb300/load/wrote_ens_time: 2014/12/07 12:25:53
2014-12-07 12:26:57,977 INFO     repeater     task ashtech_hcorrstats starting 4.7 seconds late
2014-12-07 12:26:58,908 INFO     repeater     task ashtech_hcorrstats ended after 0.9 seconds
2014-12-07 12:28:03,976 INFO     repeater     task nb300_lastensq starting 1.0 seconds late
2014-12-07 12:28:06,065 INFO     repeater     task nb300_lastensq ended after 2.1 seconds
2014-12-07 12:28:06,065 INFO     repeater     task nb300_lastensq: Time from /home/data/SP1411/proc/nb300/load/wrote_ens_time: 2014/12/07 12:27:53
2014-12-07 12:30:06,204 INFO     repeater     task nb300_lastensq starting 3.2 seconds late
2014-12-07 12:30:08,340 INFO     repeater     task nb300_lastensq ended after 2.1 seconds
2014-12-07 12:30:08,341 INFO     repeater     task nb300_lastensq: Time from /home/data/SP1411/proc/nb300/load/wrote_ens_time: 2014/12/07 12:29:53
2014-12-07 12:31:53,459 INFO     repeater     task nb300_quick starting 0.2 seconds late
2014-12-07 12:31:57,565 INFO     repeater     task nb300_quick ended after 4.1 seconds
2014-12-07 12:31:57,566 INFO     repeater     task nb300_3dayplots starting 4.3 seconds late
2014-12-07 12:32:02,125 INFO     repeater     task nb300_3dayplots ended after 4.6 seconds
2014-12-07 12:32:02,126 INFO     repeater     task nb300_beamplots starting 8.9 seconds late
2014-12-07 12:32:03,788 INFO     repeater     task nb300_beamplots output:
Starting procsetup

2014-12-07 12:32:03,788 INFO     repeater     task nb300_beamplots ended after 1.7 seconds
2014-12-07 12:32:03,789 INFO     repeater     task nb300_beamplots starting 10.5 seconds late
2014-12-07 12:32:05,488 INFO     repeater     task nb300_beamplots output:
Starting procsetup

2014-12-07 12:32:05,488 INFO     repeater     task nb300_beamplots ended after 1.7 seconds
2014-12-07 12:32:05,489 INFO     repeater     task ashtech_hcorrstats starting 12.2 seconds late
2014-12-07 12:32:06,413 INFO     repeater     task ashtech_hcorrstats ended after 0.9 seconds
2014-12-07 12:32:11,418 INFO     repeater     task nb300_lastensq starting 8.4 seconds late
2014-12-07 12:32:13,515 INFO     repeater     task nb300_lastensq ended after 2.1 seconds
2014-12-07 12:32:13,515 INFO     repeater     task nb300_lastensq: Time from /home/data/SP1411/proc/nb300/load/wrote_ens_time: 2014/12/07 12:31:53
2014-12-07 12:34:03,641 INFO     repeater     task nb300_lastensq starting 0.6 seconds late
2014-12-07 12:34:05,720 INFO     repeater     task nb300_lastensq ended after 2.1 seconds
2014-12-07 12:34:05,720 INFO     repeater     task nb300_lastensq: Time from /home/data/SP1411/proc/nb300/load/wrote_ens_time: 2014/12/07 12:33:53
2014-12-07 12:36:05,855 INFO     repeater     task nb300_lastensq starting 2.9 seconds late
2014-12-07 12:36:07,926 INFO     repeater     task nb300_lastensq ended after 2.1 seconds
2014-12-07 12:36:07,927 INFO     repeater     task nb300_lastensq: Time from /home/data/SP1411/proc/nb300/load/wrote_ens_time: 2014/12/07 12:35:53
2014-12-07 12:36:57,982 INFO     repeater     task ashtech_hcorrstats starting 4.7 seconds late
2014-12-07 12:36:58,916 INFO     repeater     task ashtech_hcorrstats ended after 0.9 seconds
2014-12-07 12:38:03,988 INFO     repeater     task nb300_lastensq starting 1.0 seconds late
2014-12-07 12:38:06,118 INFO     repeater     task nb300_lastensq ended after 2.1 seconds
2014-12-07 12:38:06,118 INFO     repeater     task nb300_lastensq: Time from /home/data/SP1411/proc/nb300/load/wrote_ens_time: 2014/12/07 12:37:53
2014-12-07 12:40:06,258 INFO     repeater     task nb300_lastensq starting 3.3 seconds late
2014-12-07 12:40:08,383 INFO     repeater     task nb300_lastensq ended after 2.1 seconds
2014-12-07 12:40:08,383 INFO     repeater     task nb300_lastensq: Time from /home/data/SP1411/proc/nb300/load/wrote_ens_time: 2014/12/07 12:39:53
2014-12-07 12:41:53,512 INFO     repeater     task nb300_beamplots starting 0.2 seconds late
2014-12-07 12:41:55,096 INFO     repeater     task nb300_beamplots output:
Starting procsetup

2014-12-07 12:41:55,097 INFO     repeater     task nb300_beamplots ended after 1.6 seconds
2014-12-07 12:41:55,097 INFO     repeater     task nb300_beamplots starting 1.8 seconds late
2014-12-07 12:41:56,800 INFO     repeater     task nb300_beamplots output:
Starting procsetup

2014-12-07 12:41:56,800 INFO     repeater     task nb300_beamplots ended after 1.7 seconds
2014-12-07 12:41:56,801 INFO     repeater     task ashtech_hcorrstats starting 3.5 seconds late
2014-12-07 12:41:57,718 INFO     repeater     task ashtech_hcorrstats ended after 0.9 seconds
2014-12-07 12:42:07,727 INFO     repeater     task nb300_lastensq starting 4.7 seconds late
2014-12-07 12:42:09,809 INFO     repeater     task nb300_lastensq ended after 2.1 seconds
2014-12-07 12:42:09,810 INFO     repeater     task nb300_lastensq: Time from /home/data/SP1411/proc/nb300/load/wrote_ens_time: 2014/12/07 12:41:53
2014-12-07 12:44:04,941 INFO     repeater     task nb300_lastensq starting 1.9 seconds late
2014-12-07 12:44:07,077 INFO     repeater     task nb300_lastensq ended after 2.1 seconds
2014-12-07 12:44:07,077 INFO     repeater     task nb300_lastensq: Time from /home/data/SP1411/proc/nb300/load/wrote_ens_time: 2014/12/07 12:43:53
2014-12-07 12:46:07,221 INFO     repeater     task nb300_lastensq starting 4.2 seconds late
2014-12-07 12:46:09,297 INFO     repeater     task nb300_lastensq ended after 2.1 seconds
2014-12-07 12:46:09,298 INFO     repeater     task nb300_lastensq: Time from /home/data/SP1411/proc/nb300/load/wrote_ens_time: 2014/12/07 12:45:53
2014-12-07 12:46:54,352 INFO     repeater     task ashtech_hcorrstats starting 1.1 seconds late
2014-12-07 12:46:55,293 INFO     repeater     task ashtech_hcorrstats ended after 0.9 seconds
2014-12-07 12:48:05,381 INFO     repeater     task nb300_lastensq starting 2.4 seconds late
2014-12-07 12:48:07,502 INFO     repeater     task nb300_lastensq ended after 2.1 seconds
2014-12-07 12:48:07,502 INFO     repeater     task nb300_lastensq: Time from /home/data/SP1411/proc/nb300/load/wrote_ens_time: 2014/12/07 12:47:53
2014-12-07 12:50:07,645 INFO     repeater     task nb300_lastensq starting 4.6 seconds late
2014-12-07 12:50:09,782 INFO     repeater     task nb300_lastensq ended after 2.1 seconds
2014-12-07 12:50:09,783 INFO     repeater     task nb300_lastensq: Time from /home/data/SP1411/proc/nb300/load/wrote_ens_time: 2014/12/07 12:49:53
2014-12-07 12:51:54,904 INFO     repeater     task nb300_beamplots starting 1.6 seconds late
2014-12-07 12:51:56,482 INFO     repeater     task nb300_beamplots output:
Starting procsetup

2014-12-07 12:51:56,482 INFO     repeater     task nb300_beamplots ended after 1.6 seconds
2014-12-07 12:51:56,482 INFO     repeater     task nb300_beamplots starting 3.2 seconds late
2014-12-07 12:51:58,220 INFO     repeater     task nb300_beamplots output:
Starting procsetup

2014-12-07 12:51:58,220 INFO     repeater     task nb300_beamplots ended after 1.7 seconds
2014-12-07 12:51:58,221 INFO     repeater     task ashtech_hcorrstats starting 4.9 seconds late
2014-12-07 12:51:59,146 INFO     repeater     task ashtech_hcorrstats ended after 0.9 seconds
2014-12-07 12:52:04,152 INFO     repeater     task nb300_lastensq starting 1.2 seconds late
2014-12-07 12:52:06,238 INFO     repeater     task nb300_lastensq ended after 2.1 seconds
2014-12-07 12:52:06,238 INFO     repeater     task nb300_lastensq: Time from /home/data/SP1411/proc/nb300/load/wrote_ens_time: 2014/12/07 12:51:53
2014-12-07 12:54:06,380 INFO     repeater     task nb300_lastensq starting 3.4 seconds late
2014-12-07 12:54:08,527 INFO     repeater     task nb300_lastensq ended after 2.1 seconds
2014-12-07 12:54:08,527 INFO     repeater     task nb300_lastensq: Time from /home/data/SP1411/proc/nb300/load/wrote_ens_time: 2014/12/07 12:53:53
2014-12-07 12:56:03,671 INFO     repeater     task nb300_lastensq starting 0.7 seconds late
2014-12-07 12:56:05,766 INFO     repeater     task nb300_lastensq ended after 2.1 seconds
2014-12-07 12:56:05,767 INFO     repeater     task nb300_lastensq: Time from /home/data/SP1411/proc/nb300/load/wrote_ens_time: 2014/12/07 12:55:53
2014-12-07 12:56:55,824 INFO     repeater     task ashtech_hcorrstats starting 2.5 seconds late
2014-12-07 12:56:56,762 INFO     repeater     task ashtech_hcorrstats ended after 0.9 seconds
2014-12-07 12:58:06,831 INFO     repeater     task nb300_lastensq starting 3.8 seconds late
2014-12-07 12:58:08,929 INFO     repeater     task nb300_lastensq ended after 2.1 seconds
2014-12-07 12:58:08,929 INFO     repeater     task nb300_lastensq: Time from /home/data/SP1411/proc/nb300/load/wrote_ens_time: 2014/12/07 12:57:53
2014-12-07 13:00:04,071 INFO     repeater     task nb300_lastensq starting 1.1 seconds late
2014-12-07 13:00:06,209 INFO     repeater     task nb300_lastensq ended after 2.1 seconds
2014-12-07 13:00:06,210 INFO     repeater     task nb300_lastensq: Time from /home/data/SP1411/proc/nb300/load/wrote_ens_time: 2014/12/07 12:59:53
2014-12-07 13:01:56,331 INFO     repeater     task nb300_quick starting 3.1 seconds late
2014-12-07 13:02:00,451 INFO     repeater     task nb300_quick ended after 4.1 seconds
2014-12-07 13:02:00,452 INFO     repeater     task nb300_3dayplots starting 7.2 seconds late
2014-12-07 13:02:05,008 INFO     repeater     task nb300_3dayplots ended after 4.6 seconds
2014-12-07 13:02:05,009 INFO     repeater     task nb300_beamplots starting 11.7 seconds late
2014-12-07 13:02:06,612 INFO     repeater     task nb300_beamplots output:
Starting procsetup

2014-12-07 13:02:06,612 INFO     repeater     task nb300_beamplots ended after 1.6 seconds
2014-12-07 13:02:06,613 INFO     repeater     task nb300_beamplots starting 13.3 seconds late
2014-12-07 13:02:08,348 INFO     repeater     task nb300_beamplots output:
Starting procsetup

2014-12-07 13:02:08,349 INFO     repeater     task nb300_beamplots ended after 1.7 seconds
2014-12-07 13:02:08,349 INFO     repeater     task ashtech_hcorrstats starting 15.1 seconds late
2014-12-07 13:02:09,275 INFO     repeater     task ashtech_hcorrstats ended after 0.9 seconds
2014-12-07 13:02:14,281 INFO     repeater     task nb300_lastensq starting 11.3 seconds late
2014-12-07 13:02:16,379 INFO     repeater     task nb300_lastensq ended after 2.1 seconds
2014-12-07 13:02:16,379 INFO     repeater     task nb300_lastensq: Time from /home/data/SP1411/proc/nb300/load/wrote_ens_time: 2014/12/07 13:01:53
2014-12-07 13:04:06,507 INFO     repeater     task nb300_lastensq starting 3.5 seconds late
2014-12-07 13:04:08,599 INFO     repeater     task nb300_lastensq ended after 2.1 seconds
2014-12-07 13:04:08,599 INFO     repeater     task nb300_lastensq: Time from /home/data/SP1411/proc/nb300/load/wrote_ens_time: 2014/12/07 13:03:53
2014-12-07 13:06:03,741 INFO     repeater     task nb300_lastensq starting 0.7 seconds late
2014-12-07 13:06:05,866 INFO     repeater     task nb300_lastensq ended after 2.1 seconds
2014-12-07 13:06:05,866 INFO     repeater     task nb300_lastensq: Time from /home/data/SP1411/proc/nb300/load/wrote_ens_time: 2014/12/07 13:05:53
2014-12-07 13:06:55,928 INFO     repeater     task ashtech_hcorrstats starting 2.7 seconds late
2014-12-07 13:06:56,875 INFO     repeater     task ashtech_hcorrstats ended after 0.9 seconds
2014-12-07 13:08:06,958 INFO     repeater     task nb300_lastensq starting 4.0 seconds late
2014-12-07 13:08:09,064 INFO     repeater     task nb300_lastensq ended after 2.1 seconds
2014-12-07 13:08:09,065 INFO     repeater     task nb300_lastensq: Time from /home/data/SP1411/proc/nb300/load/wrote_ens_time: 2014/12/07 13:07:53
2014-12-07 13:10:04,211 INFO     repeater     task nb300_lastensq starting 1.2 seconds late
2014-12-07 13:10:06,371 INFO     repeater     task nb300_lastensq ended after 2.2 seconds
2014-12-07 13:10:06,371 INFO     repeater     task nb300_lastensq: Time from /home/data/SP1411/proc/nb300/load/wrote_ens_time: 2014/12/07 13:09:53
2014-12-07 13:11:56,504 INFO     repeater     task nb300_beamplots starting 3.2 seconds late
2014-12-07 13:11:58,104 INFO     repeater     task nb300_beamplots output:
Starting procsetup

2014-12-07 13:11:58,104 INFO     repeater     task nb300_beamplots ended after 1.6 seconds
2014-12-07 13:11:58,104 INFO     repeater     task nb300_beamplots starting 4.8 seconds late
2014-12-07 13:11:59,747 INFO     repeater     task nb300_beamplots output:
Starting procsetup

2014-12-07 13:11:59,747 INFO     repeater     task nb300_beamplots ended after 1.6 seconds
2014-12-07 13:11:59,747 INFO     repeater     task ashtech_hcorrstats starting 6.5 seconds late
2014-12-07 13:12:00,662 INFO     repeater     task ashtech_hcorrstats ended after 0.9 seconds
2014-12-07 13:12:05,664 INFO     repeater     task nb300_lastensq starting 2.7 seconds late
2014-12-07 13:12:07,807 INFO     repeater     task nb300_lastensq ended after 2.1 seconds
2014-12-07 13:12:07,807 INFO     repeater     task nb300_lastensq: Time from /home/data/SP1411/proc/nb300/load/wrote_ens_time: 2014/12/07 13:11:53
2014-12-07 13:14:07,935 INFO     repeater     task nb300_lastensq starting 4.9 seconds late
2014-12-07 13:14:10,052 INFO     repeater     task nb300_lastensq ended after 2.1 seconds
2014-12-07 13:14:10,053 INFO     repeater     task nb300_lastensq: Time from /home/data/SP1411/proc/nb300/load/wrote_ens_time: 2014/12/07 13:13:53
2014-12-07 13:16:05,191 INFO     repeater     task nb300_lastensq starting 2.2 seconds late
2014-12-07 13:16:07,340 INFO     repeater     task nb300_lastensq ended after 2.1 seconds
2014-12-07 13:16:07,340 INFO     repeater     task nb300_lastensq: Time from /home/data/SP1411/proc/nb300/load/wrote_ens_time: 2014/12/07 13:15:53
2014-12-07 13:16:57,399 INFO     repeater     task ashtech_hcorrstats starting 4.1 seconds late
2014-12-07 13:16:58,328 INFO     repeater     task ashtech_hcorrstats ended after 0.9 seconds
2014-12-07 13:18:03,404 INFO     repeater     task nb300_lastensq starting 0.4 seconds late
2014-12-07 13:18:05,576 INFO     repeater     task nb300_lastensq ended after 2.2 seconds
2014-12-07 13:18:05,577 INFO     repeater     task nb300_lastensq: Time from /home/data/SP1411/proc/nb300/load/wrote_ens_time: 2014/12/07 13:17:53
2014-12-07 13:20:05,721 INFO     repeater     task nb300_lastensq starting 2.7 seconds late
2014-12-07 13:20:07,901 INFO     repeater     task nb300_lastensq ended after 2.2 seconds
2014-12-07 13:20:07,901 INFO     repeater     task nb300_lastensq: Time from /home/data/SP1411/proc/nb300/load/wrote_ens_time: 2014/12/07 13:19:53
2014-12-07 13:21:58,022 INFO     repeater     task nb300_beamplots starting 4.7 seconds late
2014-12-07 13:21:59,629 INFO     repeater     task nb300_beamplots output:
Starting procsetup

2014-12-07 13:21:59,629 INFO     repeater     task nb300_beamplots ended after 1.6 seconds
2014-12-07 13:21:59,629 INFO     repeater     task nb300_beamplots starting 6.4 seconds late
2014-12-07 13:22:01,380 INFO     repeater     task nb300_beamplots output:
Starting procsetup

2014-12-07 13:22:01,381 INFO     repeater     task nb300_beamplots ended after 1.8 seconds
2014-12-07 13:22:01,381 INFO     repeater     task ashtech_hcorrstats starting 8.1 seconds late
2014-12-07 13:22:02,320 INFO     repeater     task ashtech_hcorrstats ended after 0.9 seconds
2014-12-07 13:22:07,324 INFO     repeater     task nb300_lastensq starting 4.3 seconds late
2014-12-07 13:22:09,425 INFO     repeater     task nb300_lastensq ended after 2.1 seconds
2014-12-07 13:22:09,425 INFO     repeater     task nb300_lastensq: Time from /home/data/SP1411/proc/nb300/load/wrote_ens_time: 2014/12/07 13:21:53
2014-12-07 13:24:04,568 INFO     repeater     task nb300_lastensq starting 1.6 seconds late
2014-12-07 13:24:06,757 INFO     repeater     task nb300_lastensq ended after 2.2 seconds
2014-12-07 13:24:06,757 INFO     repeater     task nb300_lastensq: Time from /home/data/SP1411/proc/nb300/load/wrote_ens_time: 2014/12/07 13:23:53
2014-12-07 13:26:06,901 INFO     repeater     task nb300_lastensq starting 3.9 seconds late
2014-12-07 13:26:09,056 INFO     repeater     task nb300_lastensq ended after 2.2 seconds
2014-12-07 13:26:09,056 INFO     repeater     task nb300_lastensq: Time from /home/data/SP1411/proc/nb300/load/wrote_ens_time: 2014/12/07 13:25:53
2014-12-07 13:26:54,115 INFO     repeater     task ashtech_hcorrstats starting 0.8 seconds late
2014-12-07 13:26:55,049 INFO     repeater     task ashtech_hcorrstats ended after 0.9 seconds
2014-12-07 13:28:05,124 INFO     repeater     task nb300_lastensq starting 2.1 seconds late
2014-12-07 13:28:07,298 INFO     repeater     task nb300_lastensq ended after 2.2 seconds
2014-12-07 13:28:07,299 INFO     repeater     task nb300_lastensq: Time from /home/data/SP1411/proc/nb300/load/wrote_ens_time: 2014/12/07 13:27:53
2014-12-07 13:30:07,431 INFO     repeater     task nb300_lastensq starting 4.4 seconds late
2014-12-07 13:30:09,568 INFO     repeater     task nb300_lastensq ended after 2.1 seconds
2014-12-07 13:30:09,569 INFO     repeater     task nb300_lastensq: Time from /home/data/SP1411/proc/nb300/load/wrote_ens_time: 2014/12/07 13:29:53
2014-12-07 13:31:54,692 INFO     repeater     task nb300_quick starting 1.5 seconds late
2014-12-07 13:31:58,880 INFO     repeater     task nb300_quick ended after 4.2 seconds
2014-12-07 13:31:58,881 INFO     repeater     task nb300_3dayplots starting 5.6 seconds late
2014-12-07 13:32:03,425 INFO     repeater     task nb300_3dayplots ended after 4.5 seconds
2014-12-07 13:32:03,425 INFO     repeater     task nb300_beamplots starting 10.2 seconds late
2014-12-07 13:32:05,125 INFO     repeater     task nb300_beamplots output:
Starting procsetup

2014-12-07 13:32:05,125 INFO     repeater     task nb300_beamplots ended after 1.7 seconds
2014-12-07 13:32:05,125 INFO     repeater     task nb300_beamplots starting 11.9 seconds late
2014-12-07 13:32:06,860 INFO     repeater     task nb300_beamplots output:
Starting procsetup

2014-12-07 13:32:06,860 INFO     repeater     task nb300_beamplots ended after 1.7 seconds
2014-12-07 13:32:06,861 INFO     repeater     task ashtech_hcorrstats starting 13.6 seconds late
2014-12-07 13:32:07,790 INFO     repeater     task ashtech_hcorrstats ended after 0.9 seconds
2014-12-07 13:32:12,791 INFO     repeater     task nb300_lastensq starting 9.8 seconds late
2014-12-07 13:32:14,925 INFO     repeater     task nb300_lastensq ended after 2.1 seconds
2014-12-07 13:32:14,925 INFO     repeater     task nb300_lastensq: Time from /home/data/SP1411/proc/nb300/load/wrote_ens_time: 2014/12/07 13:31:53
2014-12-07 13:34:05,051 INFO     repeater     task nb300_lastensq starting 2.1 seconds late
2014-12-07 13:34:07,171 INFO     repeater     task nb300_lastensq ended after 2.1 seconds
2014-12-07 13:34:07,171 INFO     repeater     task nb300_lastensq: Time from /home/data/SP1411/proc/nb300/load/wrote_ens_time: 2014/12/07 13:33:53
2014-12-07 13:36:07,311 INFO     repeater     task nb300_lastensq starting 4.3 seconds late
2014-12-07 13:36:09,435 INFO     repeater     task nb300_lastensq ended after 2.1 seconds
2014-12-07 13:36:09,435 INFO     repeater     task nb300_lastensq: Time from /home/data/SP1411/proc/nb300/load/wrote_ens_time: 2014/12/07 13:35:53
2014-12-07 13:36:54,492 INFO     repeater     task ashtech_hcorrstats starting 1.2 seconds late
2014-12-07 13:36:55,430 INFO     repeater     task ashtech_hcorrstats ended after 0.9 seconds
2014-12-07 13:38:05,510 INFO     repeater     task nb300_lastensq starting 2.5 seconds late
2014-12-07 13:38:07,631 INFO     repeater     task nb300_lastensq ended after 2.1 seconds
2014-12-07 13:38:07,631 INFO     repeater     task nb300_lastensq: Time from /home/data/SP1411/proc/nb300/load/wrote_ens_time: 2014/12/07 13:37:53
2014-12-07 13:40:07,774 INFO     repeater     task nb300_lastensq starting 4.8 seconds late
2014-12-07 13:40:09,952 INFO     repeater     task nb300_lastensq ended after 2.2 seconds
2014-12-07 13:40:09,952 INFO     repeater     task nb300_lastensq: Time from /home/data/SP1411/proc/nb300/load/wrote_ens_time: 2014/12/07 13:39:53
2014-12-07 13:41:55,072 INFO     repeater     task nb300_beamplots starting 1.8 seconds late
2014-12-07 13:41:56,761 INFO     repeater     task nb300_beamplots output:
Starting procsetup

2014-12-07 13:41:56,761 INFO     repeater     task nb300_beamplots ended after 1.7 seconds
2014-12-07 13:41:56,761 INFO     repeater     task nb300_beamplots starting 3.5 seconds late
2014-12-07 13:41:58,370 INFO     repeater     task nb300_beamplots output:
Starting procsetup

2014-12-07 13:41:58,370 INFO     repeater     task nb300_beamplots ended after 1.6 seconds
2014-12-07 13:41:58,370 INFO     repeater     task ashtech_hcorrstats starting 5.1 seconds late
2014-12-07 13:41:59,283 INFO     repeater     task ashtech_hcorrstats ended after 0.9 seconds
2014-12-07 13:42:04,289 INFO     repeater     task nb300_lastensq starting 1.3 seconds late
2014-12-07 13:42:06,417 INFO     repeater     task nb300_lastensq ended after 2.1 seconds
2014-12-07 13:42:06,417 INFO     repeater     task nb300_lastensq: Time from /home/data/SP1411/proc/nb300/load/wrote_ens_time: 2014/12/07 13:41:53
2014-12-07 13:44:06,554 INFO     repeater     task nb300_lastensq starting 3.6 seconds late
2014-12-07 13:44:08,699 INFO     repeater     task nb300_lastensq ended after 2.1 seconds
2014-12-07 13:44:08,699 INFO     repeater     task nb300_lastensq: Time from /home/data/SP1411/proc/nb300/load/wrote_ens_time: 2014/12/07 13:43:53
2014-12-07 13:46:03,831 INFO     repeater     task nb300_lastensq starting 0.8 seconds late
2014-12-07 13:46:05,956 INFO     repeater     task nb300_lastensq ended after 2.1 seconds
2014-12-07 13:46:05,957 INFO     repeater     task nb300_lastensq: Time from /home/data/SP1411/proc/nb300/load/wrote_ens_time: 2014/12/07 13:45:53
2014-12-07 13:46:56,019 INFO     repeater     task ashtech_hcorrstats starting 2.7 seconds late
2014-12-07 13:46:56,958 INFO     repeater     task ashtech_hcorrstats ended after 0.9 seconds
2014-12-07 13:48:07,034 INFO     repeater     task nb300_lastensq starting 4.0 seconds late
2014-12-07 13:48:09,226 INFO     repeater     task nb300_lastensq ended after 2.2 seconds
2014-12-07 13:48:09,227 INFO     repeater     task nb300_lastensq: Time from /home/data/SP1411/proc/nb300/load/wrote_ens_time: 2014/12/07 13:47:53
2014-12-07 13:50:04,348 INFO     repeater     task nb300_lastensq starting 1.3 seconds late
2014-12-07 13:50:06,473 INFO     repeater     task nb300_lastensq ended after 2.1 seconds
2014-12-07 13:50:06,473 INFO     repeater     task nb300_lastensq: Time from /home/data/SP1411/proc/nb300/load/wrote_ens_time: 2014/12/07 13:49:53
2014-12-07 13:51:56,592 INFO     repeater     task nb300_beamplots starting 3.3 seconds late
2014-12-07 13:51:58,292 INFO     repeater     task nb300_beamplots output:
Starting procsetup

2014-12-07 13:51:58,292 INFO     repeater     task nb300_beamplots ended after 1.7 seconds
2014-12-07 13:51:58,293 INFO     repeater     task nb300_beamplots starting 5.0 seconds late
2014-12-07 13:52:00,051 INFO     repeater     task nb300_beamplots output:
Starting procsetup

2014-12-07 13:52:00,052 INFO     repeater     task nb300_beamplots ended after 1.8 seconds
2014-12-07 13:52:00,052 INFO     repeater     task ashtech_hcorrstats starting 6.8 seconds late
2014-12-07 13:52:00,965 INFO     repeater     task ashtech_hcorrstats ended after 0.9 seconds
2014-12-07 13:52:05,970 INFO     repeater     task nb300_lastensq starting 3.0 seconds late
2014-12-07 13:52:08,163 INFO     repeater     task nb300_lastensq ended after 2.2 seconds
2014-12-07 13:52:08,163 INFO     repeater     task nb300_lastensq: Time from /home/data/SP1411/proc/nb300/load/wrote_ens_time: 2014/12/07 13:51:53
2014-12-07 13:54:03,288 INFO     repeater     task nb300_lastensq starting 0.3 seconds late
2014-12-07 13:54:05,447 INFO     repeater     task nb300_lastensq ended after 2.2 seconds
2014-12-07 13:54:05,447 INFO     repeater     task nb300_lastensq: Time from /home/data/SP1411/proc/nb300/load/wrote_ens_time: 2014/12/07 13:53:53
2014-12-07 13:56:05,587 INFO     repeater     task nb300_lastensq starting 2.6 seconds late
2014-12-07 13:56:07,719 INFO     repeater     task nb300_lastensq ended after 2.1 seconds
2014-12-07 13:56:07,719 INFO     repeater     task nb300_lastensq: Time from /home/data/SP1411/proc/nb300/load/wrote_ens_time: 2014/12/07 13:55:53
2014-12-07 13:56:57,780 INFO     repeater     task ashtech_hcorrstats starting 4.5 seconds late
2014-12-07 13:56:58,719 INFO     repeater     task ashtech_hcorrstats ended after 0.9 seconds
2014-12-07 13:58:03,795 INFO     repeater     task nb300_lastensq starting 0.8 seconds late
2014-12-07 13:58:05,979 INFO     repeater     task nb300_lastensq ended after 2.2 seconds
2014-12-07 13:58:05,979 INFO     repeater     task nb300_lastensq: Time from /home/data/SP1411/proc/nb300/load/wrote_ens_time: 2014/12/07 13:57:53
2014-12-07 14:00:06,105 INFO     repeater     task nb300_lastensq starting 3.1 seconds late
2014-12-07 14:00:08,265 INFO     repeater     task nb300_lastensq ended after 2.2 seconds
2014-12-07 14:00:08,265 INFO     repeater     task nb300_lastensq: Time from /home/data/SP1411/proc/nb300/load/wrote_ens_time: 2014/12/07 13:59:53
2014-12-07 14:01:53,383 INFO     repeater     task nb300_quick starting 0.1 seconds late
2014-12-07 14:01:57,675 INFO     repeater     task nb300_quick ended after 4.3 seconds
2014-12-07 14:01:57,675 INFO     repeater     task nb300_3dayplots starting 4.4 seconds late
2014-12-07 14:02:02,332 INFO     repeater     task nb300_3dayplots ended after 4.7 seconds
2014-12-07 14:02:02,333 INFO     repeater     task nb300_beamplots starting 9.1 seconds late
2014-12-07 14:02:04,004 INFO     repeater     task nb300_beamplots output:
Starting procsetup

2014-12-07 14:02:04,005 INFO     repeater     task nb300_beamplots ended after 1.7 seconds
2014-12-07 14:02:04,005 INFO     repeater     task nb300_beamplots starting 10.7 seconds late
2014-12-07 14:02:05,714 INFO     repeater     task nb300_beamplots output:
Starting procsetup

2014-12-07 14:02:05,714 INFO     repeater     task nb300_beamplots ended after 1.7 seconds
2014-12-07 14:02:05,714 INFO     repeater     task ashtech_hcorrstats starting 12.4 seconds late
2014-12-07 14:02:06,630 INFO     repeater     task ashtech_hcorrstats ended after 0.9 seconds
2014-12-07 14:02:11,636 INFO     repeater     task nb300_lastensq starting 8.6 seconds late
2014-12-07 14:02:13,751 INFO     repeater     task nb300_lastensq ended after 2.1 seconds
2014-12-07 14:02:13,751 INFO     repeater     task nb300_lastensq: Time from /home/data/SP1411/proc/nb300/load/wrote_ens_time: 2014/12/07 14:01:53
2014-12-07 14:04:03,870 INFO     repeater     task nb300_lastensq starting 0.9 seconds late
2014-12-07 14:04:05,933 INFO     repeater     task nb300_lastensq ended after 2.1 seconds
2014-12-07 14:04:05,933 INFO     repeater     task nb300_lastensq: Time from /home/data/SP1411/proc/nb300/load/wrote_ens_time: 2014/12/07 14:03:53
2014-12-07 14:06:06,062 INFO     repeater     task nb300_lastensq starting 3.1 seconds late
2014-12-07 14:06:08,116 INFO     repeater     task nb300_lastensq ended after 2.1 seconds
2014-12-07 14:06:08,116 INFO     repeater     task nb300_lastensq: Time from /home/data/SP1411/proc/nb300/load/wrote_ens_time: 2014/12/07 14:05:53
2014-12-07 14:06:58,169 INFO     repeater     task ashtech_hcorrstats starting 4.9 seconds late
2014-12-07 14:06:59,120 INFO     repeater     task ashtech_hcorrstats ended after 1.0 seconds
2014-12-07 14:08:04,195 INFO     repeater     task nb300_lastensq starting 1.2 seconds late
2014-12-07 14:08:06,309 INFO     repeater     task nb300_lastensq ended after 2.1 seconds
2014-12-07 14:08:06,310 INFO     repeater     task nb300_lastensq: Time from /home/data/SP1411/proc/nb300/load/wrote_ens_time: 2014/12/07 14:07:53
2014-12-07 14:10:06,448 INFO     repeater     task nb300_lastensq starting 3.4 seconds late
2014-12-07 14:10:08,503 INFO     repeater     task nb300_lastensq ended after 2.1 seconds
2014-12-07 14:10:08,503 INFO     repeater     task nb300_lastensq: Time from /home/data/SP1411/proc/nb300/load/wrote_ens_time: 2014/12/07 14:09:53
2014-12-07 14:11:53,634 INFO     repeater     task nb300_beamplots starting 0.4 seconds late
2014-12-07 14:11:55,303 INFO     repeater     task nb300_beamplots output:
Starting procsetup

2014-12-07 14:11:55,304 INFO     repeater     task nb300_beamplots ended after 1.7 seconds
2014-12-07 14:11:55,304 INFO     repeater     task nb300_beamplots starting 2.0 seconds late
2014-12-07 14:11:57,004 INFO     repeater     task nb300_beamplots output:
Starting procsetup

2014-12-07 14:11:57,004 INFO     repeater     task nb300_beamplots ended after 1.7 seconds
2014-12-07 14:11:57,004 INFO     repeater     task ashtech_hcorrstats starting 3.7 seconds late
2014-12-07 14:11:57,919 INFO     repeater     task ashtech_hcorrstats ended after 0.9 seconds
2014-12-07 14:12:07,931 INFO     repeater     task nb300_lastensq starting 4.9 seconds late
2014-12-07 14:12:09,996 INFO     repeater     task nb300_lastensq ended after 2.1 seconds
2014-12-07 14:12:09,996 INFO     repeater     task nb300_lastensq: Time from /home/data/SP1411/proc/nb300/load/wrote_ens_time: 2014/12/07 14:11:53
2014-12-07 14:14:05,135 INFO     repeater     task nb300_lastensq starting 2.1 seconds late
2014-12-07 14:14:07,203 INFO     repeater     task nb300_lastensq ended after 2.1 seconds
2014-12-07 14:14:07,204 INFO     repeater     task nb300_lastensq: Time from /home/data/SP1411/proc/nb300/load/wrote_ens_time: 2014/12/07 14:13:53
2014-12-07 14:16:07,351 INFO     repeater     task nb300_lastensq starting 4.4 seconds late
2014-12-07 14:16:09,476 INFO     repeater     task nb300_lastensq ended after 2.1 seconds
2014-12-07 14:16:09,477 INFO     repeater     task nb300_lastensq: Time from /home/data/SP1411/proc/nb300/load/wrote_ens_time: 2014/12/07 14:15:53
2014-12-07 14:16:54,532 INFO     repeater     task ashtech_hcorrstats starting 1.3 seconds late
2014-12-07 14:16:55,453 INFO     repeater     task ashtech_hcorrstats ended after 0.9 seconds
2014-12-07 14:18:05,524 INFO     repeater     task nb300_lastensq starting 2.5 seconds late
2014-12-07 14:18:07,644 INFO     repeater     task nb300_lastensq ended after 2.1 seconds
2014-12-07 14:18:07,644 INFO     repeater     task nb300_lastensq: Time from /home/data/SP1411/proc/nb300/load/wrote_ens_time: 2014/12/07 14:17:53
2014-12-07 14:20:07,790 INFO     repeater     task nb300_lastensq starting 4.8 seconds late
2014-12-07 14:20:09,913 INFO     repeater     task nb300_lastensq ended after 2.1 seconds
2014-12-07 14:20:09,913 INFO     repeater     task nb300_lastensq: Time from /home/data/SP1411/proc/nb300/load/wrote_ens_time: 2014/12/07 14:19:53
2014-12-07 14:21:55,033 INFO     repeater     task nb300_beamplots starting 1.8 seconds late
2014-12-07 14:21:56,689 INFO     repeater     task nb300_beamplots output:
Starting procsetup

2014-12-07 14:21:56,689 INFO     repeater     task nb300_beamplots ended after 1.7 seconds
2014-12-07 14:21:56,690 INFO     repeater     task nb300_beamplots starting 3.4 seconds late
2014-12-07 14:21:58,316 INFO     repeater     task nb300_beamplots output:
Starting procsetup

2014-12-07 14:21:58,316 INFO     repeater     task nb300_beamplots ended after 1.6 seconds
2014-12-07 14:21:58,317 INFO     repeater     task ashtech_hcorrstats starting 5.0 seconds late
2014-12-07 14:21:59,238 INFO     repeater     task ashtech_hcorrstats ended after 0.9 seconds
2014-12-07 14:22:04,241 INFO     repeater     task nb300_lastensq starting 1.2 seconds late
2014-12-07 14:22:06,366 INFO     repeater     task nb300_lastensq ended after 2.1 seconds
2014-12-07 14:22:06,366 INFO     repeater     task nb300_lastensq: Time from /home/data/SP1411/proc/nb300/load/wrote_ens_time: 2014/12/07 14:21:53
2014-12-07 14:24:06,500 INFO     repeater     task nb300_lastensq starting 3.5 seconds late
2014-12-07 14:24:08,583 INFO     repeater     task nb300_lastensq ended after 2.1 seconds
2014-12-07 14:24:08,583 INFO     repeater     task nb300_lastensq: Time from /home/data/SP1411/proc/nb300/load/wrote_ens_time: 2014/12/07 14:23:53
2014-12-07 14:26:03,701 INFO     repeater     task nb300_lastensq starting 0.7 seconds late
2014-12-07 14:26:05,815 INFO     repeater     task nb300_lastensq ended after 2.1 seconds
2014-12-07 14:26:05,816 INFO     repeater     task nb300_lastensq: Time from /home/data/SP1411/proc/nb300/load/wrote_ens_time: 2014/12/07 14:25:53
2014-12-07 14:26:55,882 INFO     repeater     task ashtech_hcorrstats starting 2.6 seconds late
2014-12-07 14:26:56,823 INFO     repeater     task ashtech_hcorrstats ended after 0.9 seconds
2014-12-07 14:28:06,914 INFO     repeater     task nb300_lastensq starting 3.9 seconds late
2014-12-07 14:28:09,038 INFO     repeater     task nb300_lastensq ended after 2.1 seconds
2014-12-07 14:28:09,039 INFO     repeater     task nb300_lastensq: Time from /home/data/SP1411/proc/nb300/load/wrote_ens_time: 2014/12/07 14:27:53
2014-12-07 14:30:04,151 INFO     repeater     task nb300_lastensq starting 1.2 seconds late
2014-12-07 14:30:06,254 INFO     repeater     task nb300_lastensq ended after 2.1 seconds
2014-12-07 14:30:06,254 INFO     repeater     task nb300_lastensq: Time from /home/data/SP1411/proc/nb300/load/wrote_ens_time: 2014/12/07 14:29:53
2014-12-07 14:31:56,376 INFO     repeater     task nb300_quick starting 3.1 seconds late
2014-12-07 14:32:00,809 INFO     repeater     task nb300_quick ended after 4.4 seconds
2014-12-07 14:32:00,810 INFO     repeater     task nb300_3dayplots starting 7.6 seconds late
2014-12-07 14:32:05,303 INFO     repeater     task nb300_3dayplots ended after 4.5 seconds
2014-12-07 14:32:05,304 INFO     repeater     task nb300_beamplots starting 12.0 seconds late
2014-12-07 14:32:06,965 INFO     repeater     task nb300_beamplots output:
Starting procsetup

2014-12-07 14:32:06,965 INFO     repeater     task nb300_beamplots ended after 1.7 seconds
2014-12-07 14:32:06,966 INFO     repeater     task nb300_beamplots starting 13.7 seconds late
2014-12-07 14:32:08,563 INFO     repeater     task nb300_beamplots output:
Starting procsetup

2014-12-07 14:32:08,564 INFO     repeater     task nb300_beamplots ended after 1.6 seconds
2014-12-07 14:32:08,564 INFO     repeater     task ashtech_hcorrstats starting 15.3 seconds late
2014-12-07 14:32:09,487 INFO     repeater     task ashtech_hcorrstats ended after 0.9 seconds
2014-12-07 14:32:14,492 INFO     repeater     task nb300_lastensq starting 11.5 seconds late
2014-12-07 14:32:16,627 INFO     repeater     task nb300_lastensq ended after 2.1 seconds
2014-12-07 14:32:16,628 INFO     repeater     task nb300_lastensq: Time from /home/data/SP1411/proc/nb300/load/wrote_ens_time: 2014/12/07 14:31:53
2014-12-07 14:34:06,751 INFO     repeater     task nb300_lastensq starting 3.8 seconds late
2014-12-07 14:34:08,831 INFO     repeater     task nb300_lastensq ended after 2.1 seconds
2014-12-07 14:34:08,831 INFO     repeater     task nb300_lastensq: Time from /home/data/SP1411/proc/nb300/load/wrote_ens_time: 2014/12/07 14:33:53
2014-12-07 14:36:03,968 INFO     repeater     task nb300_lastensq starting 1.0 seconds late
2014-12-07 14:36:06,046 INFO     repeater     task nb300_lastensq ended after 2.1 seconds
2014-12-07 14:36:06,046 INFO     repeater     task nb300_lastensq: Time from /home/data/SP1411/proc/nb300/load/wrote_ens_time: 2014/12/07 14:35:53
2014-12-07 14:36:56,107 INFO     repeater     task ashtech_hcorrstats starting 2.8 seconds late
2014-12-07 14:36:57,046 INFO     repeater     task ashtech_hcorrstats ended after 0.9 seconds
2014-12-07 14:38:07,121 INFO     repeater     task nb300_lastensq starting 4.1 seconds late
2014-12-07 14:38:09,254 INFO     repeater     task nb300_lastensq ended after 2.1 seconds
2014-12-07 14:38:09,254 INFO     repeater     task nb300_lastensq: Time from /home/data/SP1411/proc/nb300/load/wrote_ens_time: 2014/12/07 14:37:53
2014-12-07 14:40:04,376 INFO     repeater     task nb300_lastensq starting 1.4 seconds late
2014-12-07 14:40:06,456 INFO     repeater     task nb300_lastensq ended after 2.1 seconds
2014-12-07 14:40:06,457 INFO     repeater     task nb300_lastensq: Time from /home/data/SP1411/proc/nb300/load/wrote_ens_time: 2014/12/07 14:39:53
2014-12-07 14:41:56,589 INFO     repeater     task nb300_beamplots starting 3.3 seconds late
2014-12-07 14:41:58,265 INFO     repeater     task nb300_beamplots output:
Starting procsetup

2014-12-07 14:41:58,265 INFO     repeater     task nb300_beamplots ended after 1.7 seconds
2014-12-07 14:41:58,265 INFO     repeater     task nb300_beamplots starting 5.0 seconds late
2014-12-07 14:41:59,968 INFO     repeater     task nb300_beamplots output:
Starting procsetup

2014-12-07 14:41:59,969 INFO     repeater     task nb300_beamplots ended after 1.7 seconds
2014-12-07 14:41:59,969 INFO     repeater     task ashtech_hcorrstats starting 6.7 seconds late
2014-12-07 14:42:00,888 INFO     repeater     task ashtech_hcorrstats ended after 0.9 seconds
2014-12-07 14:42:05,894 INFO     repeater     task nb300_lastensq starting 2.9 seconds late
2014-12-07 14:42:07,975 INFO     repeater     task nb300_lastensq ended after 2.1 seconds
2014-12-07 14:42:07,975 INFO     repeater     task nb300_lastensq: Time from /home/data/SP1411/proc/nb300/load/wrote_ens_time: 2014/12/07 14:41:53
2014-12-07 14:44:03,118 INFO     repeater     task nb300_lastensq starting 0.1 seconds late
2014-12-07 14:44:05,209 INFO     repeater     task nb300_lastensq ended after 2.1 seconds
2014-12-07 14:44:05,210 INFO     repeater     task nb300_lastensq: Time from /home/data/SP1411/proc/nb300/load/wrote_ens_time: 2014/12/07 14:43:53
2014-12-07 14:46:05,331 INFO     repeater     task nb300_lastensq starting 2.3 seconds late
2014-12-07 14:46:07,411 INFO     repeater     task nb300_lastensq ended after 2.1 seconds
2014-12-07 14:46:07,412 INFO     repeater     task nb300_lastensq: Time from /home/data/SP1411/proc/nb300/load/wrote_ens_time: 2014/12/07 14:45:53
2014-12-07 14:46:57,465 INFO     repeater     task ashtech_hcorrstats starting 4.2 seconds late
2014-12-07 14:46:58,400 INFO     repeater     task ashtech_hcorrstats ended after 0.9 seconds
2014-12-07 14:48:03,470 INFO     repeater     task nb300_lastensq starting 0.5 seconds late
2014-12-07 14:48:05,578 INFO     repeater     task nb300_lastensq ended after 2.1 seconds
2014-12-07 14:48:05,578 INFO     repeater     task nb300_lastensq: Time from /home/data/SP1411/proc/nb300/load/wrote_ens_time: 2014/12/07 14:47:53
2014-12-07 14:50:05,711 INFO     repeater     task nb300_lastensq starting 2.7 seconds late
2014-12-07 14:50:07,796 INFO     repeater     task nb300_lastensq ended after 2.1 seconds
2014-12-07 14:50:07,796 INFO     repeater     task nb300_lastensq: Time from /home/data/SP1411/proc/nb300/load/wrote_ens_time: 2014/12/07 14:49:53
2014-12-07 14:51:57,934 INFO     repeater     task nb300_beamplots starting 4.7 seconds late
2014-12-07 14:51:59,613 INFO     repeater     task nb300_beamplots output:
Starting procsetup

2014-12-07 14:51:59,614 INFO     repeater     task nb300_beamplots ended after 1.7 seconds
2014-12-07 14:51:59,614 INFO     repeater     task nb300_beamplots starting 6.3 seconds late
2014-12-07 14:52:01,319 INFO     repeater     task nb300_beamplots output:
Starting procsetup

2014-12-07 14:52:01,320 INFO     repeater     task nb300_beamplots ended after 1.7 seconds
2014-12-07 14:52:01,320 INFO     repeater     task ashtech_hcorrstats starting 8.0 seconds late
2014-12-07 14:52:02,232 INFO     repeater     task ashtech_hcorrstats ended after 0.9 seconds
2014-12-07 14:52:07,238 INFO     repeater     task nb300_lastensq starting 4.2 seconds late
2014-12-07 14:52:09,336 INFO     repeater     task nb300_lastensq ended after 2.1 seconds
2014-12-07 14:52:09,336 INFO     repeater     task nb300_lastensq: Time from /home/data/SP1411/proc/nb300/load/wrote_ens_time: 2014/12/07 14:51:53
2014-12-07 14:54:04,461 INFO     repeater     task nb300_lastensq starting 1.5 seconds late
2014-12-07 14:54:06,542 INFO     repeater     task nb300_lastensq ended after 2.1 seconds
2014-12-07 14:54:06,542 INFO     repeater     task nb300_lastensq: Time from /home/data/SP1411/proc/nb300/load/wrote_ens_time: 2014/12/07 14:53:53
2014-12-07 14:56:06,691 INFO     repeater     task nb300_lastensq starting 3.7 seconds late
2014-12-07 14:56:08,826 INFO     repeater     task nb300_lastensq ended after 2.1 seconds
2014-12-07 14:56:08,826 INFO     repeater     task nb300_lastensq: Time from /home/data/SP1411/proc/nb300/load/wrote_ens_time: 2014/12/07 14:55:53
2014-12-07 14:56:53,879 INFO     repeater     task ashtech_hcorrstats starting 0.6 seconds late
2014-12-07 14:56:54,811 INFO     repeater     task ashtech_hcorrstats ended after 0.9 seconds
2014-12-07 14:58:04,898 INFO     repeater     task nb300_lastensq starting 1.9 seconds late
2014-12-07 14:58:06,986 INFO     repeater     task nb300_lastensq ended after 2.1 seconds
2014-12-07 14:58:06,987 INFO     repeater     task nb300_lastensq: Time from /home/data/SP1411/proc/nb300/load/wrote_ens_time: 2014/12/07 14:57:53
2014-12-07 15:00:07,134 INFO     repeater     task nb300_lastensq starting 4.1 seconds late
2014-12-07 15:00:09,277 INFO     repeater     task nb300_lastensq ended after 2.1 seconds
2014-12-07 15:00:09,278 INFO     repeater     task nb300_lastensq: Time from /home/data/SP1411/proc/nb300/load/wrote_ens_time: 2014/12/07 14:59:53
2014-12-07 15:01:54,391 INFO     repeater     task nb300_quick starting 1.2 seconds late
2014-12-07 15:01:58,667 INFO     repeater     task nb300_quick ended after 4.3 seconds
2014-12-07 15:01:58,667 INFO     repeater     task nb300_3dayplots starting 5.4 seconds late
2014-12-07 15:02:03,190 INFO     repeater     task nb300_3dayplots ended after 4.5 seconds
2014-12-07 15:02:03,191 INFO     repeater     task nb300_beamplots starting 9.9 seconds late
2014-12-07 15:02:04,853 INFO     repeater     task nb300_beamplots output:
Starting procsetup

2014-12-07 15:02:04,854 INFO     repeater     task nb300_beamplots ended after 1.7 seconds
2014-12-07 15:02:04,854 INFO     repeater     task nb300_beamplots starting 11.6 seconds late
2014-12-07 15:02:06,549 INFO     repeater     task nb300_beamplots output:
Starting procsetup

2014-12-07 15:02:06,549 INFO     repeater     task nb300_beamplots ended after 1.7 seconds
2014-12-07 15:02:06,549 INFO     repeater     task ashtech_hcorrstats starting 13.3 seconds late
2014-12-07 15:02:07,467 INFO     repeater     task ashtech_hcorrstats ended after 0.9 seconds
2014-12-07 15:02:12,473 INFO     repeater     task nb300_lastensq starting 9.5 seconds late
2014-12-07 15:02:14,636 INFO     repeater     task nb300_lastensq ended after 2.2 seconds
2014-12-07 15:02:14,636 INFO     repeater     task nb300_lastensq: Time from /home/data/SP1411/proc/nb300/load/wrote_ens_time: 2014/12/07 15:01:53
2014-12-07 15:04:04,761 INFO     repeater     task nb300_lastensq starting 1.8 seconds late
2014-12-07 15:04:06,880 INFO     repeater     task nb300_lastensq ended after 2.1 seconds
2014-12-07 15:04:06,880 INFO     repeater     task nb300_lastensq: Time from /home/data/SP1411/proc/nb300/load/wrote_ens_time: 2014/12/07 15:03:53
2014-12-07 15:06:07,012 INFO     repeater     task nb300_lastensq starting 4.0 seconds late
2014-12-07 15:06:09,158 INFO     repeater     task nb300_lastensq ended after 2.1 seconds
2014-12-07 15:06:09,158 INFO     repeater     task nb300_lastensq: Time from /home/data/SP1411/proc/nb300/load/wrote_ens_time: 2014/12/07 15:05:53
2014-12-07 15:06:54,212 INFO     repeater     task ashtech_hcorrstats starting 0.9 seconds late
2014-12-07 15:06:55,150 INFO     repeater     task ashtech_hcorrstats ended after 0.9 seconds
2014-12-07 15:08:05,231 INFO     repeater     task nb300_lastensq starting 2.2 seconds late
2014-12-07 15:08:07,383 INFO     repeater     task nb300_lastensq ended after 2.2 seconds
2014-12-07 15:08:07,383 INFO     repeater     task nb300_lastensq: Time from /home/data/SP1411/proc/nb300/load/wrote_ens_time: 2014/12/07 15:07:53
2014-12-07 15:10:07,518 INFO     repeater     task nb300_lastensq starting 4.5 seconds late
2014-12-07 15:10:09,615 INFO     repeater     task nb300_lastensq ended after 2.1 seconds
2014-12-07 15:10:09,615 INFO     repeater     task nb300_lastensq: Time from /home/data/SP1411/proc/nb300/load/wrote_ens_time: 2014/12/07 15:09:53
2014-12-07 15:11:54,752 INFO     repeater     task nb300_beamplots starting 1.5 seconds late
2014-12-07 15:11:56,321 INFO     repeater     task nb300_beamplots output:
Starting procsetup

2014-12-07 15:11:56,321 INFO     repeater     task nb300_beamplots ended after 1.6 seconds
2014-12-07 15:11:56,321 INFO     repeater     task nb300_beamplots starting 3.0 seconds late
2014-12-07 15:11:58,010 INFO     repeater     task nb300_beamplots output:
Starting procsetup

2014-12-07 15:11:58,010 INFO     repeater     task nb300_beamplots ended after 1.7 seconds
2014-12-07 15:11:58,011 INFO     repeater     task ashtech_hcorrstats starting 4.7 seconds late
2014-12-07 15:11:58,934 INFO     repeater     task ashtech_hcorrstats ended after 0.9 seconds
2014-12-07 15:12:03,940 INFO     repeater     task nb300_lastensq starting 0.9 seconds late
2014-12-07 15:12:06,097 INFO     repeater     task nb300_lastensq ended after 2.2 seconds
2014-12-07 15:12:06,097 INFO     repeater     task nb300_lastensq: Time from /home/data/SP1411/proc/nb300/load/wrote_ens_time: 2014/12/07 15:11:53
2014-12-07 15:14:06,238 INFO     repeater     task nb300_lastensq starting 3.2 seconds late
2014-12-07 15:14:08,367 INFO     repeater     task nb300_lastensq ended after 2.1 seconds
2014-12-07 15:14:08,368 INFO     repeater     task nb300_lastensq: Time from /home/data/SP1411/proc/nb300/load/wrote_ens_time: 2014/12/07 15:13:53
2014-12-07 15:16:03,508 INFO     repeater     task nb300_lastensq starting 0.5 seconds late
2014-12-07 15:16:05,660 INFO     repeater     task nb300_lastensq ended after 2.2 seconds
2014-12-07 15:16:05,661 INFO     repeater     task nb300_lastensq: Time from /home/data/SP1411/proc/nb300/load/wrote_ens_time: 2014/12/07 15:15:53
2014-12-07 15:16:55,718 INFO     repeater     task ashtech_hcorrstats starting 2.4 seconds late
2014-12-07 15:16:56,653 INFO     repeater     task ashtech_hcorrstats ended after 0.9 seconds
2014-12-07 15:18:06,730 INFO     repeater     task nb300_lastensq starting 3.7 seconds late
2014-12-07 15:18:08,900 INFO     repeater     task nb300_lastensq ended after 2.2 seconds
2014-12-07 15:18:08,900 INFO     repeater     task nb300_lastensq: Time from /home/data/SP1411/proc/nb300/load/wrote_ens_time: 2014/12/07 15:17:53
2014-12-07 15:20:04,034 INFO     repeater     task nb300_lastensq starting 1.0 seconds late
2014-12-07 15:20:06,126 INFO     repeater     task nb300_lastensq ended after 2.1 seconds
2014-12-07 15:20:06,127 INFO     repeater     task nb300_lastensq: Time from /home/data/SP1411/proc/nb300/load/wrote_ens_time: 2014/12/07 15:19:53
2014-12-07 15:21:56,261 INFO     repeater     task nb300_beamplots starting 3.0 seconds late
2014-12-07 15:21:57,844 INFO     repeater     task nb300_beamplots output:
Starting procsetup

2014-12-07 15:21:57,844 INFO     repeater     task nb300_beamplots ended after 1.6 seconds
2014-12-07 15:21:57,845 INFO     repeater     task nb300_beamplots starting 4.6 seconds late
2014-12-07 15:21:59,572 INFO     repeater     task nb300_beamplots output:
Starting procsetup

2014-12-07 15:21:59,573 INFO     repeater     task nb300_beamplots ended after 1.7 seconds
2014-12-07 15:21:59,573 INFO     repeater     task ashtech_hcorrstats starting 6.3 seconds late
2014-12-07 15:22:00,494 INFO     repeater     task ashtech_hcorrstats ended after 0.9 seconds
2014-12-07 15:22:05,500 INFO     repeater     task nb300_lastensq starting 2.5 seconds late
2014-12-07 15:22:07,603 INFO     repeater     task nb300_lastensq ended after 2.1 seconds
2014-12-07 15:22:07,604 INFO     repeater     task nb300_lastensq: Time from /home/data/SP1411/proc/nb300/load/wrote_ens_time: 2014/12/07 15:21:53
2014-12-07 15:24:07,747 INFO     repeater     task nb300_lastensq starting 4.7 seconds late
2014-12-07 15:24:09,856 INFO     repeater     task nb300_lastensq ended after 2.1 seconds
2014-12-07 15:24:09,857 INFO     repeater     task nb300_lastensq: Time from /home/data/SP1411/proc/nb300/load/wrote_ens_time: 2014/12/07 15:23:53
2014-12-07 15:26:05,001 INFO     repeater     task nb300_lastensq starting 2.0 seconds late
2014-12-07 15:26:07,164 INFO     repeater     task nb300_lastensq ended after 2.2 seconds
2014-12-07 15:26:07,164 INFO     repeater     task nb300_lastensq: Time from /home/data/SP1411/proc/nb300/load/wrote_ens_time: 2014/12/07 15:25:53
2014-12-07 15:26:57,219 INFO     repeater     task ashtech_hcorrstats starting 3.9 seconds late
2014-12-07 15:26:58,157 INFO     repeater     task ashtech_hcorrstats ended after 0.9 seconds
2014-12-07 15:28:03,231 INFO     repeater     task nb300_lastensq starting 0.2 seconds late
2014-12-07 15:28:05,352 INFO     repeater     task nb300_lastensq ended after 2.1 seconds
2014-12-07 15:28:05,352 INFO     repeater     task nb300_lastensq: Time from /home/data/SP1411/proc/nb300/load/wrote_ens_time: 2014/12/07 15:27:53
2014-12-07 15:30:05,490 INFO     repeater     task nb300_lastensq starting 2.5 seconds late
2014-12-07 15:30:07,641 INFO     repeater     task nb300_lastensq ended after 2.2 seconds
2014-12-07 15:30:07,641 INFO     repeater     task nb300_lastensq: Time from /home/data/SP1411/proc/nb300/load/wrote_ens_time: 2014/12/07 15:29:53
2014-12-07 15:31:57,777 INFO     repeater     task nb300_quick starting 4.5 seconds late
2014-12-07 15:32:02,084 INFO     repeater     task nb300_quick ended after 4.3 seconds
2014-12-07 15:32:02,084 INFO     repeater     task nb300_3dayplots starting 8.8 seconds late
2014-12-07 15:32:06,585 INFO     repeater     task nb300_3dayplots ended after 4.5 seconds
2014-12-07 15:32:06,586 INFO     repeater     task nb300_beamplots starting 13.3 seconds late
2014-12-07 15:32:08,250 INFO     repeater     task nb300_beamplots output:
Starting procsetup

2014-12-07 15:32:08,250 INFO     repeater     task nb300_beamplots ended after 1.7 seconds
2014-12-07 15:32:08,251 INFO     repeater     task nb300_beamplots starting 15.0 seconds late
2014-12-07 15:32:09,951 INFO     repeater     task nb300_beamplots output:
Starting procsetup

2014-12-07 15:32:09,951 INFO     repeater     task nb300_beamplots ended after 1.7 seconds
2014-12-07 15:32:09,952 INFO     repeater     task ashtech_hcorrstats starting 16.7 seconds late
2014-12-07 15:32:10,889 INFO     repeater     task ashtech_hcorrstats ended after 0.9 seconds
2014-12-07 15:32:15,891 INFO     repeater     task nb300_lastensq starting 12.9 seconds late
2014-12-07 15:32:18,054 INFO     repeater     task nb300_lastensq ended after 2.2 seconds
2014-12-07 15:32:18,055 INFO     repeater     task nb300_lastensq: Time from /home/data/SP1411/proc/nb300/load/wrote_ens_time: 2014/12/07 15:31:53
2014-12-07 15:34:03,167 INFO     repeater     task nb300_lastensq starting 0.2 seconds late
2014-12-07 15:34:05,286 INFO     repeater     task nb300_lastensq ended after 2.1 seconds
2014-12-07 15:34:05,286 INFO     repeater     task nb300_lastensq: Time from /home/data/SP1411/proc/nb300/load/wrote_ens_time: 2014/12/07 15:33:53
2014-12-07 15:36:05,418 INFO     repeater     task nb300_lastensq starting 2.4 seconds late
2014-12-07 15:36:07,536 INFO     repeater     task nb300_lastensq ended after 2.1 seconds
2014-12-07 15:36:07,536 INFO     repeater     task nb300_lastensq: Time from /home/data/SP1411/proc/nb300/load/wrote_ens_time: 2014/12/07 15:35:53
2014-12-07 15:36:57,602 INFO     repeater     task ashtech_hcorrstats starting 4.3 seconds late
2014-12-07 15:36:58,537 INFO     repeater     task ashtech_hcorrstats ended after 0.9 seconds
2014-12-07 15:38:03,620 INFO     repeater     task nb300_lastensq starting 0.6 seconds late
2014-12-07 15:38:05,807 INFO     repeater     task nb300_lastensq ended after 2.2 seconds
2014-12-07 15:38:05,807 INFO     repeater     task nb300_lastensq: Time from /home/data/SP1411/proc/nb300/load/wrote_ens_time: 2014/12/07 15:37:53
2014-12-07 15:40:05,939 INFO     repeater     task nb300_lastensq starting 2.9 seconds late
2014-12-07 15:40:08,120 INFO     repeater     task nb300_lastensq ended after 2.2 seconds
2014-12-07 15:40:08,121 INFO     repeater     task nb300_lastensq: Time from /home/data/SP1411/proc/nb300/load/wrote_ens_time: 2014/12/07 15:39:53
2014-12-07 15:41:58,241 INFO     repeater     task nb300_beamplots starting 5.0 seconds late
2014-12-07 15:41:59,921 INFO     repeater     task nb300_beamplots output:
Starting procsetup

2014-12-07 15:41:59,922 INFO     repeater     task nb300_beamplots ended after 1.7 seconds
2014-12-07 15:41:59,922 INFO     repeater     task nb300_beamplots starting 6.6 seconds late
2014-12-07 15:42:01,633 INFO     repeater     task nb300_beamplots output:
Starting procsetup

2014-12-07 15:42:01,634 INFO     repeater     task nb300_beamplots ended after 1.7 seconds
2014-12-07 15:42:01,634 INFO     repeater     task ashtech_hcorrstats starting 8.4 seconds late
2014-12-07 15:42:02,555 INFO     repeater     task ashtech_hcorrstats ended after 0.9 seconds
2014-12-07 15:42:07,561 INFO     repeater     task nb300_lastensq starting 4.6 seconds late
2014-12-07 15:42:09,705 INFO     repeater     task nb300_lastensq ended after 2.1 seconds
2014-12-07 15:42:09,705 INFO     repeater     task nb300_lastensq: Time from /home/data/SP1411/proc/nb300/load/wrote_ens_time: 2014/12/07 15:41:53
2014-12-07 15:44:04,838 INFO     repeater     task nb300_lastensq starting 1.8 seconds late
2014-12-07 15:44:06,975 INFO     repeater     task nb300_lastensq ended after 2.1 seconds
2014-12-07 15:44:06,975 INFO     repeater     task nb300_lastensq: Time from /home/data/SP1411/proc/nb300/load/wrote_ens_time: 2014/12/07 15:43:53
2014-12-07 15:46:07,115 INFO     repeater     task nb300_lastensq starting 4.1 seconds late
2014-12-07 15:46:09,238 INFO     repeater     task nb300_lastensq ended after 2.1 seconds
2014-12-07 15:46:09,239 INFO     repeater     task nb300_lastensq: Time from /home/data/SP1411/proc/nb300/load/wrote_ens_time: 2014/12/07 15:45:53
2014-12-07 15:46:54,292 INFO     repeater     task ashtech_hcorrstats starting 1.0 seconds late
2014-12-07 15:46:55,244 INFO     repeater     task ashtech_hcorrstats ended after 1.0 seconds
2014-12-07 15:48:05,331 INFO     repeater     task nb300_lastensq starting 2.3 seconds late
2014-12-07 15:48:07,518 INFO     repeater     task nb300_lastensq ended after 2.2 seconds
2014-12-07 15:48:07,519 INFO     repeater     task nb300_lastensq: Time from /home/data/SP1411/proc/nb300/load/wrote_ens_time: 2014/12/07 15:47:53
2014-12-07 15:50:07,663 INFO     repeater     task nb300_lastensq starting 4.7 seconds late
2014-12-07 15:50:09,843 INFO     repeater     task nb300_lastensq ended after 2.2 seconds
2014-12-07 15:50:09,843 INFO     repeater     task nb300_lastensq: Time from /home/data/SP1411/proc/nb300/load/wrote_ens_time: 2014/12/07 15:49:53
2014-12-07 15:51:54,963 INFO     repeater     task nb300_beamplots starting 1.7 seconds late
2014-12-07 15:51:56,658 INFO     repeater     task nb300_beamplots output:
Starting procsetup

2014-12-07 15:51:56,658 INFO     repeater     task nb300_beamplots ended after 1.7 seconds
2014-12-07 15:51:56,659 INFO     repeater     task nb300_beamplots starting 3.4 seconds late
2014-12-07 15:51:58,401 INFO     repeater     task nb300_beamplots output:
Starting procsetup

2014-12-07 15:51:58,401 INFO     repeater     task nb300_beamplots ended after 1.7 seconds
2014-12-07 15:51:58,402 INFO     repeater     task ashtech_hcorrstats starting 5.1 seconds late
2014-12-07 15:51:59,316 INFO     repeater     task ashtech_hcorrstats ended after 0.9 seconds
2014-12-07 15:52:04,322 INFO     repeater     task nb300_lastensq starting 1.3 seconds late
2014-12-07 15:52:06,537 INFO     repeater     task nb300_lastensq ended after 2.2 seconds
2014-12-07 15:52:06,538 INFO     repeater     task nb300_lastensq: Time from /home/data/SP1411/proc/nb300/load/wrote_ens_time: 2014/12/07 15:51:53
2014-12-07 15:54:06,675 INFO     repeater     task nb300_lastensq starting 3.7 seconds late
2014-12-07 15:54:08,871 INFO     repeater     task nb300_lastensq ended after 2.2 seconds
2014-12-07 15:54:08,871 INFO     repeater     task nb300_lastensq: Time from /home/data/SP1411/proc/nb300/load/wrote_ens_time: 2014/12/07 15:53:53
2014-12-07 15:56:03,988 INFO     repeater     task nb300_lastensq starting 1.0 seconds late
2014-12-07 15:56:06,199 INFO     repeater     task nb300_lastensq ended after 2.2 seconds
2014-12-07 15:56:06,199 INFO     repeater     task nb300_lastensq: Time from /home/data/SP1411/proc/nb300/load/wrote_ens_time: 2014/12/07 15:55:53
2014-12-07 15:56:56,256 INFO     repeater     task ashtech_hcorrstats starting 3.0 seconds late
2014-12-07 15:56:57,201 INFO     repeater     task ashtech_hcorrstats ended after 0.9 seconds
2014-12-07 15:58:07,277 INFO     repeater     task nb300_lastensq starting 4.3 seconds late
2014-12-07 15:58:09,472 INFO     repeater     task nb300_lastensq ended after 2.2 seconds
2014-12-07 15:58:09,472 INFO     repeater     task nb300_lastensq: Time from /home/data/SP1411/proc/nb300/load/wrote_ens_time: 2014/12/07 15:57:53
2014-12-07 16:00:04,595 INFO     repeater     task nb300_lastensq starting 1.6 seconds late
2014-12-07 16:00:06,813 INFO     repeater     task nb300_lastensq ended after 2.2 seconds
2014-12-07 16:00:06,813 INFO     repeater     task nb300_lastensq: Time from /home/data/SP1411/proc/nb300/load/wrote_ens_time: 2014/12/07 15:59:53
2014-12-07 16:01:56,951 INFO     repeater     task nb300_quick starting 3.7 seconds late
2014-12-07 16:02:01,231 INFO     repeater     task nb300_quick ended after 4.3 seconds
2014-12-07 16:02:01,232 INFO     repeater     task nb300_3dayplots starting 8.0 seconds late
2014-12-07 16:02:05,797 INFO     repeater     task nb300_3dayplots ended after 4.6 seconds
2014-12-07 16:02:05,797 INFO     repeater     task nb300_beamplots starting 12.5 seconds late
2014-12-07 16:02:07,397 INFO     repeater     task nb300_beamplots output:
Starting procsetup

2014-12-07 16:02:07,397 INFO     repeater     task nb300_beamplots ended after 1.6 seconds
2014-12-07 16:02:07,398 INFO     repeater     task nb300_beamplots starting 14.1 seconds late
2014-12-07 16:02:09,120 INFO     repeater     task nb300_beamplots output:
Starting procsetup

2014-12-07 16:02:09,121 INFO     repeater     task nb300_beamplots ended after 1.7 seconds
2014-12-07 16:02:09,121 INFO     repeater     task ashtech_hcorrstats starting 15.8 seconds late
2014-12-07 16:02:10,060 INFO     repeater     task ashtech_hcorrstats ended after 0.9 seconds
2014-12-07 16:02:15,061 INFO     repeater     task nb300_lastensq starting 12.1 seconds late
2014-12-07 16:02:17,138 INFO     repeater     task nb300_lastensq ended after 2.1 seconds
2014-12-07 16:02:17,139 INFO     repeater     task nb300_lastensq: Time from /home/data/SP1411/proc/nb300/load/wrote_ens_time: 2014/12/07 16:01:53
2014-12-07 16:04:07,274 INFO     repeater     task nb300_lastensq starting 4.3 seconds late
2014-12-07 16:04:09,378 INFO     repeater     task nb300_lastensq ended after 2.1 seconds
2014-12-07 16:04:09,378 INFO     repeater     task nb300_lastensq: Time from /home/data/SP1411/proc/nb300/load/wrote_ens_time: 2014/12/07 16:03:53
2014-12-07 16:06:04,520 INFO     repeater     task nb300_lastensq starting 1.5 seconds late
2014-12-07 16:06:06,629 INFO     repeater     task nb300_lastensq ended after 2.1 seconds
2014-12-07 16:06:06,630 INFO     repeater     task nb300_lastensq: Time from /home/data/SP1411/proc/nb300/load/wrote_ens_time: 2014/12/07 16:05:53
2014-12-07 16:06:56,686 INFO     repeater     task ashtech_hcorrstats starting 3.4 seconds late
2014-12-07 16:06:57,640 INFO     repeater     task ashtech_hcorrstats ended after 1.0 seconds
2014-12-07 16:08:07,717 INFO     repeater     task nb300_lastensq starting 4.7 seconds late
2014-12-07 16:08:09,834 INFO     repeater     task nb300_lastensq ended after 2.1 seconds
2014-12-07 16:08:09,835 INFO     repeater     task nb300_lastensq: Time from /home/data/SP1411/proc/nb300/load/wrote_ens_time: 2014/12/07 16:07:53
2014-12-07 16:10:04,978 INFO     repeater     task nb300_lastensq starting 2.0 seconds late
2014-12-07 16:10:07,036 INFO     repeater     task nb300_lastensq ended after 2.1 seconds
2014-12-07 16:10:07,036 INFO     repeater     task nb300_lastensq: Time from /home/data/SP1411/proc/nb300/load/wrote_ens_time: 2014/12/07 16:09:53
2014-12-07 16:11:57,169 INFO     repeater     task nb300_beamplots starting 3.9 seconds late
2014-12-07 16:11:58,847 INFO     repeater     task nb300_beamplots output:
Starting procsetup

2014-12-07 16:11:58,848 INFO     repeater     task nb300_beamplots ended after 1.7 seconds
2014-12-07 16:11:58,848 INFO     repeater     task nb300_beamplots starting 5.6 seconds late
2014-12-07 16:12:00,448 INFO     repeater     task nb300_beamplots output:
Starting procsetup

2014-12-07 16:12:00,448 INFO     repeater     task nb300_beamplots ended after 1.6 seconds
2014-12-07 16:12:00,448 INFO     repeater     task ashtech_hcorrstats starting 7.2 seconds late
2014-12-07 16:12:01,378 INFO     repeater     task ashtech_hcorrstats ended after 0.9 seconds
2014-12-07 16:12:06,383 INFO     repeater     task nb300_lastensq starting 3.4 seconds late
2014-12-07 16:12:08,495 INFO     repeater     task nb300_lastensq ended after 2.1 seconds
2014-12-07 16:12:08,496 INFO     repeater     task nb300_lastensq: Time from /home/data/SP1411/proc/nb300/load/wrote_ens_time: 2014/12/07 16:11:53
2014-12-07 16:14:03,631 INFO     repeater     task nb300_lastensq starting 0.6 seconds late
2014-12-07 16:14:05,760 INFO     repeater     task nb300_lastensq ended after 2.1 seconds
2014-12-07 16:14:05,760 INFO     repeater     task nb300_lastensq: Time from /home/data/SP1411/proc/nb300/load/wrote_ens_time: 2014/12/07 16:13:53
2014-12-07 16:16:05,905 INFO     repeater     task nb300_lastensq starting 2.9 seconds late
2014-12-07 16:16:08,011 INFO     repeater     task nb300_lastensq ended after 2.1 seconds
2014-12-07 16:16:08,011 INFO     repeater     task nb300_lastensq: Time from /home/data/SP1411/proc/nb300/load/wrote_ens_time: 2014/12/07 16:15:53
2014-12-07 16:16:58,068 INFO     repeater     task ashtech_hcorrstats starting 4.8 seconds late
2014-12-07 16:16:59,017 INFO     repeater     task ashtech_hcorrstats ended after 0.9 seconds
2014-12-07 16:18:04,090 INFO     repeater     task nb300_lastensq starting 1.1 seconds late
2014-12-07 16:18:06,230 INFO     repeater     task nb300_lastensq ended after 2.1 seconds
2014-12-07 16:18:06,230 INFO     repeater     task nb300_lastensq: Time from /home/data/SP1411/proc/nb300/load/wrote_ens_time: 2014/12/07 16:17:53
2014-12-07 16:20:06,366 INFO     repeater     task nb300_lastensq starting 3.4 seconds late
2014-12-07 16:20:08,479 INFO     repeater     task nb300_lastensq ended after 2.1 seconds
2014-12-07 16:20:08,479 INFO     repeater     task nb300_lastensq: Time from /home/data/SP1411/proc/nb300/load/wrote_ens_time: 2014/12/07 16:19:53
2014-12-07 16:21:53,610 INFO     repeater     task nb300_beamplots starting 0.3 seconds late
2014-12-07 16:21:55,264 INFO     repeater     task nb300_beamplots output:
Starting procsetup

2014-12-07 16:21:55,264 INFO     repeater     task nb300_beamplots ended after 1.7 seconds
2014-12-07 16:21:55,265 INFO     repeater     task nb300_beamplots starting 2.0 seconds late
2014-12-07 16:21:56,873 INFO     repeater     task nb300_beamplots output:
Starting procsetup

2014-12-07 16:21:56,874 INFO     repeater     task nb300_beamplots ended after 1.6 seconds
2014-12-07 16:21:56,874 INFO     repeater     task ashtech_hcorrstats starting 3.6 seconds late
2014-12-07 16:21:57,795 INFO     repeater     task ashtech_hcorrstats ended after 0.9 seconds
2014-12-07 16:22:07,807 INFO     repeater     task nb300_lastensq starting 4.8 seconds late
2014-12-07 16:22:09,882 INFO     repeater     task nb300_lastensq ended after 2.1 seconds
2014-12-07 16:22:09,882 INFO     repeater     task nb300_lastensq: Time from /home/data/SP1411/proc/nb300/load/wrote_ens_time: 2014/12/07 16:21:53
2014-12-07 16:24:05,010 INFO     repeater     task nb300_lastensq starting 2.0 seconds late
2014-12-07 16:24:07,143 INFO     repeater     task nb300_lastensq ended after 2.1 seconds
2014-12-07 16:24:07,143 INFO     repeater     task nb300_lastensq: Time from /home/data/SP1411/proc/nb300/load/wrote_ens_time: 2014/12/07 16:23:53
2014-12-07 16:26:07,278 INFO     repeater     task nb300_lastensq starting 4.3 seconds late
2014-12-07 16:26:09,360 INFO     repeater     task nb300_lastensq ended after 2.1 seconds
2014-12-07 16:26:09,361 INFO     repeater     task nb300_lastensq: Time from /home/data/SP1411/proc/nb300/load/wrote_ens_time: 2014/12/07 16:25:53
2014-12-07 16:26:54,412 INFO     repeater     task ashtech_hcorrstats starting 1.1 seconds late
2014-12-07 16:26:55,348 INFO     repeater     task ashtech_hcorrstats ended after 0.9 seconds
2014-12-07 16:28:05,431 INFO     repeater     task nb300_lastensq starting 2.4 seconds late
2014-12-07 16:28:07,538 INFO     repeater     task nb300_lastensq ended after 2.1 seconds
2014-12-07 16:28:07,539 INFO     repeater     task nb300_lastensq: Time from /home/data/SP1411/proc/nb300/load/wrote_ens_time: 2014/12/07 16:27:53
2014-12-07 16:30:07,683 INFO     repeater     task nb300_lastensq starting 4.7 seconds late
2014-12-07 16:30:09,819 INFO     repeater     task nb300_lastensq ended after 2.1 seconds
2014-12-07 16:30:09,819 INFO     repeater     task nb300_lastensq: Time from /home/data/SP1411/proc/nb300/load/wrote_ens_time: 2014/12/07 16:29:53
2014-12-07 16:31:54,925 INFO     repeater     task nb300_quick starting 1.7 seconds late
2014-12-07 16:31:59,150 INFO     repeater     task nb300_quick ended after 4.2 seconds
2014-12-07 16:31:59,150 INFO     repeater     task nb300_3dayplots starting 5.9 seconds late
2014-12-07 16:32:03,703 INFO     repeater     task nb300_3dayplots ended after 4.6 seconds
2014-12-07 16:32:03,774 INFO     repeater     task nb300_beamplots starting 10.5 seconds late
2014-12-07 16:32:05,367 INFO     repeater     task nb300_beamplots output:
Starting procsetup

2014-12-07 16:32:05,367 INFO     repeater     task nb300_beamplots ended after 1.6 seconds
2014-12-07 16:32:05,367 INFO     repeater     task nb300_beamplots starting 12.1 seconds late
2014-12-07 16:32:07,081 INFO     repeater     task nb300_beamplots output:
Starting procsetup

2014-12-07 16:32:07,082 INFO     repeater     task nb300_beamplots ended after 1.7 seconds
2014-12-07 16:32:07,082 INFO     repeater     task ashtech_hcorrstats starting 13.8 seconds late
2014-12-07 16:32:08,002 INFO     repeater     task ashtech_hcorrstats ended after 0.9 seconds
2014-12-07 16:32:13,004 INFO     repeater     task nb300_lastensq starting 10.0 seconds late
2014-12-07 16:32:15,144 INFO     repeater     task nb300_lastensq ended after 2.1 seconds
2014-12-07 16:32:15,144 INFO     repeater     task nb300_lastensq: Time from /home/data/SP1411/proc/nb300/load/wrote_ens_time: 2014/12/07 16:31:53
2014-12-07 16:34:05,271 INFO     repeater     task nb300_lastensq starting 2.3 seconds late
2014-12-07 16:34:07,346 INFO     repeater     task nb300_lastensq ended after 2.1 seconds
2014-12-07 16:34:07,347 INFO     repeater     task nb300_lastensq: Time from /home/data/SP1411/proc/nb300/load/wrote_ens_time: 2014/12/07 16:33:53
2014-12-07 16:36:07,485 INFO     repeater     task nb300_lastensq starting 4.5 seconds late
2014-12-07 16:36:09,563 INFO     repeater     task nb300_lastensq ended after 2.1 seconds
2014-12-07 16:36:09,563 INFO     repeater     task nb300_lastensq: Time from /home/data/SP1411/proc/nb300/load/wrote_ens_time: 2014/12/07 16:35:53
2014-12-07 16:36:54,623 INFO     repeater     task ashtech_hcorrstats starting 1.3 seconds late
2014-12-07 16:36:55,567 INFO     repeater     task ashtech_hcorrstats ended after 0.9 seconds
2014-12-07 16:38:05,637 INFO     repeater     task nb300_lastensq starting 2.6 seconds late
2014-12-07 16:38:07,792 INFO     repeater     task nb300_lastensq ended after 2.2 seconds
2014-12-07 16:38:07,793 INFO     repeater     task nb300_lastensq: Time from /home/data/SP1411/proc/nb300/load/wrote_ens_time: 2014/12/07 16:37:53
2014-12-07 16:40:07,934 INFO     repeater     task nb300_lastensq starting 4.9 seconds late
2014-12-07 16:40:10,076 INFO     repeater     task nb300_lastensq ended after 2.1 seconds
2014-12-07 16:40:10,076 INFO     repeater     task nb300_lastensq: Time from /home/data/SP1411/proc/nb300/load/wrote_ens_time: 2014/12/07 16:39:53
2014-12-07 16:41:55,202 INFO     repeater     task nb300_beamplots starting 1.9 seconds late
2014-12-07 16:41:56,878 INFO     repeater     task nb300_beamplots output:
Starting procsetup

2014-12-07 16:41:56,878 INFO     repeater     task nb300_beamplots ended after 1.7 seconds
2014-12-07 16:41:56,879 INFO     repeater     task nb300_beamplots starting 3.6 seconds late
2014-12-07 16:41:58,505 INFO     repeater     task nb300_beamplots output:
Starting procsetup

2014-12-07 16:41:58,506 INFO     repeater     task nb300_beamplots ended after 1.6 seconds
2014-12-07 16:41:58,506 INFO     repeater     task ashtech_hcorrstats starting 5.2 seconds late
2014-12-07 16:41:59,404 INFO     repeater     task ashtech_hcorrstats ended after 0.9 seconds
2014-12-07 16:42:04,410 INFO     repeater     task nb300_lastensq starting 1.4 seconds late
2014-12-07 16:42:06,534 INFO     repeater     task nb300_lastensq ended after 2.1 seconds
2014-12-07 16:42:06,534 INFO     repeater     task nb300_lastensq: Time from /home/data/SP1411/proc/nb300/load/wrote_ens_time: 2014/12/07 16:41:53
2014-12-07 16:44:06,681 INFO     repeater     task nb300_lastensq starting 3.7 seconds late
2014-12-07 16:44:08,829 INFO     repeater     task nb300_lastensq ended after 2.1 seconds
2014-12-07 16:44:08,829 INFO     repeater     task nb300_lastensq: Time from /home/data/SP1411/proc/nb300/load/wrote_ens_time: 2014/12/07 16:43:53
2014-12-07 16:46:03,967 INFO     repeater     task nb300_lastensq starting 1.0 seconds late
2014-12-07 16:46:06,110 INFO     repeater     task nb300_lastensq ended after 2.1 seconds
2014-12-07 16:46:06,110 INFO     repeater     task nb300_lastensq: Time from /home/data/SP1411/proc/nb300/load/wrote_ens_time: 2014/12/07 16:45:53
2014-12-07 16:46:56,165 INFO     repeater     task ashtech_hcorrstats starting 2.9 seconds late
2014-12-07 16:46:57,074 INFO     repeater     task ashtech_hcorrstats ended after 0.9 seconds
2014-12-07 16:48:07,164 INFO     repeater     task nb300_lastensq starting 4.2 seconds late
2014-12-07 16:48:09,272 INFO     repeater     task nb300_lastensq ended after 2.1 seconds
2014-12-07 16:48:09,272 INFO     repeater     task nb300_lastensq: Time from /home/data/SP1411/proc/nb300/load/wrote_ens_time: 2014/12/07 16:47:53
2014-12-07 16:50:04,393 INFO     repeater     task nb300_lastensq starting 1.4 seconds late
2014-12-07 16:50:06,483 INFO     repeater     task nb300_lastensq ended after 2.1 seconds
2014-12-07 16:50:06,484 INFO     repeater     task nb300_lastensq: Time from /home/data/SP1411/proc/nb300/load/wrote_ens_time: 2014/12/07 16:49:53
2014-12-07 16:51:56,619 INFO     repeater     task nb300_beamplots starting 3.3 seconds late
2014-12-07 16:51:58,288 INFO     repeater     task nb300_beamplots output:
Starting procsetup

2014-12-07 16:51:58,288 INFO     repeater     task nb300_beamplots ended after 1.7 seconds
2014-12-07 16:51:58,288 INFO     repeater     task nb300_beamplots starting 5.0 seconds late
2014-12-07 16:51:59,898 INFO     repeater     task nb300_beamplots output:
Starting procsetup

2014-12-07 16:51:59,898 INFO     repeater     task nb300_beamplots ended after 1.6 seconds
2014-12-07 16:51:59,899 INFO     repeater     task ashtech_hcorrstats starting 6.6 seconds late
2014-12-07 16:52:00,789 INFO     repeater     task ashtech_hcorrstats ended after 0.9 seconds
2014-12-07 16:52:05,795 INFO     repeater     task nb300_lastensq starting 2.8 seconds late
2014-12-07 16:52:07,933 INFO     repeater     task nb300_lastensq ended after 2.1 seconds
2014-12-07 16:52:07,934 INFO     repeater     task nb300_lastensq: Time from /home/data/SP1411/proc/nb300/load/wrote_ens_time: 2014/12/07 16:51:53
2014-12-07 16:54:03,065 INFO     repeater     task nb300_lastensq starting 0.1 seconds late
2014-12-07 16:54:05,150 INFO     repeater     task nb300_lastensq ended after 2.1 seconds
2014-12-07 16:54:05,150 INFO     repeater     task nb300_lastensq: Time from /home/data/SP1411/proc/nb300/load/wrote_ens_time: 2014/12/07 16:53:53
2014-12-07 16:56:05,291 INFO     repeater     task nb300_lastensq starting 2.3 seconds late
2014-12-07 16:56:07,390 INFO     repeater     task nb300_lastensq ended after 2.1 seconds
2014-12-07 16:56:07,390 INFO     repeater     task nb300_lastensq: Time from /home/data/SP1411/proc/nb300/load/wrote_ens_time: 2014/12/07 16:55:53
2014-12-07 16:56:57,456 INFO     repeater     task ashtech_hcorrstats starting 4.2 seconds late
2014-12-07 16:56:58,367 INFO     repeater     task ashtech_hcorrstats ended after 0.9 seconds
2014-12-07 16:58:03,432 INFO     repeater     task nb300_lastensq starting 0.4 seconds late
2014-12-07 16:58:05,570 INFO     repeater     task nb300_lastensq ended after 2.1 seconds
2014-12-07 16:58:05,570 INFO     repeater     task nb300_lastensq: Time from /home/data/SP1411/proc/nb300/load/wrote_ens_time: 2014/12/07 16:57:53
2014-12-07 17:00:05,717 INFO     repeater     task nb300_lastensq starting 2.7 seconds late
2014-12-07 17:00:07,866 INFO     repeater     task nb300_lastensq ended after 2.1 seconds
2014-12-07 17:00:07,867 INFO     repeater     task nb300_lastensq: Time from /home/data/SP1411/proc/nb300/load/wrote_ens_time: 2014/12/07 16:59:53
2014-12-07 17:01:57,991 INFO     repeater     task nb300_quick starting 4.8 seconds late
2014-12-07 17:02:02,192 INFO     repeater     task nb300_quick ended after 4.2 seconds
2014-12-07 17:02:02,193 INFO     repeater     task nb300_3dayplots starting 9.0 seconds late
2014-12-07 17:02:06,754 INFO     repeater     task nb300_3dayplots ended after 4.6 seconds
2014-12-07 17:02:06,754 INFO     repeater     task nb300_beamplots starting 13.5 seconds late
2014-12-07 17:02:08,420 INFO     repeater     task nb300_beamplots output:
Starting procsetup

2014-12-07 17:02:08,421 INFO     repeater     task nb300_beamplots ended after 1.7 seconds
2014-12-07 17:02:08,421 INFO     repeater     task nb300_beamplots starting 15.1 seconds late
2014-12-07 17:02:10,118 INFO     repeater     task nb300_beamplots output:
Starting procsetup

2014-12-07 17:02:10,119 INFO     repeater     task nb300_beamplots ended after 1.7 seconds
2014-12-07 17:02:10,119 INFO     repeater     task ashtech_hcorrstats starting 16.8 seconds late
2014-12-07 17:02:11,012 INFO     repeater     task ashtech_hcorrstats ended after 0.9 seconds
2014-12-07 17:02:16,014 INFO     repeater     task nb300_lastensq starting 13.0 seconds late
2014-12-07 17:02:18,163 INFO     repeater     task nb300_lastensq ended after 2.1 seconds
2014-12-07 17:02:18,163 INFO     repeater     task nb300_lastensq: Time from /home/data/SP1411/proc/nb300/load/wrote_ens_time: 2014/12/07 17:01:53
2014-12-07 17:04:03,294 INFO     repeater     task nb300_lastensq starting 0.3 seconds late
2014-12-07 17:04:05,437 INFO     repeater     task nb300_lastensq ended after 2.1 seconds
2014-12-07 17:04:05,437 INFO     repeater     task nb300_lastensq: Time from /home/data/SP1411/proc/nb300/load/wrote_ens_time: 2014/12/07 17:03:53
2014-12-07 17:06:05,571 INFO     repeater     task nb300_lastensq starting 2.6 seconds late
2014-12-07 17:06:07,666 INFO     repeater     task nb300_lastensq ended after 2.1 seconds
2014-12-07 17:06:07,666 INFO     repeater     task nb300_lastensq: Time from /home/data/SP1411/proc/nb300/load/wrote_ens_time: 2014/12/07 17:05:53
2014-12-07 17:06:57,725 INFO     repeater     task ashtech_hcorrstats starting 4.5 seconds late
2014-12-07 17:06:58,620 INFO     repeater     task ashtech_hcorrstats ended after 0.9 seconds
2014-12-07 17:08:03,699 INFO     repeater     task nb300_lastensq starting 0.7 seconds late
2014-12-07 17:08:05,865 INFO     repeater     task nb300_lastensq ended after 2.2 seconds
2014-12-07 17:08:05,865 INFO     repeater     task nb300_lastensq: Time from /home/data/SP1411/proc/nb300/load/wrote_ens_time: 2014/12/07 17:07:53
2014-12-07 17:10:06,011 INFO     repeater     task nb300_lastensq starting 3.0 seconds late
2014-12-07 17:10:08,102 INFO     repeater     task nb300_lastensq ended after 2.1 seconds
2014-12-07 17:10:08,102 INFO     repeater     task nb300_lastensq: Time from /home/data/SP1411/proc/nb300/load/wrote_ens_time: 2014/12/07 17:09:53
2014-12-07 17:11:58,229 INFO     repeater     task nb300_beamplots starting 5.0 seconds late
2014-12-07 17:11:59,928 INFO     repeater     task nb300_beamplots output:
Starting procsetup

2014-12-07 17:11:59,928 INFO     repeater     task nb300_beamplots ended after 1.7 seconds
2014-12-07 17:11:59,928 INFO     repeater     task nb300_beamplots starting 6.7 seconds late
2014-12-07 17:12:01,624 INFO     repeater     task nb300_beamplots output:
Starting procsetup

2014-12-07 17:12:01,624 INFO     repeater     task nb300_beamplots ended after 1.7 seconds
2014-12-07 17:12:01,624 INFO     repeater     task ashtech_hcorrstats starting 8.3 seconds late
2014-12-07 17:12:02,518 INFO     repeater     task ashtech_hcorrstats ended after 0.9 seconds
2014-12-07 17:12:07,523 INFO     repeater     task nb300_lastensq starting 4.5 seconds late
2014-12-07 17:12:09,683 INFO     repeater     task nb300_lastensq ended after 2.2 seconds
2014-12-07 17:12:09,684 INFO     repeater     task nb300_lastensq: Time from /home/data/SP1411/proc/nb300/load/wrote_ens_time: 2014/12/07 17:11:53
2014-12-07 17:14:04,824 INFO     repeater     task nb300_lastensq starting 1.8 seconds late
2014-12-07 17:14:06,970 INFO     repeater     task nb300_lastensq ended after 2.1 seconds
2014-12-07 17:14:06,971 INFO     repeater     task nb300_lastensq: Time from /home/data/SP1411/proc/nb300/load/wrote_ens_time: 2014/12/07 17:13:53
2014-12-07 17:16:07,118 INFO     repeater     task nb300_lastensq starting 4.1 seconds late
2014-12-07 17:16:09,221 INFO     repeater     task nb300_lastensq ended after 2.1 seconds
2014-12-07 17:16:09,222 INFO     repeater     task nb300_lastensq: Time from /home/data/SP1411/proc/nb300/load/wrote_ens_time: 2014/12/07 17:15:53
2014-12-07 17:16:54,268 INFO     repeater     task ashtech_hcorrstats starting 1.0 seconds late
2014-12-07 17:16:55,172 INFO     repeater     task ashtech_hcorrstats ended after 0.9 seconds
2014-12-07 17:18:05,244 INFO     repeater     task nb300_lastensq starting 2.2 seconds late
2014-12-07 17:18:07,363 INFO     repeater     task nb300_lastensq ended after 2.1 seconds
2014-12-07 17:18:07,364 INFO     repeater     task nb300_lastensq: Time from /home/data/SP1411/proc/nb300/load/wrote_ens_time: 2014/12/07 17:17:53
2014-12-07 17:20:07,511 INFO     repeater     task nb300_lastensq starting 4.5 seconds late
2014-12-07 17:20:09,614 INFO     repeater     task nb300_lastensq ended after 2.1 seconds
2014-12-07 17:20:09,614 INFO     repeater     task nb300_lastensq: Time from /home/data/SP1411/proc/nb300/load/wrote_ens_time: 2014/12/07 17:19:53
2014-12-07 17:21:54,735 INFO     repeater     task nb300_beamplots starting 1.5 seconds late
2014-12-07 17:21:56,395 INFO     repeater     task nb300_beamplots output:
Starting procsetup

2014-12-07 17:21:56,395 INFO     repeater     task nb300_beamplots ended after 1.7 seconds
2014-12-07 17:21:56,395 INFO     repeater     task nb300_beamplots starting 3.1 seconds late
2014-12-07 17:21:58,104 INFO     repeater     task nb300_beamplots output:
Starting procsetup

2014-12-07 17:21:58,104 INFO     repeater     task nb300_beamplots ended after 1.7 seconds
2014-12-07 17:21:58,105 INFO     repeater     task ashtech_hcorrstats starting 4.8 seconds late
2014-12-07 17:21:59,002 INFO     repeater     task ashtech_hcorrstats ended after 0.9 seconds
2014-12-07 17:22:04,007 INFO     repeater     task nb300_lastensq starting 1.0 seconds late
2014-12-07 17:22:06,171 INFO     repeater     task nb300_lastensq ended after 2.2 seconds
2014-12-07 17:22:06,172 INFO     repeater     task nb300_lastensq: Time from /home/data/SP1411/proc/nb300/load/wrote_ens_time: 2014/12/07 17:21:53
2014-12-07 17:24:06,311 INFO     repeater     task nb300_lastensq starting 3.3 seconds late
2014-12-07 17:24:08,462 INFO     repeater     task nb300_lastensq ended after 2.2 seconds
2014-12-07 17:24:08,463 INFO     repeater     task nb300_lastensq: Time from /home/data/SP1411/proc/nb300/load/wrote_ens_time: 2014/12/07 17:23:53
2014-12-07 17:26:03,585 INFO     repeater     task nb300_lastensq starting 0.6 seconds late
2014-12-07 17:26:05,708 INFO     repeater     task nb300_lastensq ended after 2.1 seconds
2014-12-07 17:26:05,709 INFO     repeater     task nb300_lastensq: Time from /home/data/SP1411/proc/nb300/load/wrote_ens_time: 2014/12/07 17:25:53
2014-12-07 17:26:55,772 INFO     repeater     task ashtech_hcorrstats starting 2.5 seconds late
2014-12-07 17:26:56,671 INFO     repeater     task ashtech_hcorrstats ended after 0.9 seconds
2014-12-07 17:28:06,758 INFO     repeater     task nb300_lastensq starting 3.8 seconds late
2014-12-07 17:28:08,867 INFO     repeater     task nb300_lastensq ended after 2.1 seconds
2014-12-07 17:28:08,867 INFO     repeater     task nb300_lastensq: Time from /home/data/SP1411/proc/nb300/load/wrote_ens_time: 2014/12/07 17:27:53
2014-12-07 17:30:03,998 INFO     repeater     task nb300_lastensq starting 1.0 seconds late
2014-12-07 17:30:06,142 INFO     repeater     task nb300_lastensq ended after 2.1 seconds
2014-12-07 17:30:06,143 INFO     repeater     task nb300_lastensq: Time from /home/data/SP1411/proc/nb300/load/wrote_ens_time: 2014/12/07 17:29:53
2014-12-07 17:31:56,281 INFO     repeater     task nb300_quick starting 3.0 seconds late
2014-12-07 17:32:00,612 INFO     repeater     task nb300_quick ended after 4.3 seconds
2014-12-07 17:32:00,613 INFO     repeater     task nb300_3dayplots starting 7.4 seconds late
2014-12-07 17:32:05,117 INFO     repeater     task nb300_3dayplots ended after 4.5 seconds
2014-12-07 17:32:05,118 INFO     repeater     task nb300_beamplots starting 11.8 seconds late
2014-12-07 17:32:06,824 INFO     repeater     task nb300_beamplots output:
Starting procsetup

2014-12-07 17:32:06,824 INFO     repeater     task nb300_beamplots ended after 1.7 seconds
2014-12-07 17:32:06,825 INFO     repeater     task nb300_beamplots starting 13.6 seconds late
2014-12-07 17:32:08,460 INFO     repeater     task nb300_beamplots output:
Starting procsetup

2014-12-07 17:32:08,460 INFO     repeater     task nb300_beamplots ended after 1.6 seconds
2014-12-07 17:32:08,461 INFO     repeater     task ashtech_hcorrstats starting 15.2 seconds late
2014-12-07 17:32:09,363 INFO     repeater     task ashtech_hcorrstats ended after 0.9 seconds
2014-12-07 17:32:14,369 INFO     repeater     task nb300_lastensq starting 11.4 seconds late
2014-12-07 17:32:16,509 INFO     repeater     task nb300_lastensq ended after 2.1 seconds
2014-12-07 17:32:16,510 INFO     repeater     task nb300_lastensq: Time from /home/data/SP1411/proc/nb300/load/wrote_ens_time: 2014/12/07 17:31:53
2014-12-07 17:34:06,651 INFO     repeater     task nb300_lastensq starting 3.7 seconds late
2014-12-07 17:34:08,768 INFO     repeater     task nb300_lastensq ended after 2.1 seconds
2014-12-07 17:34:08,768 INFO     repeater     task nb300_lastensq: Time from /home/data/SP1411/proc/nb300/load/wrote_ens_time: 2014/12/07 17:33:53
2014-12-07 17:36:03,901 INFO     repeater     task nb300_lastensq starting 0.9 seconds late
2014-12-07 17:36:06,027 INFO     repeater     task nb300_lastensq ended after 2.1 seconds
2014-12-07 17:36:06,027 INFO     repeater     task nb300_lastensq: Time from /home/data/SP1411/proc/nb300/load/wrote_ens_time: 2014/12/07 17:35:53
2014-12-07 17:36:56,077 INFO     repeater     task ashtech_hcorrstats starting 2.8 seconds late
2014-12-07 17:36:56,973 INFO     repeater     task ashtech_hcorrstats ended after 0.9 seconds
2014-12-07 17:38:07,064 INFO     repeater     task nb300_lastensq starting 4.1 seconds late
2014-12-07 17:38:09,212 INFO     repeater     task nb300_lastensq ended after 2.1 seconds
2014-12-07 17:38:09,213 INFO     repeater     task nb300_lastensq: Time from /home/data/SP1411/proc/nb300/load/wrote_ens_time: 2014/12/07 17:37:53
2014-12-07 17:40:04,341 INFO     repeater     task nb300_lastensq starting 1.3 seconds late
2014-12-07 17:40:06,463 INFO     repeater     task nb300_lastensq ended after 2.1 seconds
2014-12-07 17:40:06,463 INFO     repeater     task nb300_lastensq: Time from /home/data/SP1411/proc/nb300/load/wrote_ens_time: 2014/12/07 17:39:53
2014-12-07 17:41:56,591 INFO     repeater     task nb300_beamplots starting 3.3 seconds late
2014-12-07 17:41:58,268 INFO     repeater     task nb300_beamplots output:
Starting procsetup

2014-12-07 17:41:58,268 INFO     repeater     task nb300_beamplots ended after 1.7 seconds
2014-12-07 17:41:58,268 INFO     repeater     task nb300_beamplots starting 5.0 seconds late
2014-12-07 17:41:59,973 INFO     repeater     task nb300_beamplots output:
Starting procsetup

2014-12-07 17:41:59,974 INFO     repeater     task nb300_beamplots ended after 1.7 seconds
2014-12-07 17:41:59,974 INFO     repeater     task ashtech_hcorrstats starting 6.7 seconds late
2014-12-07 17:42:00,861 INFO     repeater     task ashtech_hcorrstats ended after 0.9 seconds
2014-12-07 17:42:05,864 INFO     repeater     task nb300_lastensq starting 2.9 seconds late
2014-12-07 17:42:08,045 INFO     repeater     task nb300_lastensq ended after 2.2 seconds
2014-12-07 17:42:08,045 INFO     repeater     task nb300_lastensq: Time from /home/data/SP1411/proc/nb300/load/wrote_ens_time: 2014/12/07 17:41:53
2014-12-07 17:44:03,168 INFO     repeater     task nb300_lastensq starting 0.2 seconds late
2014-12-07 17:44:05,335 INFO     repeater     task nb300_lastensq ended after 2.2 seconds
2014-12-07 17:44:05,336 INFO     repeater     task nb300_lastensq: Time from /home/data/SP1411/proc/nb300/load/wrote_ens_time: 2014/12/07 17:43:53
2014-12-07 17:46:05,467 INFO     repeater     task nb300_lastensq starting 2.5 seconds late
2014-12-07 17:46:07,650 INFO     repeater     task nb300_lastensq ended after 2.2 seconds
2014-12-07 17:46:07,650 INFO     repeater     task nb300_lastensq: Time from /home/data/SP1411/proc/nb300/load/wrote_ens_time: 2014/12/07 17:45:53
2014-12-07 17:46:57,711 INFO     repeater     task ashtech_hcorrstats starting 4.4 seconds late
2014-12-07 17:46:58,626 INFO     repeater     task ashtech_hcorrstats ended after 0.9 seconds
2014-12-07 17:48:03,700 INFO     repeater     task nb300_lastensq starting 0.7 seconds late
2014-12-07 17:48:05,882 INFO     repeater     task nb300_lastensq ended after 2.2 seconds
2014-12-07 17:48:05,883 INFO     repeater     task nb300_lastensq: Time from /home/data/SP1411/proc/nb300/load/wrote_ens_time: 2014/12/07 17:47:53
2014-12-07 17:50:06,021 INFO     repeater     task nb300_lastensq starting 3.0 seconds late
2014-12-07 17:50:08,156 INFO     repeater     task nb300_lastensq ended after 2.1 seconds
2014-12-07 17:50:08,156 INFO     repeater     task nb300_lastensq: Time from /home/data/SP1411/proc/nb300/load/wrote_ens_time: 2014/12/07 17:49:53
2014-12-07 17:51:58,278 INFO     repeater     task nb300_beamplots starting 5.0 seconds late
2014-12-07 17:51:59,951 INFO     repeater     task nb300_beamplots output:
Starting procsetup

2014-12-07 17:51:59,952 INFO     repeater     task nb300_beamplots ended after 1.7 seconds
2014-12-07 17:51:59,952 INFO     repeater     task nb300_beamplots starting 6.7 seconds late
2014-12-07 17:52:01,568 INFO     repeater     task nb300_beamplots output:
Starting procsetup

2014-12-07 17:52:01,568 INFO     repeater     task nb300_beamplots ended after 1.6 seconds
2014-12-07 17:52:01,568 INFO     repeater     task ashtech_hcorrstats starting 8.3 seconds late
2014-12-07 17:52:02,459 INFO     repeater     task ashtech_hcorrstats ended after 0.9 seconds
2014-12-07 17:52:07,464 INFO     repeater     task nb300_lastensq starting 4.5 seconds late
2014-12-07 17:52:09,670 INFO     repeater     task nb300_lastensq ended after 2.2 seconds
2014-12-07 17:52:09,670 INFO     repeater     task nb300_lastensq: Time from /home/data/SP1411/proc/nb300/load/wrote_ens_time: 2014/12/07 17:51:53
2014-12-07 17:54:04,797 INFO     repeater     task nb300_lastensq starting 1.8 seconds late
2014-12-07 17:54:06,926 INFO     repeater     task nb300_lastensq ended after 2.1 seconds
2014-12-07 17:54:06,926 INFO     repeater     task nb300_lastensq: Time from /home/data/SP1411/proc/nb300/load/wrote_ens_time: 2014/12/07 17:53:53
2014-12-07 17:56:07,071 INFO     repeater     task nb300_lastensq starting 4.1 seconds late
2014-12-07 17:56:09,216 INFO     repeater     task nb300_lastensq ended after 2.1 seconds
2014-12-07 17:56:09,216 INFO     repeater     task nb300_lastensq: Time from /home/data/SP1411/proc/nb300/load/wrote_ens_time: 2014/12/07 17:55:53
2014-12-07 17:56:54,269 INFO     repeater     task ashtech_hcorrstats starting 1.0 seconds late
2014-12-07 17:56:55,181 INFO     repeater     task ashtech_hcorrstats ended after 0.9 seconds
2014-12-07 17:58:05,260 INFO     repeater     task nb300_lastensq starting 2.3 seconds late
2014-12-07 17:58:07,399 INFO     repeater     task nb300_lastensq ended after 2.1 seconds
2014-12-07 17:58:07,400 INFO     repeater     task nb300_lastensq: Time from /home/data/SP1411/proc/nb300/load/wrote_ens_time: 2014/12/07 17:57:53
2014-12-07 18:00:07,533 INFO     repeater     task nb300_lastensq starting 4.5 seconds late
2014-12-07 18:00:09,742 INFO     repeater     task nb300_lastensq ended after 2.2 seconds
2014-12-07 18:00:09,742 INFO     repeater     task nb300_lastensq: Time from /home/data/SP1411/proc/nb300/load/wrote_ens_time: 2014/12/07 17:59:53
2014-12-07 18:01:54,871 INFO     repeater     task nb300_quick starting 1.6 seconds late
2014-12-07 18:01:59,127 INFO     repeater     task nb300_quick ended after 4.3 seconds
2014-12-07 18:01:59,127 INFO     repeater     task nb300_3dayplots starting 5.9 seconds late
2014-12-07 18:02:03,659 INFO     repeater     task nb300_3dayplots ended after 4.5 seconds
2014-12-07 18:02:03,659 INFO     repeater     task nb300_beamplots starting 10.4 seconds late
2014-12-07 18:02:05,324 INFO     repeater     task nb300_beamplots output:
Starting procsetup

2014-12-07 18:02:05,325 INFO     repeater     task nb300_beamplots ended after 1.7 seconds
2014-12-07 18:02:05,325 INFO     repeater     task nb300_beamplots starting 12.1 seconds late
2014-12-07 18:02:07,058 INFO     repeater     task nb300_beamplots output:
Starting procsetup

2014-12-07 18:02:07,058 INFO     repeater     task nb300_beamplots ended after 1.7 seconds
2014-12-07 18:02:07,058 INFO     repeater     task ashtech_hcorrstats starting 13.8 seconds late
2014-12-07 18:02:07,961 INFO     repeater     task ashtech_hcorrstats ended after 0.9 seconds
2014-12-07 18:02:12,967 INFO     repeater     task nb300_lastensq starting 10.0 seconds late
2014-12-07 18:02:15,037 INFO     repeater     task nb300_lastensq ended after 2.1 seconds
2014-12-07 18:02:15,037 INFO     repeater     task nb300_lastensq: Time from /home/data/SP1411/proc/nb300/load/wrote_ens_time: 2014/12/07 18:01:53
2014-12-07 18:04:05,174 INFO     repeater     task nb300_lastensq starting 2.2 seconds late
2014-12-07 18:04:07,265 INFO     repeater     task nb300_lastensq ended after 2.1 seconds
2014-12-07 18:04:07,266 INFO     repeater     task nb300_lastensq: Time from /home/data/SP1411/proc/nb300/load/wrote_ens_time: 2014/12/07 18:03:53
2014-12-07 18:06:07,404 INFO     repeater     task nb300_lastensq starting 4.4 seconds late
2014-12-07 18:06:09,515 INFO     repeater     task nb300_lastensq ended after 2.1 seconds
2014-12-07 18:06:09,515 INFO     repeater     task nb300_lastensq: Time from /home/data/SP1411/proc/nb300/load/wrote_ens_time: 2014/12/07 18:05:53
2014-12-07 18:06:54,575 INFO     repeater     task ashtech_hcorrstats starting 1.3 seconds late
2014-12-07 18:06:55,480 INFO     repeater     task ashtech_hcorrstats ended after 0.9 seconds
2014-12-07 18:08:05,551 INFO     repeater     task nb300_lastensq starting 2.6 seconds late
2014-12-07 18:08:07,629 INFO     repeater     task nb300_lastensq ended after 2.1 seconds
2014-12-07 18:08:07,630 INFO     repeater     task nb300_lastensq: Time from /home/data/SP1411/proc/nb300/load/wrote_ens_time: 2014/12/07 18:07:53
2014-12-07 18:10:07,764 INFO     repeater     task nb300_lastensq starting 4.8 seconds late
2014-12-07 18:10:09,874 INFO     repeater     task nb300_lastensq ended after 2.1 seconds
2014-12-07 18:10:09,875 INFO     repeater     task nb300_lastensq: Time from /home/data/SP1411/proc/nb300/load/wrote_ens_time: 2014/12/07 18:09:53
2014-12-07 18:11:54,995 INFO     repeater     task nb300_beamplots starting 1.7 seconds late
2014-12-07 18:11:56,597 INFO     repeater     task nb300_beamplots output:
Starting procsetup

2014-12-07 18:11:56,597 INFO     repeater     task nb300_beamplots ended after 1.6 seconds
2014-12-07 18:11:56,598 INFO     repeater     task nb300_beamplots starting 3.3 seconds late
2014-12-07 18:11:58,325 INFO     repeater     task nb300_beamplots output:
Starting procsetup

2014-12-07 18:11:58,325 INFO     repeater     task nb300_beamplots ended after 1.7 seconds
2014-12-07 18:11:58,326 INFO     repeater     task ashtech_hcorrstats starting 5.1 seconds late
2014-12-07 18:11:59,226 INFO     repeater     task ashtech_hcorrstats ended after 0.9 seconds
2014-12-07 18:12:04,231 INFO     repeater     task nb300_lastensq starting 1.2 seconds late
2014-12-07 18:12:06,296 INFO     repeater     task nb300_lastensq ended after 2.1 seconds
2014-12-07 18:12:06,297 INFO     repeater     task nb300_lastensq: Time from /home/data/SP1411/proc/nb300/load/wrote_ens_time: 2014/12/07 18:11:53
2014-12-07 18:14:06,431 INFO     repeater     task nb300_lastensq starting 3.4 seconds late
2014-12-07 18:14:08,522 INFO     repeater     task nb300_lastensq ended after 2.1 seconds
2014-12-07 18:14:08,522 INFO     repeater     task nb300_lastensq: Time from /home/data/SP1411/proc/nb300/load/wrote_ens_time: 2014/12/07 18:13:53
2014-12-07 18:16:03,668 INFO     repeater     task nb300_lastensq starting 0.7 seconds late
2014-12-07 18:16:05,792 INFO     repeater     task nb300_lastensq ended after 2.1 seconds
