2014-12-08 00:26:09,422 INFO     repeater     task nb300_lastensq: Time from /home/data/SP1411/proc/nb300/load/wrote_ens_time: 2014/12/08 00:25:53
2014-12-08 00:26:54,472 INFO     repeater     task ashtech_hcorrstats starting 1.2 seconds late
2014-12-08 00:26:55,421 INFO     repeater     task ashtech_hcorrstats ended after 0.9 seconds
2014-12-08 00:28:05,501 INFO     repeater     task nb300_lastensq starting 2.5 seconds late
2014-12-08 00:28:07,583 INFO     repeater     task nb300_lastensq ended after 2.1 seconds
2014-12-08 00:28:07,584 INFO     repeater     task nb300_lastensq: Time from /home/data/SP1411/proc/nb300/load/wrote_ens_time: 2014/12/08 00:27:53
2014-12-08 00:30:07,727 INFO     repeater     task nb300_lastensq starting 4.7 seconds late
2014-12-08 00:30:09,796 INFO     repeater     task nb300_lastensq ended after 2.1 seconds
2014-12-08 00:30:09,796 INFO     repeater     task nb300_lastensq: Time from /home/data/SP1411/proc/nb300/load/wrote_ens_time: 2014/12/08 00:29:53
2014-12-08 00:31:54,929 INFO     repeater     task nb300_quick starting 1.7 seconds late
2014-12-08 00:31:59,290 INFO     repeater     task nb300_quick ended after 4.4 seconds
2014-12-08 00:31:59,291 INFO     repeater     task nb300_3dayplots starting 6.1 seconds late
2014-12-08 00:32:04,361 INFO     repeater     task nb300_3dayplots ended after 5.1 seconds
2014-12-08 00:32:04,361 INFO     repeater     task nb300_beamplots starting 11.1 seconds late
2014-12-08 00:32:06,019 INFO     repeater     task nb300_beamplots output:
Starting procsetup

2014-12-08 00:32:06,019 INFO     repeater     task nb300_beamplots ended after 1.7 seconds
2014-12-08 00:32:06,019 INFO     repeater     task nb300_beamplots starting 12.7 seconds late
2014-12-08 00:32:07,714 INFO     repeater     task nb300_beamplots output:
Starting procsetup

2014-12-08 00:32:07,714 INFO     repeater     task nb300_beamplots ended after 1.7 seconds
2014-12-08 00:32:07,715 INFO     repeater     task ashtech_hcorrstats starting 14.4 seconds late
2014-12-08 00:32:08,647 INFO     repeater     task ashtech_hcorrstats ended after 0.9 seconds
2014-12-08 00:32:13,653 INFO     repeater     task nb300_lastensq starting 10.7 seconds late
2014-12-08 00:32:15,778 INFO     repeater     task nb300_lastensq ended after 2.1 seconds
2014-12-08 00:32:15,778 INFO     repeater     task nb300_lastensq: Time from /home/data/SP1411/proc/nb300/load/wrote_ens_time: 2014/12/08 00:31:53
2014-12-08 00:34:05,911 INFO     repeater     task nb300_lastensq starting 2.9 seconds late
2014-12-08 00:34:08,049 INFO     repeater     task nb300_lastensq ended after 2.1 seconds
2014-12-08 00:34:08,050 INFO     repeater     task nb300_lastensq: Time from /home/data/SP1411/proc/nb300/load/wrote_ens_time: 2014/12/08 00:33:53
2014-12-08 00:36:03,191 INFO     repeater     task nb300_lastensq starting 0.2 seconds late
2014-12-08 00:36:05,333 INFO     repeater     task nb300_lastensq ended after 2.1 seconds
2014-12-08 00:36:05,334 INFO     repeater     task nb300_lastensq: Time from /home/data/SP1411/proc/nb300/load/wrote_ens_time: 2014/12/08 00:35:53
2014-12-08 00:36:55,399 INFO     repeater     task ashtech_hcorrstats starting 2.1 seconds late
2014-12-08 00:36:56,348 INFO     repeater     task ashtech_hcorrstats ended after 0.9 seconds
2014-12-08 00:38:06,430 INFO     repeater     task nb300_lastensq starting 3.4 seconds late
2014-12-08 00:38:08,514 INFO     repeater     task nb300_lastensq ended after 2.1 seconds
2014-12-08 00:38:08,515 INFO     repeater     task nb300_lastensq: Time from /home/data/SP1411/proc/nb300/load/wrote_ens_time: 2014/12/08 00:37:53
2014-12-08 00:40:03,654 INFO     repeater     task nb300_lastensq starting 0.7 seconds late
2014-12-08 00:40:05,761 INFO     repeater     task nb300_lastensq ended after 2.1 seconds
2014-12-08 00:40:05,761 INFO     repeater     task nb300_lastensq: Time from /home/data/SP1411/proc/nb300/load/wrote_ens_time: 2014/12/08 00:39:53
2014-12-08 00:41:55,888 INFO     repeater     task nb300_beamplots starting 2.6 seconds late
2014-12-08 00:41:57,554 INFO     repeater     task nb300_beamplots output:
Starting procsetup

2014-12-08 00:41:57,554 INFO     repeater     task nb300_beamplots ended after 1.7 seconds
2014-12-08 00:41:57,555 INFO     repeater     task nb300_beamplots starting 4.3 seconds late
2014-12-08 00:41:59,183 INFO     repeater     task nb300_beamplots output:
Starting procsetup

2014-12-08 00:41:59,184 INFO     repeater     task nb300_beamplots ended after 1.6 seconds
2014-12-08 00:41:59,184 INFO     repeater     task ashtech_hcorrstats starting 5.9 seconds late
2014-12-08 00:42:00,122 INFO     repeater     task ashtech_hcorrstats ended after 0.9 seconds
2014-12-08 00:42:05,128 INFO     repeater     task nb300_lastensq starting 2.1 seconds late
2014-12-08 00:42:07,242 INFO     repeater     task nb300_lastensq ended after 2.1 seconds
2014-12-08 00:42:07,242 INFO     repeater     task nb300_lastensq: Time from /home/data/SP1411/proc/nb300/load/wrote_ens_time: 2014/12/08 00:41:53
2014-12-08 00:44:07,378 INFO     repeater     task nb300_lastensq starting 4.4 seconds late
2014-12-08 00:44:09,518 INFO     repeater     task nb300_lastensq ended after 2.1 seconds
2014-12-08 00:44:09,518 INFO     repeater     task nb300_lastensq: Time from /home/data/SP1411/proc/nb300/load/wrote_ens_time: 2014/12/08 00:43:53
2014-12-08 00:46:04,651 INFO     repeater     task nb300_lastensq starting 1.7 seconds late
2014-12-08 00:46:06,798 INFO     repeater     task nb300_lastensq ended after 2.1 seconds
2014-12-08 00:46:06,798 INFO     repeater     task nb300_lastensq: Time from /home/data/SP1411/proc/nb300/load/wrote_ens_time: 2014/12/08 00:45:53
2014-12-08 00:46:56,859 INFO     repeater     task ashtech_hcorrstats starting 3.6 seconds late
2014-12-08 00:46:57,797 INFO     repeater     task ashtech_hcorrstats ended after 0.9 seconds
2014-12-08 00:48:07,881 INFO     repeater     task nb300_lastensq starting 4.9 seconds late
2014-12-08 00:48:10,029 INFO     repeater     task nb300_lastensq ended after 2.1 seconds
2014-12-08 00:48:10,029 INFO     repeater     task nb300_lastensq: Time from /home/data/SP1411/proc/nb300/load/wrote_ens_time: 2014/12/08 00:47:53
2014-12-08 00:50:05,148 INFO     repeater     task nb300_lastensq starting 2.1 seconds late
2014-12-08 00:50:07,245 INFO     repeater     task nb300_lastensq ended after 2.1 seconds
2014-12-08 00:50:07,245 INFO     repeater     task nb300_lastensq: Time from /home/data/SP1411/proc/nb300/load/wrote_ens_time: 2014/12/08 00:49:53
2014-12-08 00:51:57,378 INFO     repeater     task nb300_beamplots starting 4.1 seconds late
2014-12-08 00:51:59,073 INFO     repeater     task nb300_beamplots output:
Starting procsetup

2014-12-08 00:51:59,073 INFO     repeater     task nb300_beamplots ended after 1.7 seconds
2014-12-08 00:51:59,074 INFO     repeater     task nb300_beamplots starting 5.8 seconds late
2014-12-08 00:52:00,705 INFO     repeater     task nb300_beamplots output:
Starting procsetup

2014-12-08 00:52:00,706 INFO     repeater     task nb300_beamplots ended after 1.6 seconds
2014-12-08 00:52:00,706 INFO     repeater     task ashtech_hcorrstats starting 7.4 seconds late
2014-12-08 00:52:01,633 INFO     repeater     task ashtech_hcorrstats ended after 0.9 seconds
2014-12-08 00:52:06,638 INFO     repeater     task nb300_lastensq starting 3.6 seconds late
2014-12-08 00:52:08,749 INFO     repeater     task nb300_lastensq ended after 2.1 seconds
2014-12-08 00:52:08,749 INFO     repeater     task nb300_lastensq: Time from /home/data/SP1411/proc/nb300/load/wrote_ens_time: 2014/12/08 00:51:53
2014-12-08 00:54:03,895 INFO     repeater     task nb300_lastensq starting 0.9 seconds late
2014-12-08 00:54:05,992 INFO     repeater     task nb300_lastensq ended after 2.1 seconds
2014-12-08 00:54:05,993 INFO     repeater     task nb300_lastensq: Time from /home/data/SP1411/proc/nb300/load/wrote_ens_time: 2014/12/08 00:53:53
2014-12-08 00:56:06,130 INFO     repeater     task nb300_lastensq starting 3.1 seconds late
2014-12-08 00:56:08,226 INFO     repeater     task nb300_lastensq ended after 2.1 seconds
2014-12-08 00:56:08,226 INFO     repeater     task nb300_lastensq: Time from /home/data/SP1411/proc/nb300/load/wrote_ens_time: 2014/12/08 00:55:53
2014-12-08 00:56:53,282 INFO     repeater     task ashtech_hcorrstats starting 0.0 seconds late
2014-12-08 00:56:54,214 INFO     repeater     task ashtech_hcorrstats ended after 0.9 seconds
2014-12-08 00:58:04,296 INFO     repeater     task nb300_lastensq starting 1.3 seconds late
2014-12-08 00:58:06,450 INFO     repeater     task nb300_lastensq ended after 2.2 seconds
2014-12-08 00:58:06,450 INFO     repeater     task nb300_lastensq: Time from /home/data/SP1411/proc/nb300/load/wrote_ens_time: 2014/12/08 00:57:53
2014-12-08 01:00:06,597 INFO     repeater     task nb300_lastensq starting 3.6 seconds late
2014-12-08 01:00:08,688 INFO     repeater     task nb300_lastensq ended after 2.1 seconds
2014-12-08 01:00:08,688 INFO     repeater     task nb300_lastensq: Time from /home/data/SP1411/proc/nb300/load/wrote_ens_time: 2014/12/08 00:59:53
2014-12-08 01:01:53,805 INFO     repeater     task nb300_quick starting 0.6 seconds late
2014-12-08 01:01:58,209 INFO     repeater     task nb300_quick ended after 4.4 seconds
2014-12-08 01:01:58,209 INFO     repeater     task nb300_3dayplots starting 5.0 seconds late
2014-12-08 01:02:03,246 INFO     repeater     task nb300_3dayplots ended after 5.0 seconds
2014-12-08 01:02:03,246 INFO     repeater     task nb300_beamplots starting 10.0 seconds late
2014-12-08 01:02:04,906 INFO     repeater     task nb300_beamplots output:
Starting procsetup

2014-12-08 01:02:04,907 INFO     repeater     task nb300_beamplots ended after 1.7 seconds
2014-12-08 01:02:04,907 INFO     repeater     task nb300_beamplots starting 11.6 seconds late
2014-12-08 01:02:06,604 INFO     repeater     task nb300_beamplots output:
Starting procsetup

2014-12-08 01:02:06,604 INFO     repeater     task nb300_beamplots ended after 1.7 seconds
2014-12-08 01:02:06,604 INFO     repeater     task ashtech_hcorrstats starting 13.3 seconds late
2014-12-08 01:02:07,551 INFO     repeater     task ashtech_hcorrstats ended after 0.9 seconds
2014-12-08 01:02:12,556 INFO     repeater     task nb300_lastensq starting 9.6 seconds late
2014-12-08 01:02:14,665 INFO     repeater     task nb300_lastensq ended after 2.1 seconds
2014-12-08 01:02:14,665 INFO     repeater     task nb300_lastensq: Time from /home/data/SP1411/proc/nb300/load/wrote_ens_time: 2014/12/08 01:01:53
2014-12-08 01:04:04,784 INFO     repeater     task nb300_lastensq starting 1.8 seconds late
2014-12-08 01:04:06,879 INFO     repeater     task nb300_lastensq ended after 2.1 seconds
2014-12-08 01:04:06,879 INFO     repeater     task nb300_lastensq: Time from /home/data/SP1411/proc/nb300/load/wrote_ens_time: 2014/12/08 01:03:53
2014-12-08 01:06:07,018 INFO     repeater     task nb300_lastensq starting 4.0 seconds late
2014-12-08 01:06:09,193 INFO     repeater     task nb300_lastensq ended after 2.2 seconds
2014-12-08 01:06:09,194 INFO     repeater     task nb300_lastensq: Time from /home/data/SP1411/proc/nb300/load/wrote_ens_time: 2014/12/08 01:05:53
2014-12-08 01:06:54,245 INFO     repeater     task ashtech_hcorrstats starting 1.0 seconds late
2014-12-08 01:06:55,196 INFO     repeater     task ashtech_hcorrstats ended after 1.0 seconds
2014-12-08 01:08:05,274 INFO     repeater     task nb300_lastensq starting 2.3 seconds late
2014-12-08 01:08:07,431 INFO     repeater     task nb300_lastensq ended after 2.2 seconds
2014-12-08 01:08:07,431 INFO     repeater     task nb300_lastensq: Time from /home/data/SP1411/proc/nb300/load/wrote_ens_time: 2014/12/08 01:07:53
2014-12-08 01:10:07,567 INFO     repeater     task nb300_lastensq starting 4.6 seconds late
2014-12-08 01:10:09,725 INFO     repeater     task nb300_lastensq ended after 2.2 seconds
2014-12-08 01:10:09,726 INFO     repeater     task nb300_lastensq: Time from /home/data/SP1411/proc/nb300/load/wrote_ens_time: 2014/12/08 01:09:53
2014-12-08 01:11:54,845 INFO     repeater     task nb300_beamplots starting 1.6 seconds late
2014-12-08 01:11:56,533 INFO     repeater     task nb300_beamplots output:
Starting procsetup

2014-12-08 01:11:56,533 INFO     repeater     task nb300_beamplots ended after 1.7 seconds
2014-12-08 01:11:56,533 INFO     repeater     task nb300_beamplots starting 3.3 seconds late
2014-12-08 01:11:58,167 INFO     repeater     task nb300_beamplots output:
Starting procsetup

2014-12-08 01:11:58,167 INFO     repeater     task nb300_beamplots ended after 1.6 seconds
2014-12-08 01:11:58,168 INFO     repeater     task ashtech_hcorrstats starting 4.9 seconds late
2014-12-08 01:11:59,098 INFO     repeater     task ashtech_hcorrstats ended after 0.9 seconds
2014-12-08 01:12:04,101 INFO     repeater     task nb300_lastensq starting 1.1 seconds late
2014-12-08 01:12:06,266 INFO     repeater     task nb300_lastensq ended after 2.2 seconds
2014-12-08 01:12:06,266 INFO     repeater     task nb300_lastensq: Time from /home/data/SP1411/proc/nb300/load/wrote_ens_time: 2014/12/08 01:11:53
2014-12-08 01:14:06,405 INFO     repeater     task nb300_lastensq starting 3.4 seconds late
2014-12-08 01:14:08,501 INFO     repeater     task nb300_lastensq ended after 2.1 seconds
2014-12-08 01:14:08,502 INFO     repeater     task nb300_lastensq: Time from /home/data/SP1411/proc/nb300/load/wrote_ens_time: 2014/12/08 01:13:53
2014-12-08 01:16:03,643 INFO     repeater     task nb300_lastensq starting 0.6 seconds late
2014-12-08 01:16:05,811 INFO     repeater     task nb300_lastensq ended after 2.2 seconds
2014-12-08 01:16:05,812 INFO     repeater     task nb300_lastensq: Time from /home/data/SP1411/proc/nb300/load/wrote_ens_time: 2014/12/08 01:15:53
2014-12-08 01:16:55,872 INFO     repeater     task ashtech_hcorrstats starting 2.6 seconds late
2014-12-08 01:16:56,811 INFO     repeater     task ashtech_hcorrstats ended after 0.9 seconds
2014-12-08 01:18:06,897 INFO     repeater     task nb300_lastensq starting 3.9 seconds late
2014-12-08 01:18:09,039 INFO     repeater     task nb300_lastensq ended after 2.1 seconds
2014-12-08 01:18:09,040 INFO     repeater     task nb300_lastensq: Time from /home/data/SP1411/proc/nb300/load/wrote_ens_time: 2014/12/08 01:17:53
2014-12-08 01:20:04,160 INFO     repeater     task nb300_lastensq starting 1.2 seconds late
2014-12-08 01:20:06,271 INFO     repeater     task nb300_lastensq ended after 2.1 seconds
2014-12-08 01:20:06,271 INFO     repeater     task nb300_lastensq: Time from /home/data/SP1411/proc/nb300/load/wrote_ens_time: 2014/12/08 01:19:53
2014-12-08 01:21:56,398 INFO     repeater     task nb300_beamplots starting 3.1 seconds late
2014-12-08 01:21:58,089 INFO     repeater     task nb300_beamplots output:
Starting procsetup

2014-12-08 01:21:58,089 INFO     repeater     task nb300_beamplots ended after 1.7 seconds
2014-12-08 01:21:58,090 INFO     repeater     task nb300_beamplots starting 4.8 seconds late
2014-12-08 01:21:59,718 INFO     repeater     task nb300_beamplots output:
Starting procsetup

2014-12-08 01:21:59,719 INFO     repeater     task nb300_beamplots ended after 1.6 seconds
2014-12-08 01:21:59,719 INFO     repeater     task ashtech_hcorrstats starting 6.4 seconds late
2014-12-08 01:22:00,647 INFO     repeater     task ashtech_hcorrstats ended after 0.9 seconds
2014-12-08 01:22:05,651 INFO     repeater     task nb300_lastensq starting 2.7 seconds late
2014-12-08 01:22:07,785 INFO     repeater     task nb300_lastensq ended after 2.1 seconds
2014-12-08 01:22:07,786 INFO     repeater     task nb300_lastensq: Time from /home/data/SP1411/proc/nb300/load/wrote_ens_time: 2014/12/08 01:21:53
2014-12-08 01:24:07,933 INFO     repeater     task nb300_lastensq starting 4.9 seconds late
2014-12-08 01:24:10,066 INFO     repeater     task nb300_lastensq ended after 2.1 seconds
2014-12-08 01:24:10,067 INFO     repeater     task nb300_lastensq: Time from /home/data/SP1411/proc/nb300/load/wrote_ens_time: 2014/12/08 01:23:53
2014-12-08 01:26:05,194 INFO     repeater     task nb300_lastensq starting 2.2 seconds late
2014-12-08 01:26:07,353 INFO     repeater     task nb300_lastensq ended after 2.2 seconds
2014-12-08 01:26:07,353 INFO     repeater     task nb300_lastensq: Time from /home/data/SP1411/proc/nb300/load/wrote_ens_time: 2014/12/08 01:25:53
2014-12-08 01:26:57,416 INFO     repeater     task ashtech_hcorrstats starting 4.1 seconds late
2014-12-08 01:26:58,344 INFO     repeater     task ashtech_hcorrstats ended after 0.9 seconds
2014-12-08 01:28:03,418 INFO     repeater     task nb300_lastensq starting 0.4 seconds late
2014-12-08 01:28:05,565 INFO     repeater     task nb300_lastensq ended after 2.1 seconds
2014-12-08 01:28:05,565 INFO     repeater     task nb300_lastensq: Time from /home/data/SP1411/proc/nb300/load/wrote_ens_time: 2014/12/08 01:27:53
2014-12-08 01:30:05,725 INFO     repeater     task nb300_lastensq starting 2.7 seconds late
2014-12-08 01:30:07,833 INFO     repeater     task nb300_lastensq ended after 2.1 seconds
2014-12-08 01:30:07,833 INFO     repeater     task nb300_lastensq: Time from /home/data/SP1411/proc/nb300/load/wrote_ens_time: 2014/12/08 01:29:53
2014-12-08 01:31:57,960 INFO     repeater     task nb300_quick starting 4.7 seconds late
2014-12-08 01:32:02,342 INFO     repeater     task nb300_quick ended after 4.4 seconds
2014-12-08 01:32:02,343 INFO     repeater     task nb300_3dayplots starting 9.1 seconds late
2014-12-08 01:32:07,443 INFO     repeater     task nb300_3dayplots ended after 5.1 seconds
2014-12-08 01:32:07,443 INFO     repeater     task nb300_beamplots starting 14.2 seconds late
2014-12-08 01:32:09,045 INFO     repeater     task nb300_beamplots output:
Starting procsetup

2014-12-08 01:32:09,045 INFO     repeater     task nb300_beamplots ended after 1.6 seconds
2014-12-08 01:32:09,045 INFO     repeater     task nb300_beamplots starting 15.8 seconds late
2014-12-08 01:32:10,785 INFO     repeater     task nb300_beamplots output:
Starting procsetup

2014-12-08 01:32:10,785 INFO     repeater     task nb300_beamplots ended after 1.7 seconds
2014-12-08 01:32:10,785 INFO     repeater     task ashtech_hcorrstats starting 17.5 seconds late
2014-12-08 01:32:11,717 INFO     repeater     task ashtech_hcorrstats ended after 0.9 seconds
2014-12-08 01:32:16,721 INFO     repeater     task nb300_lastensq starting 13.7 seconds late
2014-12-08 01:32:18,840 INFO     repeater     task nb300_lastensq ended after 2.1 seconds
2014-12-08 01:32:18,841 INFO     repeater     task nb300_lastensq: Time from /home/data/SP1411/proc/nb300/load/wrote_ens_time: 2014/12/08 01:31:53
2014-12-08 01:34:03,958 INFO     repeater     task nb300_lastensq starting 1.0 seconds late
2014-12-08 01:34:06,093 INFO     repeater     task nb300_lastensq ended after 2.1 seconds
2014-12-08 01:34:06,093 INFO     repeater     task nb300_lastensq: Time from /home/data/SP1411/proc/nb300/load/wrote_ens_time: 2014/12/08 01:33:53
2014-12-08 01:36:06,241 INFO     repeater     task nb300_lastensq starting 3.2 seconds late
2014-12-08 01:36:08,370 INFO     repeater     task nb300_lastensq ended after 2.1 seconds
2014-12-08 01:36:08,371 INFO     repeater     task nb300_lastensq: Time from /home/data/SP1411/proc/nb300/load/wrote_ens_time: 2014/12/08 01:35:53
2014-12-08 01:36:53,422 INFO     repeater     task ashtech_hcorrstats starting 0.1 seconds late
2014-12-08 01:36:54,360 INFO     repeater     task ashtech_hcorrstats ended after 0.9 seconds
2014-12-08 01:38:04,441 INFO     repeater     task nb300_lastensq starting 1.4 seconds late
2014-12-08 01:38:06,586 INFO     repeater     task nb300_lastensq ended after 2.1 seconds
2014-12-08 01:38:06,587 INFO     repeater     task nb300_lastensq: Time from /home/data/SP1411/proc/nb300/load/wrote_ens_time: 2014/12/08 01:37:53
2014-12-08 01:40:06,718 INFO     repeater     task nb300_lastensq starting 3.7 seconds late
2014-12-08 01:40:08,894 INFO     repeater     task nb300_lastensq ended after 2.2 seconds
2014-12-08 01:40:08,894 INFO     repeater     task nb300_lastensq: Time from /home/data/SP1411/proc/nb300/load/wrote_ens_time: 2014/12/08 01:39:53
2014-12-08 01:41:54,018 INFO     repeater     task nb300_beamplots starting 0.7 seconds late
2014-12-08 01:41:55,691 INFO     repeater     task nb300_beamplots output:
Starting procsetup

2014-12-08 01:41:55,692 INFO     repeater     task nb300_beamplots ended after 1.7 seconds
2014-12-08 01:41:55,692 INFO     repeater     task nb300_beamplots starting 2.4 seconds late
2014-12-08 01:41:57,405 INFO     repeater     task nb300_beamplots output:
Starting procsetup

2014-12-08 01:41:57,405 INFO     repeater     task nb300_beamplots ended after 1.7 seconds
2014-12-08 01:41:57,405 INFO     repeater     task ashtech_hcorrstats starting 4.1 seconds late
2014-12-08 01:41:58,348 INFO     repeater     task ashtech_hcorrstats ended after 0.9 seconds
2014-12-08 01:42:03,351 INFO     repeater     task nb300_lastensq starting 0.4 seconds late
2014-12-08 01:42:05,479 INFO     repeater     task nb300_lastensq ended after 2.1 seconds
2014-12-08 01:42:05,480 INFO     repeater     task nb300_lastensq: Time from /home/data/SP1411/proc/nb300/load/wrote_ens_time: 2014/12/08 01:41:53
2014-12-08 01:44:05,621 INFO     repeater     task nb300_lastensq starting 2.6 seconds late
2014-12-08 01:44:07,793 INFO     repeater     task nb300_lastensq ended after 2.2 seconds
2014-12-08 01:44:07,793 INFO     repeater     task nb300_lastensq: Time from /home/data/SP1411/proc/nb300/load/wrote_ens_time: 2014/12/08 01:43:53
2014-12-08 01:46:07,927 INFO     repeater     task nb300_lastensq starting 4.9 seconds late
2014-12-08 01:46:10,077 INFO     repeater     task nb300_lastensq ended after 2.2 seconds
2014-12-08 01:46:10,077 INFO     repeater     task nb300_lastensq: Time from /home/data/SP1411/proc/nb300/load/wrote_ens_time: 2014/12/08 01:45:53
2014-12-08 01:46:55,139 INFO     repeater     task ashtech_hcorrstats starting 1.9 seconds late
2014-12-08 01:46:56,067 INFO     repeater     task ashtech_hcorrstats ended after 0.9 seconds
2014-12-08 01:48:06,149 INFO     repeater     task nb300_lastensq starting 3.1 seconds late
2014-12-08 01:48:08,327 INFO     repeater     task nb300_lastensq ended after 2.2 seconds
2014-12-08 01:48:08,327 INFO     repeater     task nb300_lastensq: Time from /home/data/SP1411/proc/nb300/load/wrote_ens_time: 2014/12/08 01:47:53
2014-12-08 01:50:03,474 INFO     repeater     task nb300_lastensq starting 0.5 seconds late
2014-12-08 01:50:05,679 INFO     repeater     task nb300_lastensq ended after 2.2 seconds
2014-12-08 01:50:05,680 INFO     repeater     task nb300_lastensq: Time from /home/data/SP1411/proc/nb300/load/wrote_ens_time: 2014/12/08 01:49:53
2014-12-08 01:51:55,799 INFO     repeater     task nb300_beamplots starting 2.5 seconds late
2014-12-08 01:51:57,474 INFO     repeater     task nb300_beamplots output:
Starting procsetup

2014-12-08 01:51:57,474 INFO     repeater     task nb300_beamplots ended after 1.7 seconds
2014-12-08 01:51:57,474 INFO     repeater     task nb300_beamplots starting 4.2 seconds late
2014-12-08 01:51:59,087 INFO     repeater     task nb300_beamplots output:
Starting procsetup

2014-12-08 01:51:59,087 INFO     repeater     task nb300_beamplots ended after 1.6 seconds
2014-12-08 01:51:59,088 INFO     repeater     task ashtech_hcorrstats starting 5.8 seconds late
2014-12-08 01:52:00,023 INFO     repeater     task ashtech_hcorrstats ended after 0.9 seconds
2014-12-08 01:52:05,029 INFO     repeater     task nb300_lastensq starting 2.0 seconds late
2014-12-08 01:52:07,221 INFO     repeater     task nb300_lastensq ended after 2.2 seconds
2014-12-08 01:52:07,222 INFO     repeater     task nb300_lastensq: Time from /home/data/SP1411/proc/nb300/load/wrote_ens_time: 2014/12/08 01:51:53
2014-12-08 01:54:07,351 INFO     repeater     task nb300_lastensq starting 4.4 seconds late
2014-12-08 01:54:09,490 INFO     repeater     task nb300_lastensq ended after 2.1 seconds
2014-12-08 01:54:09,490 INFO     repeater     task nb300_lastensq: Time from /home/data/SP1411/proc/nb300/load/wrote_ens_time: 2014/12/08 01:53:53
2014-12-08 01:56:04,624 INFO     repeater     task nb300_lastensq starting 1.6 seconds late
2014-12-08 01:56:06,773 INFO     repeater     task nb300_lastensq ended after 2.1 seconds
2014-12-08 01:56:06,774 INFO     repeater     task nb300_lastensq: Time from /home/data/SP1411/proc/nb300/load/wrote_ens_time: 2014/12/08 01:55:53
2014-12-08 01:56:56,823 INFO     repeater     task ashtech_hcorrstats starting 3.5 seconds late
2014-12-08 01:56:57,767 INFO     repeater     task ashtech_hcorrstats ended after 0.9 seconds
2014-12-08 01:58:07,857 INFO     repeater     task nb300_lastensq starting 4.9 seconds late
2014-12-08 01:58:10,059 INFO     repeater     task nb300_lastensq ended after 2.2 seconds
2014-12-08 01:58:10,059 INFO     repeater     task nb300_lastensq: Time from /home/data/SP1411/proc/nb300/load/wrote_ens_time: 2014/12/08 01:57:53
2014-12-08 02:00:05,194 INFO     repeater     task nb300_lastensq starting 2.2 seconds late
2014-12-08 02:00:07,401 INFO     repeater     task nb300_lastensq ended after 2.2 seconds
2014-12-08 02:00:07,402 INFO     repeater     task nb300_lastensq: Time from /home/data/SP1411/proc/nb300/load/wrote_ens_time: 2014/12/08 01:59:53
2014-12-08 02:01:57,528 INFO     repeater     task nb300_quick starting 4.3 seconds late
2014-12-08 02:02:01,914 INFO     repeater     task nb300_quick ended after 4.4 seconds
2014-12-08 02:02:01,915 INFO     repeater     task nb300_3dayplots starting 8.7 seconds late
2014-12-08 02:02:06,960 INFO     repeater     task nb300_3dayplots ended after 5.0 seconds
2014-12-08 02:02:06,960 INFO     repeater     task nb300_beamplots starting 13.7 seconds late
2014-12-08 02:02:08,564 INFO     repeater     task nb300_beamplots output:
Starting procsetup

2014-12-08 02:02:08,564 INFO     repeater     task nb300_beamplots ended after 1.6 seconds
2014-12-08 02:02:08,565 INFO     repeater     task nb300_beamplots starting 15.3 seconds late
2014-12-08 02:02:10,297 INFO     repeater     task nb300_beamplots output:
Starting procsetup

2014-12-08 02:02:10,297 INFO     repeater     task nb300_beamplots ended after 1.7 seconds
2014-12-08 02:02:10,298 INFO     repeater     task ashtech_hcorrstats starting 17.0 seconds late
2014-12-08 02:02:11,228 INFO     repeater     task ashtech_hcorrstats ended after 0.9 seconds
2014-12-08 02:02:16,231 INFO     repeater     task nb300_lastensq starting 13.2 seconds late
2014-12-08 02:02:18,298 INFO     repeater     task nb300_lastensq ended after 2.1 seconds
2014-12-08 02:02:18,298 INFO     repeater     task nb300_lastensq: Time from /home/data/SP1411/proc/nb300/load/wrote_ens_time: 2014/12/08 02:01:53
2014-12-08 02:04:03,414 INFO     repeater     task nb300_lastensq starting 0.4 seconds late
2014-12-08 02:04:05,531 INFO     repeater     task nb300_lastensq ended after 2.1 seconds
2014-12-08 02:04:05,532 INFO     repeater     task nb300_lastensq: Time from /home/data/SP1411/proc/nb300/load/wrote_ens_time: 2014/12/08 02:03:53
2014-12-08 02:06:05,667 INFO     repeater     task nb300_lastensq starting 2.7 seconds late
2014-12-08 02:06:07,724 INFO     repeater     task nb300_lastensq ended after 2.1 seconds
2014-12-08 02:06:07,725 INFO     repeater     task nb300_lastensq: Time from /home/data/SP1411/proc/nb300/load/wrote_ens_time: 2014/12/08 02:05:53
2014-12-08 02:06:57,789 INFO     repeater     task ashtech_hcorrstats starting 4.5 seconds late
2014-12-08 02:06:58,717 INFO     repeater     task ashtech_hcorrstats ended after 0.9 seconds
2014-12-08 02:08:03,794 INFO     repeater     task nb300_lastensq starting 0.8 seconds late
2014-12-08 02:08:05,917 INFO     repeater     task nb300_lastensq ended after 2.1 seconds
2014-12-08 02:08:05,917 INFO     repeater     task nb300_lastensq: Time from /home/data/SP1411/proc/nb300/load/wrote_ens_time: 2014/12/08 02:07:53
2014-12-08 02:10:06,064 INFO     repeater     task nb300_lastensq starting 3.1 seconds late
2014-12-08 02:10:08,182 INFO     repeater     task nb300_lastensq ended after 2.1 seconds
2014-12-08 02:10:08,183 INFO     repeater     task nb300_lastensq: Time from /home/data/SP1411/proc/nb300/load/wrote_ens_time: 2014/12/08 02:09:53
2014-12-08 02:11:53,301 INFO     repeater     task nb300_beamplots starting 0.0 seconds late
2014-12-08 02:11:55,001 INFO     repeater     task nb300_beamplots output:
Starting procsetup

2014-12-08 02:11:55,001 INFO     repeater     task nb300_beamplots ended after 1.7 seconds
2014-12-08 02:11:55,002 INFO     repeater     task nb300_beamplots starting 1.7 seconds late
2014-12-08 02:11:56,630 INFO     repeater     task nb300_beamplots output:
Starting procsetup

2014-12-08 02:11:56,631 INFO     repeater     task nb300_beamplots ended after 1.6 seconds
2014-12-08 02:11:56,631 INFO     repeater     task ashtech_hcorrstats starting 3.4 seconds late
2014-12-08 02:11:57,555 INFO     repeater     task ashtech_hcorrstats ended after 0.9 seconds
2014-12-08 02:12:07,564 INFO     repeater     task nb300_lastensq starting 4.6 seconds late
2014-12-08 02:12:09,674 INFO     repeater     task nb300_lastensq ended after 2.1 seconds
2014-12-08 02:12:09,675 INFO     repeater     task nb300_lastensq: Time from /home/data/SP1411/proc/nb300/load/wrote_ens_time: 2014/12/08 02:11:53
2014-12-08 02:14:04,812 INFO     repeater     task nb300_lastensq starting 1.8 seconds late
2014-12-08 02:14:06,947 INFO     repeater     task nb300_lastensq ended after 2.1 seconds
2014-12-08 02:14:06,948 INFO     repeater     task nb300_lastensq: Time from /home/data/SP1411/proc/nb300/load/wrote_ens_time: 2014/12/08 02:13:53
2014-12-08 02:16:07,098 INFO     repeater     task nb300_lastensq starting 4.1 seconds late
2014-12-08 02:16:09,178 INFO     repeater     task nb300_lastensq ended after 2.1 seconds
2014-12-08 02:16:09,178 INFO     repeater     task nb300_lastensq: Time from /home/data/SP1411/proc/nb300/load/wrote_ens_time: 2014/12/08 02:15:53
2014-12-08 02:16:54,235 INFO     repeater     task ashtech_hcorrstats starting 1.0 seconds late
2014-12-08 02:16:55,170 INFO     repeater     task ashtech_hcorrstats ended after 0.9 seconds
2014-12-08 02:18:05,254 INFO     repeater     task nb300_lastensq starting 2.3 seconds late
2014-12-08 02:18:07,319 INFO     repeater     task nb300_lastensq ended after 2.1 seconds
2014-12-08 02:18:07,319 INFO     repeater     task nb300_lastensq: Time from /home/data/SP1411/proc/nb300/load/wrote_ens_time: 2014/12/08 02:17:53
2014-12-08 02:20:07,461 INFO     repeater     task nb300_lastensq starting 4.5 seconds late
2014-12-08 02:20:09,595 INFO     repeater     task nb300_lastensq ended after 2.1 seconds
2014-12-08 02:20:09,595 INFO     repeater     task nb300_lastensq: Time from /home/data/SP1411/proc/nb300/load/wrote_ens_time: 2014/12/08 02:19:53
2014-12-08 02:21:54,725 INFO     repeater     task nb300_beamplots starting 1.5 seconds late
2014-12-08 02:21:56,383 INFO     repeater     task nb300_beamplots output:
Starting procsetup

2014-12-08 02:21:56,383 INFO     repeater     task nb300_beamplots ended after 1.7 seconds
2014-12-08 02:21:56,384 INFO     repeater     task nb300_beamplots starting 3.1 seconds late
2014-12-08 02:21:57,988 INFO     repeater     task nb300_beamplots output:
Starting procsetup

2014-12-08 02:21:57,988 INFO     repeater     task nb300_beamplots ended after 1.6 seconds
2014-12-08 02:21:57,989 INFO     repeater     task ashtech_hcorrstats starting 4.7 seconds late
2014-12-08 02:21:58,921 INFO     repeater     task ashtech_hcorrstats ended after 0.9 seconds
2014-12-08 02:22:03,924 INFO     repeater     task nb300_lastensq starting 0.9 seconds late
2014-12-08 02:22:06,039 INFO     repeater     task nb300_lastensq ended after 2.1 seconds
2014-12-08 02:22:06,040 INFO     repeater     task nb300_lastensq: Time from /home/data/SP1411/proc/nb300/load/wrote_ens_time: 2014/12/08 02:21:53
2014-12-08 02:24:06,178 INFO     repeater     task nb300_lastensq starting 3.2 seconds late
2014-12-08 02:24:08,304 INFO     repeater     task nb300_lastensq ended after 2.1 seconds
2014-12-08 02:24:08,304 INFO     repeater     task nb300_lastensq: Time from /home/data/SP1411/proc/nb300/load/wrote_ens_time: 2014/12/08 02:23:53
2014-12-08 02:26:03,434 INFO     repeater     task nb300_lastensq starting 0.4 seconds late
2014-12-08 02:26:05,548 INFO     repeater     task nb300_lastensq ended after 2.1 seconds
2014-12-08 02:26:05,549 INFO     repeater     task nb300_lastensq: Time from /home/data/SP1411/proc/nb300/load/wrote_ens_time: 2014/12/08 02:25:53
2014-12-08 02:26:55,610 INFO     repeater     task ashtech_hcorrstats starting 2.3 seconds late
2014-12-08 02:26:56,540 INFO     repeater     task ashtech_hcorrstats ended after 0.9 seconds
2014-12-08 02:28:06,617 INFO     repeater     task nb300_lastensq starting 3.6 seconds late
2014-12-08 02:28:08,750 INFO     repeater     task nb300_lastensq ended after 2.1 seconds
2014-12-08 02:28:08,751 INFO     repeater     task nb300_lastensq: Time from /home/data/SP1411/proc/nb300/load/wrote_ens_time: 2014/12/08 02:27:53
2014-12-08 02:30:03,888 INFO     repeater     task nb300_lastensq starting 0.9 seconds late
2014-12-08 02:30:05,975 INFO     repeater     task nb300_lastensq ended after 2.1 seconds
2014-12-08 02:30:05,976 INFO     repeater     task nb300_lastensq: Time from /home/data/SP1411/proc/nb300/load/wrote_ens_time: 2014/12/08 02:29:53
2014-12-08 02:31:56,092 INFO     repeater     task nb300_quick starting 2.9 seconds late
2014-12-08 02:32:00,548 INFO     repeater     task nb300_quick ended after 4.5 seconds
2014-12-08 02:32:00,549 INFO     repeater     task nb300_3dayplots starting 7.3 seconds late
2014-12-08 02:32:05,604 INFO     repeater     task nb300_3dayplots ended after 5.1 seconds
2014-12-08 02:32:05,604 INFO     repeater     task nb300_beamplots starting 12.3 seconds late
2014-12-08 02:32:07,191 INFO     repeater     task nb300_beamplots output:
Starting procsetup

2014-12-08 02:32:07,191 INFO     repeater     task nb300_beamplots ended after 1.6 seconds
2014-12-08 02:32:07,191 INFO     repeater     task nb300_beamplots starting 13.9 seconds late
2014-12-08 02:32:08,888 INFO     repeater     task nb300_beamplots output:
Starting procsetup

2014-12-08 02:32:08,888 INFO     repeater     task nb300_beamplots ended after 1.7 seconds
2014-12-08 02:32:08,889 INFO     repeater     task ashtech_hcorrstats starting 15.6 seconds late
2014-12-08 02:32:09,824 INFO     repeater     task ashtech_hcorrstats ended after 0.9 seconds
2014-12-08 02:32:14,830 INFO     repeater     task nb300_lastensq starting 11.8 seconds late
2014-12-08 02:32:16,928 INFO     repeater     task nb300_lastensq ended after 2.1 seconds
2014-12-08 02:32:16,929 INFO     repeater     task nb300_lastensq: Time from /home/data/SP1411/proc/nb300/load/wrote_ens_time: 2014/12/08 02:31:53
2014-12-08 02:34:07,058 INFO     repeater     task nb300_lastensq starting 4.1 seconds late
2014-12-08 02:34:09,140 INFO     repeater     task nb300_lastensq ended after 2.1 seconds
2014-12-08 02:34:09,141 INFO     repeater     task nb300_lastensq: Time from /home/data/SP1411/proc/nb300/load/wrote_ens_time: 2014/12/08 02:33:53
2014-12-08 02:36:04,271 INFO     repeater     task nb300_lastensq starting 1.3 seconds late
2014-12-08 02:36:06,412 INFO     repeater     task nb300_lastensq ended after 2.1 seconds
2014-12-08 02:36:06,412 INFO     repeater     task nb300_lastensq: Time from /home/data/SP1411/proc/nb300/load/wrote_ens_time: 2014/12/08 02:35:53
2014-12-08 02:36:56,469 INFO     repeater     task ashtech_hcorrstats starting 3.2 seconds late
2014-12-08 02:36:57,410 INFO     repeater     task ashtech_hcorrstats ended after 0.9 seconds
2014-12-08 02:38:07,490 INFO     repeater     task nb300_lastensq starting 4.5 seconds late
2014-12-08 02:38:09,633 INFO     repeater     task nb300_lastensq ended after 2.1 seconds
2014-12-08 02:38:09,633 INFO     repeater     task nb300_lastensq: Time from /home/data/SP1411/proc/nb300/load/wrote_ens_time: 2014/12/08 02:37:53
2014-12-08 02:40:04,778 INFO     repeater     task nb300_lastensq starting 1.8 seconds late
2014-12-08 02:40:06,860 INFO     repeater     task nb300_lastensq ended after 2.1 seconds
2014-12-08 02:40:06,861 INFO     repeater     task nb300_lastensq: Time from /home/data/SP1411/proc/nb300/load/wrote_ens_time: 2014/12/08 02:39:53
2014-12-08 02:41:56,981 INFO     repeater     task nb300_beamplots starting 3.7 seconds late
2014-12-08 02:41:58,647 INFO     repeater     task nb300_beamplots output:
Starting procsetup

2014-12-08 02:41:58,648 INFO     repeater     task nb300_beamplots ended after 1.7 seconds
2014-12-08 02:41:58,648 INFO     repeater     task nb300_beamplots starting 5.4 seconds late
2014-12-08 02:42:00,261 INFO     repeater     task nb300_beamplots output:
Starting procsetup

2014-12-08 02:42:00,261 INFO     repeater     task nb300_beamplots ended after 1.6 seconds
2014-12-08 02:42:00,262 INFO     repeater     task ashtech_hcorrstats starting 7.0 seconds late
2014-12-08 02:42:01,192 INFO     repeater     task ashtech_hcorrstats ended after 0.9 seconds
2014-12-08 02:42:06,198 INFO     repeater     task nb300_lastensq starting 3.2 seconds late
2014-12-08 02:42:08,375 INFO     repeater     task nb300_lastensq ended after 2.2 seconds
2014-12-08 02:42:08,376 INFO     repeater     task nb300_lastensq: Time from /home/data/SP1411/proc/nb300/load/wrote_ens_time: 2014/12/08 02:41:53
2014-12-08 02:44:03,500 INFO     repeater     task nb300_lastensq starting 0.5 seconds late
2014-12-08 02:44:05,593 INFO     repeater     task nb300_lastensq ended after 2.1 seconds
2014-12-08 02:44:05,593 INFO     repeater     task nb300_lastensq: Time from /home/data/SP1411/proc/nb300/load/wrote_ens_time: 2014/12/08 02:43:53
2014-12-08 02:46:05,730 INFO     repeater     task nb300_lastensq starting 2.7 seconds late
2014-12-08 02:46:07,824 INFO     repeater     task nb300_lastensq ended after 2.1 seconds
2014-12-08 02:46:07,824 INFO     repeater     task nb300_lastensq: Time from /home/data/SP1411/proc/nb300/load/wrote_ens_time: 2014/12/08 02:45:53
2014-12-08 02:46:57,882 INFO     repeater     task ashtech_hcorrstats starting 4.6 seconds late
2014-12-08 02:46:58,828 INFO     repeater     task ashtech_hcorrstats ended after 0.9 seconds
2014-12-08 02:48:03,894 INFO     repeater     task nb300_lastensq starting 0.9 seconds late
2014-12-08 02:48:06,034 INFO     repeater     task nb300_lastensq ended after 2.1 seconds
2014-12-08 02:48:06,035 INFO     repeater     task nb300_lastensq: Time from /home/data/SP1411/proc/nb300/load/wrote_ens_time: 2014/12/08 02:47:53
2014-12-08 02:50:06,161 INFO     repeater     task nb300_lastensq starting 3.2 seconds late
2014-12-08 02:50:08,317 INFO     repeater     task nb300_lastensq ended after 2.2 seconds
2014-12-08 02:50:08,318 INFO     repeater     task nb300_lastensq: Time from /home/data/SP1411/proc/nb300/load/wrote_ens_time: 2014/12/08 02:49:53
2014-12-08 02:51:53,424 INFO     repeater     task nb300_beamplots starting 0.2 seconds late
2014-12-08 02:51:55,111 INFO     repeater     task nb300_beamplots output:
Starting procsetup

2014-12-08 02:51:55,111 INFO     repeater     task nb300_beamplots ended after 1.7 seconds
2014-12-08 02:51:55,111 INFO     repeater     task nb300_beamplots starting 1.8 seconds late
2014-12-08 02:51:56,718 INFO     repeater     task nb300_beamplots output:
Starting procsetup

2014-12-08 02:51:56,718 INFO     repeater     task nb300_beamplots ended after 1.6 seconds
2014-12-08 02:51:56,718 INFO     repeater     task ashtech_hcorrstats starting 3.4 seconds late
2014-12-08 02:51:57,653 INFO     repeater     task ashtech_hcorrstats ended after 0.9 seconds
2014-12-08 02:52:07,665 INFO     repeater     task nb300_lastensq starting 4.7 seconds late
2014-12-08 02:52:09,771 INFO     repeater     task nb300_lastensq ended after 2.1 seconds
2014-12-08 02:52:09,771 INFO     repeater     task nb300_lastensq: Time from /home/data/SP1411/proc/nb300/load/wrote_ens_time: 2014/12/08 02:51:53
2014-12-08 02:54:04,911 INFO     repeater     task nb300_lastensq starting 1.9 seconds late
2014-12-08 02:54:07,006 INFO     repeater     task nb300_lastensq ended after 2.1 seconds
2014-12-08 02:54:07,007 INFO     repeater     task nb300_lastensq: Time from /home/data/SP1411/proc/nb300/load/wrote_ens_time: 2014/12/08 02:53:53
2014-12-08 02:56:07,154 INFO     repeater     task nb300_lastensq starting 4.2 seconds late
2014-12-08 02:56:09,265 INFO     repeater     task nb300_lastensq ended after 2.1 seconds
2014-12-08 02:56:09,265 INFO     repeater     task nb300_lastensq: Time from /home/data/SP1411/proc/nb300/load/wrote_ens_time: 2014/12/08 02:55:53
2014-12-08 02:56:54,319 INFO     repeater     task ashtech_hcorrstats starting 1.0 seconds late
2014-12-08 02:56:55,258 INFO     repeater     task ashtech_hcorrstats ended after 0.9 seconds
2014-12-08 02:58:05,337 INFO     repeater     task nb300_lastensq starting 2.3 seconds late
2014-12-08 02:58:07,428 INFO     repeater     task nb300_lastensq ended after 2.1 seconds
2014-12-08 02:58:07,429 INFO     repeater     task nb300_lastensq: Time from /home/data/SP1411/proc/nb300/load/wrote_ens_time: 2014/12/08 02:57:53
2014-12-08 03:00:07,554 INFO     repeater     task nb300_lastensq starting 4.6 seconds late
2014-12-08 03:00:09,701 INFO     repeater     task nb300_lastensq ended after 2.1 seconds
2014-12-08 03:00:09,702 INFO     repeater     task nb300_lastensq: Time from /home/data/SP1411/proc/nb300/load/wrote_ens_time: 2014/12/08 02:59:53
2014-12-08 03:01:54,805 INFO     repeater     task nb300_quick starting 1.6 seconds late
2014-12-08 03:01:59,322 INFO     repeater     task nb300_quick ended after 4.5 seconds
2014-12-08 03:01:59,323 INFO     repeater     task nb300_3dayplots starting 6.1 seconds late
2014-12-08 03:02:04,534 INFO     repeater     task nb300_3dayplots ended after 5.2 seconds
2014-12-08 03:02:04,534 INFO     repeater     task nb300_beamplots starting 11.3 seconds late
2014-12-08 03:02:06,113 INFO     repeater     task nb300_beamplots output:
Starting procsetup

2014-12-08 03:02:06,114 INFO     repeater     task nb300_beamplots ended after 1.6 seconds
2014-12-08 03:02:06,114 INFO     repeater     task nb300_beamplots starting 12.8 seconds late
2014-12-08 03:02:07,821 INFO     repeater     task nb300_beamplots output:
Starting procsetup

2014-12-08 03:02:07,821 INFO     repeater     task nb300_beamplots ended after 1.7 seconds
2014-12-08 03:02:07,821 INFO     repeater     task ashtech_hcorrstats starting 14.5 seconds late
2014-12-08 03:02:08,751 INFO     repeater     task ashtech_hcorrstats ended after 0.9 seconds
2014-12-08 03:02:13,757 INFO     repeater     task nb300_lastensq starting 10.8 seconds late
2014-12-08 03:02:15,926 INFO     repeater     task nb300_lastensq ended after 2.2 seconds
2014-12-08 03:02:15,927 INFO     repeater     task nb300_lastensq: Time from /home/data/SP1411/proc/nb300/load/wrote_ens_time: 2014/12/08 03:01:53
2014-12-08 03:04:06,061 INFO     repeater     task nb300_lastensq starting 3.1 seconds late
2014-12-08 03:04:08,152 INFO     repeater     task nb300_lastensq ended after 2.1 seconds
2014-12-08 03:04:08,153 INFO     repeater     task nb300_lastensq: Time from /home/data/SP1411/proc/nb300/load/wrote_ens_time: 2014/12/08 03:03:53
2014-12-08 03:06:03,284 INFO     repeater     task nb300_lastensq starting 0.3 seconds late
2014-12-08 03:06:05,436 INFO     repeater     task nb300_lastensq ended after 2.2 seconds
2014-12-08 03:06:05,436 INFO     repeater     task nb300_lastensq: Time from /home/data/SP1411/proc/nb300/load/wrote_ens_time: 2014/12/08 03:05:53
2014-12-08 03:06:55,499 INFO     repeater     task ashtech_hcorrstats starting 2.2 seconds late
2014-12-08 03:06:56,433 INFO     repeater     task ashtech_hcorrstats ended after 0.9 seconds
2014-12-08 03:08:06,511 INFO     repeater     task nb300_lastensq starting 3.5 seconds late
2014-12-08 03:08:08,723 INFO     repeater     task nb300_lastensq ended after 2.2 seconds
2014-12-08 03:08:08,723 INFO     repeater     task nb300_lastensq: Time from /home/data/SP1411/proc/nb300/load/wrote_ens_time: 2014/12/08 03:07:53
2014-12-08 03:10:03,847 INFO     repeater     task nb300_lastensq starting 0.8 seconds late
2014-12-08 03:10:05,991 INFO     repeater     task nb300_lastensq ended after 2.1 seconds
2014-12-08 03:10:05,991 INFO     repeater     task nb300_lastensq: Time from /home/data/SP1411/proc/nb300/load/wrote_ens_time: 2014/12/08 03:09:53
2014-12-08 03:11:56,115 INFO     repeater     task nb300_beamplots starting 2.8 seconds late
2014-12-08 03:11:57,775 INFO     repeater     task nb300_beamplots output:
Starting procsetup

2014-12-08 03:11:57,775 INFO     repeater     task nb300_beamplots ended after 1.7 seconds
2014-12-08 03:11:57,776 INFO     repeater     task nb300_beamplots starting 4.5 seconds late
2014-12-08 03:11:59,483 INFO     repeater     task nb300_beamplots output:
Starting procsetup

2014-12-08 03:11:59,483 INFO     repeater     task nb300_beamplots ended after 1.7 seconds
2014-12-08 03:11:59,483 INFO     repeater     task ashtech_hcorrstats starting 6.2 seconds late
2014-12-08 03:12:00,410 INFO     repeater     task ashtech_hcorrstats ended after 0.9 seconds
2014-12-08 03:12:05,414 INFO     repeater     task nb300_lastensq starting 2.4 seconds late
2014-12-08 03:12:07,560 INFO     repeater     task nb300_lastensq ended after 2.1 seconds
2014-12-08 03:12:07,560 INFO     repeater     task nb300_lastensq: Time from /home/data/SP1411/proc/nb300/load/wrote_ens_time: 2014/12/08 03:11:53
2014-12-08 03:14:07,698 INFO     repeater     task nb300_lastensq starting 4.7 seconds late
2014-12-08 03:14:09,818 INFO     repeater     task nb300_lastensq ended after 2.1 seconds
2014-12-08 03:14:09,818 INFO     repeater     task nb300_lastensq: Time from /home/data/SP1411/proc/nb300/load/wrote_ens_time: 2014/12/08 03:13:53
2014-12-08 03:16:04,950 INFO     repeater     task nb300_lastensq starting 2.0 seconds late
2014-12-08 03:16:07,113 INFO     repeater     task nb300_lastensq ended after 2.2 seconds
2014-12-08 03:16:07,114 INFO     repeater     task nb300_lastensq: Time from /home/data/SP1411/proc/nb300/load/wrote_ens_time: 2014/12/08 03:15:53
2014-12-08 03:16:57,179 INFO     repeater     task ashtech_hcorrstats starting 3.9 seconds late
2014-12-08 03:16:58,114 INFO     repeater     task ashtech_hcorrstats ended after 0.9 seconds
2014-12-08 03:18:03,181 INFO     repeater     task nb300_lastensq starting 0.2 seconds late
2014-12-08 03:18:05,294 INFO     repeater     task nb300_lastensq ended after 2.1 seconds
2014-12-08 03:18:05,295 INFO     repeater     task nb300_lastensq: Time from /home/data/SP1411/proc/nb300/load/wrote_ens_time: 2014/12/08 03:17:53
2014-12-08 03:20:05,440 INFO     repeater     task nb300_lastensq starting 2.4 seconds late
2014-12-08 03:20:07,540 INFO     repeater     task nb300_lastensq ended after 2.1 seconds
2014-12-08 03:20:07,540 INFO     repeater     task nb300_lastensq: Time from /home/data/SP1411/proc/nb300/load/wrote_ens_time: 2014/12/08 03:19:53
2014-12-08 03:21:57,678 INFO     repeater     task nb300_beamplots starting 4.4 seconds late
2014-12-08 03:21:59,278 INFO     repeater     task nb300_beamplots output:
Starting procsetup

2014-12-08 03:21:59,278 INFO     repeater     task nb300_beamplots ended after 1.6 seconds
2014-12-08 03:21:59,279 INFO     repeater     task nb300_beamplots starting 6.0 seconds late
2014-12-08 03:22:00,978 INFO     repeater     task nb300_beamplots output:
Starting procsetup

2014-12-08 03:22:00,978 INFO     repeater     task nb300_beamplots ended after 1.7 seconds
2014-12-08 03:22:00,979 INFO     repeater     task ashtech_hcorrstats starting 7.7 seconds late
2014-12-08 03:22:01,910 INFO     repeater     task ashtech_hcorrstats ended after 0.9 seconds
2014-12-08 03:22:06,911 INFO     repeater     task nb300_lastensq starting 3.9 seconds late
2014-12-08 03:22:09,018 INFO     repeater     task nb300_lastensq ended after 2.1 seconds
2014-12-08 03:22:09,019 INFO     repeater     task nb300_lastensq: Time from /home/data/SP1411/proc/nb300/load/wrote_ens_time: 2014/12/08 03:21:53
2014-12-08 03:24:04,161 INFO     repeater     task nb300_lastensq starting 1.2 seconds late
2014-12-08 03:24:06,304 INFO     repeater     task nb300_lastensq ended after 2.1 seconds
2014-12-08 03:24:06,304 INFO     repeater     task nb300_lastensq: Time from /home/data/SP1411/proc/nb300/load/wrote_ens_time: 2014/12/08 03:23:53
2014-12-08 03:26:06,447 INFO     repeater     task nb300_lastensq starting 3.4 seconds late
2014-12-08 03:26:08,642 INFO     repeater     task nb300_lastensq ended after 2.2 seconds
2014-12-08 03:26:08,643 INFO     repeater     task nb300_lastensq: Time from /home/data/SP1411/proc/nb300/load/wrote_ens_time: 2014/12/08 03:25:53
2014-12-08 03:26:53,703 INFO     repeater     task ashtech_hcorrstats starting 0.4 seconds late
2014-12-08 03:26:54,629 INFO     repeater     task ashtech_hcorrstats ended after 0.9 seconds
2014-12-08 03:28:04,704 INFO     repeater     task nb300_lastensq starting 1.7 seconds late
2014-12-08 03:28:06,857 INFO     repeater     task nb300_lastensq ended after 2.2 seconds
2014-12-08 03:28:06,857 INFO     repeater     task nb300_lastensq: Time from /home/data/SP1411/proc/nb300/load/wrote_ens_time: 2014/12/08 03:27:53
2014-12-08 03:30:06,995 INFO     repeater     task nb300_lastensq starting 4.0 seconds late
2014-12-08 03:30:09,125 INFO     repeater     task nb300_lastensq ended after 2.1 seconds
2014-12-08 03:30:09,125 INFO     repeater     task nb300_lastensq: Time from /home/data/SP1411/proc/nb300/load/wrote_ens_time: 2014/12/08 03:29:53
2014-12-08 03:31:54,257 INFO     repeater     task nb300_quick starting 1.0 seconds late
2014-12-08 03:31:58,783 INFO     repeater     task nb300_quick ended after 4.5 seconds
2014-12-08 03:31:58,783 INFO     repeater     task nb300_3dayplots starting 5.5 seconds late
2014-12-08 03:32:03,924 INFO     repeater     task nb300_3dayplots ended after 5.1 seconds
2014-12-08 03:32:03,924 INFO     repeater     task nb300_beamplots starting 10.7 seconds late
2014-12-08 03:32:05,608 INFO     repeater     task nb300_beamplots output:
Starting procsetup

2014-12-08 03:32:05,609 INFO     repeater     task nb300_beamplots ended after 1.7 seconds
2014-12-08 03:32:05,609 INFO     repeater     task nb300_beamplots starting 12.3 seconds late
2014-12-08 03:32:07,335 INFO     repeater     task nb300_beamplots output:
Starting procsetup

2014-12-08 03:32:07,335 INFO     repeater     task nb300_beamplots ended after 1.7 seconds
2014-12-08 03:32:07,335 INFO     repeater     task ashtech_hcorrstats starting 14.1 seconds late
2014-12-08 03:32:08,276 INFO     repeater     task ashtech_hcorrstats ended after 0.9 seconds
2014-12-08 03:32:13,281 INFO     repeater     task nb300_lastensq starting 10.3 seconds late
2014-12-08 03:32:15,414 INFO     repeater     task nb300_lastensq ended after 2.1 seconds
2014-12-08 03:32:15,415 INFO     repeater     task nb300_lastensq: Time from /home/data/SP1411/proc/nb300/load/wrote_ens_time: 2014/12/08 03:31:53
2014-12-08 03:34:05,540 INFO     repeater     task nb300_lastensq starting 2.5 seconds late
2014-12-08 03:34:07,699 INFO     repeater     task nb300_lastensq ended after 2.2 seconds
2014-12-08 03:34:07,699 INFO     repeater     task nb300_lastensq: Time from /home/data/SP1411/proc/nb300/load/wrote_ens_time: 2014/12/08 03:33:53
2014-12-08 03:36:07,834 INFO     repeater     task nb300_lastensq starting 4.8 seconds late
2014-12-08 03:36:10,036 INFO     repeater     task nb300_lastensq ended after 2.2 seconds
2014-12-08 03:36:10,036 INFO     repeater     task nb300_lastensq: Time from /home/data/SP1411/proc/nb300/load/wrote_ens_time: 2014/12/08 03:35:53
2014-12-08 03:36:55,092 INFO     repeater     task ashtech_hcorrstats starting 1.8 seconds late
2014-12-08 03:36:56,016 INFO     repeater     task ashtech_hcorrstats ended after 0.9 seconds
2014-12-08 03:38:06,098 INFO     repeater     task nb300_lastensq starting 3.1 seconds late
2014-12-08 03:38:08,313 INFO     repeater     task nb300_lastensq ended after 2.2 seconds
2014-12-08 03:38:08,313 INFO     repeater     task nb300_lastensq: Time from /home/data/SP1411/proc/nb300/load/wrote_ens_time: 2014/12/08 03:37:53
2014-12-08 03:40:03,443 INFO     repeater     task nb300_lastensq starting 0.4 seconds late
2014-12-08 03:40:05,560 INFO     repeater     task nb300_lastensq ended after 2.1 seconds
2014-12-08 03:40:05,560 INFO     repeater     task nb300_lastensq: Time from /home/data/SP1411/proc/nb300/load/wrote_ens_time: 2014/12/08 03:39:53
2014-12-08 03:41:55,695 INFO     repeater     task nb300_beamplots starting 2.4 seconds late
2014-12-08 03:41:57,311 INFO     repeater     task nb300_beamplots output:
Starting procsetup

2014-12-08 03:41:57,311 INFO     repeater     task nb300_beamplots ended after 1.6 seconds
2014-12-08 03:41:57,312 INFO     repeater     task nb300_beamplots starting 4.0 seconds late
2014-12-08 03:41:59,040 INFO     repeater     task nb300_beamplots output:
Starting procsetup

2014-12-08 03:41:59,041 INFO     repeater     task nb300_beamplots ended after 1.7 seconds
2014-12-08 03:41:59,041 INFO     repeater     task ashtech_hcorrstats starting 5.8 seconds late
2014-12-08 03:41:59,990 INFO     repeater     task ashtech_hcorrstats ended after 0.9 seconds
2014-12-08 03:42:04,991 INFO     repeater     task nb300_lastensq starting 2.0 seconds late
2014-12-08 03:42:07,131 INFO     repeater     task nb300_lastensq ended after 2.1 seconds
2014-12-08 03:42:07,131 INFO     repeater     task nb300_lastensq: Time from /home/data/SP1411/proc/nb300/load/wrote_ens_time: 2014/12/08 03:41:53
2014-12-08 03:44:07,274 INFO     repeater     task nb300_lastensq starting 4.3 seconds late
2014-12-08 03:44:09,449 INFO     repeater     task nb300_lastensq ended after 2.2 seconds
2014-12-08 03:44:09,449 INFO     repeater     task nb300_lastensq: Time from /home/data/SP1411/proc/nb300/load/wrote_ens_time: 2014/12/08 03:43:53
2014-12-08 03:46:04,585 INFO     repeater     task nb300_lastensq starting 1.6 seconds late
2014-12-08 03:46:06,703 INFO     repeater     task nb300_lastensq ended after 2.1 seconds
2014-12-08 03:46:06,703 INFO     repeater     task nb300_lastensq: Time from /home/data/SP1411/proc/nb300/load/wrote_ens_time: 2014/12/08 03:45:53
2014-12-08 03:46:56,765 INFO     repeater     task ashtech_hcorrstats starting 3.5 seconds late
2014-12-08 03:46:57,706 INFO     repeater     task ashtech_hcorrstats ended after 0.9 seconds
2014-12-08 03:48:07,781 INFO     repeater     task nb300_lastensq starting 4.8 seconds late
2014-12-08 03:48:09,969 INFO     repeater     task nb300_lastensq ended after 2.2 seconds
2014-12-08 03:48:09,970 INFO     repeater     task nb300_lastensq: Time from /home/data/SP1411/proc/nb300/load/wrote_ens_time: 2014/12/08 03:47:53
2014-12-08 03:50:05,101 INFO     repeater     task nb300_lastensq starting 2.1 seconds late
2014-12-08 03:50:07,300 INFO     repeater     task nb300_lastensq ended after 2.2 seconds
2014-12-08 03:50:07,300 INFO     repeater     task nb300_lastensq: Time from /home/data/SP1411/proc/nb300/load/wrote_ens_time: 2014/12/08 03:49:53
2014-12-08 03:51:57,422 INFO     repeater     task nb300_beamplots starting 4.1 seconds late
2014-12-08 03:51:59,092 INFO     repeater     task nb300_beamplots output:
Starting procsetup

2014-12-08 03:51:59,093 INFO     repeater     task nb300_beamplots ended after 1.7 seconds
2014-12-08 03:51:59,093 INFO     repeater     task nb300_beamplots starting 5.8 seconds late
2014-12-08 03:52:00,835 INFO     repeater     task nb300_beamplots output:
Starting procsetup

2014-12-08 03:52:00,836 INFO     repeater     task nb300_beamplots ended after 1.7 seconds
2014-12-08 03:52:00,836 INFO     repeater     task ashtech_hcorrstats starting 7.6 seconds late
2014-12-08 03:52:01,768 INFO     repeater     task ashtech_hcorrstats ended after 0.9 seconds
2014-12-08 03:52:06,774 INFO     repeater     task nb300_lastensq starting 3.8 seconds late
2014-12-08 03:52:08,949 INFO     repeater     task nb300_lastensq ended after 2.2 seconds
2014-12-08 03:52:08,949 INFO     repeater     task nb300_lastensq: Time from /home/data/SP1411/proc/nb300/load/wrote_ens_time: 2014/12/08 03:51:53
2014-12-08 03:54:04,075 INFO     repeater     task nb300_lastensq starting 1.1 seconds late
2014-12-08 03:54:06,303 INFO     repeater     task nb300_lastensq ended after 2.2 seconds
2014-12-08 03:54:06,303 INFO     repeater     task nb300_lastensq: Time from /home/data/SP1411/proc/nb300/load/wrote_ens_time: 2014/12/08 03:53:53
2014-12-08 03:56:06,445 INFO     repeater     task nb300_lastensq starting 3.4 seconds late
2014-12-08 03:56:08,635 INFO     repeater     task nb300_lastensq ended after 2.2 seconds
2014-12-08 03:56:08,635 INFO     repeater     task nb300_lastensq: Time from /home/data/SP1411/proc/nb300/load/wrote_ens_time: 2014/12/08 03:55:53
2014-12-08 03:56:53,686 INFO     repeater     task ashtech_hcorrstats starting 0.4 seconds late
2014-12-08 03:56:54,628 INFO     repeater     task ashtech_hcorrstats ended after 0.9 seconds
2014-12-08 03:58:04,707 INFO     repeater     task nb300_lastensq starting 1.7 seconds late
2014-12-08 03:58:06,894 INFO     repeater     task nb300_lastensq ended after 2.2 seconds
2014-12-08 03:58:06,894 INFO     repeater     task nb300_lastensq: Time from /home/data/SP1411/proc/nb300/load/wrote_ens_time: 2014/12/08 03:57:53
2014-12-08 04:00:07,029 INFO     repeater     task nb300_lastensq starting 4.0 seconds late
2014-12-08 04:00:09,242 INFO     repeater     task nb300_lastensq ended after 2.2 seconds
2014-12-08 04:00:09,242 INFO     repeater     task nb300_lastensq: Time from /home/data/SP1411/proc/nb300/load/wrote_ens_time: 2014/12/08 03:59:53
2014-12-08 04:01:54,351 INFO     repeater     task nb300_quick starting 1.1 seconds late
2014-12-08 04:01:58,817 INFO     repeater     task nb300_quick ended after 4.5 seconds
2014-12-08 04:01:58,818 INFO     repeater     task nb300_3dayplots starting 5.6 seconds late
2014-12-08 04:02:03,875 INFO     repeater     task nb300_3dayplots ended after 5.1 seconds
2014-12-08 04:02:03,876 INFO     repeater     task nb300_beamplots starting 10.6 seconds late
2014-12-08 04:02:05,538 INFO     repeater     task nb300_beamplots output:
Starting procsetup

2014-12-08 04:02:05,538 INFO     repeater     task nb300_beamplots ended after 1.7 seconds
2014-12-08 04:02:05,538 INFO     repeater     task nb300_beamplots starting 12.3 seconds late
2014-12-08 04:02:07,156 INFO     repeater     task nb300_beamplots output:
Starting procsetup

2014-12-08 04:02:07,156 INFO     repeater     task nb300_beamplots ended after 1.6 seconds
2014-12-08 04:02:07,156 INFO     repeater     task ashtech_hcorrstats starting 13.9 seconds late
2014-12-08 04:02:08,080 INFO     repeater     task ashtech_hcorrstats ended after 0.9 seconds
2014-12-08 04:02:13,084 INFO     repeater     task nb300_lastensq starting 10.1 seconds late
2014-12-08 04:02:15,184 INFO     repeater     task nb300_lastensq ended after 2.1 seconds
2014-12-08 04:02:15,184 INFO     repeater     task nb300_lastensq: Time from /home/data/SP1411/proc/nb300/load/wrote_ens_time: 2014/12/08 04:01:53
2014-12-08 04:04:05,301 INFO     repeater     task nb300_lastensq starting 2.3 seconds late
2014-12-08 04:04:07,355 INFO     repeater     task nb300_lastensq ended after 2.1 seconds
2014-12-08 04:04:07,355 INFO     repeater     task nb300_lastensq: Time from /home/data/SP1411/proc/nb300/load/wrote_ens_time: 2014/12/08 04:03:53
2014-12-08 04:06:07,501 INFO     repeater     task nb300_lastensq starting 4.5 seconds late
2014-12-08 04:06:09,612 INFO     repeater     task nb300_lastensq ended after 2.1 seconds
2014-12-08 04:06:09,612 INFO     repeater     task nb300_lastensq: Time from /home/data/SP1411/proc/nb300/load/wrote_ens_time: 2014/12/08 04:05:53
2014-12-08 04:06:54,653 INFO     repeater     task ashtech_hcorrstats starting 1.4 seconds late
2014-12-08 04:06:55,589 INFO     repeater     task ashtech_hcorrstats ended after 0.9 seconds
2014-12-08 04:08:05,668 INFO     repeater     task nb300_lastensq starting 2.7 seconds late
2014-12-08 04:08:07,727 INFO     repeater     task nb300_lastensq ended after 2.1 seconds
2014-12-08 04:08:07,728 INFO     repeater     task nb300_lastensq: Time from /home/data/SP1411/proc/nb300/load/wrote_ens_time: 2014/12/08 04:07:53
2014-12-08 04:10:07,864 INFO     repeater     task nb300_lastensq starting 4.9 seconds late
2014-12-08 04:10:09,956 INFO     repeater     task nb300_lastensq ended after 2.1 seconds
2014-12-08 04:10:09,956 INFO     repeater     task nb300_lastensq: Time from /home/data/SP1411/proc/nb300/load/wrote_ens_time: 2014/12/08 04:09:53
2014-12-08 04:11:55,087 INFO     repeater     task nb300_beamplots starting 1.8 seconds late
2014-12-08 04:11:56,759 INFO     repeater     task nb300_beamplots output:
Starting procsetup

2014-12-08 04:11:56,759 INFO     repeater     task nb300_beamplots ended after 1.7 seconds
2014-12-08 04:11:56,759 INFO     repeater     task nb300_beamplots starting 3.5 seconds late
2014-12-08 04:11:58,461 INFO     repeater     task nb300_beamplots output:
Starting procsetup

2014-12-08 04:11:58,462 INFO     repeater     task nb300_beamplots ended after 1.7 seconds
2014-12-08 04:11:58,462 INFO     repeater     task ashtech_hcorrstats starting 5.2 seconds late
2014-12-08 04:11:59,387 INFO     repeater     task ashtech_hcorrstats ended after 0.9 seconds
2014-12-08 04:12:04,393 INFO     repeater     task nb300_lastensq starting 1.4 seconds late
2014-12-08 04:12:06,533 INFO     repeater     task nb300_lastensq ended after 2.1 seconds
2014-12-08 04:12:06,534 INFO     repeater     task nb300_lastensq: Time from /home/data/SP1411/proc/nb300/load/wrote_ens_time: 2014/12/08 04:11:53
2014-12-08 04:14:06,688 INFO     repeater     task nb300_lastensq starting 3.7 seconds late
2014-12-08 04:14:08,763 INFO     repeater     task nb300_lastensq ended after 2.1 seconds
2014-12-08 04:14:08,764 INFO     repeater     task nb300_lastensq: Time from /home/data/SP1411/proc/nb300/load/wrote_ens_time: 2014/12/08 04:13:53
2014-12-08 04:16:03,906 INFO     repeater     task nb300_lastensq starting 0.9 seconds late
2014-12-08 04:16:06,016 INFO     repeater     task nb300_lastensq ended after 2.1 seconds
2014-12-08 04:16:06,016 INFO     repeater     task nb300_lastensq: Time from /home/data/SP1411/proc/nb300/load/wrote_ens_time: 2014/12/08 04:15:53
2014-12-08 04:16:56,064 INFO     repeater     task ashtech_hcorrstats starting 2.8 seconds late
2014-12-08 04:16:57,008 INFO     repeater     task ashtech_hcorrstats ended after 0.9 seconds
2014-12-08 04:18:07,091 INFO     repeater     task nb300_lastensq starting 4.1 seconds late
2014-12-08 04:18:09,199 INFO     repeater     task nb300_lastensq ended after 2.1 seconds
2014-12-08 04:18:09,199 INFO     repeater     task nb300_lastensq: Time from /home/data/SP1411/proc/nb300/load/wrote_ens_time: 2014/12/08 04:17:53
2014-12-08 04:20:04,330 INFO     repeater     task nb300_lastensq starting 1.3 seconds late
2014-12-08 04:20:06,466 INFO     repeater     task nb300_lastensq ended after 2.1 seconds
2014-12-08 04:20:06,466 INFO     repeater     task nb300_lastensq: Time from /home/data/SP1411/proc/nb300/load/wrote_ens_time: 2014/12/08 04:19:53
2014-12-08 04:21:56,595 INFO     repeater     task nb300_beamplots starting 3.3 seconds late
2014-12-08 04:21:58,295 INFO     repeater     task nb300_beamplots output:
Starting procsetup

2014-12-08 04:21:58,296 INFO     repeater     task nb300_beamplots ended after 1.7 seconds
2014-12-08 04:21:58,296 INFO     repeater     task nb300_beamplots starting 5.0 seconds late
2014-12-08 04:22:00,026 INFO     repeater     task nb300_beamplots output:
Starting procsetup

2014-12-08 04:22:00,027 INFO     repeater     task nb300_beamplots ended after 1.7 seconds
2014-12-08 04:22:00,027 INFO     repeater     task ashtech_hcorrstats starting 6.8 seconds late
2014-12-08 04:22:00,960 INFO     repeater     task ashtech_hcorrstats ended after 0.9 seconds
2014-12-08 04:22:05,961 INFO     repeater     task nb300_lastensq starting 3.0 seconds late
2014-12-08 04:22:08,043 INFO     repeater     task nb300_lastensq ended after 2.1 seconds
2014-12-08 04:22:08,044 INFO     repeater     task nb300_lastensq: Time from /home/data/SP1411/proc/nb300/load/wrote_ens_time: 2014/12/08 04:21:53
2014-12-08 04:24:03,187 INFO     repeater     task nb300_lastensq starting 0.2 seconds late
2014-12-08 04:24:05,267 INFO     repeater     task nb300_lastensq ended after 2.1 seconds
2014-12-08 04:24:05,267 INFO     repeater     task nb300_lastensq: Time from /home/data/SP1411/proc/nb300/load/wrote_ens_time: 2014/12/08 04:23:53
2014-12-08 04:26:05,394 INFO     repeater     task nb300_lastensq starting 2.4 seconds late
2014-12-08 04:26:07,524 INFO     repeater     task nb300_lastensq ended after 2.1 seconds
2014-12-08 04:26:07,524 INFO     repeater     task nb300_lastensq: Time from /home/data/SP1411/proc/nb300/load/wrote_ens_time: 2014/12/08 04:25:53
2014-12-08 04:26:57,579 INFO     repeater     task ashtech_hcorrstats starting 4.3 seconds late
2014-12-08 04:26:58,520 INFO     repeater     task ashtech_hcorrstats ended after 0.9 seconds
2014-12-08 04:28:03,588 INFO     repeater     task nb300_lastensq starting 0.6 seconds late
2014-12-08 04:28:05,668 INFO     repeater     task nb300_lastensq ended after 2.1 seconds
2014-12-08 04:28:05,668 INFO     repeater     task nb300_lastensq: Time from /home/data/SP1411/proc/nb300/load/wrote_ens_time: 2014/12/08 04:27:53
2014-12-08 04:30:05,811 INFO     repeater     task nb300_lastensq starting 2.8 seconds late
2014-12-08 04:30:07,912 INFO     repeater     task nb300_lastensq ended after 2.1 seconds
2014-12-08 04:30:07,913 INFO     repeater     task nb300_lastensq: Time from /home/data/SP1411/proc/nb300/load/wrote_ens_time: 2014/12/08 04:29:53
2014-12-08 04:31:58,047 INFO     repeater     task nb300_quick starting 4.8 seconds late
2014-12-08 04:32:02,509 INFO     repeater     task nb300_quick ended after 4.5 seconds
2014-12-08 04:32:02,509 INFO     repeater     task nb300_3dayplots starting 9.3 seconds late
2014-12-08 04:32:07,621 INFO     repeater     task nb300_3dayplots ended after 5.1 seconds
2014-12-08 04:32:07,621 INFO     repeater     task nb300_beamplots starting 14.3 seconds late
2014-12-08 04:32:09,283 INFO     repeater     task nb300_beamplots output:
Starting procsetup

2014-12-08 04:32:09,283 INFO     repeater     task nb300_beamplots ended after 1.7 seconds
2014-12-08 04:32:09,283 INFO     repeater     task nb300_beamplots starting 16.0 seconds late
2014-12-08 04:32:10,986 INFO     repeater     task nb300_beamplots output:
Starting procsetup

2014-12-08 04:32:10,986 INFO     repeater     task nb300_beamplots ended after 1.7 seconds
2014-12-08 04:32:10,987 INFO     repeater     task ashtech_hcorrstats starting 17.7 seconds late
2014-12-08 04:32:11,909 INFO     repeater     task ashtech_hcorrstats ended after 0.9 seconds
2014-12-08 04:32:16,915 INFO     repeater     task nb300_lastensq starting 13.9 seconds late
2014-12-08 04:32:19,022 INFO     repeater     task nb300_lastensq ended after 2.1 seconds
2014-12-08 04:32:19,022 INFO     repeater     task nb300_lastensq: Time from /home/data/SP1411/proc/nb300/load/wrote_ens_time: 2014/12/08 04:31:53
2014-12-08 04:34:04,148 INFO     repeater     task nb300_lastensq starting 1.1 seconds late
2014-12-08 04:34:06,276 INFO     repeater     task nb300_lastensq ended after 2.1 seconds
2014-12-08 04:34:06,276 INFO     repeater     task nb300_lastensq: Time from /home/data/SP1411/proc/nb300/load/wrote_ens_time: 2014/12/08 04:33:53
2014-12-08 04:36:06,421 INFO     repeater     task nb300_lastensq starting 3.4 seconds late
2014-12-08 04:36:08,498 INFO     repeater     task nb300_lastensq ended after 2.1 seconds
2014-12-08 04:36:08,501 INFO     repeater     task nb300_lastensq: Time from /home/data/SP1411/proc/nb300/load/wrote_ens_time: 2014/12/08 04:35:53
2014-12-08 04:36:53,558 INFO     repeater     task ashtech_hcorrstats starting 0.3 seconds late
2014-12-08 04:36:54,502 INFO     repeater     task ashtech_hcorrstats ended after 0.9 seconds
2014-12-08 04:38:04,584 INFO     repeater     task nb300_lastensq starting 1.6 seconds late
2014-12-08 04:38:06,658 INFO     repeater     task nb300_lastensq ended after 2.1 seconds
2014-12-08 04:38:06,659 INFO     repeater     task nb300_lastensq: Time from /home/data/SP1411/proc/nb300/load/wrote_ens_time: 2014/12/08 04:37:53
2014-12-08 04:40:06,794 INFO     repeater     task nb300_lastensq starting 3.8 seconds late
2014-12-08 04:40:08,950 INFO     repeater     task nb300_lastensq ended after 2.2 seconds
2014-12-08 04:40:08,950 INFO     repeater     task nb300_lastensq: Time from /home/data/SP1411/proc/nb300/load/wrote_ens_time: 2014/12/08 04:39:53
2014-12-08 04:41:54,085 INFO     repeater     task nb300_beamplots starting 0.8 seconds late
2014-12-08 04:41:55,693 INFO     repeater     task nb300_beamplots output:
Starting procsetup

2014-12-08 04:41:55,693 INFO     repeater     task nb300_beamplots ended after 1.6 seconds
2014-12-08 04:41:55,694 INFO     repeater     task nb300_beamplots starting 2.4 seconds late
2014-12-08 04:41:57,412 INFO     repeater     task nb300_beamplots output:
Starting procsetup

2014-12-08 04:41:57,413 INFO     repeater     task nb300_beamplots ended after 1.7 seconds
2014-12-08 04:41:57,413 INFO     repeater     task ashtech_hcorrstats starting 4.1 seconds late
2014-12-08 04:41:58,361 INFO     repeater     task ashtech_hcorrstats ended after 0.9 seconds
2014-12-08 04:42:03,366 INFO     repeater     task nb300_lastensq starting 0.4 seconds late
2014-12-08 04:42:05,457 INFO     repeater     task nb300_lastensq ended after 2.1 seconds
2014-12-08 04:42:05,458 INFO     repeater     task nb300_lastensq: Time from /home/data/SP1411/proc/nb300/load/wrote_ens_time: 2014/12/08 04:41:53
2014-12-08 04:44:05,598 INFO     repeater     task nb300_lastensq starting 2.6 seconds late
2014-12-08 04:44:07,745 INFO     repeater     task nb300_lastensq ended after 2.1 seconds
2014-12-08 04:44:07,745 INFO     repeater     task nb300_lastensq: Time from /home/data/SP1411/proc/nb300/load/wrote_ens_time: 2014/12/08 04:43:53
2014-12-08 04:46:07,871 INFO     repeater     task nb300_lastensq starting 4.9 seconds late
2014-12-08 04:46:09,964 INFO     repeater     task nb300_lastensq ended after 2.1 seconds
2014-12-08 04:46:09,964 INFO     repeater     task nb300_lastensq: Time from /home/data/SP1411/proc/nb300/load/wrote_ens_time: 2014/12/08 04:45:53
2014-12-08 04:46:55,019 INFO     repeater     task ashtech_hcorrstats starting 1.7 seconds late
2014-12-08 04:46:55,947 INFO     repeater     task ashtech_hcorrstats ended after 0.9 seconds
2014-12-08 04:48:06,028 INFO     repeater     task nb300_lastensq starting 3.0 seconds late
2014-12-08 04:48:08,118 INFO     repeater     task nb300_lastensq ended after 2.1 seconds
2014-12-08 04:48:08,118 INFO     repeater     task nb300_lastensq: Time from /home/data/SP1411/proc/nb300/load/wrote_ens_time: 2014/12/08 04:47:53
2014-12-08 04:50:03,254 INFO     repeater     task nb300_lastensq starting 0.3 seconds late
2014-12-08 04:50:05,390 INFO     repeater     task nb300_lastensq ended after 2.1 seconds
2014-12-08 04:50:05,391 INFO     repeater     task nb300_lastensq: Time from /home/data/SP1411/proc/nb300/load/wrote_ens_time: 2014/12/08 04:49:53
2014-12-08 04:51:55,509 INFO     repeater     task nb300_beamplots starting 2.2 seconds late
2014-12-08 04:51:57,180 INFO     repeater     task nb300_beamplots output:
Starting procsetup

2014-12-08 04:51:57,180 INFO     repeater     task nb300_beamplots ended after 1.7 seconds
2014-12-08 04:51:57,180 INFO     repeater     task nb300_beamplots starting 3.9 seconds late
2014-12-08 04:51:58,888 INFO     repeater     task nb300_beamplots output:
Starting procsetup

2014-12-08 04:51:58,888 INFO     repeater     task nb300_beamplots ended after 1.7 seconds
2014-12-08 04:51:58,888 INFO     repeater     task ashtech_hcorrstats starting 5.6 seconds late
2014-12-08 04:51:59,814 INFO     repeater     task ashtech_hcorrstats ended after 0.9 seconds
2014-12-08 04:52:04,820 INFO     repeater     task nb300_lastensq starting 1.8 seconds late
2014-12-08 04:52:06,959 INFO     repeater     task nb300_lastensq ended after 2.1 seconds
2014-12-08 04:52:06,959 INFO     repeater     task nb300_lastensq: Time from /home/data/SP1411/proc/nb300/load/wrote_ens_time: 2014/12/08 04:51:53
2014-12-08 04:54:07,107 INFO     repeater     task nb300_lastensq starting 4.1 seconds late
2014-12-08 04:54:09,197 INFO     repeater     task nb300_lastensq ended after 2.1 seconds
2014-12-08 04:54:09,197 INFO     repeater     task nb300_lastensq: Time from /home/data/SP1411/proc/nb300/load/wrote_ens_time: 2014/12/08 04:53:53
2014-12-08 04:56:04,332 INFO     repeater     task nb300_lastensq starting 1.3 seconds late
2014-12-08 04:56:06,418 INFO     repeater     task nb300_lastensq ended after 2.1 seconds
2014-12-08 04:56:06,418 INFO     repeater     task nb300_lastensq: Time from /home/data/SP1411/proc/nb300/load/wrote_ens_time: 2014/12/08 04:55:53
2014-12-08 04:56:56,479 INFO     repeater     task ashtech_hcorrstats starting 3.2 seconds late
2014-12-08 04:56:57,434 INFO     repeater     task ashtech_hcorrstats ended after 1.0 seconds
2014-12-08 04:58:07,516 INFO     repeater     task nb300_lastensq starting 4.5 seconds late
2014-12-08 04:58:09,618 INFO     repeater     task nb300_lastensq ended after 2.1 seconds
2014-12-08 04:58:09,618 INFO     repeater     task nb300_lastensq: Time from /home/data/SP1411/proc/nb300/load/wrote_ens_time: 2014/12/08 04:57:53
2014-12-08 05:00:04,754 INFO     repeater     task nb300_lastensq starting 1.8 seconds late
2014-12-08 05:00:06,901 INFO     repeater     task nb300_lastensq ended after 2.1 seconds
2014-12-08 05:00:06,902 INFO     repeater     task nb300_lastensq: Time from /home/data/SP1411/proc/nb300/load/wrote_ens_time: 2014/12/08 04:59:53
2014-12-08 05:01:57,028 INFO     repeater     task nb300_quick starting 3.8 seconds late
2014-12-08 05:02:01,598 INFO     repeater     task nb300_quick ended after 4.6 seconds
2014-12-08 05:02:01,599 INFO     repeater     task nb300_3dayplots starting 8.4 seconds late
2014-12-08 05:02:06,667 INFO     repeater     task nb300_3dayplots ended after 5.1 seconds
2014-12-08 05:02:06,667 INFO     repeater     task nb300_beamplots starting 13.4 seconds late
2014-12-08 05:02:08,326 INFO     repeater     task nb300_beamplots output:
Starting procsetup

2014-12-08 05:02:08,327 INFO     repeater     task nb300_beamplots ended after 1.7 seconds
2014-12-08 05:02:08,327 INFO     repeater     task nb300_beamplots starting 15.1 seconds late
2014-12-08 05:02:09,933 INFO     repeater     task nb300_beamplots output:
Starting procsetup

2014-12-08 05:02:09,933 INFO     repeater     task nb300_beamplots ended after 1.6 seconds
2014-12-08 05:02:09,933 INFO     repeater     task ashtech_hcorrstats starting 16.7 seconds late
2014-12-08 05:02:10,855 INFO     repeater     task ashtech_hcorrstats ended after 0.9 seconds
2014-12-08 05:02:15,861 INFO     repeater     task nb300_lastensq starting 12.9 seconds late
2014-12-08 05:02:18,018 INFO     repeater     task nb300_lastensq ended after 2.2 seconds
2014-12-08 05:02:18,019 INFO     repeater     task nb300_lastensq: Time from /home/data/SP1411/proc/nb300/load/wrote_ens_time: 2014/12/08 05:01:53
2014-12-08 05:04:03,131 INFO     repeater     task nb300_lastensq starting 0.1 seconds late
2014-12-08 05:04:05,271 INFO     repeater     task nb300_lastensq ended after 2.1 seconds
2014-12-08 05:04:05,271 INFO     repeater     task nb300_lastensq: Time from /home/data/SP1411/proc/nb300/load/wrote_ens_time: 2014/12/08 05:03:53
2014-12-08 05:06:05,404 INFO     repeater     task nb300_lastensq starting 2.4 seconds late
2014-12-08 05:06:07,557 INFO     repeater     task nb300_lastensq ended after 2.2 seconds
2014-12-08 05:06:07,558 INFO     repeater     task nb300_lastensq: Time from /home/data/SP1411/proc/nb300/load/wrote_ens_time: 2014/12/08 05:05:53
2014-12-08 05:06:57,622 INFO     repeater     task ashtech_hcorrstats starting 4.3 seconds late
2014-12-08 05:06:58,577 INFO     repeater     task ashtech_hcorrstats ended after 1.0 seconds
2014-12-08 05:08:03,651 INFO     repeater     task nb300_lastensq starting 0.7 seconds late
2014-12-08 05:08:05,808 INFO     repeater     task nb300_lastensq ended after 2.2 seconds
2014-12-08 05:08:05,808 INFO     repeater     task nb300_lastensq: Time from /home/data/SP1411/proc/nb300/load/wrote_ens_time: 2014/12/08 05:07:53
2014-12-08 05:10:05,934 INFO     repeater     task nb300_lastensq starting 2.9 seconds late
2014-12-08 05:10:08,034 INFO     repeater     task nb300_lastensq ended after 2.1 seconds
2014-12-08 05:10:08,034 INFO     repeater     task nb300_lastensq: Time from /home/data/SP1411/proc/nb300/load/wrote_ens_time: 2014/12/08 05:09:53
2014-12-08 05:11:58,162 INFO     repeater     task nb300_beamplots starting 4.9 seconds late
2014-12-08 05:11:59,835 INFO     repeater     task nb300_beamplots output:
Starting procsetup

2014-12-08 05:11:59,836 INFO     repeater     task nb300_beamplots ended after 1.7 seconds
2014-12-08 05:11:59,836 INFO     repeater     task nb300_beamplots starting 6.6 seconds late
2014-12-08 05:12:01,442 INFO     repeater     task nb300_beamplots output:
Starting procsetup

2014-12-08 05:12:01,442 INFO     repeater     task nb300_beamplots ended after 1.6 seconds
2014-12-08 05:12:01,442 INFO     repeater     task ashtech_hcorrstats starting 8.2 seconds late
2014-12-08 05:12:02,387 INFO     repeater     task ashtech_hcorrstats ended after 0.9 seconds
2014-12-08 05:12:07,391 INFO     repeater     task nb300_lastensq starting 4.4 seconds late
2014-12-08 05:12:09,545 INFO     repeater     task nb300_lastensq ended after 2.2 seconds
2014-12-08 05:12:09,546 INFO     repeater     task nb300_lastensq: Time from /home/data/SP1411/proc/nb300/load/wrote_ens_time: 2014/12/08 05:11:53
2014-12-08 05:14:04,691 INFO     repeater     task nb300_lastensq starting 1.7 seconds late
2014-12-08 05:14:06,850 INFO     repeater     task nb300_lastensq ended after 2.2 seconds
2014-12-08 05:14:06,850 INFO     repeater     task nb300_lastensq: Time from /home/data/SP1411/proc/nb300/load/wrote_ens_time: 2014/12/08 05:13:53
2014-12-08 05:16:06,987 INFO     repeater     task nb300_lastensq starting 4.0 seconds late
2014-12-08 05:16:09,153 INFO     repeater     task nb300_lastensq ended after 2.2 seconds
2014-12-08 05:16:09,153 INFO     repeater     task nb300_lastensq: Time from /home/data/SP1411/proc/nb300/load/wrote_ens_time: 2014/12/08 05:15:53
2014-12-08 05:16:54,202 INFO     repeater     task ashtech_hcorrstats starting 0.9 seconds late
2014-12-08 05:16:55,138 INFO     repeater     task ashtech_hcorrstats ended after 0.9 seconds
2014-12-08 05:18:05,214 INFO     repeater     task nb300_lastensq starting 2.2 seconds late
2014-12-08 05:18:07,372 INFO     repeater     task nb300_lastensq ended after 2.2 seconds
2014-12-08 05:18:07,373 INFO     repeater     task nb300_lastensq: Time from /home/data/SP1411/proc/nb300/load/wrote_ens_time: 2014/12/08 05:17:53
2014-12-08 05:20:07,504 INFO     repeater     task nb300_lastensq starting 4.5 seconds late
2014-12-08 05:20:09,655 INFO     repeater     task nb300_lastensq ended after 2.2 seconds
2014-12-08 05:20:09,655 INFO     repeater     task nb300_lastensq: Time from /home/data/SP1411/proc/nb300/load/wrote_ens_time: 2014/12/08 05:19:53
2014-12-08 05:21:54,782 INFO     repeater     task nb300_beamplots starting 1.5 seconds late
2014-12-08 05:21:56,452 INFO     repeater     task nb300_beamplots output:
Starting procsetup

2014-12-08 05:21:56,453 INFO     repeater     task nb300_beamplots ended after 1.7 seconds
2014-12-08 05:21:56,453 INFO     repeater     task nb300_beamplots starting 3.2 seconds late
2014-12-08 05:21:58,080 INFO     repeater     task nb300_beamplots output:
Starting procsetup

2014-12-08 05:21:58,080 INFO     repeater     task nb300_beamplots ended after 1.6 seconds
2014-12-08 05:21:58,080 INFO     repeater     task ashtech_hcorrstats starting 4.8 seconds late
2014-12-08 05:21:59,006 INFO     repeater     task ashtech_hcorrstats ended after 0.9 seconds
2014-12-08 05:22:04,012 INFO     repeater     task nb300_lastensq starting 1.0 seconds late
2014-12-08 05:22:06,179 INFO     repeater     task nb300_lastensq ended after 2.2 seconds
2014-12-08 05:22:06,179 INFO     repeater     task nb300_lastensq: Time from /home/data/SP1411/proc/nb300/load/wrote_ens_time: 2014/12/08 05:21:53
2014-12-08 05:24:06,299 INFO     repeater     task nb300_lastensq starting 3.3 seconds late
2014-12-08 05:24:08,443 INFO     repeater     task nb300_lastensq ended after 2.1 seconds
2014-12-08 05:24:08,444 INFO     repeater     task nb300_lastensq: Time from /home/data/SP1411/proc/nb300/load/wrote_ens_time: 2014/12/08 05:23:53
2014-12-08 05:26:03,575 INFO     repeater     task nb300_lastensq starting 0.6 seconds late
2014-12-08 05:26:05,756 INFO     repeater     task nb300_lastensq ended after 2.2 seconds
2014-12-08 05:26:05,757 INFO     repeater     task nb300_lastensq: Time from /home/data/SP1411/proc/nb300/load/wrote_ens_time: 2014/12/08 05:25:53
2014-12-08 05:26:55,819 INFO     repeater     task ashtech_hcorrstats starting 2.5 seconds late
2014-12-08 05:26:56,762 INFO     repeater     task ashtech_hcorrstats ended after 0.9 seconds
2014-12-08 05:28:06,847 INFO     repeater     task nb300_lastensq starting 3.8 seconds late
2014-12-08 05:28:08,991 INFO     repeater     task nb300_lastensq ended after 2.1 seconds
2014-12-08 05:28:08,991 INFO     repeater     task nb300_lastensq: Time from /home/data/SP1411/proc/nb300/load/wrote_ens_time: 2014/12/08 05:27:53
2014-12-08 05:30:04,118 INFO     repeater     task nb300_lastensq starting 1.1 seconds late
2014-12-08 05:30:06,235 INFO     repeater     task nb300_lastensq ended after 2.1 seconds
2014-12-08 05:30:06,236 INFO     repeater     task nb300_lastensq: Time from /home/data/SP1411/proc/nb300/load/wrote_ens_time: 2014/12/08 05:29:53
2014-12-08 05:31:56,361 INFO     repeater     task nb300_quick starting 3.1 seconds late
2014-12-08 05:32:00,982 INFO     repeater     task nb300_quick ended after 4.6 seconds
2014-12-08 05:32:00,982 INFO     repeater     task nb300_3dayplots starting 7.7 seconds late
2014-12-08 05:32:06,099 INFO     repeater     task nb300_3dayplots ended after 5.1 seconds
2014-12-08 05:32:06,100 INFO     repeater     task nb300_beamplots starting 12.8 seconds late
2014-12-08 05:32:07,775 INFO     repeater     task nb300_beamplots output:
Starting procsetup

2014-12-08 05:32:07,775 INFO     repeater     task nb300_beamplots ended after 1.7 seconds
2014-12-08 05:32:07,775 INFO     repeater     task nb300_beamplots starting 14.5 seconds late
2014-12-08 05:32:09,482 INFO     repeater     task nb300_beamplots output:
Starting procsetup

2014-12-08 05:32:09,482 INFO     repeater     task nb300_beamplots ended after 1.7 seconds
2014-12-08 05:32:09,483 INFO     repeater     task ashtech_hcorrstats starting 16.2 seconds late
2014-12-08 05:32:10,409 INFO     repeater     task ashtech_hcorrstats ended after 0.9 seconds
2014-12-08 05:32:15,415 INFO     repeater     task nb300_lastensq starting 12.4 seconds late
2014-12-08 05:32:17,589 INFO     repeater     task nb300_lastensq ended after 2.2 seconds
2014-12-08 05:32:17,589 INFO     repeater     task nb300_lastensq: Time from /home/data/SP1411/proc/nb300/load/wrote_ens_time: 2014/12/08 05:31:53
2014-12-08 05:34:07,708 INFO     repeater     task nb300_lastensq starting 4.7 seconds late
2014-12-08 05:34:09,921 INFO     repeater     task nb300_lastensq ended after 2.2 seconds
2014-12-08 05:34:09,921 INFO     repeater     task nb300_lastensq: Time from /home/data/SP1411/proc/nb300/load/wrote_ens_time: 2014/12/08 05:33:53
2014-12-08 05:36:05,067 INFO     repeater     task nb300_lastensq starting 2.1 seconds late
2014-12-08 05:36:07,180 INFO     repeater     task nb300_lastensq ended after 2.1 seconds
2014-12-08 05:36:07,180 INFO     repeater     task nb300_lastensq: Time from /home/data/SP1411/proc/nb300/load/wrote_ens_time: 2014/12/08 05:35:53
2014-12-08 05:36:57,235 INFO     repeater     task ashtech_hcorrstats starting 4.0 seconds late
2014-12-08 05:36:58,184 INFO     repeater     task ashtech_hcorrstats ended after 0.9 seconds
2014-12-08 05:38:03,261 INFO     repeater     task nb300_lastensq starting 0.3 seconds late
2014-12-08 05:38:05,444 INFO     repeater     task nb300_lastensq ended after 2.2 seconds
2014-12-08 05:38:05,444 INFO     repeater     task nb300_lastensq: Time from /home/data/SP1411/proc/nb300/load/wrote_ens_time: 2014/12/08 05:37:53
2014-12-08 05:40:05,588 INFO     repeater     task nb300_lastensq starting 2.6 seconds late
2014-12-08 05:40:07,709 INFO     repeater     task nb300_lastensq ended after 2.1 seconds
2014-12-08 05:40:07,710 INFO     repeater     task nb300_lastensq: Time from /home/data/SP1411/proc/nb300/load/wrote_ens_time: 2014/12/08 05:39:53
2014-12-08 05:41:57,839 INFO     repeater     task nb300_beamplots starting 4.6 seconds late
2014-12-08 05:41:59,523 INFO     repeater     task nb300_beamplots output:
Starting procsetup

2014-12-08 05:41:59,523 INFO     repeater     task nb300_beamplots ended after 1.7 seconds
2014-12-08 05:41:59,524 INFO     repeater     task nb300_beamplots starting 6.3 seconds late
2014-12-08 05:42:01,177 INFO     repeater     task nb300_beamplots output:
Starting procsetup

2014-12-08 05:42:01,177 INFO     repeater     task nb300_beamplots ended after 1.7 seconds
2014-12-08 05:42:01,177 INFO     repeater     task ashtech_hcorrstats starting 7.9 seconds late
2014-12-08 05:42:02,116 INFO     repeater     task ashtech_hcorrstats ended after 0.9 seconds
2014-12-08 05:42:07,121 INFO     repeater     task nb300_lastensq starting 4.1 seconds late
2014-12-08 05:42:09,260 INFO     repeater     task nb300_lastensq ended after 2.1 seconds
2014-12-08 05:42:09,261 INFO     repeater     task nb300_lastensq: Time from /home/data/SP1411/proc/nb300/load/wrote_ens_time: 2014/12/08 05:41:53
2014-12-08 05:44:04,400 INFO     repeater     task nb300_lastensq starting 1.4 seconds late
2014-12-08 05:44:06,607 INFO     repeater     task nb300_lastensq ended after 2.2 seconds
2014-12-08 05:44:06,607 INFO     repeater     task nb300_lastensq: Time from /home/data/SP1411/proc/nb300/load/wrote_ens_time: 2014/12/08 05:43:53
2014-12-08 05:46:06,741 INFO     repeater     task nb300_lastensq starting 3.7 seconds late
2014-12-08 05:46:08,911 INFO     repeater     task nb300_lastensq ended after 2.2 seconds
2014-12-08 05:46:08,911 INFO     repeater     task nb300_lastensq: Time from /home/data/SP1411/proc/nb300/load/wrote_ens_time: 2014/12/08 05:45:53
2014-12-08 05:46:53,963 INFO     repeater     task ashtech_hcorrstats starting 0.7 seconds late
2014-12-08 05:46:54,915 INFO     repeater     task ashtech_hcorrstats ended after 1.0 seconds
2014-12-08 05:48:05,008 INFO     repeater     task nb300_lastensq starting 2.0 seconds late
2014-12-08 05:48:07,219 INFO     repeater     task nb300_lastensq ended after 2.2 seconds
2014-12-08 05:48:07,220 INFO     repeater     task nb300_lastensq: Time from /home/data/SP1411/proc/nb300/load/wrote_ens_time: 2014/12/08 05:47:53
2014-12-08 05:50:07,358 INFO     repeater     task nb300_lastensq starting 4.4 seconds late
2014-12-08 05:50:09,484 INFO     repeater     task nb300_lastensq ended after 2.1 seconds
2014-12-08 05:50:09,484 INFO     repeater     task nb300_lastensq: Time from /home/data/SP1411/proc/nb300/load/wrote_ens_time: 2014/12/08 05:49:53
2014-12-08 05:51:54,615 INFO     repeater     task nb300_beamplots starting 1.3 seconds late
2014-12-08 05:51:56,296 INFO     repeater     task nb300_beamplots output:
Starting procsetup

2014-12-08 05:51:56,297 INFO     repeater     task nb300_beamplots ended after 1.7 seconds
2014-12-08 05:51:56,297 INFO     repeater     task nb300_beamplots starting 3.0 seconds late
2014-12-08 05:51:58,054 INFO     repeater     task nb300_beamplots output:
Starting procsetup

2014-12-08 05:51:58,054 INFO     repeater     task nb300_beamplots ended after 1.8 seconds
2014-12-08 05:51:58,055 INFO     repeater     task ashtech_hcorrstats starting 4.8 seconds late
2014-12-08 05:51:58,988 INFO     repeater     task ashtech_hcorrstats ended after 0.9 seconds
2014-12-08 05:52:03,991 INFO     repeater     task nb300_lastensq starting 1.0 seconds late
2014-12-08 05:52:06,120 INFO     repeater     task nb300_lastensq ended after 2.1 seconds
2014-12-08 05:52:06,120 INFO     repeater     task nb300_lastensq: Time from /home/data/SP1411/proc/nb300/load/wrote_ens_time: 2014/12/08 05:51:53
2014-12-08 05:54:06,268 INFO     repeater     task nb300_lastensq starting 3.3 seconds late
2014-12-08 05:54:08,462 INFO     repeater     task nb300_lastensq ended after 2.2 seconds
2014-12-08 05:54:08,463 INFO     repeater     task nb300_lastensq: Time from /home/data/SP1411/proc/nb300/load/wrote_ens_time: 2014/12/08 05:53:53
2014-12-08 05:56:03,597 INFO     repeater     task nb300_lastensq starting 0.6 seconds late
2014-12-08 05:56:05,745 INFO     repeater     task nb300_lastensq ended after 2.1 seconds
2014-12-08 05:56:05,745 INFO     repeater     task nb300_lastensq: Time from /home/data/SP1411/proc/nb300/load/wrote_ens_time: 2014/12/08 05:55:53
2014-12-08 05:56:55,809 INFO     repeater     task ashtech_hcorrstats starting 2.5 seconds late
2014-12-08 05:56:56,745 INFO     repeater     task ashtech_hcorrstats ended after 0.9 seconds
2014-12-08 05:58:06,828 INFO     repeater     task nb300_lastensq starting 3.8 seconds late
2014-12-08 05:58:08,965 INFO     repeater     task nb300_lastensq ended after 2.1 seconds
2014-12-08 05:58:08,966 INFO     repeater     task nb300_lastensq: Time from /home/data/SP1411/proc/nb300/load/wrote_ens_time: 2014/12/08 05:57:53
2014-12-08 06:00:04,104 INFO     repeater     task nb300_lastensq starting 1.1 seconds late
2014-12-08 06:00:06,331 INFO     repeater     task nb300_lastensq ended after 2.2 seconds
2014-12-08 06:00:06,331 INFO     repeater     task nb300_lastensq: Time from /home/data/SP1411/proc/nb300/load/wrote_ens_time: 2014/12/08 05:59:53
2014-12-08 06:01:56,452 INFO     repeater     task nb300_quick starting 3.2 seconds late
2014-12-08 06:02:00,960 INFO     repeater     task nb300_quick ended after 4.5 seconds
2014-12-08 06:02:00,960 INFO     repeater     task nb300_3dayplots starting 7.7 seconds late
2014-12-08 06:02:06,022 INFO     repeater     task nb300_3dayplots ended after 5.1 seconds
2014-12-08 06:02:06,022 INFO     repeater     task nb300_beamplots starting 12.7 seconds late
2014-12-08 06:02:07,695 INFO     repeater     task nb300_beamplots output:
Starting procsetup

2014-12-08 06:02:07,695 INFO     repeater     task nb300_beamplots ended after 1.7 seconds
2014-12-08 06:02:07,695 INFO     repeater     task nb300_beamplots starting 14.4 seconds late
2014-12-08 06:02:09,309 INFO     repeater     task nb300_beamplots output:
Starting procsetup

2014-12-08 06:02:09,309 INFO     repeater     task nb300_beamplots ended after 1.6 seconds
2014-12-08 06:02:09,310 INFO     repeater     task ashtech_hcorrstats starting 16.0 seconds late
2014-12-08 06:02:10,230 INFO     repeater     task ashtech_hcorrstats ended after 0.9 seconds
2014-12-08 06:02:15,235 INFO     repeater     task nb300_lastensq starting 12.2 seconds late
2014-12-08 06:02:17,314 INFO     repeater     task nb300_lastensq ended after 2.1 seconds
2014-12-08 06:02:17,315 INFO     repeater     task nb300_lastensq: Time from /home/data/SP1411/proc/nb300/load/wrote_ens_time: 2014/12/08 06:01:53
2014-12-08 06:04:07,445 INFO     repeater     task nb300_lastensq starting 4.4 seconds late
2014-12-08 06:04:09,551 INFO     repeater     task nb300_lastensq ended after 2.1 seconds
2014-12-08 06:04:09,551 INFO     repeater     task nb300_lastensq: Time from /home/data/SP1411/proc/nb300/load/wrote_ens_time: 2014/12/08 06:03:53
2014-12-08 06:06:04,688 INFO     repeater     task nb300_lastensq starting 1.7 seconds late
2014-12-08 06:06:06,823 INFO     repeater     task nb300_lastensq ended after 2.1 seconds
2014-12-08 06:06:06,823 INFO     repeater     task nb300_lastensq: Time from /home/data/SP1411/proc/nb300/load/wrote_ens_time: 2014/12/08 06:05:53
2014-12-08 06:06:56,889 INFO     repeater     task ashtech_hcorrstats starting 3.6 seconds late
2014-12-08 06:06:57,815 INFO     repeater     task ashtech_hcorrstats ended after 0.9 seconds
2014-12-08 06:08:07,888 INFO     repeater     task nb300_lastensq starting 4.9 seconds late
2014-12-08 06:08:09,993 INFO     repeater     task nb300_lastensq ended after 2.1 seconds
2014-12-08 06:08:09,993 INFO     repeater     task nb300_lastensq: Time from /home/data/SP1411/proc/nb300/load/wrote_ens_time: 2014/12/08 06:07:53
2014-12-08 06:10:05,138 INFO     repeater     task nb300_lastensq starting 2.1 seconds late
2014-12-08 06:10:07,241 INFO     repeater     task nb300_lastensq ended after 2.1 seconds
2014-12-08 06:10:07,242 INFO     repeater     task nb300_lastensq: Time from /home/data/SP1411/proc/nb300/load/wrote_ens_time: 2014/12/08 06:09:53
2014-12-08 06:11:57,372 INFO     repeater     task nb300_beamplots starting 4.1 seconds late
2014-12-08 06:11:59,080 INFO     repeater     task nb300_beamplots output:
Starting procsetup

2014-12-08 06:11:59,080 INFO     repeater     task nb300_beamplots ended after 1.7 seconds
2014-12-08 06:11:59,081 INFO     repeater     task nb300_beamplots starting 5.8 seconds late
2014-12-08 06:12:00,812 INFO     repeater     task nb300_beamplots output:
Starting procsetup

2014-12-08 06:12:00,812 INFO     repeater     task nb300_beamplots ended after 1.7 seconds
2014-12-08 06:12:00,813 INFO     repeater     task ashtech_hcorrstats starting 7.5 seconds late
2014-12-08 06:12:01,745 INFO     repeater     task ashtech_hcorrstats ended after 0.9 seconds
2014-12-08 06:12:06,751 INFO     repeater     task nb300_lastensq starting 3.8 seconds late
2014-12-08 06:12:08,822 INFO     repeater     task nb300_lastensq ended after 2.1 seconds
2014-12-08 06:12:08,823 INFO     repeater     task nb300_lastensq: Time from /home/data/SP1411/proc/nb300/load/wrote_ens_time: 2014/12/08 06:11:53
2014-12-08 06:14:03,956 INFO     repeater     task nb300_lastensq starting 1.0 seconds late
2014-12-08 06:14:06,068 INFO     repeater     task nb300_lastensq ended after 2.1 seconds
2014-12-08 06:14:06,069 INFO     repeater     task nb300_lastensq: Time from /home/data/SP1411/proc/nb300/load/wrote_ens_time: 2014/12/08 06:13:53
2014-12-08 06:16:06,201 INFO     repeater     task nb300_lastensq starting 3.2 seconds late
2014-12-08 06:16:08,336 INFO     repeater     task nb300_lastensq ended after 2.1 seconds
2014-12-08 06:16:08,337 INFO     repeater     task nb300_lastensq: Time from /home/data/SP1411/proc/nb300/load/wrote_ens_time: 2014/12/08 06:15:53
2014-12-08 06:16:53,392 INFO     repeater     task ashtech_hcorrstats starting 0.1 seconds late
2014-12-08 06:16:54,323 INFO     repeater     task ashtech_hcorrstats ended after 0.9 seconds
2014-12-08 06:18:04,404 INFO     repeater     task nb300_lastensq starting 1.4 seconds late
2014-12-08 06:18:06,471 INFO     repeater     task nb300_lastensq ended after 2.1 seconds
2014-12-08 06:18:06,472 INFO     repeater     task nb300_lastensq: Time from /home/data/SP1411/proc/nb300/load/wrote_ens_time: 2014/12/08 06:17:53
2014-12-08 06:20:06,615 INFO     repeater     task nb300_lastensq starting 3.6 seconds late
2014-12-08 06:20:08,734 INFO     repeater     task nb300_lastensq ended after 2.1 seconds
2014-12-08 06:20:08,734 INFO     repeater     task nb300_lastensq: Time from /home/data/SP1411/proc/nb300/load/wrote_ens_time: 2014/12/08 06:19:53
2014-12-08 06:21:53,858 INFO     repeater     task nb300_beamplots starting 0.6 seconds late
2014-12-08 06:21:55,459 INFO     repeater     task nb300_beamplots output:
Starting procsetup

2014-12-08 06:21:55,460 INFO     repeater     task nb300_beamplots ended after 1.6 seconds
2014-12-08 06:21:55,460 INFO     repeater     task nb300_beamplots starting 2.2 seconds late
2014-12-08 06:21:57,185 INFO     repeater     task nb300_beamplots output:
Starting procsetup

2014-12-08 06:21:57,185 INFO     repeater     task nb300_beamplots ended after 1.7 seconds
2014-12-08 06:21:57,186 INFO     repeater     task ashtech_hcorrstats starting 3.9 seconds late
2014-12-08 06:21:58,105 INFO     repeater     task ashtech_hcorrstats ended after 0.9 seconds
2014-12-08 06:22:03,111 INFO     repeater     task nb300_lastensq starting 0.1 seconds late
2014-12-08 06:22:05,183 INFO     repeater     task nb300_lastensq ended after 2.1 seconds
2014-12-08 06:22:05,183 INFO     repeater     task nb300_lastensq: Time from /home/data/SP1411/proc/nb300/load/wrote_ens_time: 2014/12/08 06:21:53
2014-12-08 06:24:05,326 INFO     repeater     task nb300_lastensq starting 2.3 seconds late
2014-12-08 06:24:07,456 INFO     repeater     task nb300_lastensq ended after 2.1 seconds
2014-12-08 06:24:07,457 INFO     repeater     task nb300_lastensq: Time from /home/data/SP1411/proc/nb300/load/wrote_ens_time: 2014/12/08 06:23:53
2014-12-08 06:26:07,600 INFO     repeater     task nb300_lastensq starting 4.6 seconds late
2014-12-08 06:26:09,676 INFO     repeater     task nb300_lastensq ended after 2.1 seconds
2014-12-08 06:26:09,677 INFO     repeater     task nb300_lastensq: Time from /home/data/SP1411/proc/nb300/load/wrote_ens_time: 2014/12/08 06:25:53
2014-12-08 06:26:54,732 INFO     repeater     task ashtech_hcorrstats starting 1.5 seconds late
2014-12-08 06:26:55,676 INFO     repeater     task ashtech_hcorrstats ended after 0.9 seconds
2014-12-08 06:28:05,755 INFO     repeater     task nb300_lastensq starting 2.8 seconds late
2014-12-08 06:28:07,876 INFO     repeater     task nb300_lastensq ended after 2.1 seconds
2014-12-08 06:28:07,876 INFO     repeater     task nb300_lastensq: Time from /home/data/SP1411/proc/nb300/load/wrote_ens_time: 2014/12/08 06:27:53
2014-12-08 06:30:03,009 INFO     repeater     task nb300_lastensq starting 0.0 seconds late
2014-12-08 06:30:05,169 INFO     repeater     task nb300_lastensq ended after 2.2 seconds
2014-12-08 06:30:05,169 INFO     repeater     task nb300_lastensq: Time from /home/data/SP1411/proc/nb300/load/wrote_ens_time: 2014/12/08 06:29:53
2014-12-08 06:31:55,281 INFO     repeater     task nb300_quick starting 2.0 seconds late
2014-12-08 06:31:59,759 INFO     repeater     task nb300_quick ended after 4.5 seconds
2014-12-08 06:31:59,759 INFO     repeater     task nb300_3dayplots starting 6.5 seconds late
2014-12-08 06:32:04,895 INFO     repeater     task nb300_3dayplots ended after 5.1 seconds
2014-12-08 06:32:04,896 INFO     repeater     task nb300_beamplots starting 11.6 seconds late
2014-12-08 06:32:06,570 INFO     repeater     task nb300_beamplots output:
Starting procsetup

2014-12-08 06:32:06,570 INFO     repeater     task nb300_beamplots ended after 1.7 seconds
2014-12-08 06:32:06,570 INFO     repeater     task nb300_beamplots starting 13.3 seconds late
2014-12-08 06:32:08,282 INFO     repeater     task nb300_beamplots output:
Starting procsetup

2014-12-08 06:32:08,283 INFO     repeater     task nb300_beamplots ended after 1.7 seconds
2014-12-08 06:32:08,283 INFO     repeater     task ashtech_hcorrstats starting 15.0 seconds late
2014-12-08 06:32:09,228 INFO     repeater     task ashtech_hcorrstats ended after 0.9 seconds
2014-12-08 06:32:14,231 INFO     repeater     task nb300_lastensq starting 11.2 seconds late
2014-12-08 06:32:16,331 INFO     repeater     task nb300_lastensq ended after 2.1 seconds
2014-12-08 06:32:16,331 INFO     repeater     task nb300_lastensq: Time from /home/data/SP1411/proc/nb300/load/wrote_ens_time: 2014/12/08 06:31:53
2014-12-08 06:34:06,451 INFO     repeater     task nb300_lastensq starting 3.5 seconds late
2014-12-08 06:34:08,524 INFO     repeater     task nb300_lastensq ended after 2.1 seconds
