2014-12-06 23:48:07,872 INFO     repeater     task nb300_lastensq starting 4.9 seconds late
2014-12-06 23:48:10,064 INFO     repeater     task nb300_lastensq ended after 2.2 seconds
2014-12-06 23:48:10,064 INFO     repeater     task nb300_lastensq: Time from /home/data/SP1411/proc/nb300/load/wrote_ens_time: 2014/12/06 23:47:53
2014-12-06 23:50:05,187 INFO     repeater     task nb300_lastensq starting 2.2 seconds late
2014-12-06 23:50:07,376 INFO     repeater     task nb300_lastensq ended after 2.2 seconds
2014-12-06 23:50:07,377 INFO     repeater     task nb300_lastensq: Time from /home/data/SP1411/proc/nb300/load/wrote_ens_time: 2014/12/06 23:49:53
2014-12-06 23:51:57,502 INFO     repeater     task nb300_beamplots starting 4.2 seconds late
2014-12-06 23:51:59,175 INFO     repeater     task nb300_beamplots output:
Starting procsetup

2014-12-06 23:51:59,175 INFO     repeater     task nb300_beamplots ended after 1.7 seconds
2014-12-06 23:51:59,175 INFO     repeater     task nb300_beamplots starting 5.9 seconds late
2014-12-06 23:52:00,790 INFO     repeater     task nb300_beamplots output:
Starting procsetup

2014-12-06 23:52:00,790 INFO     repeater     task nb300_beamplots ended after 1.6 seconds
2014-12-06 23:52:00,791 INFO     repeater     task ashtech_hcorrstats starting 7.5 seconds late
2014-12-06 23:52:01,689 INFO     repeater     task ashtech_hcorrstats ended after 0.9 seconds
2014-12-06 23:52:06,694 INFO     repeater     task nb300_lastensq starting 3.7 seconds late
2014-12-06 23:52:08,818 INFO     repeater     task nb300_lastensq ended after 2.1 seconds
2014-12-06 23:52:08,819 INFO     repeater     task nb300_lastensq: Time from /home/data/SP1411/proc/nb300/load/wrote_ens_time: 2014/12/06 23:51:53
2014-12-06 23:54:03,959 INFO     repeater     task nb300_lastensq starting 1.0 seconds late
2014-12-06 23:54:06,087 INFO     repeater     task nb300_lastensq ended after 2.1 seconds
2014-12-06 23:54:06,087 INFO     repeater     task nb300_lastensq: Time from /home/data/SP1411/proc/nb300/load/wrote_ens_time: 2014/12/06 23:53:53
2014-12-06 23:56:06,234 INFO     repeater     task nb300_lastensq starting 3.2 seconds late
2014-12-06 23:56:08,372 INFO     repeater     task nb300_lastensq ended after 2.1 seconds
2014-12-06 23:56:08,373 INFO     repeater     task nb300_lastensq: Time from /home/data/SP1411/proc/nb300/load/wrote_ens_time: 2014/12/06 23:55:53
2014-12-06 23:56:53,431 INFO     repeater     task ashtech_hcorrstats starting 0.2 seconds late
2014-12-06 23:56:54,325 INFO     repeater     task ashtech_hcorrstats ended after 0.9 seconds
2014-12-06 23:58:04,407 INFO     repeater     task nb300_lastensq starting 1.4 seconds late
2014-12-06 23:58:06,620 INFO     repeater     task nb300_lastensq ended after 2.2 seconds
2014-12-06 23:58:06,620 INFO     repeater     task nb300_lastensq: Time from /home/data/SP1411/proc/nb300/load/wrote_ens_time: 2014/12/06 23:57:53
2014-12-07 00:00:06,761 INFO     repeater     task nb300_lastensq starting 3.8 seconds late
2014-12-07 00:00:08,942 INFO     repeater     task nb300_lastensq ended after 2.2 seconds
2014-12-07 00:00:08,942 INFO     repeater     task nb300_lastensq: Time from /home/data/SP1411/proc/nb300/load/wrote_ens_time: 2014/12/06 23:59:53
2014-12-07 00:01:54,057 INFO     repeater     task nb300_quick starting 0.8 seconds late
2014-12-07 00:01:57,432 INFO     repeater     task nb300_quick ended after 3.4 seconds
2014-12-07 00:01:57,432 INFO     repeater     task nb300_3dayplots starting 4.2 seconds late
2014-12-07 00:02:01,397 INFO     repeater     task nb300_3dayplots ended after 4.0 seconds
2014-12-07 00:02:01,397 INFO     repeater     task nb300_beamplots starting 8.1 seconds late
2014-12-07 00:02:03,087 INFO     repeater     task nb300_beamplots output:
Starting procsetup

2014-12-07 00:02:03,087 INFO     repeater     task nb300_beamplots ended after 1.7 seconds
2014-12-07 00:02:03,088 INFO     repeater     task nb300_beamplots starting 9.8 seconds late
2014-12-07 00:02:04,818 INFO     repeater     task nb300_beamplots output:
Starting procsetup

2014-12-07 00:02:04,818 INFO     repeater     task nb300_beamplots ended after 1.7 seconds
2014-12-07 00:02:04,818 INFO     repeater     task ashtech_hcorrstats starting 11.5 seconds late
2014-12-07 00:02:05,713 INFO     repeater     task ashtech_hcorrstats ended after 0.9 seconds
2014-12-07 00:02:10,719 INFO     repeater     task nb300_lastensq starting 7.7 seconds late
2014-12-07 00:02:12,782 INFO     repeater     task nb300_lastensq ended after 2.1 seconds
2014-12-07 00:02:12,783 INFO     repeater     task nb300_lastensq: Time from /home/data/SP1411/proc/nb300/load/wrote_ens_time: 2014/12/07 00:01:53
2014-12-07 00:04:07,914 INFO     repeater     task nb300_lastensq starting 4.9 seconds late
2014-12-07 00:04:10,015 INFO     repeater     task nb300_lastensq ended after 2.1 seconds
2014-12-07 00:04:10,015 INFO     repeater     task nb300_lastensq: Time from /home/data/SP1411/proc/nb300/load/wrote_ens_time: 2014/12/07 00:03:53
2014-12-07 00:06:05,148 INFO     repeater     task nb300_lastensq starting 2.1 seconds late
2014-12-07 00:06:07,238 INFO     repeater     task nb300_lastensq ended after 2.1 seconds
2014-12-07 00:06:07,238 INFO     repeater     task nb300_lastensq: Time from /home/data/SP1411/proc/nb300/load/wrote_ens_time: 2014/12/07 00:05:53
2014-12-07 00:06:57,299 INFO     repeater     task ashtech_hcorrstats starting 4.0 seconds late
2014-12-07 00:06:58,194 INFO     repeater     task ashtech_hcorrstats ended after 0.9 seconds
2014-12-07 00:08:03,270 INFO     repeater     task nb300_lastensq starting 0.3 seconds late
2014-12-07 00:08:05,373 INFO     repeater     task nb300_lastensq ended after 2.1 seconds
2014-12-07 00:08:05,373 INFO     repeater     task nb300_lastensq: Time from /home/data/SP1411/proc/nb300/load/wrote_ens_time: 2014/12/07 00:07:53
2014-12-07 00:10:05,511 INFO     repeater     task nb300_lastensq starting 2.5 seconds late
2014-12-07 00:10:07,581 INFO     repeater     task nb300_lastensq ended after 2.1 seconds
2014-12-07 00:10:07,581 INFO     repeater     task nb300_lastensq: Time from /home/data/SP1411/proc/nb300/load/wrote_ens_time: 2014/12/07 00:09:53
2014-12-07 00:11:57,715 INFO     repeater     task nb300_beamplots starting 4.4 seconds late
2014-12-07 00:11:59,388 INFO     repeater     task nb300_beamplots output:
Starting procsetup

2014-12-07 00:11:59,388 INFO     repeater     task nb300_beamplots ended after 1.7 seconds
2014-12-07 00:11:59,388 INFO     repeater     task nb300_beamplots starting 6.1 seconds late
2014-12-07 00:12:01,107 INFO     repeater     task nb300_beamplots output:
Starting procsetup

2014-12-07 00:12:01,107 INFO     repeater     task nb300_beamplots ended after 1.7 seconds
2014-12-07 00:12:01,108 INFO     repeater     task ashtech_hcorrstats starting 7.8 seconds late
2014-12-07 00:12:02,005 INFO     repeater     task ashtech_hcorrstats ended after 0.9 seconds
2014-12-07 00:12:07,011 INFO     repeater     task nb300_lastensq starting 4.0 seconds late
2014-12-07 00:12:09,072 INFO     repeater     task nb300_lastensq ended after 2.1 seconds
2014-12-07 00:12:09,073 INFO     repeater     task nb300_lastensq: Time from /home/data/SP1411/proc/nb300/load/wrote_ens_time: 2014/12/07 00:11:53
2014-12-07 00:14:04,211 INFO     repeater     task nb300_lastensq starting 1.2 seconds late
2014-12-07 00:14:06,336 INFO     repeater     task nb300_lastensq ended after 2.1 seconds
2014-12-07 00:14:06,337 INFO     repeater     task nb300_lastensq: Time from /home/data/SP1411/proc/nb300/load/wrote_ens_time: 2014/12/07 00:13:53
2014-12-07 00:16:06,471 INFO     repeater     task nb300_lastensq starting 3.5 seconds late
2014-12-07 00:16:08,590 INFO     repeater     task nb300_lastensq ended after 2.1 seconds
2014-12-07 00:16:08,591 INFO     repeater     task nb300_lastensq: Time from /home/data/SP1411/proc/nb300/load/wrote_ens_time: 2014/12/07 00:15:53
2014-12-07 00:16:53,642 INFO     repeater     task ashtech_hcorrstats starting 0.4 seconds late
2014-12-07 00:16:54,537 INFO     repeater     task ashtech_hcorrstats ended after 0.9 seconds
2014-12-07 00:18:04,627 INFO     repeater     task nb300_lastensq starting 1.6 seconds late
2014-12-07 00:18:06,687 INFO     repeater     task nb300_lastensq ended after 2.1 seconds
2014-12-07 00:18:06,688 INFO     repeater     task nb300_lastensq: Time from /home/data/SP1411/proc/nb300/load/wrote_ens_time: 2014/12/07 00:17:53
2014-12-07 00:20:06,830 INFO     repeater     task nb300_lastensq starting 3.8 seconds late
2014-12-07 00:20:08,908 INFO     repeater     task nb300_lastensq ended after 2.1 seconds
2014-12-07 00:20:08,909 INFO     repeater     task nb300_lastensq: Time from /home/data/SP1411/proc/nb300/load/wrote_ens_time: 2014/12/07 00:19:53
2014-12-07 00:21:54,034 INFO     repeater     task nb300_beamplots starting 0.8 seconds late
2014-12-07 00:21:55,700 INFO     repeater     task nb300_beamplots output:
Starting procsetup

2014-12-07 00:21:55,701 INFO     repeater     task nb300_beamplots ended after 1.7 seconds
2014-12-07 00:21:55,701 INFO     repeater     task nb300_beamplots starting 2.4 seconds late
2014-12-07 00:21:57,327 INFO     repeater     task nb300_beamplots output:
Starting procsetup

2014-12-07 00:21:57,327 INFO     repeater     task nb300_beamplots ended after 1.6 seconds
2014-12-07 00:21:57,327 INFO     repeater     task ashtech_hcorrstats starting 4.1 seconds late
2014-12-07 00:21:58,219 INFO     repeater     task ashtech_hcorrstats ended after 0.9 seconds
2014-12-07 00:22:03,224 INFO     repeater     task nb300_lastensq starting 0.2 seconds late
2014-12-07 00:22:05,314 INFO     repeater     task nb300_lastensq ended after 2.1 seconds
2014-12-07 00:22:05,315 INFO     repeater     task nb300_lastensq: Time from /home/data/SP1411/proc/nb300/load/wrote_ens_time: 2014/12/07 00:21:53
2014-12-07 00:24:05,454 INFO     repeater     task nb300_lastensq starting 2.5 seconds late
2014-12-07 00:24:07,576 INFO     repeater     task nb300_lastensq ended after 2.1 seconds
2014-12-07 00:24:07,576 INFO     repeater     task nb300_lastensq: Time from /home/data/SP1411/proc/nb300/load/wrote_ens_time: 2014/12/07 00:23:53
2014-12-07 00:26:07,720 INFO     repeater     task nb300_lastensq starting 4.7 seconds late
2014-12-07 00:26:09,793 INFO     repeater     task nb300_lastensq ended after 2.1 seconds
2014-12-07 00:26:09,793 INFO     repeater     task nb300_lastensq: Time from /home/data/SP1411/proc/nb300/load/wrote_ens_time: 2014/12/07 00:25:53
2014-12-07 00:26:54,854 INFO     repeater     task ashtech_hcorrstats starting 1.6 seconds late
2014-12-07 00:26:55,764 INFO     repeater     task ashtech_hcorrstats ended after 0.9 seconds
2014-12-07 00:28:05,846 INFO     repeater     task nb300_lastensq starting 2.8 seconds late
2014-12-07 00:28:07,922 INFO     repeater     task nb300_lastensq ended after 2.1 seconds
2014-12-07 00:28:07,923 INFO     repeater     task nb300_lastensq: Time from /home/data/SP1411/proc/nb300/load/wrote_ens_time: 2014/12/07 00:27:53
2014-12-07 00:30:03,051 INFO     repeater     task nb300_lastensq starting 0.1 seconds late
2014-12-07 00:30:05,163 INFO     repeater     task nb300_lastensq ended after 2.1 seconds
2014-12-07 00:30:05,164 INFO     repeater     task nb300_lastensq: Time from /home/data/SP1411/proc/nb300/load/wrote_ens_time: 2014/12/07 00:29:53
2014-12-07 00:31:55,297 INFO     repeater     task nb300_quick starting 2.1 seconds late
2014-12-07 00:31:59,275 INFO     repeater     task nb300_quick ended after 4.0 seconds
2014-12-07 00:31:59,275 INFO     repeater     task nb300_3dayplots starting 6.0 seconds late
2014-12-07 00:32:03,665 INFO     repeater     task nb300_3dayplots ended after 4.4 seconds
2014-12-07 00:32:03,665 INFO     repeater     task nb300_beamplots starting 10.4 seconds late
2014-12-07 00:32:05,321 INFO     repeater     task nb300_beamplots output:
Starting procsetup

2014-12-07 00:32:05,321 INFO     repeater     task nb300_beamplots ended after 1.7 seconds
2014-12-07 00:32:05,321 INFO     repeater     task nb300_beamplots starting 12.0 seconds late
2014-12-07 00:32:07,040 INFO     repeater     task nb300_beamplots output:
Starting procsetup

2014-12-07 00:32:07,040 INFO     repeater     task nb300_beamplots ended after 1.7 seconds
2014-12-07 00:32:07,040 INFO     repeater     task ashtech_hcorrstats starting 13.8 seconds late
2014-12-07 00:32:07,933 INFO     repeater     task ashtech_hcorrstats ended after 0.9 seconds
2014-12-07 00:32:12,939 INFO     repeater     task nb300_lastensq starting 9.9 seconds late
2014-12-07 00:32:15,058 INFO     repeater     task nb300_lastensq ended after 2.1 seconds
2014-12-07 00:32:15,059 INFO     repeater     task nb300_lastensq: Time from /home/data/SP1411/proc/nb300/load/wrote_ens_time: 2014/12/07 00:31:53
2014-12-07 00:34:05,187 INFO     repeater     task nb300_lastensq starting 2.2 seconds late
2014-12-07 00:34:07,344 INFO     repeater     task nb300_lastensq ended after 2.2 seconds
2014-12-07 00:34:07,345 INFO     repeater     task nb300_lastensq: Time from /home/data/SP1411/proc/nb300/load/wrote_ens_time: 2014/12/07 00:33:53
2014-12-07 00:36:07,483 INFO     repeater     task nb300_lastensq starting 4.5 seconds late
2014-12-07 00:36:09,619 INFO     repeater     task nb300_lastensq ended after 2.1 seconds
2014-12-07 00:36:09,619 INFO     repeater     task nb300_lastensq: Time from /home/data/SP1411/proc/nb300/load/wrote_ens_time: 2014/12/07 00:35:53
2014-12-07 00:36:54,669 INFO     repeater     task ashtech_hcorrstats starting 1.4 seconds late
2014-12-07 00:36:55,579 INFO     repeater     task ashtech_hcorrstats ended after 0.9 seconds
2014-12-07 00:38:05,661 INFO     repeater     task nb300_lastensq starting 2.7 seconds late
2014-12-07 00:38:07,757 INFO     repeater     task nb300_lastensq ended after 2.1 seconds
2014-12-07 00:38:07,757 INFO     repeater     task nb300_lastensq: Time from /home/data/SP1411/proc/nb300/load/wrote_ens_time: 2014/12/07 00:37:53
2014-12-07 00:40:07,901 INFO     repeater     task nb300_lastensq starting 4.9 seconds late
2014-12-07 00:40:10,033 INFO     repeater     task nb300_lastensq ended after 2.1 seconds
2014-12-07 00:40:10,033 INFO     repeater     task nb300_lastensq: Time from /home/data/SP1411/proc/nb300/load/wrote_ens_time: 2014/12/07 00:39:53
2014-12-07 00:41:55,155 INFO     repeater     task nb300_beamplots starting 1.9 seconds late
2014-12-07 00:41:56,845 INFO     repeater     task nb300_beamplots output:
Starting procsetup

2014-12-07 00:41:56,845 INFO     repeater     task nb300_beamplots ended after 1.7 seconds
2014-12-07 00:41:56,845 INFO     repeater     task nb300_beamplots starting 3.6 seconds late
2014-12-07 00:41:58,574 INFO     repeater     task nb300_beamplots output:
Starting procsetup

2014-12-07 00:41:58,575 INFO     repeater     task nb300_beamplots ended after 1.7 seconds
2014-12-07 00:41:58,575 INFO     repeater     task ashtech_hcorrstats starting 5.3 seconds late
2014-12-07 00:41:59,477 INFO     repeater     task ashtech_hcorrstats ended after 0.9 seconds
2014-12-07 00:42:04,483 INFO     repeater     task nb300_lastensq starting 1.5 seconds late
2014-12-07 00:42:06,550 INFO     repeater     task nb300_lastensq ended after 2.1 seconds
2014-12-07 00:42:06,551 INFO     repeater     task nb300_lastensq: Time from /home/data/SP1411/proc/nb300/load/wrote_ens_time: 2014/12/07 00:41:53
2014-12-07 00:44:06,695 INFO     repeater     task nb300_lastensq starting 3.7 seconds late
2014-12-07 00:44:08,818 INFO     repeater     task nb300_lastensq ended after 2.1 seconds
2014-12-07 00:44:08,818 INFO     repeater     task nb300_lastensq: Time from /home/data/SP1411/proc/nb300/load/wrote_ens_time: 2014/12/07 00:43:53
2014-12-07 00:46:03,940 INFO     repeater     task nb300_lastensq starting 0.9 seconds late
2014-12-07 00:46:06,058 INFO     repeater     task nb300_lastensq ended after 2.1 seconds
2014-12-07 00:46:06,058 INFO     repeater     task nb300_lastensq: Time from /home/data/SP1411/proc/nb300/load/wrote_ens_time: 2014/12/07 00:45:53
2014-12-07 00:46:56,112 INFO     repeater     task ashtech_hcorrstats starting 2.8 seconds late
2014-12-07 00:46:57,007 INFO     repeater     task ashtech_hcorrstats ended after 0.9 seconds
2014-12-07 00:48:07,084 INFO     repeater     task nb300_lastensq starting 4.1 seconds late
2014-12-07 00:48:09,220 INFO     repeater     task nb300_lastensq ended after 2.1 seconds
2014-12-07 00:48:09,221 INFO     repeater     task nb300_lastensq: Time from /home/data/SP1411/proc/nb300/load/wrote_ens_time: 2014/12/07 00:47:53
2014-12-07 00:50:04,351 INFO     repeater     task nb300_lastensq starting 1.4 seconds late
2014-12-07 00:50:06,459 INFO     repeater     task nb300_lastensq ended after 2.1 seconds
2014-12-07 00:50:06,459 INFO     repeater     task nb300_lastensq: Time from /home/data/SP1411/proc/nb300/load/wrote_ens_time: 2014/12/07 00:49:53
2014-12-07 00:51:56,588 INFO     repeater     task nb300_beamplots starting 3.3 seconds late
2014-12-07 00:51:58,168 INFO     repeater     task nb300_beamplots output:
Starting procsetup

2014-12-07 00:51:58,169 INFO     repeater     task nb300_beamplots ended after 1.6 seconds
2014-12-07 00:51:58,169 INFO     repeater     task nb300_beamplots starting 4.9 seconds late
2014-12-07 00:51:59,898 INFO     repeater     task nb300_beamplots output:
Starting procsetup

2014-12-07 00:51:59,898 INFO     repeater     task nb300_beamplots ended after 1.7 seconds
2014-12-07 00:51:59,898 INFO     repeater     task ashtech_hcorrstats starting 6.6 seconds late
2014-12-07 00:52:00,794 INFO     repeater     task ashtech_hcorrstats ended after 0.9 seconds
2014-12-07 00:52:05,800 INFO     repeater     task nb300_lastensq starting 2.8 seconds late
2014-12-07 00:52:07,900 INFO     repeater     task nb300_lastensq ended after 2.1 seconds
2014-12-07 00:52:07,900 INFO     repeater     task nb300_lastensq: Time from /home/data/SP1411/proc/nb300/load/wrote_ens_time: 2014/12/07 00:51:53
2014-12-07 00:54:03,031 INFO     repeater     task nb300_lastensq starting 0.0 seconds late
2014-12-07 00:54:05,124 INFO     repeater     task nb300_lastensq ended after 2.1 seconds
2014-12-07 00:54:05,125 INFO     repeater     task nb300_lastensq: Time from /home/data/SP1411/proc/nb300/load/wrote_ens_time: 2014/12/07 00:53:53
2014-12-07 00:56:05,265 INFO     repeater     task nb300_lastensq starting 2.3 seconds late
2014-12-07 00:56:07,400 INFO     repeater     task nb300_lastensq ended after 2.1 seconds
2014-12-07 00:56:07,400 INFO     repeater     task nb300_lastensq: Time from /home/data/SP1411/proc/nb300/load/wrote_ens_time: 2014/12/07 00:55:53
2014-12-07 00:56:57,452 INFO     repeater     task ashtech_hcorrstats starting 4.2 seconds late
2014-12-07 00:56:58,356 INFO     repeater     task ashtech_hcorrstats ended after 0.9 seconds
2014-12-07 00:58:03,427 INFO     repeater     task nb300_lastensq starting 0.4 seconds late
2014-12-07 00:58:05,512 INFO     repeater     task nb300_lastensq ended after 2.1 seconds
2014-12-07 00:58:05,512 INFO     repeater     task nb300_lastensq: Time from /home/data/SP1411/proc/nb300/load/wrote_ens_time: 2014/12/07 00:57:53
2014-12-07 01:00:05,651 INFO     repeater     task nb300_lastensq starting 2.7 seconds late
2014-12-07 01:00:07,756 INFO     repeater     task nb300_lastensq ended after 2.1 seconds
2014-12-07 01:00:07,757 INFO     repeater     task nb300_lastensq: Time from /home/data/SP1411/proc/nb300/load/wrote_ens_time: 2014/12/07 00:59:53
2014-12-07 01:01:57,888 INFO     repeater     task nb300_quick starting 4.6 seconds late
2014-12-07 01:02:01,867 INFO     repeater     task nb300_quick ended after 4.0 seconds
2014-12-07 01:02:01,867 INFO     repeater     task nb300_3dayplots starting 8.6 seconds late
2014-12-07 01:02:06,234 INFO     repeater     task nb300_3dayplots ended after 4.4 seconds
2014-12-07 01:02:06,235 INFO     repeater     task nb300_beamplots starting 13.0 seconds late
2014-12-07 01:02:07,902 INFO     repeater     task nb300_beamplots output:
Starting procsetup

2014-12-07 01:02:07,903 INFO     repeater     task nb300_beamplots ended after 1.7 seconds
2014-12-07 01:02:07,903 INFO     repeater     task nb300_beamplots starting 14.6 seconds late
2014-12-07 01:02:09,624 INFO     repeater     task nb300_beamplots output:
Starting procsetup

2014-12-07 01:02:09,624 INFO     repeater     task nb300_beamplots ended after 1.7 seconds
2014-12-07 01:02:09,625 INFO     repeater     task ashtech_hcorrstats starting 16.4 seconds late
2014-12-07 01:02:10,523 INFO     repeater     task ashtech_hcorrstats ended after 0.9 seconds
2014-12-07 01:02:15,529 INFO     repeater     task nb300_lastensq starting 12.5 seconds late
2014-12-07 01:02:17,663 INFO     repeater     task nb300_lastensq ended after 2.1 seconds
2014-12-07 01:02:17,664 INFO     repeater     task nb300_lastensq: Time from /home/data/SP1411/proc/nb300/load/wrote_ens_time: 2014/12/07 01:01:53
2014-12-07 01:04:07,792 INFO     repeater     task nb300_lastensq starting 4.8 seconds late
2014-12-07 01:04:09,877 INFO     repeater     task nb300_lastensq ended after 2.1 seconds
2014-12-07 01:04:09,878 INFO     repeater     task nb300_lastensq: Time from /home/data/SP1411/proc/nb300/load/wrote_ens_time: 2014/12/07 01:03:53
2014-12-07 01:06:05,021 INFO     repeater     task nb300_lastensq starting 2.0 seconds late
2014-12-07 01:06:07,149 INFO     repeater     task nb300_lastensq ended after 2.1 seconds
2014-12-07 01:06:07,150 INFO     repeater     task nb300_lastensq: Time from /home/data/SP1411/proc/nb300/load/wrote_ens_time: 2014/12/07 01:05:53
2014-12-07 01:06:57,209 INFO     repeater     task ashtech_hcorrstats starting 3.9 seconds late
2014-12-07 01:06:58,105 INFO     repeater     task ashtech_hcorrstats ended after 0.9 seconds
2014-12-07 01:08:03,184 INFO     repeater     task nb300_lastensq starting 0.2 seconds late
2014-12-07 01:08:05,329 INFO     repeater     task nb300_lastensq ended after 2.1 seconds
2014-12-07 01:08:05,329 INFO     repeater     task nb300_lastensq: Time from /home/data/SP1411/proc/nb300/load/wrote_ens_time: 2014/12/07 01:07:53
2014-12-07 01:10:05,458 INFO     repeater     task nb300_lastensq starting 2.5 seconds late
2014-12-07 01:10:07,610 INFO     repeater     task nb300_lastensq ended after 2.2 seconds
2014-12-07 01:10:07,610 INFO     repeater     task nb300_lastensq: Time from /home/data/SP1411/proc/nb300/load/wrote_ens_time: 2014/12/07 01:09:53
2014-12-07 01:11:57,742 INFO     repeater     task nb300_beamplots starting 4.5 seconds late
2014-12-07 01:11:59,416 INFO     repeater     task nb300_beamplots output:
Starting procsetup

2014-12-07 01:11:59,416 INFO     repeater     task nb300_beamplots ended after 1.7 seconds
2014-12-07 01:11:59,416 INFO     repeater     task nb300_beamplots starting 6.1 seconds late
2014-12-07 01:12:01,029 INFO     repeater     task nb300_beamplots output:
Starting procsetup

2014-12-07 01:12:01,030 INFO     repeater     task nb300_beamplots ended after 1.6 seconds
2014-12-07 01:12:01,030 INFO     repeater     task ashtech_hcorrstats starting 7.8 seconds late
2014-12-07 01:12:01,920 INFO     repeater     task ashtech_hcorrstats ended after 0.9 seconds
2014-12-07 01:12:06,926 INFO     repeater     task nb300_lastensq starting 3.9 seconds late
2014-12-07 01:12:09,077 INFO     repeater     task nb300_lastensq ended after 2.2 seconds
2014-12-07 01:12:09,077 INFO     repeater     task nb300_lastensq: Time from /home/data/SP1411/proc/nb300/load/wrote_ens_time: 2014/12/07 01:11:53
2014-12-07 01:14:04,208 INFO     repeater     task nb300_lastensq starting 1.2 seconds late
2014-12-07 01:14:06,351 INFO     repeater     task nb300_lastensq ended after 2.1 seconds
2014-12-07 01:14:06,352 INFO     repeater     task nb300_lastensq: Time from /home/data/SP1411/proc/nb300/load/wrote_ens_time: 2014/12/07 01:13:53
2014-12-07 01:16:06,492 INFO     repeater     task nb300_lastensq starting 3.5 seconds late
2014-12-07 01:16:08,650 INFO     repeater     task nb300_lastensq ended after 2.2 seconds
2014-12-07 01:16:08,650 INFO     repeater     task nb300_lastensq: Time from /home/data/SP1411/proc/nb300/load/wrote_ens_time: 2014/12/07 01:15:53
2014-12-07 01:16:53,705 INFO     repeater     task ashtech_hcorrstats starting 0.4 seconds late
2014-12-07 01:16:54,613 INFO     repeater     task ashtech_hcorrstats ended after 0.9 seconds
2014-12-07 01:18:04,691 INFO     repeater     task nb300_lastensq starting 1.7 seconds late
2014-12-07 01:18:06,783 INFO     repeater     task nb300_lastensq ended after 2.1 seconds
2014-12-07 01:18:06,783 INFO     repeater     task nb300_lastensq: Time from /home/data/SP1411/proc/nb300/load/wrote_ens_time: 2014/12/07 01:17:53
2014-12-07 01:20:06,931 INFO     repeater     task nb300_lastensq starting 3.9 seconds late
2014-12-07 01:20:09,033 INFO     repeater     task nb300_lastensq ended after 2.1 seconds
2014-12-07 01:20:09,033 INFO     repeater     task nb300_lastensq: Time from /home/data/SP1411/proc/nb300/load/wrote_ens_time: 2014/12/07 01:19:53
2014-12-07 01:21:54,159 INFO     repeater     task nb300_beamplots starting 0.9 seconds late
2014-12-07 01:21:55,833 INFO     repeater     task nb300_beamplots output:
Starting procsetup

2014-12-07 01:21:55,833 INFO     repeater     task nb300_beamplots ended after 1.7 seconds
2014-12-07 01:21:55,833 INFO     repeater     task nb300_beamplots starting 2.6 seconds late
2014-12-07 01:21:57,466 INFO     repeater     task nb300_beamplots output:
Starting procsetup

2014-12-07 01:21:57,466 INFO     repeater     task nb300_beamplots ended after 1.6 seconds
2014-12-07 01:21:57,467 INFO     repeater     task ashtech_hcorrstats starting 4.2 seconds late
2014-12-07 01:21:58,364 INFO     repeater     task ashtech_hcorrstats ended after 0.9 seconds
2014-12-07 01:22:03,370 INFO     repeater     task nb300_lastensq starting 0.4 seconds late
2014-12-07 01:22:05,478 INFO     repeater     task nb300_lastensq ended after 2.1 seconds
2014-12-07 01:22:05,479 INFO     repeater     task nb300_lastensq: Time from /home/data/SP1411/proc/nb300/load/wrote_ens_time: 2014/12/07 01:21:53
2014-12-07 01:24:05,614 INFO     repeater     task nb300_lastensq starting 2.6 seconds late
2014-12-07 01:24:07,765 INFO     repeater     task nb300_lastensq ended after 2.2 seconds
2014-12-07 01:24:07,766 INFO     repeater     task nb300_lastensq: Time from /home/data/SP1411/proc/nb300/load/wrote_ens_time: 2014/12/07 01:23:53
2014-12-07 01:26:07,905 INFO     repeater     task nb300_lastensq starting 4.9 seconds late
2014-12-07 01:26:10,053 INFO     repeater     task nb300_lastensq ended after 2.1 seconds
2014-12-07 01:26:10,054 INFO     repeater     task nb300_lastensq: Time from /home/data/SP1411/proc/nb300/load/wrote_ens_time: 2014/12/07 01:25:53
2014-12-07 01:26:55,100 INFO     repeater     task ashtech_hcorrstats starting 1.8 seconds late
2014-12-07 01:26:55,986 INFO     repeater     task ashtech_hcorrstats ended after 0.9 seconds
2014-12-07 01:28:06,074 INFO     repeater     task nb300_lastensq starting 3.1 seconds late
2014-12-07 01:28:08,239 INFO     repeater     task nb300_lastensq ended after 2.2 seconds
2014-12-07 01:28:08,239 INFO     repeater     task nb300_lastensq: Time from /home/data/SP1411/proc/nb300/load/wrote_ens_time: 2014/12/07 01:27:53
2014-12-07 01:30:03,371 INFO     repeater     task nb300_lastensq starting 0.4 seconds late
2014-12-07 01:30:05,491 INFO     repeater     task nb300_lastensq ended after 2.1 seconds
2014-12-07 01:30:05,491 INFO     repeater     task nb300_lastensq: Time from /home/data/SP1411/proc/nb300/load/wrote_ens_time: 2014/12/07 01:29:53
2014-12-07 01:31:55,616 INFO     repeater     task nb300_quick starting 2.4 seconds late
2014-12-07 01:31:59,617 INFO     repeater     task nb300_quick ended after 4.0 seconds
2014-12-07 01:31:59,618 INFO     repeater     task nb300_3dayplots starting 6.4 seconds late
2014-12-07 01:32:04,048 INFO     repeater     task nb300_3dayplots ended after 4.4 seconds
2014-12-07 01:32:04,048 INFO     repeater     task nb300_beamplots starting 10.8 seconds late
2014-12-07 01:32:05,711 INFO     repeater     task nb300_beamplots output:
Starting procsetup

2014-12-07 01:32:05,712 INFO     repeater     task nb300_beamplots ended after 1.7 seconds
2014-12-07 01:32:05,712 INFO     repeater     task nb300_beamplots starting 12.4 seconds late
2014-12-07 01:32:07,328 INFO     repeater     task nb300_beamplots output:
Starting procsetup

2014-12-07 01:32:07,328 INFO     repeater     task nb300_beamplots ended after 1.6 seconds
2014-12-07 01:32:07,329 INFO     repeater     task ashtech_hcorrstats starting 14.1 seconds late
2014-12-07 01:32:08,226 INFO     repeater     task ashtech_hcorrstats ended after 0.9 seconds
2014-12-07 01:32:13,231 INFO     repeater     task nb300_lastensq starting 10.2 seconds late
2014-12-07 01:32:15,348 INFO     repeater     task nb300_lastensq ended after 2.1 seconds
2014-12-07 01:32:15,349 INFO     repeater     task nb300_lastensq: Time from /home/data/SP1411/proc/nb300/load/wrote_ens_time: 2014/12/07 01:31:53
2014-12-07 01:34:05,477 INFO     repeater     task nb300_lastensq starting 2.5 seconds late
2014-12-07 01:34:07,594 INFO     repeater     task nb300_lastensq ended after 2.1 seconds
2014-12-07 01:34:07,594 INFO     repeater     task nb300_lastensq: Time from /home/data/SP1411/proc/nb300/load/wrote_ens_time: 2014/12/07 01:33:53
2014-12-07 01:36:07,738 INFO     repeater     task nb300_lastensq starting 4.7 seconds late
2014-12-07 01:36:09,915 INFO     repeater     task nb300_lastensq ended after 2.2 seconds
2014-12-07 01:36:09,915 INFO     repeater     task nb300_lastensq: Time from /home/data/SP1411/proc/nb300/load/wrote_ens_time: 2014/12/07 01:35:53
2014-12-07 01:36:54,972 INFO     repeater     task ashtech_hcorrstats starting 1.7 seconds late
2014-12-07 01:36:55,880 INFO     repeater     task ashtech_hcorrstats ended after 0.9 seconds
2014-12-07 01:38:05,958 INFO     repeater     task nb300_lastensq starting 3.0 seconds late
2014-12-07 01:38:08,122 INFO     repeater     task nb300_lastensq ended after 2.2 seconds
2014-12-07 01:38:08,122 INFO     repeater     task nb300_lastensq: Time from /home/data/SP1411/proc/nb300/load/wrote_ens_time: 2014/12/07 01:37:53
2014-12-07 01:40:03,258 INFO     repeater     task nb300_lastensq starting 0.3 seconds late
2014-12-07 01:40:05,440 INFO     repeater     task nb300_lastensq ended after 2.2 seconds
2014-12-07 01:40:05,441 INFO     repeater     task nb300_lastensq: Time from /home/data/SP1411/proc/nb300/load/wrote_ens_time: 2014/12/07 01:39:53
2014-12-07 01:41:55,575 INFO     repeater     task nb300_beamplots starting 2.3 seconds late
2014-12-07 01:41:57,273 INFO     repeater     task nb300_beamplots output:
Starting procsetup

2014-12-07 01:41:57,273 INFO     repeater     task nb300_beamplots ended after 1.7 seconds
2014-12-07 01:41:57,274 INFO     repeater     task nb300_beamplots starting 4.0 seconds late
2014-12-07 01:41:58,994 INFO     repeater     task nb300_beamplots output:
Starting procsetup

2014-12-07 01:41:58,994 INFO     repeater     task nb300_beamplots ended after 1.7 seconds
2014-12-07 01:41:58,994 INFO     repeater     task ashtech_hcorrstats starting 5.7 seconds late
2014-12-07 01:41:59,880 INFO     repeater     task ashtech_hcorrstats ended after 0.9 seconds
2014-12-07 01:42:04,886 INFO     repeater     task nb300_lastensq starting 1.9 seconds late
2014-12-07 01:42:07,051 INFO     repeater     task nb300_lastensq ended after 2.2 seconds
2014-12-07 01:42:07,051 INFO     repeater     task nb300_lastensq: Time from /home/data/SP1411/proc/nb300/load/wrote_ens_time: 2014/12/07 01:41:53
2014-12-07 01:44:07,189 INFO     repeater     task nb300_lastensq starting 4.2 seconds late
2014-12-07 01:44:09,367 INFO     repeater     task nb300_lastensq ended after 2.2 seconds
2014-12-07 01:44:09,367 INFO     repeater     task nb300_lastensq: Time from /home/data/SP1411/proc/nb300/load/wrote_ens_time: 2014/12/07 01:43:53
2014-12-07 01:46:04,495 INFO     repeater     task nb300_lastensq starting 1.5 seconds late
2014-12-07 01:46:06,662 INFO     repeater     task nb300_lastensq ended after 2.2 seconds
2014-12-07 01:46:06,662 INFO     repeater     task nb300_lastensq: Time from /home/data/SP1411/proc/nb300/load/wrote_ens_time: 2014/12/07 01:45:53
2014-12-07 01:46:56,722 INFO     repeater     task ashtech_hcorrstats starting 3.4 seconds late
2014-12-07 01:46:57,630 INFO     repeater     task ashtech_hcorrstats ended after 0.9 seconds
2014-12-07 01:48:07,703 INFO     repeater     task nb300_lastensq starting 4.7 seconds late
2014-12-07 01:48:09,830 INFO     repeater     task nb300_lastensq ended after 2.1 seconds
2014-12-07 01:48:09,831 INFO     repeater     task nb300_lastensq: Time from /home/data/SP1411/proc/nb300/load/wrote_ens_time: 2014/12/07 01:47:53
2014-12-07 01:50:04,958 INFO     repeater     task nb300_lastensq starting 2.0 seconds late
2014-12-07 01:50:07,132 INFO     repeater     task nb300_lastensq ended after 2.2 seconds
2014-12-07 01:50:07,133 INFO     repeater     task nb300_lastensq: Time from /home/data/SP1411/proc/nb300/load/wrote_ens_time: 2014/12/07 01:49:53
2014-12-07 01:51:57,252 INFO     repeater     task nb300_beamplots starting 4.0 seconds late
2014-12-07 01:51:58,958 INFO     repeater     task nb300_beamplots output:
Starting procsetup

2014-12-07 01:51:58,958 INFO     repeater     task nb300_beamplots ended after 1.7 seconds
2014-12-07 01:51:58,958 INFO     repeater     task nb300_beamplots starting 5.7 seconds late
2014-12-07 01:52:00,593 INFO     repeater     task nb300_beamplots output:
Starting procsetup

2014-12-07 01:52:00,593 INFO     repeater     task nb300_beamplots ended after 1.6 seconds
2014-12-07 01:52:00,594 INFO     repeater     task ashtech_hcorrstats starting 7.3 seconds late
2014-12-07 01:52:01,491 INFO     repeater     task ashtech_hcorrstats ended after 0.9 seconds
2014-12-07 01:52:06,497 INFO     repeater     task nb300_lastensq starting 3.5 seconds late
2014-12-07 01:52:08,634 INFO     repeater     task nb300_lastensq ended after 2.1 seconds
2014-12-07 01:52:08,634 INFO     repeater     task nb300_lastensq: Time from /home/data/SP1411/proc/nb300/load/wrote_ens_time: 2014/12/07 01:51:53
2014-12-07 01:54:03,770 INFO     repeater     task nb300_lastensq starting 0.8 seconds late
2014-12-07 01:54:05,942 INFO     repeater     task nb300_lastensq ended after 2.2 seconds
2014-12-07 01:54:05,943 INFO     repeater     task nb300_lastensq: Time from /home/data/SP1411/proc/nb300/load/wrote_ens_time: 2014/12/07 01:53:53
2014-12-07 01:56:06,080 INFO     repeater     task nb300_lastensq starting 3.1 seconds late
2014-12-07 01:56:08,274 INFO     repeater     task nb300_lastensq ended after 2.2 seconds
2014-12-07 01:56:08,275 INFO     repeater     task nb300_lastensq: Time from /home/data/SP1411/proc/nb300/load/wrote_ens_time: 2014/12/07 01:55:53
2014-12-07 01:56:53,330 INFO     repeater     task ashtech_hcorrstats starting 0.1 seconds late
2014-12-07 01:56:54,237 INFO     repeater     task ashtech_hcorrstats ended after 0.9 seconds
2014-12-07 01:58:04,309 INFO     repeater     task nb300_lastensq starting 1.3 seconds late
2014-12-07 01:58:06,511 INFO     repeater     task nb300_lastensq ended after 2.2 seconds
2014-12-07 01:58:06,512 INFO     repeater     task nb300_lastensq: Time from /home/data/SP1411/proc/nb300/load/wrote_ens_time: 2014/12/07 01:57:53
2014-12-07 02:00:06,653 INFO     repeater     task nb300_lastensq starting 3.7 seconds late
2014-12-07 02:00:08,868 INFO     repeater     task nb300_lastensq ended after 2.2 seconds
2014-12-07 02:00:08,868 INFO     repeater     task nb300_lastensq: Time from /home/data/SP1411/proc/nb300/load/wrote_ens_time: 2014/12/07 01:59:53
2014-12-07 02:01:53,988 INFO     repeater     task nb300_quick starting 0.7 seconds late
2014-12-07 02:01:58,067 INFO     repeater     task nb300_quick ended after 4.1 seconds
2014-12-07 02:01:58,067 INFO     repeater     task nb300_3dayplots starting 4.8 seconds late
2014-12-07 02:02:02,455 INFO     repeater     task nb300_3dayplots ended after 4.4 seconds
2014-12-07 02:02:02,455 INFO     repeater     task nb300_beamplots starting 9.2 seconds late
2014-12-07 02:02:04,128 INFO     repeater     task nb300_beamplots output:
Starting procsetup

2014-12-07 02:02:04,128 INFO     repeater     task nb300_beamplots ended after 1.7 seconds
2014-12-07 02:02:04,128 INFO     repeater     task nb300_beamplots starting 10.9 seconds late
2014-12-07 02:02:05,757 INFO     repeater     task nb300_beamplots output:
Starting procsetup

2014-12-07 02:02:05,757 INFO     repeater     task nb300_beamplots ended after 1.6 seconds
2014-12-07 02:02:05,758 INFO     repeater     task ashtech_hcorrstats starting 12.5 seconds late
2014-12-07 02:02:06,663 INFO     repeater     task ashtech_hcorrstats ended after 0.9 seconds
2014-12-07 02:02:11,669 INFO     repeater     task nb300_lastensq starting 8.7 seconds late
2014-12-07 02:02:13,748 INFO     repeater     task nb300_lastensq ended after 2.1 seconds
2014-12-07 02:02:13,749 INFO     repeater     task nb300_lastensq: Time from /home/data/SP1411/proc/nb300/load/wrote_ens_time: 2014/12/07 02:01:53
2014-12-07 02:04:03,877 INFO     repeater     task nb300_lastensq starting 0.9 seconds late
2014-12-07 02:04:05,978 INFO     repeater     task nb300_lastensq ended after 2.1 seconds
2014-12-07 02:04:05,978 INFO     repeater     task nb300_lastensq: Time from /home/data/SP1411/proc/nb300/load/wrote_ens_time: 2014/12/07 02:03:53
2014-12-07 02:06:06,124 INFO     repeater     task nb300_lastensq starting 3.1 seconds late
2014-12-07 02:06:08,246 INFO     repeater     task nb300_lastensq ended after 2.1 seconds
2014-12-07 02:06:08,247 INFO     repeater     task nb300_lastensq: Time from /home/data/SP1411/proc/nb300/load/wrote_ens_time: 2014/12/07 02:05:53
2014-12-07 02:06:53,298 INFO     repeater     task ashtech_hcorrstats starting 0.0 seconds late
2014-12-07 02:06:54,187 INFO     repeater     task ashtech_hcorrstats ended after 0.9 seconds
2014-12-07 02:08:04,271 INFO     repeater     task nb300_lastensq starting 1.3 seconds late
2014-12-07 02:08:06,329 INFO     repeater     task nb300_lastensq ended after 2.1 seconds
2014-12-07 02:08:06,330 INFO     repeater     task nb300_lastensq: Time from /home/data/SP1411/proc/nb300/load/wrote_ens_time: 2014/12/07 02:07:53
2014-12-07 02:10:06,465 INFO     repeater     task nb300_lastensq starting 3.5 seconds late
2014-12-07 02:10:08,581 INFO     repeater     task nb300_lastensq ended after 2.1 seconds
2014-12-07 02:10:08,581 INFO     repeater     task nb300_lastensq: Time from /home/data/SP1411/proc/nb300/load/wrote_ens_time: 2014/12/07 02:09:53
2014-12-07 02:11:53,699 INFO     repeater     task nb300_beamplots starting 0.4 seconds late
2014-12-07 02:11:55,315 INFO     repeater     task nb300_beamplots output:
Starting procsetup

2014-12-07 02:11:55,315 INFO     repeater     task nb300_beamplots ended after 1.6 seconds
2014-12-07 02:11:55,315 INFO     repeater     task nb300_beamplots starting 2.0 seconds late
2014-12-07 02:11:57,020 INFO     repeater     task nb300_beamplots output:
Starting procsetup

2014-12-07 02:11:57,020 INFO     repeater     task nb300_beamplots ended after 1.7 seconds
2014-12-07 02:11:57,020 INFO     repeater     task ashtech_hcorrstats starting 3.7 seconds late
2014-12-07 02:11:57,907 INFO     repeater     task ashtech_hcorrstats ended after 0.9 seconds
2014-12-07 02:12:07,919 INFO     repeater     task nb300_lastensq starting 4.9 seconds late
2014-12-07 02:12:09,992 INFO     repeater     task nb300_lastensq ended after 2.1 seconds
2014-12-07 02:12:09,992 INFO     repeater     task nb300_lastensq: Time from /home/data/SP1411/proc/nb300/load/wrote_ens_time: 2014/12/07 02:11:53
2014-12-07 02:14:05,118 INFO     repeater     task nb300_lastensq starting 2.1 seconds late
2014-12-07 02:14:07,183 INFO     repeater     task nb300_lastensq ended after 2.1 seconds
2014-12-07 02:14:07,184 INFO     repeater     task nb300_lastensq: Time from /home/data/SP1411/proc/nb300/load/wrote_ens_time: 2014/12/07 02:13:53
2014-12-07 02:16:07,326 INFO     repeater     task nb300_lastensq starting 4.3 seconds late
2014-12-07 02:16:09,430 INFO     repeater     task nb300_lastensq ended after 2.1 seconds
2014-12-07 02:16:09,430 INFO     repeater     task nb300_lastensq: Time from /home/data/SP1411/proc/nb300/load/wrote_ens_time: 2014/12/07 02:15:53
2014-12-07 02:16:54,479 INFO     repeater     task ashtech_hcorrstats starting 1.2 seconds late
2014-12-07 02:16:55,390 INFO     repeater     task ashtech_hcorrstats ended after 0.9 seconds
2014-12-07 02:18:05,461 INFO     repeater     task nb300_lastensq starting 2.5 seconds late
2014-12-07 02:18:07,527 INFO     repeater     task nb300_lastensq ended after 2.1 seconds
2014-12-07 02:18:07,527 INFO     repeater     task nb300_lastensq: Time from /home/data/SP1411/proc/nb300/load/wrote_ens_time: 2014/12/07 02:17:53
2014-12-07 02:20:07,674 INFO     repeater     task nb300_lastensq starting 4.7 seconds late
2014-12-07 02:20:09,786 INFO     repeater     task nb300_lastensq ended after 2.1 seconds
2014-12-07 02:20:09,787 INFO     repeater     task nb300_lastensq: Time from /home/data/SP1411/proc/nb300/load/wrote_ens_time: 2014/12/07 02:19:53
2014-12-07 02:21:54,908 INFO     repeater     task nb300_beamplots starting 1.6 seconds late
2014-12-07 02:21:56,530 INFO     repeater     task nb300_beamplots output:
Starting procsetup

2014-12-07 02:21:56,530 INFO     repeater     task nb300_beamplots ended after 1.6 seconds
2014-12-07 02:21:56,530 INFO     repeater     task nb300_beamplots starting 3.3 seconds late
2014-12-07 02:21:58,260 INFO     repeater     task nb300_beamplots output:
Starting procsetup

2014-12-07 02:21:58,260 INFO     repeater     task nb300_beamplots ended after 1.7 seconds
2014-12-07 02:21:58,261 INFO     repeater     task ashtech_hcorrstats starting 5.0 seconds late
2014-12-07 02:21:59,148 INFO     repeater     task ashtech_hcorrstats ended after 0.9 seconds
2014-12-07 02:22:04,153 INFO     repeater     task nb300_lastensq starting 1.2 seconds late
2014-12-07 02:22:06,283 INFO     repeater     task nb300_lastensq ended after 2.1 seconds
2014-12-07 02:22:06,284 INFO     repeater     task nb300_lastensq: Time from /home/data/SP1411/proc/nb300/load/wrote_ens_time: 2014/12/07 02:21:53
2014-12-07 02:24:06,421 INFO     repeater     task nb300_lastensq starting 3.4 seconds late
2014-12-07 02:24:08,543 INFO     repeater     task nb300_lastensq ended after 2.1 seconds
2014-12-07 02:24:08,544 INFO     repeater     task nb300_lastensq: Time from /home/data/SP1411/proc/nb300/load/wrote_ens_time: 2014/12/07 02:23:53
2014-12-07 02:26:03,694 INFO     repeater     task nb300_lastensq starting 0.7 seconds late
2014-12-07 02:26:05,815 INFO     repeater     task nb300_lastensq ended after 2.1 seconds
2014-12-07 02:26:05,816 INFO     repeater     task nb300_lastensq: Time from /home/data/SP1411/proc/nb300/load/wrote_ens_time: 2014/12/07 02:25:53
2014-12-07 02:26:55,878 INFO     repeater     task ashtech_hcorrstats starting 2.6 seconds late
2014-12-07 02:26:56,775 INFO     repeater     task ashtech_hcorrstats ended after 0.9 seconds
2014-12-07 02:28:06,865 INFO     repeater     task nb300_lastensq starting 3.9 seconds late
2014-12-07 02:28:08,969 INFO     repeater     task nb300_lastensq ended after 2.1 seconds
2014-12-07 02:28:08,969 INFO     repeater     task nb300_lastensq: Time from /home/data/SP1411/proc/nb300/load/wrote_ens_time: 2014/12/07 02:27:53
2014-12-07 02:30:04,093 INFO     repeater     task nb300_lastensq starting 1.1 seconds late
2014-12-07 02:30:06,157 INFO     repeater     task nb300_lastensq ended after 2.1 seconds
2014-12-07 02:30:06,158 INFO     repeater     task nb300_lastensq: Time from /home/data/SP1411/proc/nb300/load/wrote_ens_time: 2014/12/07 02:29:53
2014-12-07 02:31:56,281 INFO     repeater     task nb300_quick starting 3.0 seconds late
2014-12-07 02:32:00,295 INFO     repeater     task nb300_quick ended after 4.0 seconds
2014-12-07 02:32:00,295 INFO     repeater     task nb300_3dayplots starting 7.1 seconds late
2014-12-07 02:32:04,754 INFO     repeater     task nb300_3dayplots ended after 4.5 seconds
2014-12-07 02:32:04,755 INFO     repeater     task nb300_beamplots starting 11.5 seconds late
2014-12-07 02:32:06,344 INFO     repeater     task nb300_beamplots output:
Starting procsetup

2014-12-07 02:32:06,344 INFO     repeater     task nb300_beamplots ended after 1.6 seconds
2014-12-07 02:32:06,345 INFO     repeater     task nb300_beamplots starting 13.1 seconds late
2014-12-07 02:32:08,068 INFO     repeater     task nb300_beamplots output:
Starting procsetup

2014-12-07 02:32:08,068 INFO     repeater     task nb300_beamplots ended after 1.7 seconds
2014-12-07 02:32:08,069 INFO     repeater     task ashtech_hcorrstats starting 14.8 seconds late
2014-12-07 02:32:08,962 INFO     repeater     task ashtech_hcorrstats ended after 0.9 seconds
2014-12-07 02:32:13,965 INFO     repeater     task nb300_lastensq starting 11.0 seconds late
2014-12-07 02:32:16,032 INFO     repeater     task nb300_lastensq ended after 2.1 seconds
2014-12-07 02:32:16,032 INFO     repeater     task nb300_lastensq: Time from /home/data/SP1411/proc/nb300/load/wrote_ens_time: 2014/12/07 02:31:53
2014-12-07 02:34:06,160 INFO     repeater     task nb300_lastensq starting 3.2 seconds late
2014-12-07 02:34:08,298 INFO     repeater     task nb300_lastensq ended after 2.1 seconds
2014-12-07 02:34:08,299 INFO     repeater     task nb300_lastensq: Time from /home/data/SP1411/proc/nb300/load/wrote_ens_time: 2014/12/07 02:33:53
2014-12-07 02:36:03,424 INFO     repeater     task nb300_lastensq starting 0.4 seconds late
2014-12-07 02:36:05,545 INFO     repeater     task nb300_lastensq ended after 2.1 seconds
2014-12-07 02:36:05,545 INFO     repeater     task nb300_lastensq: Time from /home/data/SP1411/proc/nb300/load/wrote_ens_time: 2014/12/07 02:35:53
2014-12-07 02:36:55,605 INFO     repeater     task ashtech_hcorrstats starting 2.3 seconds late
2014-12-07 02:36:56,496 INFO     repeater     task ashtech_hcorrstats ended after 0.9 seconds
2014-12-07 02:38:06,581 INFO     repeater     task nb300_lastensq starting 3.6 seconds late
2014-12-07 02:38:08,661 INFO     repeater     task nb300_lastensq ended after 2.1 seconds
2014-12-07 02:38:08,661 INFO     repeater     task nb300_lastensq: Time from /home/data/SP1411/proc/nb300/load/wrote_ens_time: 2014/12/07 02:37:53
2014-12-07 02:40:03,790 INFO     repeater     task nb300_lastensq starting 0.8 seconds late
2014-12-07 02:40:05,898 INFO     repeater     task nb300_lastensq ended after 2.1 seconds
2014-12-07 02:40:05,899 INFO     repeater     task nb300_lastensq: Time from /home/data/SP1411/proc/nb300/load/wrote_ens_time: 2014/12/07 02:39:53
2014-12-07 02:41:56,034 INFO     repeater     task nb300_beamplots starting 2.8 seconds late
2014-12-07 02:41:57,731 INFO     repeater     task nb300_beamplots output:
Starting procsetup

2014-12-07 02:41:57,731 INFO     repeater     task nb300_beamplots ended after 1.7 seconds
2014-12-07 02:41:57,731 INFO     repeater     task nb300_beamplots starting 4.5 seconds late
2014-12-07 02:41:59,460 INFO     repeater     task nb300_beamplots output:
Starting procsetup

2014-12-07 02:41:59,460 INFO     repeater     task nb300_beamplots ended after 1.7 seconds
2014-12-07 02:41:59,460 INFO     repeater     task ashtech_hcorrstats starting 6.2 seconds late
2014-12-07 02:42:00,361 INFO     repeater     task ashtech_hcorrstats ended after 0.9 seconds
2014-12-07 02:42:05,367 INFO     repeater     task nb300_lastensq starting 2.4 seconds late
2014-12-07 02:42:07,527 INFO     repeater     task nb300_lastensq ended after 2.2 seconds
2014-12-07 02:42:07,527 INFO     repeater     task nb300_lastensq: Time from /home/data/SP1411/proc/nb300/load/wrote_ens_time: 2014/12/07 02:41:53
2014-12-07 02:44:07,677 INFO     repeater     task nb300_lastensq starting 4.7 seconds late
2014-12-07 02:44:09,753 INFO     repeater     task nb300_lastensq ended after 2.1 seconds
2014-12-07 02:44:09,754 INFO     repeater     task nb300_lastensq: Time from /home/data/SP1411/proc/nb300/load/wrote_ens_time: 2014/12/07 02:43:53
2014-12-07 02:46:04,881 INFO     repeater     task nb300_lastensq starting 1.9 seconds late
2014-12-07 02:46:06,972 INFO     repeater     task nb300_lastensq ended after 2.1 seconds
2014-12-07 02:46:06,972 INFO     repeater     task nb300_lastensq: Time from /home/data/SP1411/proc/nb300/load/wrote_ens_time: 2014/12/07 02:45:53
2014-12-07 02:46:57,029 INFO     repeater     task ashtech_hcorrstats starting 3.8 seconds late
2014-12-07 02:46:57,926 INFO     repeater     task ashtech_hcorrstats ended after 0.9 seconds
2014-12-07 02:48:03,001 INFO     repeater     task nb300_lastensq starting 0.0 seconds late
2014-12-07 02:48:05,147 INFO     repeater     task nb300_lastensq ended after 2.1 seconds
2014-12-07 02:48:05,148 INFO     repeater     task nb300_lastensq: Time from /home/data/SP1411/proc/nb300/load/wrote_ens_time: 2014/12/07 02:47:53
2014-12-07 02:50:05,281 INFO     repeater     task nb300_lastensq starting 2.3 seconds late
2014-12-07 02:50:07,402 INFO     repeater     task nb300_lastensq ended after 2.1 seconds
2014-12-07 02:50:07,403 INFO     repeater     task nb300_lastensq: Time from /home/data/SP1411/proc/nb300/load/wrote_ens_time: 2014/12/07 02:49:53
2014-12-07 02:51:57,532 INFO     repeater     task nb300_beamplots starting 4.3 seconds late
2014-12-07 02:51:59,236 INFO     repeater     task nb300_beamplots output:
Starting procsetup

2014-12-07 02:51:59,237 INFO     repeater     task nb300_beamplots ended after 1.7 seconds
2014-12-07 02:51:59,237 INFO     repeater     task nb300_beamplots starting 6.0 seconds late
2014-12-07 02:52:00,962 INFO     repeater     task nb300_beamplots output:
Starting procsetup

2014-12-07 02:52:00,963 INFO     repeater     task nb300_beamplots ended after 1.7 seconds
2014-12-07 02:52:00,963 INFO     repeater     task ashtech_hcorrstats starting 7.7 seconds late
2014-12-07 02:52:01,861 INFO     repeater     task ashtech_hcorrstats ended after 0.9 seconds
2014-12-07 02:52:06,867 INFO     repeater     task nb300_lastensq starting 3.9 seconds late
2014-12-07 02:52:09,049 INFO     repeater     task nb300_lastensq ended after 2.2 seconds
2014-12-07 02:52:09,049 INFO     repeater     task nb300_lastensq: Time from /home/data/SP1411/proc/nb300/load/wrote_ens_time: 2014/12/07 02:51:53
2014-12-07 02:54:04,181 INFO     repeater     task nb300_lastensq starting 1.2 seconds late
2014-12-07 02:54:06,307 INFO     repeater     task nb300_lastensq ended after 2.1 seconds
2014-12-07 02:54:06,308 INFO     repeater     task nb300_lastensq: Time from /home/data/SP1411/proc/nb300/load/wrote_ens_time: 2014/12/07 02:53:53
2014-12-07 02:56:06,442 INFO     repeater     task nb300_lastensq starting 3.4 seconds late
2014-12-07 02:56:08,582 INFO     repeater     task nb300_lastensq ended after 2.1 seconds
2014-12-07 02:56:08,583 INFO     repeater     task nb300_lastensq: Time from /home/data/SP1411/proc/nb300/load/wrote_ens_time: 2014/12/07 02:55:53
2014-12-07 02:56:53,641 INFO     repeater     task ashtech_hcorrstats starting 0.4 seconds late
2014-12-07 02:56:54,537 INFO     repeater     task ashtech_hcorrstats ended after 0.9 seconds
2014-12-07 02:58:04,621 INFO     repeater     task nb300_lastensq starting 1.6 seconds late
2014-12-07 02:58:06,713 INFO     repeater     task nb300_lastensq ended after 2.1 seconds
2014-12-07 02:58:06,714 INFO     repeater     task nb300_lastensq: Time from /home/data/SP1411/proc/nb300/load/wrote_ens_time: 2014/12/07 02:57:53
2014-12-07 03:00:06,843 INFO     repeater     task nb300_lastensq starting 3.8 seconds late
2014-12-07 03:00:08,984 INFO     repeater     task nb300_lastensq ended after 2.1 seconds
2014-12-07 03:00:08,985 INFO     repeater     task nb300_lastensq: Time from /home/data/SP1411/proc/nb300/load/wrote_ens_time: 2014/12/07 02:59:53
2014-12-07 03:01:54,107 INFO     repeater     task nb300_quick starting 0.9 seconds late
2014-12-07 03:01:58,112 INFO     repeater     task nb300_quick ended after 4.0 seconds
2014-12-07 03:01:58,113 INFO     repeater     task nb300_3dayplots starting 4.9 seconds late
2014-12-07 03:02:02,562 INFO     repeater     task nb300_3dayplots ended after 4.4 seconds
2014-12-07 03:02:02,563 INFO     repeater     task nb300_beamplots starting 9.3 seconds late
2014-12-07 03:02:04,241 INFO     repeater     task nb300_beamplots output:
Starting procsetup

2014-12-07 03:02:04,242 INFO     repeater     task nb300_beamplots ended after 1.7 seconds
2014-12-07 03:02:04,242 INFO     repeater     task nb300_beamplots starting 11.0 seconds late
2014-12-07 03:02:05,958 INFO     repeater     task nb300_beamplots output:
Starting procsetup

2014-12-07 03:02:05,958 INFO     repeater     task nb300_beamplots ended after 1.7 seconds
2014-12-07 03:02:05,958 INFO     repeater     task ashtech_hcorrstats starting 12.7 seconds late
2014-12-07 03:02:06,848 INFO     repeater     task ashtech_hcorrstats ended after 0.9 seconds
2014-12-07 03:02:11,851 INFO     repeater     task nb300_lastensq starting 8.9 seconds late
2014-12-07 03:02:13,992 INFO     repeater     task nb300_lastensq ended after 2.1 seconds
2014-12-07 03:02:13,992 INFO     repeater     task nb300_lastensq: Time from /home/data/SP1411/proc/nb300/load/wrote_ens_time: 2014/12/07 03:01:53
2014-12-07 03:04:04,111 INFO     repeater     task nb300_lastensq starting 1.1 seconds late
2014-12-07 03:04:06,205 INFO     repeater     task nb300_lastensq ended after 2.1 seconds
2014-12-07 03:04:06,206 INFO     repeater     task nb300_lastensq: Time from /home/data/SP1411/proc/nb300/load/wrote_ens_time: 2014/12/07 03:03:53
2014-12-07 03:06:06,337 INFO     repeater     task nb300_lastensq starting 3.3 seconds late
2014-12-07 03:06:08,503 INFO     repeater     task nb300_lastensq ended after 2.2 seconds
2014-12-07 03:06:08,503 INFO     repeater     task nb300_lastensq: Time from /home/data/SP1411/proc/nb300/load/wrote_ens_time: 2014/12/07 03:05:53
2014-12-07 03:06:53,559 INFO     repeater     task ashtech_hcorrstats starting 0.3 seconds late
2014-12-07 03:06:54,485 INFO     repeater     task ashtech_hcorrstats ended after 0.9 seconds
2014-12-07 03:08:04,565 INFO     repeater     task nb300_lastensq starting 1.6 seconds late
2014-12-07 03:08:06,710 INFO     repeater     task nb300_lastensq ended after 2.1 seconds
2014-12-07 03:08:06,711 INFO     repeater     task nb300_lastensq: Time from /home/data/SP1411/proc/nb300/load/wrote_ens_time: 2014/12/07 03:07:53
2014-12-07 03:10:06,840 INFO     repeater     task nb300_lastensq starting 3.8 seconds late
2014-12-07 03:10:09,005 INFO     repeater     task nb300_lastensq ended after 2.2 seconds
2014-12-07 03:10:09,005 INFO     repeater     task nb300_lastensq: Time from /home/data/SP1411/proc/nb300/load/wrote_ens_time: 2014/12/07 03:09:53
2014-12-07 03:11:54,124 INFO     repeater     task nb300_beamplots starting 0.9 seconds late
2014-12-07 03:11:55,821 INFO     repeater     task nb300_beamplots output:
Starting procsetup

2014-12-07 03:11:55,821 INFO     repeater     task nb300_beamplots ended after 1.7 seconds
2014-12-07 03:11:55,821 INFO     repeater     task nb300_beamplots starting 2.5 seconds late
2014-12-07 03:11:57,451 INFO     repeater     task nb300_beamplots output:
Starting procsetup

2014-12-07 03:11:57,451 INFO     repeater     task nb300_beamplots ended after 1.6 seconds
2014-12-07 03:11:57,451 INFO     repeater     task ashtech_hcorrstats starting 4.2 seconds late
2014-12-07 03:11:58,383 INFO     repeater     task ashtech_hcorrstats ended after 0.9 seconds
2014-12-07 03:12:03,389 INFO     repeater     task nb300_lastensq starting 0.4 seconds late
2014-12-07 03:12:05,502 INFO     repeater     task nb300_lastensq ended after 2.1 seconds
2014-12-07 03:12:05,502 INFO     repeater     task nb300_lastensq: Time from /home/data/SP1411/proc/nb300/load/wrote_ens_time: 2014/12/07 03:11:53
2014-12-07 03:14:05,645 INFO     repeater     task nb300_lastensq starting 2.6 seconds late
2014-12-07 03:14:07,740 INFO     repeater     task nb300_lastensq ended after 2.1 seconds
2014-12-07 03:14:07,740 INFO     repeater     task nb300_lastensq: Time from /home/data/SP1411/proc/nb300/load/wrote_ens_time: 2014/12/07 03:13:53
2014-12-07 03:16:07,874 INFO     repeater     task nb300_lastensq starting 4.9 seconds late
2014-12-07 03:16:10,029 INFO     repeater     task nb300_lastensq ended after 2.2 seconds
2014-12-07 03:16:10,030 INFO     repeater     task nb300_lastensq: Time from /home/data/SP1411/proc/nb300/load/wrote_ens_time: 2014/12/07 03:15:53
2014-12-07 03:16:55,085 INFO     repeater     task ashtech_hcorrstats starting 1.8 seconds late
2014-12-07 03:16:56,011 INFO     repeater     task ashtech_hcorrstats ended after 0.9 seconds
2014-12-07 03:18:06,071 INFO     repeater     task nb300_lastensq starting 3.1 seconds late
2014-12-07 03:18:08,231 INFO     repeater     task nb300_lastensq ended after 2.2 seconds
2014-12-07 03:18:08,231 INFO     repeater     task nb300_lastensq: Time from /home/data/SP1411/proc/nb300/load/wrote_ens_time: 2014/12/07 03:17:53
2014-12-07 03:20:03,364 INFO     repeater     task nb300_lastensq starting 0.4 seconds late
2014-12-07 03:20:05,524 INFO     repeater     task nb300_lastensq ended after 2.2 seconds
2014-12-07 03:20:05,525 INFO     repeater     task nb300_lastensq: Time from /home/data/SP1411/proc/nb300/load/wrote_ens_time: 2014/12/07 03:19:53
2014-12-07 03:21:55,658 INFO     repeater     task nb300_beamplots starting 2.4 seconds late
2014-12-07 03:21:57,336 INFO     repeater     task nb300_beamplots output:
Starting procsetup

2014-12-07 03:21:57,336 INFO     repeater     task nb300_beamplots ended after 1.7 seconds
2014-12-07 03:21:57,337 INFO     repeater     task nb300_beamplots starting 4.1 seconds late
2014-12-07 03:21:58,949 INFO     repeater     task nb300_beamplots output:
Starting procsetup

2014-12-07 03:21:58,949 INFO     repeater     task nb300_beamplots ended after 1.6 seconds
2014-12-07 03:21:58,950 INFO     repeater     task ashtech_hcorrstats starting 5.7 seconds late
2014-12-07 03:21:59,883 INFO     repeater     task ashtech_hcorrstats ended after 0.9 seconds
2014-12-07 03:22:04,888 INFO     repeater     task nb300_lastensq starting 1.9 seconds late
2014-12-07 03:22:07,001 INFO     repeater     task nb300_lastensq ended after 2.1 seconds
2014-12-07 03:22:07,001 INFO     repeater     task nb300_lastensq: Time from /home/data/SP1411/proc/nb300/load/wrote_ens_time: 2014/12/07 03:21:53
2014-12-07 03:24:07,130 INFO     repeater     task nb300_lastensq starting 4.1 seconds late
2014-12-07 03:24:09,288 INFO     repeater     task nb300_lastensq ended after 2.2 seconds
2014-12-07 03:24:09,289 INFO     repeater     task nb300_lastensq: Time from /home/data/SP1411/proc/nb300/load/wrote_ens_time: 2014/12/07 03:23:53
2014-12-07 03:26:04,427 INFO     repeater     task nb300_lastensq starting 1.4 seconds late
2014-12-07 03:26:06,534 INFO     repeater     task nb300_lastensq ended after 2.1 seconds
2014-12-07 03:26:06,535 INFO     repeater     task nb300_lastensq: Time from /home/data/SP1411/proc/nb300/load/wrote_ens_time: 2014/12/07 03:25:53
2014-12-07 03:26:56,598 INFO     repeater     task ashtech_hcorrstats starting 3.3 seconds late
2014-12-07 03:26:57,532 INFO     repeater     task ashtech_hcorrstats ended after 0.9 seconds
2014-12-07 03:28:07,611 INFO     repeater     task nb300_lastensq starting 4.6 seconds late
2014-12-07 03:28:09,734 INFO     repeater     task nb300_lastensq ended after 2.1 seconds
2014-12-07 03:28:09,734 INFO     repeater     task nb300_lastensq: Time from /home/data/SP1411/proc/nb300/load/wrote_ens_time: 2014/12/07 03:27:53
2014-12-07 03:30:04,868 INFO     repeater     task nb300_lastensq starting 1.9 seconds late
2014-12-07 03:30:07,055 INFO     repeater     task nb300_lastensq ended after 2.2 seconds
2014-12-07 03:30:07,056 INFO     repeater     task nb300_lastensq: Time from /home/data/SP1411/proc/nb300/load/wrote_ens_time: 2014/12/07 03:29:53
2014-12-07 03:31:57,191 INFO     repeater     task nb300_quick starting 4.0 seconds late
2014-12-07 03:32:01,253 INFO     repeater     task nb300_quick ended after 4.1 seconds
2014-12-07 03:32:01,254 INFO     repeater     task nb300_3dayplots starting 8.0 seconds late
2014-12-07 03:32:05,704 INFO     repeater     task nb300_3dayplots ended after 4.4 seconds
2014-12-07 03:32:05,704 INFO     repeater     task nb300_beamplots starting 12.4 seconds late
2014-12-07 03:32:07,387 INFO     repeater     task nb300_beamplots output:
Starting procsetup

2014-12-07 03:32:07,388 INFO     repeater     task nb300_beamplots ended after 1.7 seconds
2014-12-07 03:32:07,388 INFO     repeater     task nb300_beamplots starting 14.1 seconds late
2014-12-07 03:32:09,016 INFO     repeater     task nb300_beamplots output:
Starting procsetup

2014-12-07 03:32:09,016 INFO     repeater     task nb300_beamplots ended after 1.6 seconds
2014-12-07 03:32:09,030 INFO     repeater     task ashtech_hcorrstats starting 15.8 seconds late
2014-12-07 03:32:09,963 INFO     repeater     task ashtech_hcorrstats ended after 0.9 seconds
2014-12-07 03:32:14,969 INFO     repeater     task nb300_lastensq starting 12.0 seconds late
2014-12-07 03:32:17,077 INFO     repeater     task nb300_lastensq ended after 2.1 seconds
2014-12-07 03:32:17,078 INFO     repeater     task nb300_lastensq: Time from /home/data/SP1411/proc/nb300/load/wrote_ens_time: 2014/12/07 03:31:53
2014-12-07 03:34:07,208 INFO     repeater     task nb300_lastensq starting 4.2 seconds late
2014-12-07 03:34:09,383 INFO     repeater     task nb300_lastensq ended after 2.2 seconds
2014-12-07 03:34:09,383 INFO     repeater     task nb300_lastensq: Time from /home/data/SP1411/proc/nb300/load/wrote_ens_time: 2014/12/07 03:33:53
2014-12-07 03:36:04,521 INFO     repeater     task nb300_lastensq starting 1.5 seconds late
2014-12-07 03:36:06,651 INFO     repeater     task nb300_lastensq ended after 2.1 seconds
2014-12-07 03:36:06,651 INFO     repeater     task nb300_lastensq: Time from /home/data/SP1411/proc/nb300/load/wrote_ens_time: 2014/12/07 03:35:53
2014-12-07 03:36:56,715 INFO     repeater     task ashtech_hcorrstats starting 3.4 seconds late
2014-12-07 03:36:57,644 INFO     repeater     task ashtech_hcorrstats ended after 0.9 seconds
2014-12-07 03:38:07,730 INFO     repeater     task nb300_lastensq starting 4.7 seconds late
2014-12-07 03:38:09,846 INFO     repeater     task nb300_lastensq ended after 2.1 seconds
2014-12-07 03:38:09,846 INFO     repeater     task nb300_lastensq: Time from /home/data/SP1411/proc/nb300/load/wrote_ens_time: 2014/12/07 03:37:53
2014-12-07 03:40:04,970 INFO     repeater     task nb300_lastensq starting 2.0 seconds late
2014-12-07 03:40:07,119 INFO     repeater     task nb300_lastensq ended after 2.1 seconds
2014-12-07 03:40:07,119 INFO     repeater     task nb300_lastensq: Time from /home/data/SP1411/proc/nb300/load/wrote_ens_time: 2014/12/07 03:39:53
2014-12-07 03:41:57,241 INFO     repeater     task nb300_beamplots starting 4.0 seconds late
2014-12-07 03:41:58,956 INFO     repeater     task nb300_beamplots output:
Starting procsetup

2014-12-07 03:41:58,956 INFO     repeater     task nb300_beamplots ended after 1.7 seconds
2014-12-07 03:41:58,956 INFO     repeater     task nb300_beamplots starting 5.7 seconds late
2014-12-07 03:42:00,687 INFO     repeater     task nb300_beamplots output:
Starting procsetup

2014-12-07 03:42:00,688 INFO     repeater     task nb300_beamplots ended after 1.7 seconds
2014-12-07 03:42:00,688 INFO     repeater     task ashtech_hcorrstats starting 7.4 seconds late
2014-12-07 03:42:01,621 INFO     repeater     task ashtech_hcorrstats ended after 0.9 seconds
2014-12-07 03:42:06,627 INFO     repeater     task nb300_lastensq starting 3.6 seconds late
2014-12-07 03:42:08,756 INFO     repeater     task nb300_lastensq ended after 2.1 seconds
2014-12-07 03:42:08,757 INFO     repeater     task nb300_lastensq: Time from /home/data/SP1411/proc/nb300/load/wrote_ens_time: 2014/12/07 03:41:53
2014-12-07 03:44:03,897 INFO     repeater     task nb300_lastensq starting 0.9 seconds late
2014-12-07 03:44:06,077 INFO     repeater     task nb300_lastensq ended after 2.2 seconds
2014-12-07 03:44:06,077 INFO     repeater     task nb300_lastensq: Time from /home/data/SP1411/proc/nb300/load/wrote_ens_time: 2014/12/07 03:43:53
2014-12-07 03:46:06,220 INFO     repeater     task nb300_lastensq starting 3.2 seconds late
2014-12-07 03:46:08,452 INFO     repeater     task nb300_lastensq ended after 2.2 seconds
2014-12-07 03:46:08,453 INFO     repeater     task nb300_lastensq: Time from /home/data/SP1411/proc/nb300/load/wrote_ens_time: 2014/12/07 03:45:53
2014-12-07 03:46:53,495 INFO     repeater     task ashtech_hcorrstats starting 0.2 seconds late
2014-12-07 03:46:54,426 INFO     repeater     task ashtech_hcorrstats ended after 0.9 seconds
2014-12-07 03:48:04,511 INFO     repeater     task nb300_lastensq starting 1.5 seconds late
2014-12-07 03:48:06,694 INFO     repeater     task nb300_lastensq ended after 2.2 seconds
2014-12-07 03:48:06,694 INFO     repeater     task nb300_lastensq: Time from /home/data/SP1411/proc/nb300/load/wrote_ens_time: 2014/12/07 03:47:53
2014-12-07 03:50:06,840 INFO     repeater     task nb300_lastensq starting 3.8 seconds late
2014-12-07 03:50:09,004 INFO     repeater     task nb300_lastensq ended after 2.2 seconds
2014-12-07 03:50:09,004 INFO     repeater     task nb300_lastensq: Time from /home/data/SP1411/proc/nb300/load/wrote_ens_time: 2014/12/07 03:49:53
2014-12-07 03:51:54,140 INFO     repeater     task nb300_beamplots starting 0.9 seconds late
2014-12-07 03:51:55,736 INFO     repeater     task nb300_beamplots output:
Starting procsetup

2014-12-07 03:51:55,737 INFO     repeater     task nb300_beamplots ended after 1.6 seconds
2014-12-07 03:51:55,737 INFO     repeater     task nb300_beamplots starting 2.5 seconds late
2014-12-07 03:51:57,468 INFO     repeater     task nb300_beamplots output:
Starting procsetup

2014-12-07 03:51:57,468 INFO     repeater     task nb300_beamplots ended after 1.7 seconds
2014-12-07 03:51:57,469 INFO     repeater     task ashtech_hcorrstats starting 4.2 seconds late
2014-12-07 03:51:58,401 INFO     repeater     task ashtech_hcorrstats ended after 0.9 seconds
2014-12-07 03:52:03,406 INFO     repeater     task nb300_lastensq starting 0.4 seconds late
2014-12-07 03:52:05,550 INFO     repeater     task nb300_lastensq ended after 2.1 seconds
2014-12-07 03:52:05,550 INFO     repeater     task nb300_lastensq: Time from /home/data/SP1411/proc/nb300/load/wrote_ens_time: 2014/12/07 03:51:53
2014-12-07 03:54:05,697 INFO     repeater     task nb300_lastensq starting 2.7 seconds late
2014-12-07 03:54:07,879 INFO     repeater     task nb300_lastensq ended after 2.2 seconds
2014-12-07 03:54:07,879 INFO     repeater     task nb300_lastensq: Time from /home/data/SP1411/proc/nb300/load/wrote_ens_time: 2014/12/07 03:53:53
2014-12-07 03:56:08,005 INFO     repeater     task nb300_lastensq starting 5.0 seconds late
2014-12-07 03:56:10,183 INFO     repeater     task nb300_lastensq ended after 2.2 seconds
2014-12-07 03:56:10,184 INFO     repeater     task nb300_lastensq: Time from /home/data/SP1411/proc/nb300/load/wrote_ens_time: 2014/12/07 03:55:53
2014-12-07 03:56:55,232 INFO     repeater     task ashtech_hcorrstats starting 2.0 seconds late
2014-12-07 03:56:56,161 INFO     repeater     task ashtech_hcorrstats ended after 0.9 seconds
2014-12-07 03:58:06,244 INFO     repeater     task nb300_lastensq starting 3.2 seconds late
2014-12-07 03:58:08,384 INFO     repeater     task nb300_lastensq ended after 2.1 seconds
2014-12-07 03:58:08,385 INFO     repeater     task nb300_lastensq: Time from /home/data/SP1411/proc/nb300/load/wrote_ens_time: 2014/12/07 03:57:53
2014-12-07 04:00:03,512 INFO     repeater     task nb300_lastensq starting 0.5 seconds late
2014-12-07 04:00:05,688 INFO     repeater     task nb300_lastensq ended after 2.2 seconds
2014-12-07 04:00:05,689 INFO     repeater     task nb300_lastensq: Time from /home/data/SP1411/proc/nb300/load/wrote_ens_time: 2014/12/07 03:59:53
2014-12-07 04:01:55,809 INFO     repeater     task nb300_quick starting 2.6 seconds late
2014-12-07 04:01:59,857 INFO     repeater     task nb300_quick ended after 4.0 seconds
2014-12-07 04:01:59,858 INFO     repeater     task nb300_3dayplots starting 6.6 seconds late
2014-12-07 04:02:04,328 INFO     repeater     task nb300_3dayplots ended after 4.5 seconds
2014-12-07 04:02:04,328 INFO     repeater     task nb300_beamplots starting 11.1 seconds late
2014-12-07 04:02:06,009 INFO     repeater     task nb300_beamplots output:
Starting procsetup

2014-12-07 04:02:06,009 INFO     repeater     task nb300_beamplots ended after 1.7 seconds
2014-12-07 04:02:06,010 INFO     repeater     task nb300_beamplots starting 12.7 seconds late
2014-12-07 04:02:07,748 INFO     repeater     task nb300_beamplots output:
Starting procsetup

2014-12-07 04:02:07,748 INFO     repeater     task nb300_beamplots ended after 1.7 seconds
2014-12-07 04:02:07,748 INFO     repeater     task ashtech_hcorrstats starting 14.5 seconds late
2014-12-07 04:02:08,679 INFO     repeater     task ashtech_hcorrstats ended after 0.9 seconds
2014-12-07 04:02:13,685 INFO     repeater     task nb300_lastensq starting 10.7 seconds late
2014-12-07 04:02:15,793 INFO     repeater     task nb300_lastensq ended after 2.1 seconds
2014-12-07 04:02:15,794 INFO     repeater     task nb300_lastensq: Time from /home/data/SP1411/proc/nb300/load/wrote_ens_time: 2014/12/07 04:01:53
2014-12-07 04:04:05,921 INFO     repeater     task nb300_lastensq starting 2.9 seconds late
2014-12-07 04:04:08,028 INFO     repeater     task nb300_lastensq ended after 2.1 seconds
2014-12-07 04:04:08,028 INFO     repeater     task nb300_lastensq: Time from /home/data/SP1411/proc/nb300/load/wrote_ens_time: 2014/12/07 04:03:53
2014-12-07 04:06:03,154 INFO     repeater     task nb300_lastensq starting 0.2 seconds late
2014-12-07 04:06:05,216 INFO     repeater     task nb300_lastensq ended after 2.1 seconds
2014-12-07 04:06:05,216 INFO     repeater     task nb300_lastensq: Time from /home/data/SP1411/proc/nb300/load/wrote_ens_time: 2014/12/07 04:05:53
2014-12-07 04:06:55,269 INFO     repeater     task ashtech_hcorrstats starting 2.0 seconds late
2014-12-07 04:06:56,192 INFO     repeater     task ashtech_hcorrstats ended after 0.9 seconds
2014-12-07 04:08:06,271 INFO     repeater     task nb300_lastensq starting 3.3 seconds late
2014-12-07 04:08:08,381 INFO     repeater     task nb300_lastensq ended after 2.1 seconds
2014-12-07 04:08:08,381 INFO     repeater     task nb300_lastensq: Time from /home/data/SP1411/proc/nb300/load/wrote_ens_time: 2014/12/07 04:07:53
2014-12-07 04:10:03,510 INFO     repeater     task nb300_lastensq starting 0.5 seconds late
2014-12-07 04:10:05,578 INFO     repeater     task nb300_lastensq ended after 2.1 seconds
2014-12-07 04:10:05,578 INFO     repeater     task nb300_lastensq: Time from /home/data/SP1411/proc/nb300/load/wrote_ens_time: 2014/12/07 04:09:53
2014-12-07 04:11:55,714 INFO     repeater     task nb300_beamplots starting 2.4 seconds late
2014-12-07 04:11:57,312 INFO     repeater     task nb300_beamplots output:
Starting procsetup

2014-12-07 04:11:57,312 INFO     repeater     task nb300_beamplots ended after 1.6 seconds
2014-12-07 04:11:57,312 INFO     repeater     task nb300_beamplots starting 4.0 seconds late
2014-12-07 04:11:59,041 INFO     repeater     task nb300_beamplots output:
Starting procsetup

2014-12-07 04:11:59,041 INFO     repeater     task nb300_beamplots ended after 1.7 seconds
2014-12-07 04:11:59,041 INFO     repeater     task ashtech_hcorrstats starting 5.8 seconds late
2014-12-07 04:11:59,971 INFO     repeater     task ashtech_hcorrstats ended after 0.9 seconds
2014-12-07 04:12:04,977 INFO     repeater     task nb300_lastensq starting 2.0 seconds late
2014-12-07 04:12:07,054 INFO     repeater     task nb300_lastensq ended after 2.1 seconds
2014-12-07 04:12:07,054 INFO     repeater     task nb300_lastensq: Time from /home/data/SP1411/proc/nb300/load/wrote_ens_time: 2014/12/07 04:11:53
2014-12-07 04:14:07,191 INFO     repeater     task nb300_lastensq starting 4.2 seconds late
2014-12-07 04:14:09,289 INFO     repeater     task nb300_lastensq ended after 2.1 seconds
2014-12-07 04:14:09,290 INFO     repeater     task nb300_lastensq: Time from /home/data/SP1411/proc/nb300/load/wrote_ens_time: 2014/12/07 04:13:53
2014-12-07 04:16:04,424 INFO     repeater     task nb300_lastensq starting 1.4 seconds late
2014-12-07 04:16:06,533 INFO     repeater     task nb300_lastensq ended after 2.1 seconds
2014-12-07 04:16:06,533 INFO     repeater     task nb300_lastensq: Time from /home/data/SP1411/proc/nb300/load/wrote_ens_time: 2014/12/07 04:15:53
2014-12-07 04:16:56,596 INFO     repeater     task ashtech_hcorrstats starting 3.3 seconds late
2014-12-07 04:16:57,538 INFO     repeater     task ashtech_hcorrstats ended after 0.9 seconds
2014-12-07 04:18:07,626 INFO     repeater     task nb300_lastensq starting 4.6 seconds late
2014-12-07 04:18:09,688 INFO     repeater     task nb300_lastensq ended after 2.1 seconds
2014-12-07 04:18:09,689 INFO     repeater     task nb300_lastensq: Time from /home/data/SP1411/proc/nb300/load/wrote_ens_time: 2014/12/07 04:17:53
2014-12-07 04:20:04,828 INFO     repeater     task nb300_lastensq starting 1.8 seconds late
2014-12-07 04:20:06,894 INFO     repeater     task nb300_lastensq ended after 2.1 seconds
2014-12-07 04:20:06,894 INFO     repeater     task nb300_lastensq: Time from /home/data/SP1411/proc/nb300/load/wrote_ens_time: 2014/12/07 04:19:53
2014-12-07 04:21:57,025 INFO     repeater     task nb300_beamplots starting 3.8 seconds late
2014-12-07 04:21:58,707 INFO     repeater     task nb300_beamplots output:
Starting procsetup

2014-12-07 04:21:58,707 INFO     repeater     task nb300_beamplots ended after 1.7 seconds
2014-12-07 04:21:58,708 INFO     repeater     task nb300_beamplots starting 5.4 seconds late
2014-12-07 04:22:00,406 INFO     repeater     task nb300_beamplots output:
Starting procsetup

2014-12-07 04:22:00,406 INFO     repeater     task nb300_beamplots ended after 1.7 seconds
2014-12-07 04:22:00,407 INFO     repeater     task ashtech_hcorrstats starting 7.1 seconds late
2014-12-07 04:22:01,328 INFO     repeater     task ashtech_hcorrstats ended after 0.9 seconds
2014-12-07 04:22:06,334 INFO     repeater     task nb300_lastensq starting 3.3 seconds late
2014-12-07 04:22:08,417 INFO     repeater     task nb300_lastensq ended after 2.1 seconds
2014-12-07 04:22:08,418 INFO     repeater     task nb300_lastensq: Time from /home/data/SP1411/proc/nb300/load/wrote_ens_time: 2014/12/07 04:21:53
2014-12-07 04:24:03,552 INFO     repeater     task nb300_lastensq starting 0.6 seconds late
2014-12-07 04:24:05,637 INFO     repeater     task nb300_lastensq ended after 2.1 seconds
2014-12-07 04:24:05,637 INFO     repeater     task nb300_lastensq: Time from /home/data/SP1411/proc/nb300/load/wrote_ens_time: 2014/12/07 04:23:53
2014-12-07 04:26:05,782 INFO     repeater     task nb300_lastensq starting 2.8 seconds late
2014-12-07 04:26:07,905 INFO     repeater     task nb300_lastensq ended after 2.1 seconds
2014-12-07 04:26:07,905 INFO     repeater     task nb300_lastensq: Time from /home/data/SP1411/proc/nb300/load/wrote_ens_time: 2014/12/07 04:25:53
2014-12-07 04:26:57,968 INFO     repeater     task ashtech_hcorrstats starting 4.7 seconds late
2014-12-07 04:26:58,896 INFO     repeater     task ashtech_hcorrstats ended after 0.9 seconds
2014-12-07 04:28:03,971 INFO     repeater     task nb300_lastensq starting 1.0 seconds late
2014-12-07 04:28:06,066 INFO     repeater     task nb300_lastensq ended after 2.1 seconds
2014-12-07 04:28:06,067 INFO     repeater     task nb300_lastensq: Time from /home/data/SP1411/proc/nb300/load/wrote_ens_time: 2014/12/07 04:27:53
2014-12-07 04:30:06,188 INFO     repeater     task nb300_lastensq starting 3.2 seconds late
2014-12-07 04:30:08,259 INFO     repeater     task nb300_lastensq ended after 2.1 seconds
2014-12-07 04:30:08,260 INFO     repeater     task nb300_lastensq: Time from /home/data/SP1411/proc/nb300/load/wrote_ens_time: 2014/12/07 04:29:53
2014-12-07 04:31:53,381 INFO     repeater     task nb300_quick starting 0.1 seconds late
2014-12-07 04:31:57,420 INFO     repeater     task nb300_quick ended after 4.0 seconds
2014-12-07 04:31:57,420 INFO     repeater     task nb300_3dayplots starting 4.2 seconds late
2014-12-07 04:32:02,010 INFO     repeater     task nb300_3dayplots ended after 4.6 seconds
2014-12-07 04:32:02,010 INFO     repeater     task nb300_beamplots starting 8.7 seconds late
2014-12-07 04:32:03,688 INFO     repeater     task nb300_beamplots output:
Starting procsetup

2014-12-07 04:32:03,688 INFO     repeater     task nb300_beamplots ended after 1.7 seconds
2014-12-07 04:32:03,688 INFO     repeater     task nb300_beamplots starting 10.4 seconds late
2014-12-07 04:32:05,403 INFO     repeater     task nb300_beamplots output:
Starting procsetup

2014-12-07 04:32:05,403 INFO     repeater     task nb300_beamplots ended after 1.7 seconds
2014-12-07 04:32:05,403 INFO     repeater     task ashtech_hcorrstats starting 12.1 seconds late
2014-12-07 04:32:06,349 INFO     repeater     task ashtech_hcorrstats ended after 0.9 seconds
2014-12-07 04:32:11,355 INFO     repeater     task nb300_lastensq starting 8.4 seconds late
2014-12-07 04:32:13,421 INFO     repeater     task nb300_lastensq ended after 2.1 seconds
2014-12-07 04:32:13,421 INFO     repeater     task nb300_lastensq: Time from /home/data/SP1411/proc/nb300/load/wrote_ens_time: 2014/12/07 04:31:53
2014-12-07 04:34:03,540 INFO     repeater     task nb300_lastensq starting 0.5 seconds late
2014-12-07 04:34:05,675 INFO     repeater     task nb300_lastensq ended after 2.1 seconds
2014-12-07 04:34:05,675 INFO     repeater     task nb300_lastensq: Time from /home/data/SP1411/proc/nb300/load/wrote_ens_time: 2014/12/07 04:33:53
2014-12-07 04:36:05,822 INFO     repeater     task nb300_lastensq starting 2.8 seconds late
2014-12-07 04:36:07,967 INFO     repeater     task nb300_lastensq ended after 2.1 seconds
2014-12-07 04:36:07,967 INFO     repeater     task nb300_lastensq: Time from /home/data/SP1411/proc/nb300/load/wrote_ens_time: 2014/12/07 04:35:53
2014-12-07 04:36:58,017 INFO     repeater     task ashtech_hcorrstats starting 4.7 seconds late
2014-12-07 04:36:58,955 INFO     repeater     task ashtech_hcorrstats ended after 0.9 seconds
2014-12-07 04:38:04,030 INFO     repeater     task nb300_lastensq starting 1.0 seconds late
2014-12-07 04:38:06,125 INFO     repeater     task nb300_lastensq ended after 2.1 seconds
2014-12-07 04:38:06,126 INFO     repeater     task nb300_lastensq: Time from /home/data/SP1411/proc/nb300/load/wrote_ens_time: 2014/12/07 04:37:53
2014-12-07 04:40:06,267 INFO     repeater     task nb300_lastensq starting 3.3 seconds late
2014-12-07 04:40:08,362 INFO     repeater     task nb300_lastensq ended after 2.1 seconds
2014-12-07 04:40:08,362 INFO     repeater     task nb300_lastensq: Time from /home/data/SP1411/proc/nb300/load/wrote_ens_time: 2014/12/07 04:39:53
2014-12-07 04:41:53,483 INFO     repeater     task nb300_beamplots starting 0.2 seconds late
2014-12-07 04:41:55,177 INFO     repeater     task nb300_beamplots output:
Starting procsetup

2014-12-07 04:41:55,178 INFO     repeater     task nb300_beamplots ended after 1.7 seconds
2014-12-07 04:41:55,178 INFO     repeater     task nb300_beamplots starting 1.9 seconds late
2014-12-07 04:41:56,895 INFO     repeater     task nb300_beamplots output:
Starting procsetup

2014-12-07 04:41:56,895 INFO     repeater     task nb300_beamplots ended after 1.7 seconds
2014-12-07 04:41:56,895 INFO     repeater     task ashtech_hcorrstats starting 3.6 seconds late
2014-12-07 04:41:57,827 INFO     repeater     task ashtech_hcorrstats ended after 0.9 seconds
2014-12-07 04:42:07,838 INFO     repeater     task nb300_lastensq starting 4.8 seconds late
2014-12-07 04:42:09,925 INFO     repeater     task nb300_lastensq ended after 2.1 seconds
2014-12-07 04:42:09,925 INFO     repeater     task nb300_lastensq: Time from /home/data/SP1411/proc/nb300/load/wrote_ens_time: 2014/12/07 04:41:53
2014-12-07 04:44:05,055 INFO     repeater     task nb300_lastensq starting 2.1 seconds late
2014-12-07 04:44:07,141 INFO     repeater     task nb300_lastensq ended after 2.1 seconds
2014-12-07 04:44:07,142 INFO     repeater     task nb300_lastensq: Time from /home/data/SP1411/proc/nb300/load/wrote_ens_time: 2014/12/07 04:43:53
2014-12-07 04:46:07,281 INFO     repeater     task nb300_lastensq starting 4.3 seconds late
2014-12-07 04:46:09,408 INFO     repeater     task nb300_lastensq ended after 2.1 seconds
2014-12-07 04:46:09,409 INFO     repeater     task nb300_lastensq: Time from /home/data/SP1411/proc/nb300/load/wrote_ens_time: 2014/12/07 04:45:53
2014-12-07 04:46:54,461 INFO     repeater     task ashtech_hcorrstats starting 1.2 seconds late
2014-12-07 04:46:55,403 INFO     repeater     task ashtech_hcorrstats ended after 0.9 seconds
2014-12-07 04:48:05,481 INFO     repeater     task nb300_lastensq starting 2.5 seconds late
2014-12-07 04:48:07,619 INFO     repeater     task nb300_lastensq ended after 2.1 seconds
2014-12-07 04:48:07,620 INFO     repeater     task nb300_lastensq: Time from /home/data/SP1411/proc/nb300/load/wrote_ens_time: 2014/12/07 04:47:53
2014-12-07 04:50:07,764 INFO     repeater     task nb300_lastensq starting 4.8 seconds late
2014-12-07 04:50:09,881 INFO     repeater     task nb300_lastensq ended after 2.1 seconds
2014-12-07 04:50:09,882 INFO     repeater     task nb300_lastensq: Time from /home/data/SP1411/proc/nb300/load/wrote_ens_time: 2014/12/07 04:49:53
2014-12-07 04:51:54,999 INFO     repeater     task nb300_beamplots starting 1.7 seconds late
2014-12-07 04:51:56,675 INFO     repeater     task nb300_beamplots output:
Starting procsetup

2014-12-07 04:51:56,675 INFO     repeater     task nb300_beamplots ended after 1.7 seconds
2014-12-07 04:51:56,675 INFO     repeater     task nb300_beamplots starting 3.4 seconds late
2014-12-07 04:51:58,278 INFO     repeater     task nb300_beamplots output:
Starting procsetup

2014-12-07 04:51:58,278 INFO     repeater     task nb300_beamplots ended after 1.6 seconds
2014-12-07 04:51:58,278 INFO     repeater     task ashtech_hcorrstats starting 5.0 seconds late
2014-12-07 04:51:59,200 INFO     repeater     task ashtech_hcorrstats ended after 0.9 seconds
2014-12-07 04:52:04,204 INFO     repeater     task nb300_lastensq starting 1.2 seconds late
2014-12-07 04:52:06,339 INFO     repeater     task nb300_lastensq ended after 2.1 seconds
2014-12-07 04:52:06,339 INFO     repeater     task nb300_lastensq: Time from /home/data/SP1411/proc/nb300/load/wrote_ens_time: 2014/12/07 04:51:53
2014-12-07 04:54:06,481 INFO     repeater     task nb300_lastensq starting 3.5 seconds late
2014-12-07 04:54:08,574 INFO     repeater     task nb300_lastensq ended after 2.1 seconds
2014-12-07 04:54:08,574 INFO     repeater     task nb300_lastensq: Time from /home/data/SP1411/proc/nb300/load/wrote_ens_time: 2014/12/07 04:53:53
2014-12-07 04:56:03,721 INFO     repeater     task nb300_lastensq starting 0.7 seconds late
2014-12-07 04:56:05,822 INFO     repeater     task nb300_lastensq ended after 2.1 seconds
2014-12-07 04:56:05,822 INFO     repeater     task nb300_lastensq: Time from /home/data/SP1411/proc/nb300/load/wrote_ens_time: 2014/12/07 04:55:53
2014-12-07 04:56:55,879 INFO     repeater     task ashtech_hcorrstats starting 2.6 seconds late
2014-12-07 04:56:56,810 INFO     repeater     task ashtech_hcorrstats ended after 0.9 seconds
2014-12-07 04:58:06,895 INFO     repeater     task nb300_lastensq starting 3.9 seconds late
2014-12-07 04:58:09,001 INFO     repeater     task nb300_lastensq ended after 2.1 seconds
2014-12-07 04:58:09,002 INFO     repeater     task nb300_lastensq: Time from /home/data/SP1411/proc/nb300/load/wrote_ens_time: 2014/12/07 04:57:53
2014-12-07 05:00:04,134 INFO     repeater     task nb300_lastensq starting 1.1 seconds late
2014-12-07 05:00:06,272 INFO     repeater     task nb300_lastensq ended after 2.1 seconds
2014-12-07 05:00:06,273 INFO     repeater     task nb300_lastensq: Time from /home/data/SP1411/proc/nb300/load/wrote_ens_time: 2014/12/07 04:59:53
2014-12-07 05:01:56,395 INFO     repeater     task nb300_quick starting 3.2 seconds late
2014-12-07 05:02:00,349 INFO     repeater     task nb300_quick ended after 4.0 seconds
2014-12-07 05:02:00,350 INFO     repeater     task nb300_3dayplots starting 7.1 seconds late
2014-12-07 05:02:04,762 INFO     repeater     task nb300_3dayplots ended after 4.4 seconds
2014-12-07 05:02:04,762 INFO     repeater     task nb300_beamplots starting 11.5 seconds late
2014-12-07 05:02:06,431 INFO     repeater     task nb300_beamplots output:
Starting procsetup

2014-12-07 05:02:06,431 INFO     repeater     task nb300_beamplots ended after 1.7 seconds
2014-12-07 05:02:06,431 INFO     repeater     task nb300_beamplots starting 13.2 seconds late
2014-12-07 05:02:08,034 INFO     repeater     task nb300_beamplots output:
Starting procsetup

2014-12-07 05:02:08,035 INFO     repeater     task nb300_beamplots ended after 1.6 seconds
2014-12-07 05:02:08,035 INFO     repeater     task ashtech_hcorrstats starting 14.8 seconds late
2014-12-07 05:02:08,952 INFO     repeater     task ashtech_hcorrstats ended after 0.9 seconds
2014-12-07 05:02:13,954 INFO     repeater     task nb300_lastensq starting 11.0 seconds late
2014-12-07 05:02:16,124 INFO     repeater     task nb300_lastensq ended after 2.2 seconds
2014-12-07 05:02:16,125 INFO     repeater     task nb300_lastensq: Time from /home/data/SP1411/proc/nb300/load/wrote_ens_time: 2014/12/07 05:01:53
2014-12-07 05:04:06,253 INFO     repeater     task nb300_lastensq starting 3.3 seconds late
2014-12-07 05:04:08,386 INFO     repeater     task nb300_lastensq ended after 2.1 seconds
2014-12-07 05:04:08,387 INFO     repeater     task nb300_lastensq: Time from /home/data/SP1411/proc/nb300/load/wrote_ens_time: 2014/12/07 05:03:53
2014-12-07 05:06:03,522 INFO     repeater     task nb300_lastensq starting 0.5 seconds late
2014-12-07 05:06:05,682 INFO     repeater     task nb300_lastensq ended after 2.2 seconds
2014-12-07 05:06:05,682 INFO     repeater     task nb300_lastensq: Time from /home/data/SP1411/proc/nb300/load/wrote_ens_time: 2014/12/07 05:05:53
2014-12-07 05:06:55,745 INFO     repeater     task ashtech_hcorrstats starting 2.5 seconds late
2014-12-07 05:06:56,674 INFO     repeater     task ashtech_hcorrstats ended after 0.9 seconds
2014-12-07 05:08:06,753 INFO     repeater     task nb300_lastensq starting 3.8 seconds late
2014-12-07 05:08:08,901 INFO     repeater     task nb300_lastensq ended after 2.1 seconds
2014-12-07 05:08:08,901 INFO     repeater     task nb300_lastensq: Time from /home/data/SP1411/proc/nb300/load/wrote_ens_time: 2014/12/07 05:07:53
2014-12-07 05:10:04,041 INFO     repeater     task nb300_lastensq starting 1.0 seconds late
2014-12-07 05:10:06,215 INFO     repeater     task nb300_lastensq ended after 2.2 seconds
2014-12-07 05:10:06,215 INFO     repeater     task nb300_lastensq: Time from /home/data/SP1411/proc/nb300/load/wrote_ens_time: 2014/12/07 05:09:53
2014-12-07 05:11:56,349 INFO     repeater     task nb300_beamplots starting 3.1 seconds late
2014-12-07 05:11:58,015 INFO     repeater     task nb300_beamplots output:
Starting procsetup

2014-12-07 05:11:58,016 INFO     repeater     task nb300_beamplots ended after 1.7 seconds
2014-12-07 05:11:58,016 INFO     repeater     task nb300_beamplots starting 4.7 seconds late
2014-12-07 05:11:59,624 INFO     repeater     task nb300_beamplots output:
Starting procsetup

2014-12-07 05:11:59,624 INFO     repeater     task nb300_beamplots ended after 1.6 seconds
2014-12-07 05:11:59,624 INFO     repeater     task ashtech_hcorrstats starting 6.3 seconds late
2014-12-07 05:12:00,547 INFO     repeater     task ashtech_hcorrstats ended after 0.9 seconds
2014-12-07 05:12:05,553 INFO     repeater     task nb300_lastensq starting 2.6 seconds late
2014-12-07 05:12:07,712 INFO     repeater     task nb300_lastensq ended after 2.2 seconds
2014-12-07 05:12:07,713 INFO     repeater     task nb300_lastensq: Time from /home/data/SP1411/proc/nb300/load/wrote_ens_time: 2014/12/07 05:11:53
2014-12-07 05:14:07,851 INFO     repeater     task nb300_lastensq starting 4.9 seconds late
2014-12-07 05:14:09,951 INFO     repeater     task nb300_lastensq ended after 2.1 seconds
2014-12-07 05:14:09,951 INFO     repeater     task nb300_lastensq: Time from /home/data/SP1411/proc/nb300/load/wrote_ens_time: 2014/12/07 05:13:53
2014-12-07 05:16:05,087 INFO     repeater     task nb300_lastensq starting 2.1 seconds late
2014-12-07 05:16:07,240 INFO     repeater     task nb300_lastensq ended after 2.2 seconds
2014-12-07 05:16:07,240 INFO     repeater     task nb300_lastensq: Time from /home/data/SP1411/proc/nb300/load/wrote_ens_time: 2014/12/07 05:15:53
2014-12-07 05:16:57,296 INFO     repeater     task ashtech_hcorrstats starting 4.0 seconds late
2014-12-07 05:16:58,232 INFO     repeater     task ashtech_hcorrstats ended after 0.9 seconds
2014-12-07 05:18:03,298 INFO     repeater     task nb300_lastensq starting 0.3 seconds late
2014-12-07 05:18:05,414 INFO     repeater     task nb300_lastensq ended after 2.1 seconds
2014-12-07 05:18:05,415 INFO     repeater     task nb300_lastensq: Time from /home/data/SP1411/proc/nb300/load/wrote_ens_time: 2014/12/07 05:17:53
2014-12-07 05:20:05,551 INFO     repeater     task nb300_lastensq starting 2.6 seconds late
2014-12-07 05:20:07,658 INFO     repeater     task nb300_lastensq ended after 2.1 seconds
2014-12-07 05:20:07,659 INFO     repeater     task nb300_lastensq: Time from /home/data/SP1411/proc/nb300/load/wrote_ens_time: 2014/12/07 05:19:53
2014-12-07 05:21:57,784 INFO     repeater     task nb300_beamplots starting 4.5 seconds late
2014-12-07 05:21:59,500 INFO     repeater     task nb300_beamplots output:
Starting procsetup

2014-12-07 05:21:59,500 INFO     repeater     task nb300_beamplots ended after 1.7 seconds
2014-12-07 05:21:59,500 INFO     repeater     task nb300_beamplots starting 6.2 seconds late
2014-12-07 05:22:01,112 INFO     repeater     task nb300_beamplots output:
Starting procsetup

2014-12-07 05:22:01,112 INFO     repeater     task nb300_beamplots ended after 1.6 seconds
2014-12-07 05:22:01,113 INFO     repeater     task ashtech_hcorrstats starting 7.8 seconds late
2014-12-07 05:22:02,034 INFO     repeater     task ashtech_hcorrstats ended after 0.9 seconds
2014-12-07 05:22:07,040 INFO     repeater     task nb300_lastensq starting 4.0 seconds late
2014-12-07 05:22:09,159 INFO     repeater     task nb300_lastensq ended after 2.1 seconds
2014-12-07 05:22:09,159 INFO     repeater     task nb300_lastensq: Time from /home/data/SP1411/proc/nb300/load/wrote_ens_time: 2014/12/07 05:21:53
2014-12-07 05:24:04,288 INFO     repeater     task nb300_lastensq starting 1.3 seconds late
2014-12-07 05:24:06,421 INFO     repeater     task nb300_lastensq ended after 2.1 seconds
2014-12-07 05:24:06,421 INFO     repeater     task nb300_lastensq: Time from /home/data/SP1411/proc/nb300/load/wrote_ens_time: 2014/12/07 05:23:53
2014-12-07 05:26:06,550 INFO     repeater     task nb300_lastensq starting 3.6 seconds late
2014-12-07 05:26:08,664 INFO     repeater     task nb300_lastensq ended after 2.1 seconds
2014-12-07 05:26:08,665 INFO     repeater     task nb300_lastensq: Time from /home/data/SP1411/proc/nb300/load/wrote_ens_time: 2014/12/07 05:25:53
2014-12-07 05:26:53,721 INFO     repeater     task ashtech_hcorrstats starting 0.4 seconds late
2014-12-07 05:26:54,656 INFO     repeater     task ashtech_hcorrstats ended after 0.9 seconds
2014-12-07 05:28:04,734 INFO     repeater     task nb300_lastensq starting 1.7 seconds late
2014-12-07 05:28:06,899 INFO     repeater     task nb300_lastensq ended after 2.2 seconds
2014-12-07 05:28:06,900 INFO     repeater     task nb300_lastensq: Time from /home/data/SP1411/proc/nb300/load/wrote_ens_time: 2014/12/07 05:27:53
2014-12-07 05:30:07,045 INFO     repeater     task nb300_lastensq starting 4.0 seconds late
2014-12-07 05:30:09,208 INFO     repeater     task nb300_lastensq ended after 2.2 seconds
2014-12-07 05:30:09,209 INFO     repeater     task nb300_lastensq: Time from /home/data/SP1411/proc/nb300/load/wrote_ens_time: 2014/12/07 05:29:53
2014-12-07 05:31:54,321 INFO     repeater     task nb300_quick starting 1.1 seconds late
2014-12-07 05:31:58,315 INFO     repeater     task nb300_quick ended after 4.0 seconds
2014-12-07 05:31:58,316 INFO     repeater     task nb300_3dayplots starting 5.1 seconds late
2014-12-07 05:32:02,853 INFO     repeater     task nb300_3dayplots ended after 4.5 seconds
2014-12-07 05:32:02,853 INFO     repeater     task nb300_beamplots starting 9.6 seconds late
2014-12-07 05:32:04,514 INFO     repeater     task nb300_beamplots output:
Starting procsetup

2014-12-07 05:32:04,515 INFO     repeater     task nb300_beamplots ended after 1.7 seconds
2014-12-07 05:32:04,515 INFO     repeater     task nb300_beamplots starting 11.2 seconds late
2014-12-07 05:32:06,218 INFO     repeater     task nb300_beamplots output:
Starting procsetup

2014-12-07 05:32:06,218 INFO     repeater     task nb300_beamplots ended after 1.7 seconds
2014-12-07 05:32:06,218 INFO     repeater     task ashtech_hcorrstats starting 12.9 seconds late
2014-12-07 05:32:07,144 INFO     repeater     task ashtech_hcorrstats ended after 0.9 seconds
2014-12-07 05:32:12,150 INFO     repeater     task nb300_lastensq starting 9.2 seconds late
2014-12-07 05:32:14,324 INFO     repeater     task nb300_lastensq ended after 2.2 seconds
2014-12-07 05:32:14,324 INFO     repeater     task nb300_lastensq: Time from /home/data/SP1411/proc/nb300/load/wrote_ens_time: 2014/12/07 05:31:53
2014-12-07 05:34:04,464 INFO     repeater     task nb300_lastensq starting 1.5 seconds late
2014-12-07 05:34:06,634 INFO     repeater     task nb300_lastensq ended after 2.2 seconds
2014-12-07 05:34:06,635 INFO     repeater     task nb300_lastensq: Time from /home/data/SP1411/proc/nb300/load/wrote_ens_time: 2014/12/07 05:33:53
2014-12-07 05:36:06,775 INFO     repeater     task nb300_lastensq starting 3.8 seconds late
2014-12-07 05:36:08,894 INFO     repeater     task nb300_lastensq ended after 2.1 seconds
2014-12-07 05:36:08,894 INFO     repeater     task nb300_lastensq: Time from /home/data/SP1411/proc/nb300/load/wrote_ens_time: 2014/12/07 05:35:53
2014-12-07 05:36:53,955 INFO     repeater     task ashtech_hcorrstats starting 0.7 seconds late
2014-12-07 05:36:54,889 INFO     repeater     task ashtech_hcorrstats ended after 0.9 seconds
2014-12-07 05:38:04,964 INFO     repeater     task nb300_lastensq starting 2.0 seconds late
2014-12-07 05:38:07,148 INFO     repeater     task nb300_lastensq ended after 2.2 seconds
2014-12-07 05:38:07,148 INFO     repeater     task nb300_lastensq: Time from /home/data/SP1411/proc/nb300/load/wrote_ens_time: 2014/12/07 05:37:53
2014-12-07 05:40:07,288 INFO     repeater     task nb300_lastensq starting 4.3 seconds late
2014-12-07 05:40:09,428 INFO     repeater     task nb300_lastensq ended after 2.1 seconds
2014-12-07 05:40:09,428 INFO     repeater     task nb300_lastensq: Time from /home/data/SP1411/proc/nb300/load/wrote_ens_time: 2014/12/07 05:39:53
2014-12-07 05:41:54,532 INFO     repeater     task nb300_beamplots starting 1.3 seconds late
2014-12-07 05:41:56,242 INFO     repeater     task nb300_beamplots output:
Starting procsetup

2014-12-07 05:41:56,242 INFO     repeater     task nb300_beamplots ended after 1.7 seconds
2014-12-07 05:41:56,243 INFO     repeater     task nb300_beamplots starting 3.0 seconds late
2014-12-07 05:41:57,979 INFO     repeater     task nb300_beamplots output:
Starting procsetup

2014-12-07 05:41:57,979 INFO     repeater     task nb300_beamplots ended after 1.7 seconds
2014-12-07 05:41:57,980 INFO     repeater     task ashtech_hcorrstats starting 4.7 seconds late
2014-12-07 05:41:58,912 INFO     repeater     task ashtech_hcorrstats ended after 0.9 seconds
2014-12-07 05:42:03,917 INFO     repeater     task nb300_lastensq starting 0.9 seconds late
2014-12-07 05:42:06,097 INFO     repeater     task nb300_lastensq ended after 2.2 seconds
2014-12-07 05:42:06,097 INFO     repeater     task nb300_lastensq: Time from /home/data/SP1411/proc/nb300/load/wrote_ens_time: 2014/12/07 05:41:53
2014-12-07 05:44:06,234 INFO     repeater     task nb300_lastensq starting 3.2 seconds late
2014-12-07 05:44:08,424 INFO     repeater     task nb300_lastensq ended after 2.2 seconds
2014-12-07 05:44:08,424 INFO     repeater     task nb300_lastensq: Time from /home/data/SP1411/proc/nb300/load/wrote_ens_time: 2014/12/07 05:43:53
2014-12-07 05:46:03,560 INFO     repeater     task nb300_lastensq starting 0.6 seconds late
2014-12-07 05:46:05,693 INFO     repeater     task nb300_lastensq ended after 2.1 seconds
2014-12-07 05:46:05,694 INFO     repeater     task nb300_lastensq: Time from /home/data/SP1411/proc/nb300/load/wrote_ens_time: 2014/12/07 05:45:53
2014-12-07 05:46:55,753 INFO     repeater     task ashtech_hcorrstats starting 2.5 seconds late
2014-12-07 05:46:56,697 INFO     repeater     task ashtech_hcorrstats ended after 0.9 seconds
2014-12-07 05:48:06,770 INFO     repeater     task nb300_lastensq starting 3.8 seconds late
2014-12-07 05:48:08,958 INFO     repeater     task nb300_lastensq ended after 2.2 seconds
2014-12-07 05:48:08,958 INFO     repeater     task nb300_lastensq: Time from /home/data/SP1411/proc/nb300/load/wrote_ens_time: 2014/12/07 05:47:53
2014-12-07 05:50:04,088 INFO     repeater     task nb300_lastensq starting 1.1 seconds late
2014-12-07 05:50:06,228 INFO     repeater     task nb300_lastensq ended after 2.1 seconds
2014-12-07 05:50:06,228 INFO     repeater     task nb300_lastensq: Time from /home/data/SP1411/proc/nb300/load/wrote_ens_time: 2014/12/07 05:49:53
2014-12-07 05:51:56,361 INFO     repeater     task nb300_beamplots starting 3.1 seconds late
2014-12-07 05:51:58,086 INFO     repeater     task nb300_beamplots output:
Starting procsetup

2014-12-07 05:51:58,086 INFO     repeater     task nb300_beamplots ended after 1.7 seconds
2014-12-07 05:51:58,086 INFO     repeater     task nb300_beamplots starting 4.8 seconds late
2014-12-07 05:51:59,826 INFO     repeater     task nb300_beamplots output:
Starting procsetup

2014-12-07 05:51:59,826 INFO     repeater     task nb300_beamplots ended after 1.7 seconds
2014-12-07 05:51:59,827 INFO     repeater     task ashtech_hcorrstats starting 6.6 seconds late
2014-12-07 05:52:00,759 INFO     repeater     task ashtech_hcorrstats ended after 0.9 seconds
2014-12-07 05:52:05,761 INFO     repeater     task nb300_lastensq starting 2.8 seconds late
2014-12-07 05:52:07,906 INFO     repeater     task nb300_lastensq ended after 2.1 seconds
2014-12-07 05:52:07,907 INFO     repeater     task nb300_lastensq: Time from /home/data/SP1411/proc/nb300/load/wrote_ens_time: 2014/12/07 05:51:53
2014-12-07 05:54:03,024 INFO     repeater     task nb300_lastensq starting 0.0 seconds late
2014-12-07 05:54:05,226 INFO     repeater     task nb300_lastensq ended after 2.2 seconds
2014-12-07 05:54:05,227 INFO     repeater     task nb300_lastensq: Time from /home/data/SP1411/proc/nb300/load/wrote_ens_time: 2014/12/07 05:53:53
2014-12-07 05:56:05,353 INFO     repeater     task nb300_lastensq starting 2.4 seconds late
2014-12-07 05:56:07,544 INFO     repeater     task nb300_lastensq ended after 2.2 seconds
2014-12-07 05:56:07,544 INFO     repeater     task nb300_lastensq: Time from /home/data/SP1411/proc/nb300/load/wrote_ens_time: 2014/12/07 05:55:53
2014-12-07 05:56:57,604 INFO     repeater     task ashtech_hcorrstats starting 4.3 seconds late
2014-12-07 05:56:58,519 INFO     repeater     task ashtech_hcorrstats ended after 0.9 seconds
