2014-12-06 17:38:04,587 INFO     repeater     task nb300_lastensq starting 1.6 seconds late
2014-12-06 17:38:06,792 INFO     repeater     task nb300_lastensq ended after 2.2 seconds
2014-12-06 17:38:06,793 INFO     repeater     task nb300_lastensq: Time from /home/data/SP1411/proc/nb300/load/wrote_ens_time: 2014/12/06 17:37:53
2014-12-06 17:40:06,921 INFO     repeater     task nb300_lastensq starting 3.9 seconds late
2014-12-06 17:40:09,092 INFO     repeater     task nb300_lastensq ended after 2.2 seconds
2014-12-06 17:40:09,093 INFO     repeater     task nb300_lastensq: Time from /home/data/SP1411/proc/nb300/load/wrote_ens_time: 2014/12/06 17:39:53
2014-12-06 17:41:54,215 INFO     repeater     task nb300_beamplots starting 0.9 seconds late
2014-12-06 17:41:55,909 INFO     repeater     task nb300_beamplots output:
Starting procsetup

2014-12-06 17:41:55,909 INFO     repeater     task nb300_beamplots ended after 1.7 seconds
2014-12-06 17:41:55,910 INFO     repeater     task nb300_beamplots starting 2.6 seconds late
2014-12-06 17:41:57,609 INFO     repeater     task nb300_beamplots output:
Starting procsetup

2014-12-06 17:41:57,610 INFO     repeater     task nb300_beamplots ended after 1.7 seconds
2014-12-06 17:41:57,610 INFO     repeater     task ashtech_hcorrstats starting 4.3 seconds late
2014-12-06 17:41:58,519 INFO     repeater     task ashtech_hcorrstats ended after 0.9 seconds
2014-12-06 17:42:03,524 INFO     repeater     task nb300_lastensq starting 0.5 seconds late
2014-12-06 17:42:05,652 INFO     repeater     task nb300_lastensq ended after 2.1 seconds
2014-12-06 17:42:05,653 INFO     repeater     task nb300_lastensq: Time from /home/data/SP1411/proc/nb300/load/wrote_ens_time: 2014/12/06 17:41:53
2014-12-06 17:44:05,804 INFO     repeater     task nb300_lastensq starting 2.8 seconds late
2014-12-06 17:44:07,931 INFO     repeater     task nb300_lastensq ended after 2.1 seconds
2014-12-06 17:44:07,931 INFO     repeater     task nb300_lastensq: Time from /home/data/SP1411/proc/nb300/load/wrote_ens_time: 2014/12/06 17:43:53
2014-12-06 17:46:03,054 INFO     repeater     task nb300_lastensq starting 0.1 seconds late
2014-12-06 17:46:05,222 INFO     repeater     task nb300_lastensq ended after 2.2 seconds
2014-12-06 17:46:05,222 INFO     repeater     task nb300_lastensq: Time from /home/data/SP1411/proc/nb300/load/wrote_ens_time: 2014/12/06 17:45:53
2014-12-06 17:46:55,272 INFO     repeater     task ashtech_hcorrstats starting 2.0 seconds late
2014-12-06 17:46:56,204 INFO     repeater     task ashtech_hcorrstats ended after 0.9 seconds
2014-12-06 17:48:06,290 INFO     repeater     task nb300_lastensq starting 3.3 seconds late
2014-12-06 17:48:08,442 INFO     repeater     task nb300_lastensq ended after 2.2 seconds
2014-12-06 17:48:08,442 INFO     repeater     task nb300_lastensq: Time from /home/data/SP1411/proc/nb300/load/wrote_ens_time: 2014/12/06 17:47:53
2014-12-06 17:50:03,574 INFO     repeater     task nb300_lastensq starting 0.6 seconds late
2014-12-06 17:50:05,695 INFO     repeater     task nb300_lastensq ended after 2.1 seconds
2014-12-06 17:50:05,695 INFO     repeater     task nb300_lastensq: Time from /home/data/SP1411/proc/nb300/load/wrote_ens_time: 2014/12/06 17:49:53
2014-12-06 17:51:55,822 INFO     repeater     task nb300_beamplots starting 2.5 seconds late
2014-12-06 17:51:57,497 INFO     repeater     task nb300_beamplots output:
Starting procsetup

2014-12-06 17:51:57,497 INFO     repeater     task nb300_beamplots ended after 1.7 seconds
2014-12-06 17:51:57,497 INFO     repeater     task nb300_beamplots starting 4.2 seconds late
2014-12-06 17:51:59,214 INFO     repeater     task nb300_beamplots output:
Starting procsetup

2014-12-06 17:51:59,214 INFO     repeater     task nb300_beamplots ended after 1.7 seconds
2014-12-06 17:51:59,215 INFO     repeater     task ashtech_hcorrstats starting 5.9 seconds late
2014-12-06 17:52:00,122 INFO     repeater     task ashtech_hcorrstats ended after 0.9 seconds
2014-12-06 17:52:05,124 INFO     repeater     task nb300_lastensq starting 2.1 seconds late
2014-12-06 17:52:07,298 INFO     repeater     task nb300_lastensq ended after 2.2 seconds
2014-12-06 17:52:07,298 INFO     repeater     task nb300_lastensq: Time from /home/data/SP1411/proc/nb300/load/wrote_ens_time: 2014/12/06 17:51:53
2014-12-06 17:54:07,426 INFO     repeater     task nb300_lastensq starting 4.4 seconds late
2014-12-06 17:54:09,575 INFO     repeater     task nb300_lastensq ended after 2.1 seconds
2014-12-06 17:54:09,576 INFO     repeater     task nb300_lastensq: Time from /home/data/SP1411/proc/nb300/load/wrote_ens_time: 2014/12/06 17:53:53
2014-12-06 17:56:04,710 INFO     repeater     task nb300_lastensq starting 1.7 seconds late
2014-12-06 17:56:06,921 INFO     repeater     task nb300_lastensq ended after 2.2 seconds
2014-12-06 17:56:06,921 INFO     repeater     task nb300_lastensq: Time from /home/data/SP1411/proc/nb300/load/wrote_ens_time: 2014/12/06 17:55:53
2014-12-06 17:56:56,972 INFO     repeater     task ashtech_hcorrstats starting 3.7 seconds late
2014-12-06 17:56:57,888 INFO     repeater     task ashtech_hcorrstats ended after 0.9 seconds
2014-12-06 17:58:07,968 INFO     repeater     task nb300_lastensq starting 5.0 seconds late
2014-12-06 17:58:10,156 INFO     repeater     task nb300_lastensq ended after 2.2 seconds
2014-12-06 17:58:10,157 INFO     repeater     task nb300_lastensq: Time from /home/data/SP1411/proc/nb300/load/wrote_ens_time: 2014/12/06 17:57:53
2014-12-06 18:00:05,281 INFO     repeater     task nb300_lastensq starting 2.3 seconds late
2014-12-06 18:00:07,494 INFO     repeater     task nb300_lastensq ended after 2.2 seconds
2014-12-06 18:00:07,494 INFO     repeater     task nb300_lastensq: Time from /home/data/SP1411/proc/nb300/load/wrote_ens_time: 2014/12/06 17:59:53
2014-12-06 18:01:57,610 INFO     repeater     task nb300_quick starting 4.4 seconds late
2014-12-06 18:02:00,901 INFO     repeater     task nb300_quick ended after 3.3 seconds
2014-12-06 18:02:00,901 INFO     repeater     task nb300_3dayplots starting 7.7 seconds late
2014-12-06 18:02:04,826 INFO     repeater     task nb300_3dayplots ended after 3.9 seconds
2014-12-06 18:02:04,826 INFO     repeater     task nb300_beamplots starting 11.6 seconds late
2014-12-06 18:02:06,424 INFO     repeater     task nb300_beamplots output:
Starting procsetup

2014-12-06 18:02:06,424 INFO     repeater     task nb300_beamplots ended after 1.6 seconds
2014-12-06 18:02:06,424 INFO     repeater     task nb300_beamplots starting 13.2 seconds late
2014-12-06 18:02:08,166 INFO     repeater     task nb300_beamplots output:
Starting procsetup

2014-12-06 18:02:08,167 INFO     repeater     task nb300_beamplots ended after 1.7 seconds
2014-12-06 18:02:08,167 INFO     repeater     task ashtech_hcorrstats starting 14.9 seconds late
2014-12-06 18:02:09,080 INFO     repeater     task ashtech_hcorrstats ended after 0.9 seconds
2014-12-06 18:02:14,081 INFO     repeater     task nb300_lastensq starting 11.1 seconds late
2014-12-06 18:02:16,134 INFO     repeater     task nb300_lastensq ended after 2.1 seconds
2014-12-06 18:02:16,135 INFO     repeater     task nb300_lastensq: Time from /home/data/SP1411/proc/nb300/load/wrote_ens_time: 2014/12/06 18:01:53
2014-12-06 18:04:06,257 INFO     repeater     task nb300_lastensq starting 3.3 seconds late
2014-12-06 18:04:08,330 INFO     repeater     task nb300_lastensq ended after 2.1 seconds
2014-12-06 18:04:08,330 INFO     repeater     task nb300_lastensq: Time from /home/data/SP1411/proc/nb300/load/wrote_ens_time: 2014/12/06 18:03:53
2014-12-06 18:06:03,464 INFO     repeater     task nb300_lastensq starting 0.5 seconds late
2014-12-06 18:06:05,589 INFO     repeater     task nb300_lastensq ended after 2.1 seconds
2014-12-06 18:06:05,590 INFO     repeater     task nb300_lastensq: Time from /home/data/SP1411/proc/nb300/load/wrote_ens_time: 2014/12/06 18:05:53
2014-12-06 18:06:55,645 INFO     repeater     task ashtech_hcorrstats starting 2.4 seconds late
2014-12-06 18:06:56,557 INFO     repeater     task ashtech_hcorrstats ended after 0.9 seconds
2014-12-06 18:08:06,641 INFO     repeater     task nb300_lastensq starting 3.6 seconds late
2014-12-06 18:08:08,720 INFO     repeater     task nb300_lastensq ended after 2.1 seconds
2014-12-06 18:08:08,720 INFO     repeater     task nb300_lastensq: Time from /home/data/SP1411/proc/nb300/load/wrote_ens_time: 2014/12/06 18:07:53
2014-12-06 18:10:03,844 INFO     repeater     task nb300_lastensq starting 0.8 seconds late
2014-12-06 18:10:05,914 INFO     repeater     task nb300_lastensq ended after 2.1 seconds
2014-12-06 18:10:05,915 INFO     repeater     task nb300_lastensq: Time from /home/data/SP1411/proc/nb300/load/wrote_ens_time: 2014/12/06 18:09:53
2014-12-06 18:11:56,054 INFO     repeater     task nb300_beamplots starting 2.8 seconds late
2014-12-06 18:11:57,746 INFO     repeater     task nb300_beamplots output:
Starting procsetup

2014-12-06 18:11:57,746 INFO     repeater     task nb300_beamplots ended after 1.7 seconds
2014-12-06 18:11:57,746 INFO     repeater     task nb300_beamplots starting 4.5 seconds late
2014-12-06 18:11:59,376 INFO     repeater     task nb300_beamplots output:
Starting procsetup

2014-12-06 18:11:59,376 INFO     repeater     task nb300_beamplots ended after 1.6 seconds
2014-12-06 18:11:59,377 INFO     repeater     task ashtech_hcorrstats starting 6.1 seconds late
2014-12-06 18:12:00,293 INFO     repeater     task ashtech_hcorrstats ended after 0.9 seconds
2014-12-06 18:12:05,297 INFO     repeater     task nb300_lastensq starting 2.3 seconds late
2014-12-06 18:12:07,412 INFO     repeater     task nb300_lastensq ended after 2.1 seconds
2014-12-06 18:12:07,412 INFO     repeater     task nb300_lastensq: Time from /home/data/SP1411/proc/nb300/load/wrote_ens_time: 2014/12/06 18:11:53
2014-12-06 18:14:07,551 INFO     repeater     task nb300_lastensq starting 4.6 seconds late
2014-12-06 18:14:09,614 INFO     repeater     task nb300_lastensq ended after 2.1 seconds
2014-12-06 18:14:09,614 INFO     repeater     task nb300_lastensq: Time from /home/data/SP1411/proc/nb300/load/wrote_ens_time: 2014/12/06 18:13:53
2014-12-06 18:16:04,738 INFO     repeater     task nb300_lastensq starting 1.7 seconds late
2014-12-06 18:16:06,805 INFO     repeater     task nb300_lastensq ended after 2.1 seconds
2014-12-06 18:16:06,806 INFO     repeater     task nb300_lastensq: Time from /home/data/SP1411/proc/nb300/load/wrote_ens_time: 2014/12/06 18:15:53
2014-12-06 18:16:56,869 INFO     repeater     task ashtech_hcorrstats starting 3.6 seconds late
2014-12-06 18:16:57,796 INFO     repeater     task ashtech_hcorrstats ended after 0.9 seconds
2014-12-06 18:18:07,877 INFO     repeater     task nb300_lastensq starting 4.9 seconds late
2014-12-06 18:18:09,984 INFO     repeater     task nb300_lastensq ended after 2.1 seconds
2014-12-06 18:18:09,984 INFO     repeater     task nb300_lastensq: Time from /home/data/SP1411/proc/nb300/load/wrote_ens_time: 2014/12/06 18:17:53
2014-12-06 18:20:05,122 INFO     repeater     task nb300_lastensq starting 2.1 seconds late
2014-12-06 18:20:07,193 INFO     repeater     task nb300_lastensq ended after 2.1 seconds
2014-12-06 18:20:07,194 INFO     repeater     task nb300_lastensq: Time from /home/data/SP1411/proc/nb300/load/wrote_ens_time: 2014/12/06 18:19:53
2014-12-06 18:21:57,321 INFO     repeater     task nb300_beamplots starting 4.0 seconds late
2014-12-06 18:21:58,989 INFO     repeater     task nb300_beamplots output:
Starting procsetup

2014-12-06 18:21:58,989 INFO     repeater     task nb300_beamplots ended after 1.7 seconds
2014-12-06 18:21:58,990 INFO     repeater     task nb300_beamplots starting 5.7 seconds late
2014-12-06 18:22:00,681 INFO     repeater     task nb300_beamplots output:
Starting procsetup

2014-12-06 18:22:00,681 INFO     repeater     task nb300_beamplots ended after 1.7 seconds
2014-12-06 18:22:00,682 INFO     repeater     task ashtech_hcorrstats starting 7.4 seconds late
2014-12-06 18:22:01,589 INFO     repeater     task ashtech_hcorrstats ended after 0.9 seconds
2014-12-06 18:22:06,594 INFO     repeater     task nb300_lastensq starting 3.6 seconds late
2014-12-06 18:22:08,716 INFO     repeater     task nb300_lastensq ended after 2.1 seconds
2014-12-06 18:22:08,716 INFO     repeater     task nb300_lastensq: Time from /home/data/SP1411/proc/nb300/load/wrote_ens_time: 2014/12/06 18:21:53
2014-12-06 18:24:03,851 INFO     repeater     task nb300_lastensq starting 0.9 seconds late
2014-12-06 18:24:05,925 INFO     repeater     task nb300_lastensq ended after 2.1 seconds
2014-12-06 18:24:05,926 INFO     repeater     task nb300_lastensq: Time from /home/data/SP1411/proc/nb300/load/wrote_ens_time: 2014/12/06 18:23:53
2014-12-06 18:26:06,074 INFO     repeater     task nb300_lastensq starting 3.1 seconds late
2014-12-06 18:26:08,205 INFO     repeater     task nb300_lastensq ended after 2.1 seconds
2014-12-06 18:26:08,205 INFO     repeater     task nb300_lastensq: Time from /home/data/SP1411/proc/nb300/load/wrote_ens_time: 2014/12/06 18:25:53
2014-12-06 18:26:58,263 INFO     repeater     task ashtech_hcorrstats starting 5.0 seconds late
2014-12-06 18:26:59,192 INFO     repeater     task ashtech_hcorrstats ended after 0.9 seconds
2014-12-06 18:28:04,268 INFO     repeater     task nb300_lastensq starting 1.3 seconds late
2014-12-06 18:28:06,389 INFO     repeater     task nb300_lastensq ended after 2.1 seconds
2014-12-06 18:28:06,389 INFO     repeater     task nb300_lastensq: Time from /home/data/SP1411/proc/nb300/load/wrote_ens_time: 2014/12/06 18:27:53
2014-12-06 18:30:06,524 INFO     repeater     task nb300_lastensq starting 3.5 seconds late
2014-12-06 18:30:08,650 INFO     repeater     task nb300_lastensq ended after 2.1 seconds
2014-12-06 18:30:08,650 INFO     repeater     task nb300_lastensq: Time from /home/data/SP1411/proc/nb300/load/wrote_ens_time: 2014/12/06 18:29:53
2014-12-06 18:31:53,764 INFO     repeater     task nb300_quick starting 0.5 seconds late
2014-12-06 18:31:57,042 INFO     repeater     task nb300_quick ended after 3.3 seconds
2014-12-06 18:31:57,042 INFO     repeater     task nb300_3dayplots starting 3.8 seconds late
2014-12-06 18:32:00,957 INFO     repeater     task nb300_3dayplots ended after 3.9 seconds
2014-12-06 18:32:00,958 INFO     repeater     task nb300_beamplots starting 7.7 seconds late
2014-12-06 18:32:02,640 INFO     repeater     task nb300_beamplots output:
Starting procsetup

2014-12-06 18:32:02,641 INFO     repeater     task nb300_beamplots ended after 1.7 seconds
2014-12-06 18:32:02,641 INFO     repeater     task nb300_beamplots starting 9.4 seconds late
2014-12-06 18:32:04,354 INFO     repeater     task nb300_beamplots output:
Starting procsetup

2014-12-06 18:32:04,365 INFO     repeater     task nb300_beamplots ended after 1.7 seconds
2014-12-06 18:32:04,366 INFO     repeater     task ashtech_hcorrstats starting 11.1 seconds late
2014-12-06 18:32:05,288 INFO     repeater     task ashtech_hcorrstats ended after 0.9 seconds
2014-12-06 18:32:10,294 INFO     repeater     task nb300_lastensq starting 7.3 seconds late
2014-12-06 18:32:12,418 INFO     repeater     task nb300_lastensq ended after 2.1 seconds
2014-12-06 18:32:12,418 INFO     repeater     task nb300_lastensq: Time from /home/data/SP1411/proc/nb300/load/wrote_ens_time: 2014/12/06 18:31:53
2014-12-06 18:34:07,547 INFO     repeater     task nb300_lastensq starting 4.5 seconds late
2014-12-06 18:34:09,616 INFO     repeater     task nb300_lastensq ended after 2.1 seconds
2014-12-06 18:34:09,617 INFO     repeater     task nb300_lastensq: Time from /home/data/SP1411/proc/nb300/load/wrote_ens_time: 2014/12/06 18:33:53
2014-12-06 18:36:04,753 INFO     repeater     task nb300_lastensq starting 1.8 seconds late
2014-12-06 18:36:06,886 INFO     repeater     task nb300_lastensq ended after 2.1 seconds
2014-12-06 18:36:06,887 INFO     repeater     task nb300_lastensq: Time from /home/data/SP1411/proc/nb300/load/wrote_ens_time: 2014/12/06 18:35:53
2014-12-06 18:36:56,943 INFO     repeater     task ashtech_hcorrstats starting 3.7 seconds late
2014-12-06 18:36:57,855 INFO     repeater     task ashtech_hcorrstats ended after 0.9 seconds
2014-12-06 18:38:07,934 INFO     repeater     task nb300_lastensq starting 4.9 seconds late
2014-12-06 18:38:10,065 INFO     repeater     task nb300_lastensq ended after 2.1 seconds
2014-12-06 18:38:10,066 INFO     repeater     task nb300_lastensq: Time from /home/data/SP1411/proc/nb300/load/wrote_ens_time: 2014/12/06 18:37:53
2014-12-06 18:40:05,206 INFO     repeater     task nb300_lastensq starting 2.2 seconds late
2014-12-06 18:40:07,298 INFO     repeater     task nb300_lastensq ended after 2.1 seconds
2014-12-06 18:40:07,298 INFO     repeater     task nb300_lastensq: Time from /home/data/SP1411/proc/nb300/load/wrote_ens_time: 2014/12/06 18:39:53
2014-12-06 18:41:57,419 INFO     repeater     task nb300_beamplots starting 4.1 seconds late
2014-12-06 18:41:59,080 INFO     repeater     task nb300_beamplots output:
Starting procsetup

2014-12-06 18:41:59,080 INFO     repeater     task nb300_beamplots ended after 1.7 seconds
2014-12-06 18:41:59,081 INFO     repeater     task nb300_beamplots starting 5.8 seconds late
2014-12-06 18:42:00,690 INFO     repeater     task nb300_beamplots output:
Starting procsetup

2014-12-06 18:42:00,690 INFO     repeater     task nb300_beamplots ended after 1.6 seconds
2014-12-06 18:42:00,691 INFO     repeater     task ashtech_hcorrstats starting 7.4 seconds late
2014-12-06 18:42:01,607 INFO     repeater     task ashtech_hcorrstats ended after 0.9 seconds
2014-12-06 18:42:06,610 INFO     repeater     task nb300_lastensq starting 3.6 seconds late
2014-12-06 18:42:08,692 INFO     repeater     task nb300_lastensq ended after 2.1 seconds
2014-12-06 18:42:08,692 INFO     repeater     task nb300_lastensq: Time from /home/data/SP1411/proc/nb300/load/wrote_ens_time: 2014/12/06 18:41:53
2014-12-06 18:44:03,821 INFO     repeater     task nb300_lastensq starting 0.8 seconds late
2014-12-06 18:44:05,962 INFO     repeater     task nb300_lastensq ended after 2.1 seconds
2014-12-06 18:44:05,963 INFO     repeater     task nb300_lastensq: Time from /home/data/SP1411/proc/nb300/load/wrote_ens_time: 2014/12/06 18:43:53
2014-12-06 18:46:06,101 INFO     repeater     task nb300_lastensq starting 3.1 seconds late
2014-12-06 18:46:08,199 INFO     repeater     task nb300_lastensq ended after 2.1 seconds
2014-12-06 18:46:08,200 INFO     repeater     task nb300_lastensq: Time from /home/data/SP1411/proc/nb300/load/wrote_ens_time: 2014/12/06 18:45:53
2014-12-06 18:46:58,249 INFO     repeater     task ashtech_hcorrstats starting 5.0 seconds late
2014-12-06 18:46:59,186 INFO     repeater     task ashtech_hcorrstats ended after 0.9 seconds
2014-12-06 18:48:04,260 INFO     repeater     task nb300_lastensq starting 1.3 seconds late
2014-12-06 18:48:06,388 INFO     repeater     task nb300_lastensq ended after 2.1 seconds
2014-12-06 18:48:06,388 INFO     repeater     task nb300_lastensq: Time from /home/data/SP1411/proc/nb300/load/wrote_ens_time: 2014/12/06 18:47:53
2014-12-06 18:50:06,521 INFO     repeater     task nb300_lastensq starting 3.5 seconds late
2014-12-06 18:50:08,659 INFO     repeater     task nb300_lastensq ended after 2.1 seconds
2014-12-06 18:50:08,660 INFO     repeater     task nb300_lastensq: Time from /home/data/SP1411/proc/nb300/load/wrote_ens_time: 2014/12/06 18:49:53
2014-12-06 18:51:53,779 INFO     repeater     task nb300_beamplots starting 0.5 seconds late
2014-12-06 18:51:55,473 INFO     repeater     task nb300_beamplots output:
Starting procsetup

2014-12-06 18:51:55,474 INFO     repeater     task nb300_beamplots ended after 1.7 seconds
2014-12-06 18:51:55,474 INFO     repeater     task nb300_beamplots starting 2.2 seconds late
2014-12-06 18:51:57,202 INFO     repeater     task nb300_beamplots output:
Starting procsetup

2014-12-06 18:51:57,202 INFO     repeater     task nb300_beamplots ended after 1.7 seconds
2014-12-06 18:51:57,202 INFO     repeater     task ashtech_hcorrstats starting 3.9 seconds late
2014-12-06 18:51:58,118 INFO     repeater     task ashtech_hcorrstats ended after 0.9 seconds
2014-12-06 18:52:03,122 INFO     repeater     task nb300_lastensq starting 0.1 seconds late
2014-12-06 18:52:05,228 INFO     repeater     task nb300_lastensq ended after 2.1 seconds
2014-12-06 18:52:05,228 INFO     repeater     task nb300_lastensq: Time from /home/data/SP1411/proc/nb300/load/wrote_ens_time: 2014/12/06 18:51:53
2014-12-06 18:54:05,367 INFO     repeater     task nb300_lastensq starting 2.4 seconds late
2014-12-06 18:54:07,457 INFO     repeater     task nb300_lastensq ended after 2.1 seconds
2014-12-06 18:54:07,458 INFO     repeater     task nb300_lastensq: Time from /home/data/SP1411/proc/nb300/load/wrote_ens_time: 2014/12/06 18:53:53
2014-12-06 18:56:07,584 INFO     repeater     task nb300_lastensq starting 4.6 seconds late
2014-12-06 18:56:09,745 INFO     repeater     task nb300_lastensq ended after 2.2 seconds
2014-12-06 18:56:09,745 INFO     repeater     task nb300_lastensq: Time from /home/data/SP1411/proc/nb300/load/wrote_ens_time: 2014/12/06 18:55:53
2014-12-06 18:56:54,803 INFO     repeater     task ashtech_hcorrstats starting 1.5 seconds late
2014-12-06 18:56:55,715 INFO     repeater     task ashtech_hcorrstats ended after 0.9 seconds
2014-12-06 18:58:05,798 INFO     repeater     task nb300_lastensq starting 2.8 seconds late
2014-12-06 18:58:07,889 INFO     repeater     task nb300_lastensq ended after 2.1 seconds
2014-12-06 18:58:07,890 INFO     repeater     task nb300_lastensq: Time from /home/data/SP1411/proc/nb300/load/wrote_ens_time: 2014/12/06 18:57:53
2014-12-06 19:00:03,024 INFO     repeater     task nb300_lastensq starting 0.0 seconds late
2014-12-06 19:00:05,168 INFO     repeater     task nb300_lastensq ended after 2.1 seconds
2014-12-06 19:00:05,169 INFO     repeater     task nb300_lastensq: Time from /home/data/SP1411/proc/nb300/load/wrote_ens_time: 2014/12/06 18:59:53
2014-12-06 19:01:55,302 INFO     repeater     task nb300_quick starting 2.1 seconds late
2014-12-06 19:01:58,635 INFO     repeater     task nb300_quick ended after 3.3 seconds
2014-12-06 19:01:58,635 INFO     repeater     task nb300_3dayplots starting 5.4 seconds late
2014-12-06 19:02:02,569 INFO     repeater     task nb300_3dayplots ended after 3.9 seconds
2014-12-06 19:02:02,569 INFO     repeater     task nb300_beamplots starting 9.3 seconds late
2014-12-06 19:02:04,181 INFO     repeater     task nb300_beamplots output:
Starting procsetup

2014-12-06 19:02:04,181 INFO     repeater     task nb300_beamplots ended after 1.6 seconds
2014-12-06 19:02:04,182 INFO     repeater     task nb300_beamplots starting 10.9 seconds late
2014-12-06 19:02:05,903 INFO     repeater     task nb300_beamplots output:
Starting procsetup

2014-12-06 19:02:05,903 INFO     repeater     task nb300_beamplots ended after 1.7 seconds
2014-12-06 19:02:05,904 INFO     repeater     task ashtech_hcorrstats starting 12.6 seconds late
2014-12-06 19:02:06,821 INFO     repeater     task ashtech_hcorrstats ended after 0.9 seconds
2014-12-06 19:02:11,827 INFO     repeater     task nb300_lastensq starting 8.8 seconds late
2014-12-06 19:02:13,936 INFO     repeater     task nb300_lastensq ended after 2.1 seconds
2014-12-06 19:02:13,936 INFO     repeater     task nb300_lastensq: Time from /home/data/SP1411/proc/nb300/load/wrote_ens_time: 2014/12/06 19:01:53
2014-12-06 19:04:04,064 INFO     repeater     task nb300_lastensq starting 1.1 seconds late
2014-12-06 19:04:06,167 INFO     repeater     task nb300_lastensq ended after 2.1 seconds
2014-12-06 19:04:06,167 INFO     repeater     task nb300_lastensq: Time from /home/data/SP1411/proc/nb300/load/wrote_ens_time: 2014/12/06 19:03:53
2014-12-06 19:06:06,302 INFO     repeater     task nb300_lastensq starting 3.3 seconds late
2014-12-06 19:06:08,443 INFO     repeater     task nb300_lastensq ended after 2.1 seconds
2014-12-06 19:06:08,444 INFO     repeater     task nb300_lastensq: Time from /home/data/SP1411/proc/nb300/load/wrote_ens_time: 2014/12/06 19:05:53
2014-12-06 19:06:53,493 INFO     repeater     task ashtech_hcorrstats starting 0.2 seconds late
2014-12-06 19:06:54,417 INFO     repeater     task ashtech_hcorrstats ended after 0.9 seconds
2014-12-06 19:08:04,497 INFO     repeater     task nb300_lastensq starting 1.5 seconds late
2014-12-06 19:08:06,598 INFO     repeater     task nb300_lastensq ended after 2.1 seconds
2014-12-06 19:08:06,599 INFO     repeater     task nb300_lastensq: Time from /home/data/SP1411/proc/nb300/load/wrote_ens_time: 2014/12/06 19:07:53
2014-12-06 19:10:06,758 INFO     repeater     task nb300_lastensq starting 3.8 seconds late
2014-12-06 19:10:08,912 INFO     repeater     task nb300_lastensq ended after 2.2 seconds
2014-12-06 19:10:08,913 INFO     repeater     task nb300_lastensq: Time from /home/data/SP1411/proc/nb300/load/wrote_ens_time: 2014/12/06 19:09:53
2014-12-06 19:11:54,029 INFO     repeater     task nb300_beamplots starting 0.8 seconds late
2014-12-06 19:11:55,718 INFO     repeater     task nb300_beamplots output:
Starting procsetup

2014-12-06 19:11:55,719 INFO     repeater     task nb300_beamplots ended after 1.7 seconds
2014-12-06 19:11:55,719 INFO     repeater     task nb300_beamplots starting 2.4 seconds late
2014-12-06 19:11:57,324 INFO     repeater     task nb300_beamplots output:
Starting procsetup

2014-12-06 19:11:57,324 INFO     repeater     task nb300_beamplots ended after 1.6 seconds
2014-12-06 19:11:57,325 INFO     repeater     task ashtech_hcorrstats starting 4.1 seconds late
2014-12-06 19:11:58,229 INFO     repeater     task ashtech_hcorrstats ended after 0.9 seconds
2014-12-06 19:12:03,234 INFO     repeater     task nb300_lastensq starting 0.2 seconds late
2014-12-06 19:12:05,384 INFO     repeater     task nb300_lastensq ended after 2.1 seconds
2014-12-06 19:12:05,384 INFO     repeater     task nb300_lastensq: Time from /home/data/SP1411/proc/nb300/load/wrote_ens_time: 2014/12/06 19:11:53
2014-12-06 19:14:05,518 INFO     repeater     task nb300_lastensq starting 2.5 seconds late
2014-12-06 19:14:07,637 INFO     repeater     task nb300_lastensq ended after 2.1 seconds
2014-12-06 19:14:07,637 INFO     repeater     task nb300_lastensq: Time from /home/data/SP1411/proc/nb300/load/wrote_ens_time: 2014/12/06 19:13:53
2014-12-06 19:16:07,780 INFO     repeater     task nb300_lastensq starting 4.8 seconds late
2014-12-06 19:16:09,888 INFO     repeater     task nb300_lastensq ended after 2.1 seconds
2014-12-06 19:16:09,889 INFO     repeater     task nb300_lastensq: Time from /home/data/SP1411/proc/nb300/load/wrote_ens_time: 2014/12/06 19:15:53
2014-12-06 19:16:54,945 INFO     repeater     task ashtech_hcorrstats starting 1.7 seconds late
2014-12-06 19:16:55,865 INFO     repeater     task ashtech_hcorrstats ended after 0.9 seconds
2014-12-06 19:18:05,948 INFO     repeater     task nb300_lastensq starting 2.9 seconds late
2014-12-06 19:18:08,116 INFO     repeater     task nb300_lastensq ended after 2.2 seconds
2014-12-06 19:18:08,117 INFO     repeater     task nb300_lastensq: Time from /home/data/SP1411/proc/nb300/load/wrote_ens_time: 2014/12/06 19:17:53
2014-12-06 19:20:03,244 INFO     repeater     task nb300_lastensq starting 0.2 seconds late
2014-12-06 19:20:05,343 INFO     repeater     task nb300_lastensq ended after 2.1 seconds
2014-12-06 19:20:05,344 INFO     repeater     task nb300_lastensq: Time from /home/data/SP1411/proc/nb300/load/wrote_ens_time: 2014/12/06 19:19:53
2014-12-06 19:21:55,479 INFO     repeater     task nb300_beamplots starting 2.2 seconds late
2014-12-06 19:21:57,174 INFO     repeater     task nb300_beamplots output:
Starting procsetup

2014-12-06 19:21:57,174 INFO     repeater     task nb300_beamplots ended after 1.7 seconds
2014-12-06 19:21:57,174 INFO     repeater     task nb300_beamplots starting 3.9 seconds late
2014-12-06 19:21:58,918 INFO     repeater     task nb300_beamplots output:
Starting procsetup

2014-12-06 19:21:58,919 INFO     repeater     task nb300_beamplots ended after 1.7 seconds
2014-12-06 19:21:58,919 INFO     repeater     task ashtech_hcorrstats starting 5.6 seconds late
2014-12-06 19:21:59,831 INFO     repeater     task ashtech_hcorrstats ended after 0.9 seconds
2014-12-06 19:22:04,837 INFO     repeater     task nb300_lastensq starting 1.8 seconds late
2014-12-06 19:22:06,946 INFO     repeater     task nb300_lastensq ended after 2.1 seconds
2014-12-06 19:22:06,947 INFO     repeater     task nb300_lastensq: Time from /home/data/SP1411/proc/nb300/load/wrote_ens_time: 2014/12/06 19:21:53
2014-12-06 19:24:07,091 INFO     repeater     task nb300_lastensq starting 4.1 seconds late
2014-12-06 19:24:09,219 INFO     repeater     task nb300_lastensq ended after 2.1 seconds
2014-12-06 19:24:09,220 INFO     repeater     task nb300_lastensq: Time from /home/data/SP1411/proc/nb300/load/wrote_ens_time: 2014/12/06 19:23:53
2014-12-06 19:26:04,361 INFO     repeater     task nb300_lastensq starting 1.4 seconds late
2014-12-06 19:26:06,514 INFO     repeater     task nb300_lastensq ended after 2.2 seconds
2014-12-06 19:26:06,514 INFO     repeater     task nb300_lastensq: Time from /home/data/SP1411/proc/nb300/load/wrote_ens_time: 2014/12/06 19:25:53
2014-12-06 19:26:56,572 INFO     repeater     task ashtech_hcorrstats starting 3.3 seconds late
2014-12-06 19:26:57,500 INFO     repeater     task ashtech_hcorrstats ended after 0.9 seconds
2014-12-06 19:28:07,584 INFO     repeater     task nb300_lastensq starting 4.6 seconds late
2014-12-06 19:28:09,717 INFO     repeater     task nb300_lastensq ended after 2.1 seconds
2014-12-06 19:28:09,717 INFO     repeater     task nb300_lastensq: Time from /home/data/SP1411/proc/nb300/load/wrote_ens_time: 2014/12/06 19:27:53
2014-12-06 19:30:04,850 INFO     repeater     task nb300_lastensq starting 1.8 seconds late
2014-12-06 19:30:07,044 INFO     repeater     task nb300_lastensq ended after 2.2 seconds
2014-12-06 19:30:07,044 INFO     repeater     task nb300_lastensq: Time from /home/data/SP1411/proc/nb300/load/wrote_ens_time: 2014/12/06 19:29:53
2014-12-06 19:31:57,158 INFO     repeater     task nb300_quick starting 3.9 seconds late
2014-12-06 19:32:00,714 INFO     repeater     task nb300_quick ended after 3.6 seconds
2014-12-06 19:32:00,714 INFO     repeater     task nb300_3dayplots starting 7.5 seconds late
2014-12-06 19:32:04,578 INFO     repeater     task nb300_3dayplots ended after 3.9 seconds
2014-12-06 19:32:04,578 INFO     repeater     task nb300_beamplots starting 11.3 seconds late
2014-12-06 19:32:06,281 INFO     repeater     task nb300_beamplots output:
Starting procsetup

2014-12-06 19:32:06,282 INFO     repeater     task nb300_beamplots ended after 1.7 seconds
2014-12-06 19:32:06,282 INFO     repeater     task nb300_beamplots starting 13.0 seconds late
2014-12-06 19:32:08,011 INFO     repeater     task nb300_beamplots output:
Starting procsetup

2014-12-06 19:32:08,011 INFO     repeater     task nb300_beamplots ended after 1.7 seconds
2014-12-06 19:32:08,011 INFO     repeater     task ashtech_hcorrstats starting 14.7 seconds late
2014-12-06 19:32:08,932 INFO     repeater     task ashtech_hcorrstats ended after 0.9 seconds
2014-12-06 19:32:13,937 INFO     repeater     task nb300_lastensq starting 10.9 seconds late
2014-12-06 19:32:16,124 INFO     repeater     task nb300_lastensq ended after 2.2 seconds
2014-12-06 19:32:16,124 INFO     repeater     task nb300_lastensq: Time from /home/data/SP1411/proc/nb300/load/wrote_ens_time: 2014/12/06 19:31:53
2014-12-06 19:34:06,244 INFO     repeater     task nb300_lastensq starting 3.2 seconds late
2014-12-06 19:34:08,426 INFO     repeater     task nb300_lastensq ended after 2.2 seconds
2014-12-06 19:34:08,427 INFO     repeater     task nb300_lastensq: Time from /home/data/SP1411/proc/nb300/load/wrote_ens_time: 2014/12/06 19:33:53
2014-12-06 19:36:03,562 INFO     repeater     task nb300_lastensq starting 0.6 seconds late
2014-12-06 19:36:05,690 INFO     repeater     task nb300_lastensq ended after 2.1 seconds
2014-12-06 19:36:05,690 INFO     repeater     task nb300_lastensq: Time from /home/data/SP1411/proc/nb300/load/wrote_ens_time: 2014/12/06 19:35:53
2014-12-06 19:36:55,743 INFO     repeater     task ashtech_hcorrstats starting 2.5 seconds late
2014-12-06 19:36:56,662 INFO     repeater     task ashtech_hcorrstats ended after 0.9 seconds
2014-12-06 19:38:06,744 INFO     repeater     task nb300_lastensq starting 3.7 seconds late
2014-12-06 19:38:08,931 INFO     repeater     task nb300_lastensq ended after 2.2 seconds
2014-12-06 19:38:08,931 INFO     repeater     task nb300_lastensq: Time from /home/data/SP1411/proc/nb300/load/wrote_ens_time: 2014/12/06 19:37:53
2014-12-06 19:40:04,071 INFO     repeater     task nb300_lastensq starting 1.1 seconds late
2014-12-06 19:40:06,194 INFO     repeater     task nb300_lastensq ended after 2.1 seconds
2014-12-06 19:40:06,194 INFO     repeater     task nb300_lastensq: Time from /home/data/SP1411/proc/nb300/load/wrote_ens_time: 2014/12/06 19:39:53
2014-12-06 19:41:56,317 INFO     repeater     task nb300_beamplots starting 3.0 seconds late
2014-12-06 19:41:58,020 INFO     repeater     task nb300_beamplots output:
Starting procsetup

2014-12-06 19:41:58,020 INFO     repeater     task nb300_beamplots ended after 1.7 seconds
2014-12-06 19:41:58,020 INFO     repeater     task nb300_beamplots starting 4.7 seconds late
2014-12-06 19:41:59,668 INFO     repeater     task nb300_beamplots output:
Starting procsetup

2014-12-06 19:41:59,668 INFO     repeater     task nb300_beamplots ended after 1.6 seconds
2014-12-06 19:41:59,669 INFO     repeater     task ashtech_hcorrstats starting 6.4 seconds late
2014-12-06 19:42:00,585 INFO     repeater     task ashtech_hcorrstats ended after 0.9 seconds
2014-12-06 19:42:05,591 INFO     repeater     task nb300_lastensq starting 2.6 seconds late
2014-12-06 19:42:07,762 INFO     repeater     task nb300_lastensq ended after 2.2 seconds
2014-12-06 19:42:07,762 INFO     repeater     task nb300_lastensq: Time from /home/data/SP1411/proc/nb300/load/wrote_ens_time: 2014/12/06 19:41:53
2014-12-06 19:44:07,897 INFO     repeater     task nb300_lastensq starting 4.9 seconds late
2014-12-06 19:44:10,091 INFO     repeater     task nb300_lastensq ended after 2.2 seconds
2014-12-06 19:44:10,091 INFO     repeater     task nb300_lastensq: Time from /home/data/SP1411/proc/nb300/load/wrote_ens_time: 2014/12/06 19:43:53
2014-12-06 19:46:05,233 INFO     repeater     task nb300_lastensq starting 2.2 seconds late
2014-12-06 19:46:07,364 INFO     repeater     task nb300_lastensq ended after 2.1 seconds
2014-12-06 19:46:07,365 INFO     repeater     task nb300_lastensq: Time from /home/data/SP1411/proc/nb300/load/wrote_ens_time: 2014/12/06 19:45:53
2014-12-06 19:46:57,419 INFO     repeater     task ashtech_hcorrstats starting 4.1 seconds late
2014-12-06 19:46:58,342 INFO     repeater     task ashtech_hcorrstats ended after 0.9 seconds
2014-12-06 19:48:03,418 INFO     repeater     task nb300_lastensq starting 0.4 seconds late
2014-12-06 19:48:05,610 INFO     repeater     task nb300_lastensq ended after 2.2 seconds
2014-12-06 19:48:05,610 INFO     repeater     task nb300_lastensq: Time from /home/data/SP1411/proc/nb300/load/wrote_ens_time: 2014/12/06 19:47:53
2014-12-06 19:50:05,746 INFO     repeater     task nb300_lastensq starting 2.7 seconds late
2014-12-06 19:50:07,870 INFO     repeater     task nb300_lastensq ended after 2.1 seconds
2014-12-06 19:50:07,871 INFO     repeater     task nb300_lastensq: Time from /home/data/SP1411/proc/nb300/load/wrote_ens_time: 2014/12/06 19:49:53
2014-12-06 19:51:58,005 INFO     repeater     task nb300_beamplots starting 4.7 seconds late
2014-12-06 19:51:59,713 INFO     repeater     task nb300_beamplots output:
Starting procsetup

2014-12-06 19:51:59,713 INFO     repeater     task nb300_beamplots ended after 1.7 seconds
2014-12-06 19:51:59,714 INFO     repeater     task nb300_beamplots starting 6.4 seconds late
2014-12-06 19:52:01,458 INFO     repeater     task nb300_beamplots output:
Starting procsetup

2014-12-06 19:52:01,458 INFO     repeater     task nb300_beamplots ended after 1.7 seconds
2014-12-06 19:52:01,458 INFO     repeater     task ashtech_hcorrstats starting 8.2 seconds late
2014-12-06 19:52:02,356 INFO     repeater     task ashtech_hcorrstats ended after 0.9 seconds
2014-12-06 19:52:07,362 INFO     repeater     task nb300_lastensq starting 4.4 seconds late
2014-12-06 19:52:09,537 INFO     repeater     task nb300_lastensq ended after 2.2 seconds
2014-12-06 19:52:09,537 INFO     repeater     task nb300_lastensq: Time from /home/data/SP1411/proc/nb300/load/wrote_ens_time: 2014/12/06 19:51:53
2014-12-06 19:54:04,677 INFO     repeater     task nb300_lastensq starting 1.7 seconds late
2014-12-06 19:54:06,886 INFO     repeater     task nb300_lastensq ended after 2.2 seconds
2014-12-06 19:54:06,887 INFO     repeater     task nb300_lastensq: Time from /home/data/SP1411/proc/nb300/load/wrote_ens_time: 2014/12/06 19:53:53
2014-12-06 19:56:07,011 INFO     repeater     task nb300_lastensq starting 4.0 seconds late
2014-12-06 19:56:09,151 INFO     repeater     task nb300_lastensq ended after 2.1 seconds
2014-12-06 19:56:09,151 INFO     repeater     task nb300_lastensq: Time from /home/data/SP1411/proc/nb300/load/wrote_ens_time: 2014/12/06 19:55:53
2014-12-06 19:56:54,206 INFO     repeater     task ashtech_hcorrstats starting 0.9 seconds late
2014-12-06 19:56:55,122 INFO     repeater     task ashtech_hcorrstats ended after 0.9 seconds
2014-12-06 19:58:05,201 INFO     repeater     task nb300_lastensq starting 2.2 seconds late
2014-12-06 19:58:07,338 INFO     repeater     task nb300_lastensq ended after 2.1 seconds
2014-12-06 19:58:07,339 INFO     repeater     task nb300_lastensq: Time from /home/data/SP1411/proc/nb300/load/wrote_ens_time: 2014/12/06 19:57:53
2014-12-06 20:00:07,481 INFO     repeater     task nb300_lastensq starting 4.5 seconds late
2014-12-06 20:00:09,632 INFO     repeater     task nb300_lastensq ended after 2.2 seconds
2014-12-06 20:00:09,632 INFO     repeater     task nb300_lastensq: Time from /home/data/SP1411/proc/nb300/load/wrote_ens_time: 2014/12/06 19:59:53
2014-12-06 20:01:54,751 INFO     repeater     task nb300_quick starting 1.5 seconds late
2014-12-06 20:01:58,058 INFO     repeater     task nb300_quick ended after 3.3 seconds
2014-12-06 20:01:58,059 INFO     repeater     task nb300_3dayplots starting 4.8 seconds late
2014-12-06 20:02:01,929 INFO     repeater     task nb300_3dayplots ended after 3.9 seconds
2014-12-06 20:02:01,930 INFO     repeater     task nb300_beamplots starting 8.7 seconds late
2014-12-06 20:02:03,593 INFO     repeater     task nb300_beamplots output:
Starting procsetup

2014-12-06 20:02:03,594 INFO     repeater     task nb300_beamplots ended after 1.7 seconds
2014-12-06 20:02:03,594 INFO     repeater     task nb300_beamplots starting 10.3 seconds late
2014-12-06 20:02:05,335 INFO     repeater     task nb300_beamplots output:
Starting procsetup

2014-12-06 20:02:05,335 INFO     repeater     task nb300_beamplots ended after 1.7 seconds
2014-12-06 20:02:05,335 INFO     repeater     task ashtech_hcorrstats starting 12.1 seconds late
2014-12-06 20:02:06,259 INFO     repeater     task ashtech_hcorrstats ended after 0.9 seconds
2014-12-06 20:02:11,261 INFO     repeater     task nb300_lastensq starting 8.3 seconds late
2014-12-06 20:02:13,323 INFO     repeater     task nb300_lastensq ended after 2.1 seconds
2014-12-06 20:02:13,323 INFO     repeater     task nb300_lastensq: Time from /home/data/SP1411/proc/nb300/load/wrote_ens_time: 2014/12/06 20:01:53
2014-12-06 20:04:03,464 INFO     repeater     task nb300_lastensq starting 0.5 seconds late
2014-12-06 20:04:05,560 INFO     repeater     task nb300_lastensq ended after 2.1 seconds
2014-12-06 20:04:05,560 INFO     repeater     task nb300_lastensq: Time from /home/data/SP1411/proc/nb300/load/wrote_ens_time: 2014/12/06 20:03:53
2014-12-06 20:06:05,695 INFO     repeater     task nb300_lastensq starting 2.7 seconds late
2014-12-06 20:06:07,757 INFO     repeater     task nb300_lastensq ended after 2.1 seconds
2014-12-06 20:06:07,757 INFO     repeater     task nb300_lastensq: Time from /home/data/SP1411/proc/nb300/load/wrote_ens_time: 2014/12/06 20:05:53
2014-12-06 20:06:57,818 INFO     repeater     task ashtech_hcorrstats starting 4.5 seconds late
2014-12-06 20:06:58,732 INFO     repeater     task ashtech_hcorrstats ended after 0.9 seconds
2014-12-06 20:08:03,811 INFO     repeater     task nb300_lastensq starting 0.8 seconds late
2014-12-06 20:08:05,887 INFO     repeater     task nb300_lastensq ended after 2.1 seconds
2014-12-06 20:08:05,887 INFO     repeater     task nb300_lastensq: Time from /home/data/SP1411/proc/nb300/load/wrote_ens_time: 2014/12/06 20:07:53
2014-12-06 20:10:06,014 INFO     repeater     task nb300_lastensq starting 3.0 seconds late
2014-12-06 20:10:08,144 INFO     repeater     task nb300_lastensq ended after 2.1 seconds
2014-12-06 20:10:08,144 INFO     repeater     task nb300_lastensq: Time from /home/data/SP1411/proc/nb300/load/wrote_ens_time: 2014/12/06 20:09:53
2014-12-06 20:11:58,266 INFO     repeater     task nb300_beamplots starting 5.0 seconds late
2014-12-06 20:11:59,850 INFO     repeater     task nb300_beamplots output:
Starting procsetup

2014-12-06 20:11:59,850 INFO     repeater     task nb300_beamplots ended after 1.6 seconds
2014-12-06 20:11:59,850 INFO     repeater     task nb300_beamplots starting 6.6 seconds late
2014-12-06 20:12:01,540 INFO     repeater     task nb300_beamplots output:
Starting procsetup

2014-12-06 20:12:01,540 INFO     repeater     task nb300_beamplots ended after 1.7 seconds
2014-12-06 20:12:01,541 INFO     repeater     task ashtech_hcorrstats starting 8.3 seconds late
2014-12-06 20:12:02,458 INFO     repeater     task ashtech_hcorrstats ended after 0.9 seconds
2014-12-06 20:12:07,461 INFO     repeater     task nb300_lastensq starting 4.5 seconds late
2014-12-06 20:12:09,512 INFO     repeater     task nb300_lastensq ended after 2.1 seconds
2014-12-06 20:12:09,513 INFO     repeater     task nb300_lastensq: Time from /home/data/SP1411/proc/nb300/load/wrote_ens_time: 2014/12/06 20:11:53
2014-12-06 20:14:04,647 INFO     repeater     task nb300_lastensq starting 1.6 seconds late
2014-12-06 20:14:06,763 INFO     repeater     task nb300_lastensq ended after 2.1 seconds
2014-12-06 20:14:06,763 INFO     repeater     task nb300_lastensq: Time from /home/data/SP1411/proc/nb300/load/wrote_ens_time: 2014/12/06 20:13:53
2014-12-06 20:16:06,911 INFO     repeater     task nb300_lastensq starting 3.9 seconds late
2014-12-06 20:16:08,996 INFO     repeater     task nb300_lastensq ended after 2.1 seconds
2014-12-06 20:16:08,996 INFO     repeater     task nb300_lastensq: Time from /home/data/SP1411/proc/nb300/load/wrote_ens_time: 2014/12/06 20:15:53
2014-12-06 20:16:54,042 INFO     repeater     task ashtech_hcorrstats starting 0.8 seconds late
2014-12-06 20:16:54,963 INFO     repeater     task ashtech_hcorrstats ended after 0.9 seconds
2014-12-06 20:18:05,030 INFO     repeater     task nb300_lastensq starting 2.0 seconds late
2014-12-06 20:18:07,092 INFO     repeater     task nb300_lastensq ended after 2.1 seconds
2014-12-06 20:18:07,092 INFO     repeater     task nb300_lastensq: Time from /home/data/SP1411/proc/nb300/load/wrote_ens_time: 2014/12/06 20:17:53
2014-12-06 20:20:07,241 INFO     repeater     task nb300_lastensq starting 4.2 seconds late
2014-12-06 20:20:09,323 INFO     repeater     task nb300_lastensq ended after 2.1 seconds
2014-12-06 20:20:09,324 INFO     repeater     task nb300_lastensq: Time from /home/data/SP1411/proc/nb300/load/wrote_ens_time: 2014/12/06 20:19:53
2014-12-06 20:21:54,447 INFO     repeater     task nb300_beamplots starting 1.2 seconds late
2014-12-06 20:21:56,140 INFO     repeater     task nb300_beamplots output:
Starting procsetup

2014-12-06 20:21:56,140 INFO     repeater     task nb300_beamplots ended after 1.7 seconds
2014-12-06 20:21:56,141 INFO     repeater     task nb300_beamplots starting 2.9 seconds late
2014-12-06 20:21:57,759 INFO     repeater     task nb300_beamplots output:
Starting procsetup

2014-12-06 20:21:57,759 INFO     repeater     task nb300_beamplots ended after 1.6 seconds
2014-12-06 20:21:57,760 INFO     repeater     task ashtech_hcorrstats starting 4.5 seconds late
2014-12-06 20:21:58,678 INFO     repeater     task ashtech_hcorrstats ended after 0.9 seconds
2014-12-06 20:22:03,681 INFO     repeater     task nb300_lastensq starting 0.7 seconds late
2014-12-06 20:22:05,800 INFO     repeater     task nb300_lastensq ended after 2.1 seconds
2014-12-06 20:22:05,800 INFO     repeater     task nb300_lastensq: Time from /home/data/SP1411/proc/nb300/load/wrote_ens_time: 2014/12/06 20:21:53
2014-12-06 20:24:05,954 INFO     repeater     task nb300_lastensq starting 3.0 seconds late
2014-12-06 20:24:08,053 INFO     repeater     task nb300_lastensq ended after 2.1 seconds
2014-12-06 20:24:08,053 INFO     repeater     task nb300_lastensq: Time from /home/data/SP1411/proc/nb300/load/wrote_ens_time: 2014/12/06 20:23:53
2014-12-06 20:26:03,194 INFO     repeater     task nb300_lastensq starting 0.2 seconds late
2014-12-06 20:26:05,272 INFO     repeater     task nb300_lastensq ended after 2.1 seconds
2014-12-06 20:26:05,273 INFO     repeater     task nb300_lastensq: Time from /home/data/SP1411/proc/nb300/load/wrote_ens_time: 2014/12/06 20:25:53
2014-12-06 20:26:55,329 INFO     repeater     task ashtech_hcorrstats starting 2.1 seconds late
2014-12-06 20:26:56,251 INFO     repeater     task ashtech_hcorrstats ended after 0.9 seconds
2014-12-06 20:28:06,338 INFO     repeater     task nb300_lastensq starting 3.3 seconds late
2014-12-06 20:28:08,399 INFO     repeater     task nb300_lastensq ended after 2.1 seconds
2014-12-06 20:28:08,399 INFO     repeater     task nb300_lastensq: Time from /home/data/SP1411/proc/nb300/load/wrote_ens_time: 2014/12/06 20:27:53
2014-12-06 20:30:03,531 INFO     repeater     task nb300_lastensq starting 0.5 seconds late
2014-12-06 20:30:05,618 INFO     repeater     task nb300_lastensq ended after 2.1 seconds
2014-12-06 20:30:05,618 INFO     repeater     task nb300_lastensq: Time from /home/data/SP1411/proc/nb300/load/wrote_ens_time: 2014/12/06 20:29:53
2014-12-06 20:31:55,751 INFO     repeater     task nb300_quick starting 2.5 seconds late
2014-12-06 20:31:59,065 INFO     repeater     task nb300_quick ended after 3.3 seconds
2014-12-06 20:31:59,066 INFO     repeater     task nb300_3dayplots starting 5.8 seconds late
2014-12-06 20:32:02,934 INFO     repeater     task nb300_3dayplots ended after 3.9 seconds
2014-12-06 20:32:02,935 INFO     repeater     task nb300_beamplots starting 9.7 seconds late
2014-12-06 20:32:04,592 INFO     repeater     task nb300_beamplots output:
Starting procsetup

2014-12-06 20:32:04,592 INFO     repeater     task nb300_beamplots ended after 1.7 seconds
2014-12-06 20:32:04,592 INFO     repeater     task nb300_beamplots starting 11.3 seconds late
2014-12-06 20:32:06,284 INFO     repeater     task nb300_beamplots output:
Starting procsetup

2014-12-06 20:32:06,284 INFO     repeater     task nb300_beamplots ended after 1.7 seconds
2014-12-06 20:32:06,285 INFO     repeater     task ashtech_hcorrstats starting 13.0 seconds late
2014-12-06 20:32:07,203 INFO     repeater     task ashtech_hcorrstats ended after 0.9 seconds
2014-12-06 20:32:12,204 INFO     repeater     task nb300_lastensq starting 9.2 seconds late
2014-12-06 20:32:14,310 INFO     repeater     task nb300_lastensq ended after 2.1 seconds
2014-12-06 20:32:14,310 INFO     repeater     task nb300_lastensq: Time from /home/data/SP1411/proc/nb300/load/wrote_ens_time: 2014/12/06 20:31:53
2014-12-06 20:34:04,440 INFO     repeater     task nb300_lastensq starting 1.4 seconds late
2014-12-06 20:34:06,565 INFO     repeater     task nb300_lastensq ended after 2.1 seconds
2014-12-06 20:34:06,565 INFO     repeater     task nb300_lastensq: Time from /home/data/SP1411/proc/nb300/load/wrote_ens_time: 2014/12/06 20:33:53
2014-12-06 20:36:06,701 INFO     repeater     task nb300_lastensq starting 3.7 seconds late
2014-12-06 20:36:08,785 INFO     repeater     task nb300_lastensq ended after 2.1 seconds
2014-12-06 20:36:08,786 INFO     repeater     task nb300_lastensq: Time from /home/data/SP1411/proc/nb300/load/wrote_ens_time: 2014/12/06 20:35:53
2014-12-06 20:36:53,836 INFO     repeater     task ashtech_hcorrstats starting 0.6 seconds late
2014-12-06 20:36:54,759 INFO     repeater     task ashtech_hcorrstats ended after 0.9 seconds
2014-12-06 20:38:04,831 INFO     repeater     task nb300_lastensq starting 1.8 seconds late
2014-12-06 20:38:06,910 INFO     repeater     task nb300_lastensq ended after 2.1 seconds
2014-12-06 20:38:06,910 INFO     repeater     task nb300_lastensq: Time from /home/data/SP1411/proc/nb300/load/wrote_ens_time: 2014/12/06 20:37:53
2014-12-06 20:40:07,054 INFO     repeater     task nb300_lastensq starting 4.1 seconds late
2014-12-06 20:40:09,155 INFO     repeater     task nb300_lastensq ended after 2.1 seconds
2014-12-06 20:40:09,155 INFO     repeater     task nb300_lastensq: Time from /home/data/SP1411/proc/nb300/load/wrote_ens_time: 2014/12/06 20:39:53
2014-12-06 20:41:54,270 INFO     repeater     task nb300_beamplots starting 1.0 seconds late
2014-12-06 20:41:55,936 INFO     repeater     task nb300_beamplots output:
Starting procsetup

2014-12-06 20:41:55,936 INFO     repeater     task nb300_beamplots ended after 1.7 seconds
2014-12-06 20:41:55,937 INFO     repeater     task nb300_beamplots starting 2.7 seconds late
2014-12-06 20:41:57,541 INFO     repeater     task nb300_beamplots output:
Starting procsetup

2014-12-06 20:41:57,541 INFO     repeater     task nb300_beamplots ended after 1.6 seconds
2014-12-06 20:41:57,542 INFO     repeater     task ashtech_hcorrstats starting 4.3 seconds late
2014-12-06 20:41:58,457 INFO     repeater     task ashtech_hcorrstats ended after 0.9 seconds
2014-12-06 20:42:03,462 INFO     repeater     task nb300_lastensq starting 0.5 seconds late
2014-12-06 20:42:05,602 INFO     repeater     task nb300_lastensq ended after 2.1 seconds
2014-12-06 20:42:05,602 INFO     repeater     task nb300_lastensq: Time from /home/data/SP1411/proc/nb300/load/wrote_ens_time: 2014/12/06 20:41:53
2014-12-06 20:44:05,747 INFO     repeater     task nb300_lastensq starting 2.7 seconds late
2014-12-06 20:44:07,873 INFO     repeater     task nb300_lastensq ended after 2.1 seconds
2014-12-06 20:44:07,873 INFO     repeater     task nb300_lastensq: Time from /home/data/SP1411/proc/nb300/load/wrote_ens_time: 2014/12/06 20:43:53
2014-12-06 20:46:08,001 INFO     repeater     task nb300_lastensq starting 5.0 seconds late
2014-12-06 20:46:10,129 INFO     repeater     task nb300_lastensq ended after 2.1 seconds
2014-12-06 20:46:10,129 INFO     repeater     task nb300_lastensq: Time from /home/data/SP1411/proc/nb300/load/wrote_ens_time: 2014/12/06 20:45:53
2014-12-06 20:46:55,182 INFO     repeater     task ashtech_hcorrstats starting 1.9 seconds late
2014-12-06 20:46:56,117 INFO     repeater     task ashtech_hcorrstats ended after 0.9 seconds
2014-12-06 20:48:06,184 INFO     repeater     task nb300_lastensq starting 3.2 seconds late
2014-12-06 20:48:08,324 INFO     repeater     task nb300_lastensq ended after 2.1 seconds
2014-12-06 20:48:08,324 INFO     repeater     task nb300_lastensq: Time from /home/data/SP1411/proc/nb300/load/wrote_ens_time: 2014/12/06 20:47:53
2014-12-06 20:50:03,451 INFO     repeater     task nb300_lastensq starting 0.5 seconds late
2014-12-06 20:50:05,595 INFO     repeater     task nb300_lastensq ended after 2.1 seconds
2014-12-06 20:50:05,596 INFO     repeater     task nb300_lastensq: Time from /home/data/SP1411/proc/nb300/load/wrote_ens_time: 2014/12/06 20:49:53
2014-12-06 20:51:55,735 INFO     repeater     task nb300_beamplots starting 2.5 seconds late
2014-12-06 20:51:57,441 INFO     repeater     task nb300_beamplots output:
Starting procsetup

2014-12-06 20:51:57,441 INFO     repeater     task nb300_beamplots ended after 1.7 seconds
2014-12-06 20:51:57,441 INFO     repeater     task nb300_beamplots starting 4.2 seconds late
2014-12-06 20:51:59,169 INFO     repeater     task nb300_beamplots output:
Starting procsetup

2014-12-06 20:51:59,169 INFO     repeater     task nb300_beamplots ended after 1.7 seconds
2014-12-06 20:51:59,170 INFO     repeater     task ashtech_hcorrstats starting 5.9 seconds late
2014-12-06 20:52:00,085 INFO     repeater     task ashtech_hcorrstats ended after 0.9 seconds
2014-12-06 20:52:05,086 INFO     repeater     task nb300_lastensq starting 2.1 seconds late
2014-12-06 20:52:07,175 INFO     repeater     task nb300_lastensq ended after 2.1 seconds
2014-12-06 20:52:07,175 INFO     repeater     task nb300_lastensq: Time from /home/data/SP1411/proc/nb300/load/wrote_ens_time: 2014/12/06 20:51:53
2014-12-06 20:54:07,314 INFO     repeater     task nb300_lastensq starting 4.3 seconds late
2014-12-06 20:54:09,455 INFO     repeater     task nb300_lastensq ended after 2.1 seconds
2014-12-06 20:54:09,455 INFO     repeater     task nb300_lastensq: Time from /home/data/SP1411/proc/nb300/load/wrote_ens_time: 2014/12/06 20:53:53
2014-12-06 20:56:04,586 INFO     repeater     task nb300_lastensq starting 1.6 seconds late
2014-12-06 20:56:06,756 INFO     repeater     task nb300_lastensq ended after 2.2 seconds
2014-12-06 20:56:06,757 INFO     repeater     task nb300_lastensq: Time from /home/data/SP1411/proc/nb300/load/wrote_ens_time: 2014/12/06 20:55:53
2014-12-06 20:56:56,812 INFO     repeater     task ashtech_hcorrstats starting 3.5 seconds late
2014-12-06 20:56:57,739 INFO     repeater     task ashtech_hcorrstats ended after 0.9 seconds
2014-12-06 20:58:07,820 INFO     repeater     task nb300_lastensq starting 4.8 seconds late
2014-12-06 20:58:09,917 INFO     repeater     task nb300_lastensq ended after 2.1 seconds
2014-12-06 20:58:09,917 INFO     repeater     task nb300_lastensq: Time from /home/data/SP1411/proc/nb300/load/wrote_ens_time: 2014/12/06 20:57:53
2014-12-06 21:00:05,061 INFO     repeater     task nb300_lastensq starting 2.1 seconds late
2014-12-06 21:00:07,200 INFO     repeater     task nb300_lastensq ended after 2.1 seconds
2014-12-06 21:00:07,200 INFO     repeater     task nb300_lastensq: Time from /home/data/SP1411/proc/nb300/load/wrote_ens_time: 2014/12/06 20:59:53
2014-12-06 21:01:57,315 INFO     repeater     task nb300_quick starting 4.1 seconds late
2014-12-06 21:02:00,702 INFO     repeater     task nb300_quick ended after 3.4 seconds
2014-12-06 21:02:00,703 INFO     repeater     task nb300_3dayplots starting 7.5 seconds late
2014-12-06 21:02:04,663 INFO     repeater     task nb300_3dayplots ended after 4.0 seconds
2014-12-06 21:02:04,664 INFO     repeater     task nb300_beamplots starting 11.4 seconds late
2014-12-06 21:02:06,359 INFO     repeater     task nb300_beamplots output:
Starting procsetup

2014-12-06 21:02:06,359 INFO     repeater     task nb300_beamplots ended after 1.7 seconds
2014-12-06 21:02:06,360 INFO     repeater     task nb300_beamplots starting 13.1 seconds late
2014-12-06 21:02:08,084 INFO     repeater     task nb300_beamplots output:
Starting procsetup

2014-12-06 21:02:08,084 INFO     repeater     task nb300_beamplots ended after 1.7 seconds
2014-12-06 21:02:08,084 INFO     repeater     task ashtech_hcorrstats starting 14.8 seconds late
2014-12-06 21:02:09,012 INFO     repeater     task ashtech_hcorrstats ended after 0.9 seconds
2014-12-06 21:02:14,017 INFO     repeater     task nb300_lastensq starting 11.0 seconds late
2014-12-06 21:02:16,116 INFO     repeater     task nb300_lastensq ended after 2.1 seconds
2014-12-06 21:02:16,116 INFO     repeater     task nb300_lastensq: Time from /home/data/SP1411/proc/nb300/load/wrote_ens_time: 2014/12/06 21:01:53
2014-12-06 21:04:06,233 INFO     repeater     task nb300_lastensq starting 3.2 seconds late
2014-12-06 21:04:08,387 INFO     repeater     task nb300_lastensq ended after 2.2 seconds
2014-12-06 21:04:08,388 INFO     repeater     task nb300_lastensq: Time from /home/data/SP1411/proc/nb300/load/wrote_ens_time: 2014/12/06 21:03:53
2014-12-06 21:06:03,520 INFO     repeater     task nb300_lastensq starting 0.5 seconds late
2014-12-06 21:06:05,671 INFO     repeater     task nb300_lastensq ended after 2.2 seconds
2014-12-06 21:06:05,671 INFO     repeater     task nb300_lastensq: Time from /home/data/SP1411/proc/nb300/load/wrote_ens_time: 2014/12/06 21:05:53
2014-12-06 21:06:55,732 INFO     repeater     task ashtech_hcorrstats starting 2.5 seconds late
2014-12-06 21:06:56,665 INFO     repeater     task ashtech_hcorrstats ended after 0.9 seconds
2014-12-06 21:08:06,754 INFO     repeater     task nb300_lastensq starting 3.8 seconds late
2014-12-06 21:08:08,872 INFO     repeater     task nb300_lastensq ended after 2.1 seconds
2014-12-06 21:08:08,872 INFO     repeater     task nb300_lastensq: Time from /home/data/SP1411/proc/nb300/load/wrote_ens_time: 2014/12/06 21:07:53
2014-12-06 21:10:04,012 INFO     repeater     task nb300_lastensq starting 1.0 seconds late
2014-12-06 21:10:06,147 INFO     repeater     task nb300_lastensq ended after 2.1 seconds
2014-12-06 21:10:06,148 INFO     repeater     task nb300_lastensq: Time from /home/data/SP1411/proc/nb300/load/wrote_ens_time: 2014/12/06 21:09:53
2014-12-06 21:11:56,264 INFO     repeater     task nb300_beamplots starting 3.0 seconds late
2014-12-06 21:11:57,843 INFO     repeater     task nb300_beamplots output:
Starting procsetup

2014-12-06 21:11:57,843 INFO     repeater     task nb300_beamplots ended after 1.6 seconds
2014-12-06 21:11:57,844 INFO     repeater     task nb300_beamplots starting 4.6 seconds late
2014-12-06 21:11:59,545 INFO     repeater     task nb300_beamplots output:
Starting procsetup

2014-12-06 21:11:59,545 INFO     repeater     task nb300_beamplots ended after 1.7 seconds
2014-12-06 21:11:59,545 INFO     repeater     task ashtech_hcorrstats starting 6.3 seconds late
2014-12-06 21:12:00,450 INFO     repeater     task ashtech_hcorrstats ended after 0.9 seconds
2014-12-06 21:12:05,454 INFO     repeater     task nb300_lastensq starting 2.5 seconds late
2014-12-06 21:12:07,608 INFO     repeater     task nb300_lastensq ended after 2.2 seconds
2014-12-06 21:12:07,609 INFO     repeater     task nb300_lastensq: Time from /home/data/SP1411/proc/nb300/load/wrote_ens_time: 2014/12/06 21:11:53
2014-12-06 21:14:07,744 INFO     repeater     task nb300_lastensq starting 4.7 seconds late
2014-12-06 21:14:09,929 INFO     repeater     task nb300_lastensq ended after 2.2 seconds
2014-12-06 21:14:09,929 INFO     repeater     task nb300_lastensq: Time from /home/data/SP1411/proc/nb300/load/wrote_ens_time: 2014/12/06 21:13:53
2014-12-06 21:16:05,071 INFO     repeater     task nb300_lastensq starting 2.1 seconds late
2014-12-06 21:16:07,168 INFO     repeater     task nb300_lastensq ended after 2.1 seconds
2014-12-06 21:16:07,169 INFO     repeater     task nb300_lastensq: Time from /home/data/SP1411/proc/nb300/load/wrote_ens_time: 2014/12/06 21:15:53
2014-12-06 21:16:57,222 INFO     repeater     task ashtech_hcorrstats starting 3.9 seconds late
2014-12-06 21:16:58,140 INFO     repeater     task ashtech_hcorrstats ended after 0.9 seconds
2014-12-06 21:18:03,224 INFO     repeater     task nb300_lastensq starting 0.2 seconds late
2014-12-06 21:18:05,403 INFO     repeater     task nb300_lastensq ended after 2.2 seconds
2014-12-06 21:18:05,403 INFO     repeater     task nb300_lastensq: Time from /home/data/SP1411/proc/nb300/load/wrote_ens_time: 2014/12/06 21:17:53
2014-12-06 21:20:05,548 INFO     repeater     task nb300_lastensq starting 2.5 seconds late
2014-12-06 21:20:07,646 INFO     repeater     task nb300_lastensq ended after 2.1 seconds
2014-12-06 21:20:07,647 INFO     repeater     task nb300_lastensq: Time from /home/data/SP1411/proc/nb300/load/wrote_ens_time: 2014/12/06 21:19:53
2014-12-06 21:21:57,776 INFO     repeater     task nb300_beamplots starting 4.5 seconds late
2014-12-06 21:21:59,390 INFO     repeater     task nb300_beamplots output:
Starting procsetup

2014-12-06 21:21:59,390 INFO     repeater     task nb300_beamplots ended after 1.6 seconds
2014-12-06 21:21:59,390 INFO     repeater     task nb300_beamplots starting 6.1 seconds late
2014-12-06 21:22:01,122 INFO     repeater     task nb300_beamplots output:
Starting procsetup

2014-12-06 21:22:01,122 INFO     repeater     task nb300_beamplots ended after 1.7 seconds
2014-12-06 21:22:01,122 INFO     repeater     task ashtech_hcorrstats starting 7.8 seconds late
2014-12-06 21:22:02,043 INFO     repeater     task ashtech_hcorrstats ended after 0.9 seconds
2014-12-06 21:22:07,049 INFO     repeater     task nb300_lastensq starting 4.0 seconds late
2014-12-06 21:22:09,146 INFO     repeater     task nb300_lastensq ended after 2.1 seconds
2014-12-06 21:22:09,147 INFO     repeater     task nb300_lastensq: Time from /home/data/SP1411/proc/nb300/load/wrote_ens_time: 2014/12/06 21:21:53
2014-12-06 21:24:04,284 INFO     repeater     task nb300_lastensq starting 1.3 seconds late
2014-12-06 21:24:06,464 INFO     repeater     task nb300_lastensq ended after 2.2 seconds
2014-12-06 21:24:06,464 INFO     repeater     task nb300_lastensq: Time from /home/data/SP1411/proc/nb300/load/wrote_ens_time: 2014/12/06 21:23:53
2014-12-06 21:26:06,605 INFO     repeater     task nb300_lastensq starting 3.6 seconds late
2014-12-06 21:26:08,760 INFO     repeater     task nb300_lastensq ended after 2.2 seconds
2014-12-06 21:26:08,760 INFO     repeater     task nb300_lastensq: Time from /home/data/SP1411/proc/nb300/load/wrote_ens_time: 2014/12/06 21:25:53
2014-12-06 21:26:53,814 INFO     repeater     task ashtech_hcorrstats starting 0.5 seconds late
2014-12-06 21:26:54,742 INFO     repeater     task ashtech_hcorrstats ended after 0.9 seconds
2014-12-06 21:28:04,828 INFO     repeater     task nb300_lastensq starting 1.8 seconds late
2014-12-06 21:28:07,041 INFO     repeater     task nb300_lastensq ended after 2.2 seconds
2014-12-06 21:28:07,041 INFO     repeater     task nb300_lastensq: Time from /home/data/SP1411/proc/nb300/load/wrote_ens_time: 2014/12/06 21:27:53
2014-12-06 21:30:07,181 INFO     repeater     task nb300_lastensq starting 4.2 seconds late
2014-12-06 21:30:09,302 INFO     repeater     task nb300_lastensq ended after 2.1 seconds
2014-12-06 21:30:09,303 INFO     repeater     task nb300_lastensq: Time from /home/data/SP1411/proc/nb300/load/wrote_ens_time: 2014/12/06 21:29:53
2014-12-06 21:31:54,406 INFO     repeater     task nb300_quick starting 1.2 seconds late
2014-12-06 21:31:57,752 INFO     repeater     task nb300_quick ended after 3.3 seconds
2014-12-06 21:31:57,753 INFO     repeater     task nb300_3dayplots starting 4.5 seconds late
2014-12-06 21:32:01,641 INFO     repeater     task nb300_3dayplots ended after 3.9 seconds
2014-12-06 21:32:01,642 INFO     repeater     task nb300_beamplots starting 8.4 seconds late
2014-12-06 21:32:03,318 INFO     repeater     task nb300_beamplots output:
Starting procsetup

2014-12-06 21:32:03,319 INFO     repeater     task nb300_beamplots ended after 1.7 seconds
2014-12-06 21:32:03,319 INFO     repeater     task nb300_beamplots starting 10.0 seconds late
2014-12-06 21:32:05,023 INFO     repeater     task nb300_beamplots output:
Starting procsetup

2014-12-06 21:32:05,023 INFO     repeater     task nb300_beamplots ended after 1.7 seconds
2014-12-06 21:32:05,023 INFO     repeater     task ashtech_hcorrstats starting 11.7 seconds late
2014-12-06 21:32:05,931 INFO     repeater     task ashtech_hcorrstats ended after 0.9 seconds
2014-12-06 21:32:10,937 INFO     repeater     task nb300_lastensq starting 7.9 seconds late
2014-12-06 21:32:13,137 INFO     repeater     task nb300_lastensq ended after 2.2 seconds
2014-12-06 21:32:13,137 INFO     repeater     task nb300_lastensq: Time from /home/data/SP1411/proc/nb300/load/wrote_ens_time: 2014/12/06 21:31:53
2014-12-06 21:34:03,274 INFO     repeater     task nb300_lastensq starting 0.3 seconds late
2014-12-06 21:34:05,461 INFO     repeater     task nb300_lastensq ended after 2.2 seconds
2014-12-06 21:34:05,461 INFO     repeater     task nb300_lastensq: Time from /home/data/SP1411/proc/nb300/load/wrote_ens_time: 2014/12/06 21:33:53
2014-12-06 21:36:05,603 INFO     repeater     task nb300_lastensq starting 2.6 seconds late
2014-12-06 21:36:07,716 INFO     repeater     task nb300_lastensq ended after 2.1 seconds
2014-12-06 21:36:07,716 INFO     repeater     task nb300_lastensq: Time from /home/data/SP1411/proc/nb300/load/wrote_ens_time: 2014/12/06 21:35:53
2014-12-06 21:36:57,782 INFO     repeater     task ashtech_hcorrstats starting 4.5 seconds late
2014-12-06 21:36:58,709 INFO     repeater     task ashtech_hcorrstats ended after 0.9 seconds
2014-12-06 21:38:03,777 INFO     repeater     task nb300_lastensq starting 0.8 seconds late
2014-12-06 21:38:05,961 INFO     repeater     task nb300_lastensq ended after 2.2 seconds
2014-12-06 21:38:05,962 INFO     repeater     task nb300_lastensq: Time from /home/data/SP1411/proc/nb300/load/wrote_ens_time: 2014/12/06 21:37:53
2014-12-06 21:40:06,082 INFO     repeater     task nb300_lastensq starting 3.1 seconds late
2014-12-06 21:40:08,201 INFO     repeater     task nb300_lastensq ended after 2.1 seconds
2014-12-06 21:40:08,201 INFO     repeater     task nb300_lastensq: Time from /home/data/SP1411/proc/nb300/load/wrote_ens_time: 2014/12/06 21:39:53
2014-12-06 21:41:53,314 INFO     repeater     task nb300_beamplots starting 0.0 seconds late
2014-12-06 21:41:54,906 INFO     repeater     task nb300_beamplots output:
Starting procsetup

2014-12-06 21:41:54,906 INFO     repeater     task nb300_beamplots ended after 1.6 seconds
2014-12-06 21:41:54,906 INFO     repeater     task nb300_beamplots starting 1.6 seconds late
2014-12-06 21:41:56,626 INFO     repeater     task nb300_beamplots output:
Starting procsetup

2014-12-06 21:41:56,626 INFO     repeater     task nb300_beamplots ended after 1.7 seconds
2014-12-06 21:41:56,626 INFO     repeater     task ashtech_hcorrstats starting 3.4 seconds late
2014-12-06 21:41:57,537 INFO     repeater     task ashtech_hcorrstats ended after 0.9 seconds
2014-12-06 21:42:07,549 INFO     repeater     task nb300_lastensq starting 4.5 seconds late
2014-12-06 21:42:09,706 INFO     repeater     task nb300_lastensq ended after 2.2 seconds
2014-12-06 21:42:09,706 INFO     repeater     task nb300_lastensq: Time from /home/data/SP1411/proc/nb300/load/wrote_ens_time: 2014/12/06 21:41:53
2014-12-06 21:44:04,844 INFO     repeater     task nb300_lastensq starting 1.8 seconds late
2014-12-06 21:44:07,033 INFO     repeater     task nb300_lastensq ended after 2.2 seconds
2014-12-06 21:44:07,033 INFO     repeater     task nb300_lastensq: Time from /home/data/SP1411/proc/nb300/load/wrote_ens_time: 2014/12/06 21:43:53
2014-12-06 21:46:07,171 INFO     repeater     task nb300_lastensq starting 4.2 seconds late
2014-12-06 21:46:09,352 INFO     repeater     task nb300_lastensq ended after 2.2 seconds
2014-12-06 21:46:09,352 INFO     repeater     task nb300_lastensq: Time from /home/data/SP1411/proc/nb300/load/wrote_ens_time: 2014/12/06 21:45:53
2014-12-06 21:46:54,404 INFO     repeater     task ashtech_hcorrstats starting 1.1 seconds late
2014-12-06 21:46:55,327 INFO     repeater     task ashtech_hcorrstats ended after 0.9 seconds
2014-12-06 21:48:05,403 INFO     repeater     task nb300_lastensq starting 2.4 seconds late
2014-12-06 21:48:07,609 INFO     repeater     task nb300_lastensq ended after 2.2 seconds
2014-12-06 21:48:07,610 INFO     repeater     task nb300_lastensq: Time from /home/data/SP1411/proc/nb300/load/wrote_ens_time: 2014/12/06 21:47:53
2014-12-06 21:50:07,750 INFO     repeater     task nb300_lastensq starting 4.8 seconds late
2014-12-06 21:50:09,931 INFO     repeater     task nb300_lastensq ended after 2.2 seconds
2014-12-06 21:50:09,931 INFO     repeater     task nb300_lastensq: Time from /home/data/SP1411/proc/nb300/load/wrote_ens_time: 2014/12/06 21:49:53
2014-12-06 21:51:55,058 INFO     repeater     task nb300_beamplots starting 1.8 seconds late
2014-12-06 21:51:56,651 INFO     repeater     task nb300_beamplots output:
Starting procsetup

2014-12-06 21:51:56,652 INFO     repeater     task nb300_beamplots ended after 1.6 seconds
2014-12-06 21:51:56,652 INFO     repeater     task nb300_beamplots starting 3.4 seconds late
2014-12-06 21:51:58,361 INFO     repeater     task nb300_beamplots output:
Starting procsetup

2014-12-06 21:51:58,362 INFO     repeater     task nb300_beamplots ended after 1.7 seconds
2014-12-06 21:51:58,362 INFO     repeater     task ashtech_hcorrstats starting 5.1 seconds late
2014-12-06 21:51:59,286 INFO     repeater     task ashtech_hcorrstats ended after 0.9 seconds
2014-12-06 21:52:04,287 INFO     repeater     task nb300_lastensq starting 1.3 seconds late
2014-12-06 21:52:06,472 INFO     repeater     task nb300_lastensq ended after 2.2 seconds
2014-12-06 21:52:06,473 INFO     repeater     task nb300_lastensq: Time from /home/data/SP1411/proc/nb300/load/wrote_ens_time: 2014/12/06 21:51:53
2014-12-06 21:54:06,627 INFO     repeater     task nb300_lastensq starting 3.6 seconds late
2014-12-06 21:54:08,756 INFO     repeater     task nb300_lastensq ended after 2.1 seconds
2014-12-06 21:54:08,757 INFO     repeater     task nb300_lastensq: Time from /home/data/SP1411/proc/nb300/load/wrote_ens_time: 2014/12/06 21:53:53
2014-12-06 21:56:03,888 INFO     repeater     task nb300_lastensq starting 0.9 seconds late
2014-12-06 21:56:06,031 INFO     repeater     task nb300_lastensq ended after 2.1 seconds
2014-12-06 21:56:06,032 INFO     repeater     task nb300_lastensq: Time from /home/data/SP1411/proc/nb300/load/wrote_ens_time: 2014/12/06 21:55:53
2014-12-06 21:56:56,099 INFO     repeater     task ashtech_hcorrstats starting 2.8 seconds late
2014-12-06 21:56:57,020 INFO     repeater     task ashtech_hcorrstats ended after 0.9 seconds
2014-12-06 21:58:07,101 INFO     repeater     task nb300_lastensq starting 4.1 seconds late
2014-12-06 21:58:09,291 INFO     repeater     task nb300_lastensq ended after 2.2 seconds
2014-12-06 21:58:09,291 INFO     repeater     task nb300_lastensq: Time from /home/data/SP1411/proc/nb300/load/wrote_ens_time: 2014/12/06 21:57:53
2014-12-06 22:00:04,422 INFO     repeater     task nb300_lastensq starting 1.4 seconds late
2014-12-06 22:00:06,648 INFO     repeater     task nb300_lastensq ended after 2.2 seconds
2014-12-06 22:00:06,648 INFO     repeater     task nb300_lastensq: Time from /home/data/SP1411/proc/nb300/load/wrote_ens_time: 2014/12/06 21:59:53
2014-12-06 22:01:56,778 INFO     repeater     task nb300_quick starting 3.5 seconds late
2014-12-06 22:02:00,135 INFO     repeater     task nb300_quick ended after 3.4 seconds
2014-12-06 22:02:00,135 INFO     repeater     task nb300_3dayplots starting 6.9 seconds late
2014-12-06 22:02:04,057 INFO     repeater     task nb300_3dayplots ended after 3.9 seconds
2014-12-06 22:02:04,057 INFO     repeater     task nb300_beamplots starting 10.8 seconds late
2014-12-06 22:02:05,749 INFO     repeater     task nb300_beamplots output:
Starting procsetup

2014-12-06 22:02:05,749 INFO     repeater     task nb300_beamplots ended after 1.7 seconds
2014-12-06 22:02:05,750 INFO     repeater     task nb300_beamplots starting 12.5 seconds late
2014-12-06 22:02:07,384 INFO     repeater     task nb300_beamplots output:
Starting procsetup

2014-12-06 22:02:07,385 INFO     repeater     task nb300_beamplots ended after 1.6 seconds
2014-12-06 22:02:07,385 INFO     repeater     task ashtech_hcorrstats starting 14.1 seconds late
2014-12-06 22:02:08,305 INFO     repeater     task ashtech_hcorrstats ended after 0.9 seconds
2014-12-06 22:02:13,311 INFO     repeater     task nb300_lastensq starting 10.3 seconds late
2014-12-06 22:02:15,366 INFO     repeater     task nb300_lastensq ended after 2.1 seconds
2014-12-06 22:02:15,366 INFO     repeater     task nb300_lastensq: Time from /home/data/SP1411/proc/nb300/load/wrote_ens_time: 2014/12/06 22:01:53
2014-12-06 22:04:05,508 INFO     repeater     task nb300_lastensq starting 2.5 seconds late
2014-12-06 22:04:07,627 INFO     repeater     task nb300_lastensq ended after 2.1 seconds
2014-12-06 22:04:07,627 INFO     repeater     task nb300_lastensq: Time from /home/data/SP1411/proc/nb300/load/wrote_ens_time: 2014/12/06 22:03:53
2014-12-06 22:06:07,771 INFO     repeater     task nb300_lastensq starting 4.8 seconds late
2014-12-06 22:06:09,860 INFO     repeater     task nb300_lastensq ended after 2.1 seconds
2014-12-06 22:06:09,860 INFO     repeater     task nb300_lastensq: Time from /home/data/SP1411/proc/nb300/load/wrote_ens_time: 2014/12/06 22:05:53
2014-12-06 22:06:54,909 INFO     repeater     task ashtech_hcorrstats starting 1.6 seconds late
2014-12-06 22:06:55,841 INFO     repeater     task ashtech_hcorrstats ended after 0.9 seconds
2014-12-06 22:08:05,922 INFO     repeater     task nb300_lastensq starting 2.9 seconds late
2014-12-06 22:08:07,989 INFO     repeater     task nb300_lastensq ended after 2.1 seconds
2014-12-06 22:08:07,990 INFO     repeater     task nb300_lastensq: Time from /home/data/SP1411/proc/nb300/load/wrote_ens_time: 2014/12/06 22:07:53
2014-12-06 22:10:03,118 INFO     repeater     task nb300_lastensq starting 0.1 seconds late
2014-12-06 22:10:05,407 INFO     repeater     task nb300_lastensq ended after 2.3 seconds
2014-12-06 22:10:05,408 INFO     repeater     task nb300_lastensq: Time from /home/data/SP1411/proc/nb300/load/wrote_ens_time: 2014/12/06 22:09:53
2014-12-06 22:11:55,532 INFO     repeater     task nb300_beamplots starting 2.3 seconds late
2014-12-06 22:11:57,214 INFO     repeater     task nb300_beamplots output:
Starting procsetup

2014-12-06 22:11:57,214 INFO     repeater     task nb300_beamplots ended after 1.7 seconds
2014-12-06 22:11:57,215 INFO     repeater     task nb300_beamplots starting 3.9 seconds late
2014-12-06 22:11:58,935 INFO     repeater     task nb300_beamplots output:
Starting procsetup

2014-12-06 22:11:58,935 INFO     repeater     task nb300_beamplots ended after 1.7 seconds
2014-12-06 22:11:58,936 INFO     repeater     task ashtech_hcorrstats starting 5.7 seconds late
2014-12-06 22:11:59,845 INFO     repeater     task ashtech_hcorrstats ended after 0.9 seconds
2014-12-06 22:12:04,851 INFO     repeater     task nb300_lastensq starting 1.9 seconds late
2014-12-06 22:12:06,952 INFO     repeater     task nb300_lastensq ended after 2.1 seconds
2014-12-06 22:12:06,952 INFO     repeater     task nb300_lastensq: Time from /home/data/SP1411/proc/nb300/load/wrote_ens_time: 2014/12/06 22:11:53
2014-12-06 22:14:07,088 INFO     repeater     task nb300_lastensq starting 4.1 seconds late
2014-12-06 22:14:09,204 INFO     repeater     task nb300_lastensq ended after 2.1 seconds
2014-12-06 22:14:09,204 INFO     repeater     task nb300_lastensq: Time from /home/data/SP1411/proc/nb300/load/wrote_ens_time: 2014/12/06 22:13:53
2014-12-06 22:16:04,331 INFO     repeater     task nb300_lastensq starting 1.3 seconds late
2014-12-06 22:16:06,400 INFO     repeater     task nb300_lastensq ended after 2.1 seconds
2014-12-06 22:16:06,401 INFO     repeater     task nb300_lastensq: Time from /home/data/SP1411/proc/nb300/load/wrote_ens_time: 2014/12/06 22:15:53
2014-12-06 22:16:56,463 INFO     repeater     task ashtech_hcorrstats starting 3.2 seconds late
2014-12-06 22:16:57,398 INFO     repeater     task ashtech_hcorrstats ended after 0.9 seconds
2014-12-06 22:18:07,486 INFO     repeater     task nb300_lastensq starting 4.5 seconds late
2014-12-06 22:18:09,603 INFO     repeater     task nb300_lastensq ended after 2.1 seconds
2014-12-06 22:18:09,604 INFO     repeater     task nb300_lastensq: Time from /home/data/SP1411/proc/nb300/load/wrote_ens_time: 2014/12/06 22:17:53
2014-12-06 22:20:04,734 INFO     repeater     task nb300_lastensq starting 1.7 seconds late
2014-12-06 22:20:06,894 INFO     repeater     task nb300_lastensq ended after 2.2 seconds
2014-12-06 22:20:06,894 INFO     repeater     task nb300_lastensq: Time from /home/data/SP1411/proc/nb300/load/wrote_ens_time: 2014/12/06 22:19:53
2014-12-06 22:21:57,019 INFO     repeater     task nb300_beamplots starting 3.7 seconds late
2014-12-06 22:21:58,596 INFO     repeater     task nb300_beamplots output:
Starting procsetup

2014-12-06 22:21:58,597 INFO     repeater     task nb300_beamplots ended after 1.6 seconds
2014-12-06 22:21:58,597 INFO     repeater     task nb300_beamplots starting 5.3 seconds late
2014-12-06 22:22:00,294 INFO     repeater     task nb300_beamplots output:
Starting procsetup

2014-12-06 22:22:00,294 INFO     repeater     task nb300_beamplots ended after 1.7 seconds
2014-12-06 22:22:00,295 INFO     repeater     task ashtech_hcorrstats starting 7.0 seconds late
2014-12-06 22:22:01,216 INFO     repeater     task ashtech_hcorrstats ended after 0.9 seconds
2014-12-06 22:22:06,221 INFO     repeater     task nb300_lastensq starting 3.2 seconds late
2014-12-06 22:22:08,349 INFO     repeater     task nb300_lastensq ended after 2.1 seconds
2014-12-06 22:22:08,349 INFO     repeater     task nb300_lastensq: Time from /home/data/SP1411/proc/nb300/load/wrote_ens_time: 2014/12/06 22:21:53
2014-12-06 22:24:03,475 INFO     repeater     task nb300_lastensq starting 0.5 seconds late
2014-12-06 22:24:05,531 INFO     repeater     task nb300_lastensq ended after 2.1 seconds
2014-12-06 22:24:05,532 INFO     repeater     task nb300_lastensq: Time from /home/data/SP1411/proc/nb300/load/wrote_ens_time: 2014/12/06 22:23:53
2014-12-06 22:26:05,675 INFO     repeater     task nb300_lastensq starting 2.7 seconds late
2014-12-06 22:26:07,762 INFO     repeater     task nb300_lastensq ended after 2.1 seconds
2014-12-06 22:26:07,762 INFO     repeater     task nb300_lastensq: Time from /home/data/SP1411/proc/nb300/load/wrote_ens_time: 2014/12/06 22:25:53
2014-12-06 22:26:57,818 INFO     repeater     task ashtech_hcorrstats starting 4.5 seconds late
2014-12-06 22:26:58,746 INFO     repeater     task ashtech_hcorrstats ended after 0.9 seconds
2014-12-06 22:28:03,818 INFO     repeater     task nb300_lastensq starting 0.8 seconds late
2014-12-06 22:28:05,883 INFO     repeater     task nb300_lastensq ended after 2.1 seconds
2014-12-06 22:28:05,883 INFO     repeater     task nb300_lastensq: Time from /home/data/SP1411/proc/nb300/load/wrote_ens_time: 2014/12/06 22:27:53
2014-12-06 22:30:06,011 INFO     repeater     task nb300_lastensq starting 3.0 seconds late
2014-12-06 22:30:08,112 INFO     repeater     task nb300_lastensq ended after 2.1 seconds
2014-12-06 22:30:08,112 INFO     repeater     task nb300_lastensq: Time from /home/data/SP1411/proc/nb300/load/wrote_ens_time: 2014/12/06 22:29:53
2014-12-06 22:31:58,241 INFO     repeater     task nb300_quick starting 5.0 seconds late
2014-12-06 22:32:01,594 INFO     repeater     task nb300_quick ended after 3.4 seconds
2014-12-06 22:32:01,594 INFO     repeater     task nb300_3dayplots starting 8.4 seconds late
2014-12-06 22:32:05,491 INFO     repeater     task nb300_3dayplots ended after 3.9 seconds
2014-12-06 22:32:05,492 INFO     repeater     task nb300_beamplots starting 12.2 seconds late
2014-12-06 22:32:07,064 INFO     repeater     task nb300_beamplots output:
Starting procsetup

2014-12-06 22:32:07,064 INFO     repeater     task nb300_beamplots ended after 1.6 seconds
2014-12-06 22:32:07,064 INFO     repeater     task nb300_beamplots starting 13.8 seconds late
2014-12-06 22:32:08,673 INFO     repeater     task nb300_beamplots output:
Starting procsetup

2014-12-06 22:32:08,673 INFO     repeater     task nb300_beamplots ended after 1.6 seconds
2014-12-06 22:32:08,673 INFO     repeater     task ashtech_hcorrstats starting 15.4 seconds late
2014-12-06 22:32:09,610 INFO     repeater     task ashtech_hcorrstats ended after 0.9 seconds
2014-12-06 22:32:14,611 INFO     repeater     task nb300_lastensq starting 11.6 seconds late
2014-12-06 22:32:16,696 INFO     repeater     task nb300_lastensq ended after 2.1 seconds
2014-12-06 22:32:16,696 INFO     repeater     task nb300_lastensq: Time from /home/data/SP1411/proc/nb300/load/wrote_ens_time: 2014/12/06 22:31:53
2014-12-06 22:34:06,827 INFO     repeater     task nb300_lastensq starting 3.8 seconds late
2014-12-06 22:34:08,941 INFO     repeater     task nb300_lastensq ended after 2.1 seconds
2014-12-06 22:34:08,941 INFO     repeater     task nb300_lastensq: Time from /home/data/SP1411/proc/nb300/load/wrote_ens_time: 2014/12/06 22:33:53
2014-12-06 22:36:04,078 INFO     repeater     task nb300_lastensq starting 1.1 seconds late
2014-12-06 22:36:06,213 INFO     repeater     task nb300_lastensq ended after 2.1 seconds
2014-12-06 22:36:06,213 INFO     repeater     task nb300_lastensq: Time from /home/data/SP1411/proc/nb300/load/wrote_ens_time: 2014/12/06 22:35:53
2014-12-06 22:36:56,279 INFO     repeater     task ashtech_hcorrstats starting 3.0 seconds late
2014-12-06 22:36:57,196 INFO     repeater     task ashtech_hcorrstats ended after 0.9 seconds
2014-12-06 22:38:07,271 INFO     repeater     task nb300_lastensq starting 4.3 seconds late
2014-12-06 22:38:09,355 INFO     repeater     task nb300_lastensq ended after 2.1 seconds
2014-12-06 22:38:09,356 INFO     repeater     task nb300_lastensq: Time from /home/data/SP1411/proc/nb300/load/wrote_ens_time: 2014/12/06 22:37:53
2014-12-06 22:40:04,491 INFO     repeater     task nb300_lastensq starting 1.5 seconds late
2014-12-06 22:40:06,584 INFO     repeater     task nb300_lastensq ended after 2.1 seconds
2014-12-06 22:40:06,584 INFO     repeater     task nb300_lastensq: Time from /home/data/SP1411/proc/nb300/load/wrote_ens_time: 2014/12/06 22:39:53
2014-12-06 22:41:56,714 INFO     repeater     task nb300_beamplots starting 3.4 seconds late
2014-12-06 22:41:58,421 INFO     repeater     task nb300_beamplots output:
Starting procsetup

2014-12-06 22:41:58,421 INFO     repeater     task nb300_beamplots ended after 1.7 seconds
2014-12-06 22:41:58,421 INFO     repeater     task nb300_beamplots starting 5.1 seconds late
2014-12-06 22:42:00,143 INFO     repeater     task nb300_beamplots output:
Starting procsetup

2014-12-06 22:42:00,143 INFO     repeater     task nb300_beamplots ended after 1.7 seconds
2014-12-06 22:42:00,144 INFO     repeater     task ashtech_hcorrstats starting 6.9 seconds late
2014-12-06 22:42:01,068 INFO     repeater     task ashtech_hcorrstats ended after 0.9 seconds
2014-12-06 22:42:06,071 INFO     repeater     task nb300_lastensq starting 3.1 seconds late
2014-12-06 22:42:08,155 INFO     repeater     task nb300_lastensq ended after 2.1 seconds
2014-12-06 22:42:08,155 INFO     repeater     task nb300_lastensq: Time from /home/data/SP1411/proc/nb300/load/wrote_ens_time: 2014/12/06 22:41:53
2014-12-06 22:44:03,281 INFO     repeater     task nb300_lastensq starting 0.3 seconds late
2014-12-06 22:44:05,361 INFO     repeater     task nb300_lastensq ended after 2.1 seconds
2014-12-06 22:44:05,362 INFO     repeater     task nb300_lastensq: Time from /home/data/SP1411/proc/nb300/load/wrote_ens_time: 2014/12/06 22:43:53
2014-12-06 22:46:05,494 INFO     repeater     task nb300_lastensq starting 2.5 seconds late
2014-12-06 22:46:07,577 INFO     repeater     task nb300_lastensq ended after 2.1 seconds
2014-12-06 22:46:07,577 INFO     repeater     task nb300_lastensq: Time from /home/data/SP1411/proc/nb300/load/wrote_ens_time: 2014/12/06 22:45:53
2014-12-06 22:46:57,643 INFO     repeater     task ashtech_hcorrstats starting 4.4 seconds late
2014-12-06 22:46:58,586 INFO     repeater     task ashtech_hcorrstats ended after 0.9 seconds
2014-12-06 22:48:03,661 INFO     repeater     task nb300_lastensq starting 0.7 seconds late
2014-12-06 22:48:05,741 INFO     repeater     task nb300_lastensq ended after 2.1 seconds
2014-12-06 22:48:05,741 INFO     repeater     task nb300_lastensq: Time from /home/data/SP1411/proc/nb300/load/wrote_ens_time: 2014/12/06 22:47:53
2014-12-06 22:50:05,886 INFO     repeater     task nb300_lastensq starting 2.9 seconds late
2014-12-06 22:50:07,975 INFO     repeater     task nb300_lastensq ended after 2.1 seconds
2014-12-06 22:50:07,975 INFO     repeater     task nb300_lastensq: Time from /home/data/SP1411/proc/nb300/load/wrote_ens_time: 2014/12/06 22:49:53
2014-12-06 22:51:58,109 INFO     repeater     task nb300_beamplots starting 4.8 seconds late
2014-12-06 22:51:59,825 INFO     repeater     task nb300_beamplots output:
Starting procsetup

2014-12-06 22:51:59,826 INFO     repeater     task nb300_beamplots ended after 1.7 seconds
2014-12-06 22:51:59,826 INFO     repeater     task nb300_beamplots starting 6.6 seconds late
2014-12-06 22:52:01,535 INFO     repeater     task nb300_beamplots output:
Starting procsetup

2014-12-06 22:52:01,535 INFO     repeater     task nb300_beamplots ended after 1.7 seconds
2014-12-06 22:52:01,535 INFO     repeater     task ashtech_hcorrstats starting 8.3 seconds late
2014-12-06 22:52:02,452 INFO     repeater     task ashtech_hcorrstats ended after 0.9 seconds
2014-12-06 22:52:07,458 INFO     repeater     task nb300_lastensq starting 4.5 seconds late
2014-12-06 22:52:09,605 INFO     repeater     task nb300_lastensq ended after 2.1 seconds
2014-12-06 22:52:09,605 INFO     repeater     task nb300_lastensq: Time from /home/data/SP1411/proc/nb300/load/wrote_ens_time: 2014/12/06 22:51:53
2014-12-06 22:54:04,744 INFO     repeater     task nb300_lastensq starting 1.7 seconds late
2014-12-06 22:54:06,883 INFO     repeater     task nb300_lastensq ended after 2.1 seconds
2014-12-06 22:54:06,883 INFO     repeater     task nb300_lastensq: Time from /home/data/SP1411/proc/nb300/load/wrote_ens_time: 2014/12/06 22:53:53
2014-12-06 22:56:07,029 INFO     repeater     task nb300_lastensq starting 4.0 seconds late
2014-12-06 22:56:09,151 INFO     repeater     task nb300_lastensq ended after 2.1 seconds
2014-12-06 22:56:09,151 INFO     repeater     task nb300_lastensq: Time from /home/data/SP1411/proc/nb300/load/wrote_ens_time: 2014/12/06 22:55:53
2014-12-06 22:56:54,210 INFO     repeater     task ashtech_hcorrstats starting 0.9 seconds late
2014-12-06 22:56:55,141 INFO     repeater     task ashtech_hcorrstats ended after 0.9 seconds
2014-12-06 22:58:05,224 INFO     repeater     task nb300_lastensq starting 2.2 seconds late
2014-12-06 22:58:07,378 INFO     repeater     task nb300_lastensq ended after 2.2 seconds
2014-12-06 22:58:07,378 INFO     repeater     task nb300_lastensq: Time from /home/data/SP1411/proc/nb300/load/wrote_ens_time: 2014/12/06 22:57:53
2014-12-06 23:00:07,525 INFO     repeater     task nb300_lastensq starting 4.5 seconds late
2014-12-06 23:00:09,665 INFO     repeater     task nb300_lastensq ended after 2.1 seconds
2014-12-06 23:00:09,666 INFO     repeater     task nb300_lastensq: Time from /home/data/SP1411/proc/nb300/load/wrote_ens_time: 2014/12/06 22:59:53
2014-12-06 23:01:54,785 INFO     repeater     task nb300_quick starting 1.5 seconds late
2014-12-06 23:01:58,176 INFO     repeater     task nb300_quick ended after 3.4 seconds
2014-12-06 23:01:58,177 INFO     repeater     task nb300_3dayplots starting 4.9 seconds late
2014-12-06 23:02:02,138 INFO     repeater     task nb300_3dayplots ended after 4.0 seconds
2014-12-06 23:02:02,139 INFO     repeater     task nb300_beamplots starting 8.9 seconds late
2014-12-06 23:02:03,836 INFO     repeater     task nb300_beamplots output:
Starting procsetup

2014-12-06 23:02:03,836 INFO     repeater     task nb300_beamplots ended after 1.7 seconds
2014-12-06 23:02:03,836 INFO     repeater     task nb300_beamplots starting 10.6 seconds late
2014-12-06 23:02:05,565 INFO     repeater     task nb300_beamplots output:
Starting procsetup

2014-12-06 23:02:05,565 INFO     repeater     task nb300_beamplots ended after 1.7 seconds
2014-12-06 23:02:05,565 INFO     repeater     task ashtech_hcorrstats starting 12.3 seconds late
2014-12-06 23:02:06,494 INFO     repeater     task ashtech_hcorrstats ended after 0.9 seconds
2014-12-06 23:02:11,499 INFO     repeater     task nb300_lastensq starting 8.5 seconds late
2014-12-06 23:02:13,607 INFO     repeater     task nb300_lastensq ended after 2.1 seconds
2014-12-06 23:02:13,607 INFO     repeater     task nb300_lastensq: Time from /home/data/SP1411/proc/nb300/load/wrote_ens_time: 2014/12/06 23:01:53
2014-12-06 23:04:03,746 INFO     repeater     task nb300_lastensq starting 0.7 seconds late
2014-12-06 23:04:05,889 INFO     repeater     task nb300_lastensq ended after 2.1 seconds
2014-12-06 23:04:05,890 INFO     repeater     task nb300_lastensq: Time from /home/data/SP1411/proc/nb300/load/wrote_ens_time: 2014/12/06 23:03:53
2014-12-06 23:06:06,020 INFO     repeater     task nb300_lastensq starting 3.0 seconds late
2014-12-06 23:06:08,163 INFO     repeater     task nb300_lastensq ended after 2.1 seconds
2014-12-06 23:06:08,164 INFO     repeater     task nb300_lastensq: Time from /home/data/SP1411/proc/nb300/load/wrote_ens_time: 2014/12/06 23:05:53
2014-12-06 23:06:58,222 INFO     repeater     task ashtech_hcorrstats starting 4.9 seconds late
2014-12-06 23:06:59,153 INFO     repeater     task ashtech_hcorrstats ended after 0.9 seconds
2014-12-06 23:08:04,231 INFO     repeater     task nb300_lastensq starting 1.2 seconds late
2014-12-06 23:08:06,359 INFO     repeater     task nb300_lastensq ended after 2.1 seconds
2014-12-06 23:08:06,360 INFO     repeater     task nb300_lastensq: Time from /home/data/SP1411/proc/nb300/load/wrote_ens_time: 2014/12/06 23:07:53
2014-12-06 23:10:06,485 INFO     repeater     task nb300_lastensq starting 3.5 seconds late
2014-12-06 23:10:08,624 INFO     repeater     task nb300_lastensq ended after 2.1 seconds
2014-12-06 23:10:08,624 INFO     repeater     task nb300_lastensq: Time from /home/data/SP1411/proc/nb300/load/wrote_ens_time: 2014/12/06 23:09:53
2014-12-06 23:11:53,758 INFO     repeater     task nb300_beamplots starting 0.5 seconds late
2014-12-06 23:11:55,475 INFO     repeater     task nb300_beamplots output:
Starting procsetup

2014-12-06 23:11:55,475 INFO     repeater     task nb300_beamplots ended after 1.7 seconds
2014-12-06 23:11:55,475 INFO     repeater     task nb300_beamplots starting 2.2 seconds late
2014-12-06 23:11:57,179 INFO     repeater     task nb300_beamplots output:
Starting procsetup

2014-12-06 23:11:57,180 INFO     repeater     task nb300_beamplots ended after 1.7 seconds
2014-12-06 23:11:57,180 INFO     repeater     task ashtech_hcorrstats starting 3.9 seconds late
2014-12-06 23:11:58,101 INFO     repeater     task ashtech_hcorrstats ended after 0.9 seconds
2014-12-06 23:12:03,106 INFO     repeater     task nb300_lastensq starting 0.1 seconds late
2014-12-06 23:12:05,263 INFO     repeater     task nb300_lastensq ended after 2.2 seconds
2014-12-06 23:12:05,263 INFO     repeater     task nb300_lastensq: Time from /home/data/SP1411/proc/nb300/load/wrote_ens_time: 2014/12/06 23:11:53
2014-12-06 23:14:05,393 INFO     repeater     task nb300_lastensq starting 2.4 seconds late
2014-12-06 23:14:07,546 INFO     repeater     task nb300_lastensq ended after 2.2 seconds
2014-12-06 23:14:07,546 INFO     repeater     task nb300_lastensq: Time from /home/data/SP1411/proc/nb300/load/wrote_ens_time: 2014/12/06 23:13:53
2014-12-06 23:16:07,697 INFO     repeater     task nb300_lastensq starting 4.7 seconds late
2014-12-06 23:16:09,839 INFO     repeater     task nb300_lastensq ended after 2.1 seconds
2014-12-06 23:16:09,839 INFO     repeater     task nb300_lastensq: Time from /home/data/SP1411/proc/nb300/load/wrote_ens_time: 2014/12/06 23:15:53
2014-12-06 23:16:54,889 INFO     repeater     task ashtech_hcorrstats starting 1.6 seconds late
2014-12-06 23:16:55,803 INFO     repeater     task ashtech_hcorrstats ended after 0.9 seconds
2014-12-06 23:18:05,886 INFO     repeater     task nb300_lastensq starting 2.9 seconds late
2014-12-06 23:18:08,036 INFO     repeater     task nb300_lastensq ended after 2.1 seconds
2014-12-06 23:18:08,036 INFO     repeater     task nb300_lastensq: Time from /home/data/SP1411/proc/nb300/load/wrote_ens_time: 2014/12/06 23:17:53
2014-12-06 23:20:03,171 INFO     repeater     task nb300_lastensq starting 0.2 seconds late
2014-12-06 23:20:05,311 INFO     repeater     task nb300_lastensq ended after 2.1 seconds
2014-12-06 23:20:05,312 INFO     repeater     task nb300_lastensq: Time from /home/data/SP1411/proc/nb300/load/wrote_ens_time: 2014/12/06 23:19:53
2014-12-06 23:21:55,442 INFO     repeater     task nb300_beamplots starting 2.2 seconds late
2014-12-06 23:21:57,144 INFO     repeater     task nb300_beamplots output:
Starting procsetup

2014-12-06 23:21:57,144 INFO     repeater     task nb300_beamplots ended after 1.7 seconds
2014-12-06 23:21:57,145 INFO     repeater     task nb300_beamplots starting 3.9 seconds late
2014-12-06 23:21:58,878 INFO     repeater     task nb300_beamplots output:
Starting procsetup

2014-12-06 23:21:58,878 INFO     repeater     task nb300_beamplots ended after 1.7 seconds
2014-12-06 23:21:58,878 INFO     repeater     task ashtech_hcorrstats starting 5.6 seconds late
2014-12-06 23:21:59,781 INFO     repeater     task ashtech_hcorrstats ended after 0.9 seconds
2014-12-06 23:22:04,787 INFO     repeater     task nb300_lastensq starting 1.8 seconds late
2014-12-06 23:22:06,895 INFO     repeater     task nb300_lastensq ended after 2.1 seconds
2014-12-06 23:22:06,896 INFO     repeater     task nb300_lastensq: Time from /home/data/SP1411/proc/nb300/load/wrote_ens_time: 2014/12/06 23:21:53
2014-12-06 23:24:07,028 INFO     repeater     task nb300_lastensq starting 4.0 seconds late
2014-12-06 23:24:09,175 INFO     repeater     task nb300_lastensq ended after 2.1 seconds
2014-12-06 23:24:09,175 INFO     repeater     task nb300_lastensq: Time from /home/data/SP1411/proc/nb300/load/wrote_ens_time: 2014/12/06 23:23:53
2014-12-06 23:26:04,299 INFO     repeater     task nb300_lastensq starting 1.3 seconds late
2014-12-06 23:26:06,465 INFO     repeater     task nb300_lastensq ended after 2.2 seconds
2014-12-06 23:26:06,466 INFO     repeater     task nb300_lastensq: Time from /home/data/SP1411/proc/nb300/load/wrote_ens_time: 2014/12/06 23:25:53
2014-12-06 23:26:56,523 INFO     repeater     task ashtech_hcorrstats starting 3.2 seconds late
2014-12-06 23:26:57,429 INFO     repeater     task ashtech_hcorrstats ended after 0.9 seconds
2014-12-06 23:28:07,505 INFO     repeater     task nb300_lastensq starting 4.5 seconds late
2014-12-06 23:28:09,683 INFO     repeater     task nb300_lastensq ended after 2.2 seconds
2014-12-06 23:28:09,684 INFO     repeater     task nb300_lastensq: Time from /home/data/SP1411/proc/nb300/load/wrote_ens_time: 2014/12/06 23:27:53
2014-12-06 23:30:04,811 INFO     repeater     task nb300_lastensq starting 1.8 seconds late
2014-12-06 23:30:06,953 INFO     repeater     task nb300_lastensq ended after 2.1 seconds
2014-12-06 23:30:06,953 INFO     repeater     task nb300_lastensq: Time from /home/data/SP1411/proc/nb300/load/wrote_ens_time: 2014/12/06 23:29:53
2014-12-06 23:31:57,078 INFO     repeater     task nb300_quick starting 3.8 seconds late
2014-12-06 23:32:00,533 INFO     repeater     task nb300_quick ended after 3.5 seconds
2014-12-06 23:32:00,534 INFO     repeater     task nb300_3dayplots starting 7.3 seconds late
2014-12-06 23:32:04,475 INFO     repeater     task nb300_3dayplots ended after 3.9 seconds
2014-12-06 23:32:04,476 INFO     repeater     task nb300_beamplots starting 11.2 seconds late
2014-12-06 23:32:06,079 INFO     repeater     task nb300_beamplots output:
Starting procsetup

2014-12-06 23:32:06,079 INFO     repeater     task nb300_beamplots ended after 1.6 seconds
2014-12-06 23:32:06,079 INFO     repeater     task nb300_beamplots starting 12.8 seconds late
2014-12-06 23:32:07,787 INFO     repeater     task nb300_beamplots output:
Starting procsetup

2014-12-06 23:32:07,787 INFO     repeater     task nb300_beamplots ended after 1.7 seconds
2014-12-06 23:32:07,788 INFO     repeater     task ashtech_hcorrstats starting 14.5 seconds late
2014-12-06 23:32:08,668 INFO     repeater     task ashtech_hcorrstats ended after 0.9 seconds
2014-12-06 23:32:13,673 INFO     repeater     task nb300_lastensq starting 10.7 seconds late
2014-12-06 23:32:15,847 INFO     repeater     task nb300_lastensq ended after 2.2 seconds
2014-12-06 23:32:15,848 INFO     repeater     task nb300_lastensq: Time from /home/data/SP1411/proc/nb300/load/wrote_ens_time: 2014/12/06 23:31:53
2014-12-06 23:34:05,964 INFO     repeater     task nb300_lastensq starting 3.0 seconds late
2014-12-06 23:34:08,109 INFO     repeater     task nb300_lastensq ended after 2.1 seconds
2014-12-06 23:34:08,109 INFO     repeater     task nb300_lastensq: Time from /home/data/SP1411/proc/nb300/load/wrote_ens_time: 2014/12/06 23:33:53
2014-12-06 23:36:03,231 INFO     repeater     task nb300_lastensq starting 0.2 seconds late
2014-12-06 23:36:05,355 INFO     repeater     task nb300_lastensq ended after 2.1 seconds
2014-12-06 23:36:05,356 INFO     repeater     task nb300_lastensq: Time from /home/data/SP1411/proc/nb300/load/wrote_ens_time: 2014/12/06 23:35:53
2014-12-06 23:36:55,415 INFO     repeater     task ashtech_hcorrstats starting 2.1 seconds late
2014-12-06 23:36:56,322 INFO     repeater     task ashtech_hcorrstats ended after 0.9 seconds
2014-12-06 23:38:06,404 INFO     repeater     task nb300_lastensq starting 3.4 seconds late
2014-12-06 23:38:08,524 INFO     repeater     task nb300_lastensq ended after 2.1 seconds
2014-12-06 23:38:08,524 INFO     repeater     task nb300_lastensq: Time from /home/data/SP1411/proc/nb300/load/wrote_ens_time: 2014/12/06 23:37:53
2014-12-06 23:40:03,655 INFO     repeater     task nb300_lastensq starting 0.7 seconds late
2014-12-06 23:40:05,812 INFO     repeater     task nb300_lastensq ended after 2.2 seconds
2014-12-06 23:40:05,812 INFO     repeater     task nb300_lastensq: Time from /home/data/SP1411/proc/nb300/load/wrote_ens_time: 2014/12/06 23:39:53
2014-12-06 23:41:55,944 INFO     repeater     task nb300_beamplots starting 2.7 seconds late
2014-12-06 23:41:57,621 INFO     repeater     task nb300_beamplots output:
Starting procsetup

2014-12-06 23:41:57,621 INFO     repeater     task nb300_beamplots ended after 1.7 seconds
2014-12-06 23:41:57,621 INFO     repeater     task nb300_beamplots starting 4.3 seconds late
2014-12-06 23:41:59,238 INFO     repeater     task nb300_beamplots output:
Starting procsetup

2014-12-06 23:41:59,238 INFO     repeater     task nb300_beamplots ended after 1.6 seconds
2014-12-06 23:41:59,239 INFO     repeater     task ashtech_hcorrstats starting 6.0 seconds late
2014-12-06 23:42:00,128 INFO     repeater     task ashtech_hcorrstats ended after 0.9 seconds
2014-12-06 23:42:05,134 INFO     repeater     task nb300_lastensq starting 2.1 seconds late
2014-12-06 23:42:07,260 INFO     repeater     task nb300_lastensq ended after 2.1 seconds
2014-12-06 23:42:07,260 INFO     repeater     task nb300_lastensq: Time from /home/data/SP1411/proc/nb300/load/wrote_ens_time: 2014/12/06 23:41:53
2014-12-06 23:44:07,401 INFO     repeater     task nb300_lastensq starting 4.4 seconds late
2014-12-06 23:44:09,581 INFO     repeater     task nb300_lastensq ended after 2.2 seconds
2014-12-06 23:44:09,581 INFO     repeater     task nb300_lastensq: Time from /home/data/SP1411/proc/nb300/load/wrote_ens_time: 2014/12/06 23:43:53
2014-12-06 23:46:04,727 INFO     repeater     task nb300_lastensq starting 1.7 seconds late
2014-12-06 23:46:06,844 INFO     repeater     task nb300_lastensq ended after 2.1 seconds
2014-12-06 23:46:06,845 INFO     repeater     task nb300_lastensq: Time from /home/data/SP1411/proc/nb300/load/wrote_ens_time: 2014/12/06 23:45:53
2014-12-06 23:46:56,902 INFO     repeater     task ashtech_hcorrstats starting 3.6 seconds late
2014-12-06 23:46:57,794 INFO     repeater     task ashtech_hcorrstats ended after 0.9 seconds
