2014-12-08 12:44:07,366 INFO     repeater     task nb300_lastensq: Time from /home/data/SP1411/proc/nb300/load/wrote_ens_time: 2014/12/08 12:43:53
2014-12-08 12:46:07,521 INFO     repeater     task nb300_lastensq starting 4.5 seconds late
2014-12-08 12:46:09,672 INFO     repeater     task nb300_lastensq ended after 2.2 seconds
2014-12-08 12:46:09,672 INFO     repeater     task nb300_lastensq: Time from /home/data/SP1411/proc/nb300/load/wrote_ens_time: 2014/12/08 12:45:53
2014-12-08 12:46:54,725 INFO     repeater     task ashtech_hcorrstats starting 1.5 seconds late
2014-12-08 12:46:55,638 INFO     repeater     task ashtech_hcorrstats ended after 0.9 seconds
2014-12-08 12:48:05,720 INFO     repeater     task nb300_lastensq starting 2.7 seconds late
2014-12-08 12:48:07,808 INFO     repeater     task nb300_lastensq ended after 2.1 seconds
2014-12-08 12:48:07,808 INFO     repeater     task nb300_lastensq: Time from /home/data/SP1411/proc/nb300/load/wrote_ens_time: 2014/12/08 12:47:53
2014-12-08 12:50:07,950 INFO     repeater     task nb300_lastensq starting 5.0 seconds late
2014-12-08 12:50:10,103 INFO     repeater     task nb300_lastensq ended after 2.2 seconds
2014-12-08 12:50:10,103 INFO     repeater     task nb300_lastensq: Time from /home/data/SP1411/proc/nb300/load/wrote_ens_time: 2014/12/08 12:49:53
2014-12-08 12:51:55,234 INFO     repeater     task nb300_beamplots starting 2.0 seconds late
2014-12-08 12:51:56,921 INFO     repeater     task nb300_beamplots output:
Starting procsetup

2014-12-08 12:51:56,921 INFO     repeater     task nb300_beamplots ended after 1.7 seconds
2014-12-08 12:51:56,921 INFO     repeater     task nb300_beamplots starting 3.6 seconds late
2014-12-08 12:51:58,645 INFO     repeater     task nb300_beamplots output:
Starting procsetup

2014-12-08 12:51:58,645 INFO     repeater     task nb300_beamplots ended after 1.7 seconds
2014-12-08 12:51:58,646 INFO     repeater     task ashtech_hcorrstats starting 5.4 seconds late
2014-12-08 12:51:59,553 INFO     repeater     task ashtech_hcorrstats ended after 0.9 seconds
2014-12-08 12:52:04,561 INFO     repeater     task nb300_lastensq starting 1.6 seconds late
2014-12-08 12:52:06,711 INFO     repeater     task nb300_lastensq ended after 2.1 seconds
2014-12-08 12:52:06,711 INFO     repeater     task nb300_lastensq: Time from /home/data/SP1411/proc/nb300/load/wrote_ens_time: 2014/12/08 12:51:53
2014-12-08 12:54:06,848 INFO     repeater     task nb300_lastensq starting 3.8 seconds late
2014-12-08 12:54:08,978 INFO     repeater     task nb300_lastensq ended after 2.1 seconds
2014-12-08 12:54:08,979 INFO     repeater     task nb300_lastensq: Time from /home/data/SP1411/proc/nb300/load/wrote_ens_time: 2014/12/08 12:53:53
2014-12-08 12:56:04,104 INFO     repeater     task nb300_lastensq starting 1.1 seconds late
2014-12-08 12:56:06,266 INFO     repeater     task nb300_lastensq ended after 2.2 seconds
2014-12-08 12:56:06,267 INFO     repeater     task nb300_lastensq: Time from /home/data/SP1411/proc/nb300/load/wrote_ens_time: 2014/12/08 12:55:53
2014-12-08 12:56:56,312 INFO     repeater     task ashtech_hcorrstats starting 3.0 seconds late
2014-12-08 12:56:57,203 INFO     repeater     task ashtech_hcorrstats ended after 0.9 seconds
2014-12-08 12:58:07,274 INFO     repeater     task nb300_lastensq starting 4.3 seconds late
2014-12-08 12:58:09,408 INFO     repeater     task nb300_lastensq ended after 2.1 seconds
2014-12-08 12:58:09,409 INFO     repeater     task nb300_lastensq: Time from /home/data/SP1411/proc/nb300/load/wrote_ens_time: 2014/12/08 12:57:53
2014-12-08 13:00:04,531 INFO     repeater     task nb300_lastensq starting 1.5 seconds late
2014-12-08 13:00:06,644 INFO     repeater     task nb300_lastensq ended after 2.1 seconds
2014-12-08 13:00:06,645 INFO     repeater     task nb300_lastensq: Time from /home/data/SP1411/proc/nb300/load/wrote_ens_time: 2014/12/08 12:59:53
2014-12-08 13:01:56,770 INFO     repeater     task nb300_quick starting 3.5 seconds late
2014-12-08 13:02:01,397 INFO     repeater     task nb300_quick ended after 4.6 seconds
2014-12-08 13:02:01,397 INFO     repeater     task nb300_3dayplots starting 8.2 seconds late
2014-12-08 13:02:06,665 INFO     repeater     task nb300_3dayplots ended after 5.3 seconds
2014-12-08 13:02:06,666 INFO     repeater     task nb300_beamplots starting 13.4 seconds late
2014-12-08 13:02:08,331 INFO     repeater     task nb300_beamplots output:
Starting procsetup

2014-12-08 13:02:08,332 INFO     repeater     task nb300_beamplots ended after 1.7 seconds
2014-12-08 13:02:08,332 INFO     repeater     task nb300_beamplots starting 15.1 seconds late
2014-12-08 13:02:10,058 INFO     repeater     task nb300_beamplots output:
Starting procsetup

2014-12-08 13:02:10,059 INFO     repeater     task nb300_beamplots ended after 1.7 seconds
2014-12-08 13:02:10,059 INFO     repeater     task ashtech_hcorrstats starting 16.8 seconds late
2014-12-08 13:02:10,953 INFO     repeater     task ashtech_hcorrstats ended after 0.9 seconds
2014-12-08 13:02:15,958 INFO     repeater     task nb300_lastensq starting 13.0 seconds late
2014-12-08 13:02:18,083 INFO     repeater     task nb300_lastensq ended after 2.1 seconds
2014-12-08 13:02:18,084 INFO     repeater     task nb300_lastensq: Time from /home/data/SP1411/proc/nb300/load/wrote_ens_time: 2014/12/08 13:01:53
2014-12-08 13:04:03,208 INFO     repeater     task nb300_lastensq starting 0.2 seconds late
2014-12-08 13:04:05,319 INFO     repeater     task nb300_lastensq ended after 2.1 seconds
2014-12-08 13:04:05,319 INFO     repeater     task nb300_lastensq: Time from /home/data/SP1411/proc/nb300/load/wrote_ens_time: 2014/12/08 13:03:53
2014-12-08 13:06:05,461 INFO     repeater     task nb300_lastensq starting 2.5 seconds late
2014-12-08 13:06:07,617 INFO     repeater     task nb300_lastensq ended after 2.2 seconds
2014-12-08 13:06:07,618 INFO     repeater     task nb300_lastensq: Time from /home/data/SP1411/proc/nb300/load/wrote_ens_time: 2014/12/08 13:05:53
2014-12-08 13:06:57,673 INFO     repeater     task ashtech_hcorrstats starting 4.4 seconds late
2014-12-08 13:06:58,572 INFO     repeater     task ashtech_hcorrstats ended after 0.9 seconds
2014-12-08 13:08:03,647 INFO     repeater     task nb300_lastensq starting 0.6 seconds late
2014-12-08 13:08:05,810 INFO     repeater     task nb300_lastensq ended after 2.2 seconds
2014-12-08 13:08:05,810 INFO     repeater     task nb300_lastensq: Time from /home/data/SP1411/proc/nb300/load/wrote_ens_time: 2014/12/08 13:07:53
2014-12-08 13:10:05,945 INFO     repeater     task nb300_lastensq starting 2.9 seconds late
2014-12-08 13:10:08,048 INFO     repeater     task nb300_lastensq ended after 2.1 seconds
2014-12-08 13:10:08,049 INFO     repeater     task nb300_lastensq: Time from /home/data/SP1411/proc/nb300/load/wrote_ens_time: 2014/12/08 13:09:53
2014-12-08 13:11:58,174 INFO     repeater     task nb300_beamplots starting 4.9 seconds late
2014-12-08 13:11:59,860 INFO     repeater     task nb300_beamplots output:
Starting procsetup

2014-12-08 13:11:59,860 INFO     repeater     task nb300_beamplots ended after 1.7 seconds
2014-12-08 13:11:59,860 INFO     repeater     task nb300_beamplots starting 6.6 seconds late
2014-12-08 13:12:01,499 INFO     repeater     task nb300_beamplots output:
Starting procsetup

2014-12-08 13:12:01,500 INFO     repeater     task nb300_beamplots ended after 1.6 seconds
2014-12-08 13:12:01,500 INFO     repeater     task ashtech_hcorrstats starting 8.2 seconds late
2014-12-08 13:12:02,406 INFO     repeater     task ashtech_hcorrstats ended after 0.9 seconds
2014-12-08 13:12:07,411 INFO     repeater     task nb300_lastensq starting 4.4 seconds late
2014-12-08 13:12:09,537 INFO     repeater     task nb300_lastensq ended after 2.1 seconds
2014-12-08 13:12:09,537 INFO     repeater     task nb300_lastensq: Time from /home/data/SP1411/proc/nb300/load/wrote_ens_time: 2014/12/08 13:11:53
2014-12-08 13:14:04,668 INFO     repeater     task nb300_lastensq starting 1.7 seconds late
2014-12-08 13:14:06,786 INFO     repeater     task nb300_lastensq ended after 2.1 seconds
2014-12-08 13:14:06,787 INFO     repeater     task nb300_lastensq: Time from /home/data/SP1411/proc/nb300/load/wrote_ens_time: 2014/12/08 13:13:53
2014-12-08 13:16:06,929 INFO     repeater     task nb300_lastensq starting 3.9 seconds late
2014-12-08 13:16:09,032 INFO     repeater     task nb300_lastensq ended after 2.1 seconds
2014-12-08 13:16:09,033 INFO     repeater     task nb300_lastensq: Time from /home/data/SP1411/proc/nb300/load/wrote_ens_time: 2014/12/08 13:15:53
2014-12-08 13:16:54,093 INFO     repeater     task ashtech_hcorrstats starting 0.8 seconds late
2014-12-08 13:16:54,993 INFO     repeater     task ashtech_hcorrstats ended after 0.9 seconds
2014-12-08 13:18:05,065 INFO     repeater     task nb300_lastensq starting 2.1 seconds late
2014-12-08 13:18:07,217 INFO     repeater     task nb300_lastensq ended after 2.2 seconds
2014-12-08 13:18:07,218 INFO     repeater     task nb300_lastensq: Time from /home/data/SP1411/proc/nb300/load/wrote_ens_time: 2014/12/08 13:17:53
2014-12-08 13:20:07,361 INFO     repeater     task nb300_lastensq starting 4.4 seconds late
2014-12-08 13:20:09,495 INFO     repeater     task nb300_lastensq ended after 2.1 seconds
2014-12-08 13:20:09,496 INFO     repeater     task nb300_lastensq: Time from /home/data/SP1411/proc/nb300/load/wrote_ens_time: 2014/12/08 13:19:53
2014-12-08 13:21:54,622 INFO     repeater     task nb300_beamplots starting 1.3 seconds late
2014-12-08 13:21:56,316 INFO     repeater     task nb300_beamplots output:
Starting procsetup

2014-12-08 13:21:56,316 INFO     repeater     task nb300_beamplots ended after 1.7 seconds
2014-12-08 13:21:56,316 INFO     repeater     task nb300_beamplots starting 3.0 seconds late
2014-12-08 13:21:58,047 INFO     repeater     task nb300_beamplots output:
Starting procsetup

2014-12-08 13:21:58,047 INFO     repeater     task nb300_beamplots ended after 1.7 seconds
2014-12-08 13:21:58,047 INFO     repeater     task ashtech_hcorrstats starting 4.8 seconds late
2014-12-08 13:21:58,959 INFO     repeater     task ashtech_hcorrstats ended after 0.9 seconds
2014-12-08 13:22:03,961 INFO     repeater     task nb300_lastensq starting 1.0 seconds late
2014-12-08 13:22:06,092 INFO     repeater     task nb300_lastensq ended after 2.1 seconds
2014-12-08 13:22:06,093 INFO     repeater     task nb300_lastensq: Time from /home/data/SP1411/proc/nb300/load/wrote_ens_time: 2014/12/08 13:21:53
2014-12-08 13:24:06,231 INFO     repeater     task nb300_lastensq starting 3.2 seconds late
2014-12-08 13:24:08,352 INFO     repeater     task nb300_lastensq ended after 2.1 seconds
2014-12-08 13:24:08,352 INFO     repeater     task nb300_lastensq: Time from /home/data/SP1411/proc/nb300/load/wrote_ens_time: 2014/12/08 13:23:53
2014-12-08 13:26:03,481 INFO     repeater     task nb300_lastensq starting 0.5 seconds late
2014-12-08 13:26:05,617 INFO     repeater     task nb300_lastensq ended after 2.1 seconds
2014-12-08 13:26:05,618 INFO     repeater     task nb300_lastensq: Time from /home/data/SP1411/proc/nb300/load/wrote_ens_time: 2014/12/08 13:25:53
2014-12-08 13:26:55,676 INFO     repeater     task ashtech_hcorrstats starting 2.4 seconds late
2014-12-08 13:26:56,571 INFO     repeater     task ashtech_hcorrstats ended after 0.9 seconds
2014-12-08 13:28:06,650 INFO     repeater     task nb300_lastensq starting 3.7 seconds late
2014-12-08 13:28:08,826 INFO     repeater     task nb300_lastensq ended after 2.2 seconds
2014-12-08 13:28:08,826 INFO     repeater     task nb300_lastensq: Time from /home/data/SP1411/proc/nb300/load/wrote_ens_time: 2014/12/08 13:27:53
2014-12-08 13:30:03,958 INFO     repeater     task nb300_lastensq starting 1.0 seconds late
2014-12-08 13:30:06,102 INFO     repeater     task nb300_lastensq ended after 2.1 seconds
2014-12-08 13:30:06,103 INFO     repeater     task nb300_lastensq: Time from /home/data/SP1411/proc/nb300/load/wrote_ens_time: 2014/12/08 13:29:53
2014-12-08 13:31:56,247 INFO     repeater     task nb300_quick starting 3.0 seconds late
2014-12-08 13:32:01,064 INFO     repeater     task nb300_quick ended after 4.8 seconds
2014-12-08 13:32:01,064 INFO     repeater     task nb300_3dayplots starting 7.8 seconds late
2014-12-08 13:32:06,250 INFO     repeater     task nb300_3dayplots ended after 5.2 seconds
2014-12-08 13:32:06,251 INFO     repeater     task nb300_beamplots starting 13.0 seconds late
2014-12-08 13:32:07,824 INFO     repeater     task nb300_beamplots output:
Starting procsetup

2014-12-08 13:32:07,824 INFO     repeater     task nb300_beamplots ended after 1.6 seconds
2014-12-08 13:32:07,824 INFO     repeater     task nb300_beamplots starting 14.6 seconds late
2014-12-08 13:32:09,529 INFO     repeater     task nb300_beamplots output:
Starting procsetup

2014-12-08 13:32:09,530 INFO     repeater     task nb300_beamplots ended after 1.7 seconds
2014-12-08 13:32:09,530 INFO     repeater     task ashtech_hcorrstats starting 16.3 seconds late
2014-12-08 13:32:10,422 INFO     repeater     task ashtech_hcorrstats ended after 0.9 seconds
2014-12-08 13:32:15,427 INFO     repeater     task nb300_lastensq starting 12.4 seconds late
2014-12-08 13:32:17,644 INFO     repeater     task nb300_lastensq ended after 2.2 seconds
2014-12-08 13:32:17,644 INFO     repeater     task nb300_lastensq: Time from /home/data/SP1411/proc/nb300/load/wrote_ens_time: 2014/12/08 13:31:53
2014-12-08 13:34:07,780 INFO     repeater     task nb300_lastensq starting 4.8 seconds late
2014-12-08 13:34:09,957 INFO     repeater     task nb300_lastensq ended after 2.2 seconds
2014-12-08 13:34:09,957 INFO     repeater     task nb300_lastensq: Time from /home/data/SP1411/proc/nb300/load/wrote_ens_time: 2014/12/08 13:33:53
2014-12-08 13:36:05,098 INFO     repeater     task nb300_lastensq starting 2.1 seconds late
2014-12-08 13:36:07,293 INFO     repeater     task nb300_lastensq ended after 2.2 seconds
2014-12-08 13:36:07,293 INFO     repeater     task nb300_lastensq: Time from /home/data/SP1411/proc/nb300/load/wrote_ens_time: 2014/12/08 13:35:53
2014-12-08 13:36:57,346 INFO     repeater     task ashtech_hcorrstats starting 4.1 seconds late
2014-12-08 13:36:58,275 INFO     repeater     task ashtech_hcorrstats ended after 0.9 seconds
2014-12-08 13:38:03,357 INFO     repeater     task nb300_lastensq starting 0.4 seconds late
2014-12-08 13:38:05,547 INFO     repeater     task nb300_lastensq ended after 2.2 seconds
2014-12-08 13:38:05,547 INFO     repeater     task nb300_lastensq: Time from /home/data/SP1411/proc/nb300/load/wrote_ens_time: 2014/12/08 13:37:53
2014-12-08 13:40:05,687 INFO     repeater     task nb300_lastensq starting 2.7 seconds late
2014-12-08 13:40:07,807 INFO     repeater     task nb300_lastensq ended after 2.1 seconds
2014-12-08 13:40:07,808 INFO     repeater     task nb300_lastensq: Time from /home/data/SP1411/proc/nb300/load/wrote_ens_time: 2014/12/08 13:39:53
2014-12-08 13:41:57,930 INFO     repeater     task nb300_beamplots starting 4.7 seconds late
2014-12-08 13:41:59,612 INFO     repeater     task nb300_beamplots output:
Starting procsetup

2014-12-08 13:41:59,613 INFO     repeater     task nb300_beamplots ended after 1.7 seconds
2014-12-08 13:41:59,613 INFO     repeater     task nb300_beamplots starting 6.3 seconds late
2014-12-08 13:42:01,330 INFO     repeater     task nb300_beamplots output:
Starting procsetup

2014-12-08 13:42:01,330 INFO     repeater     task nb300_beamplots ended after 1.7 seconds
2014-12-08 13:42:01,331 INFO     repeater     task ashtech_hcorrstats starting 8.1 seconds late
2014-12-08 13:42:02,223 INFO     repeater     task ashtech_hcorrstats ended after 0.9 seconds
2014-12-08 13:42:07,229 INFO     repeater     task nb300_lastensq starting 4.2 seconds late
2014-12-08 13:42:09,411 INFO     repeater     task nb300_lastensq ended after 2.2 seconds
2014-12-08 13:42:09,412 INFO     repeater     task nb300_lastensq: Time from /home/data/SP1411/proc/nb300/load/wrote_ens_time: 2014/12/08 13:41:53
2014-12-08 13:44:04,538 INFO     repeater     task nb300_lastensq starting 1.5 seconds late
2014-12-08 13:44:06,674 INFO     repeater     task nb300_lastensq ended after 2.1 seconds
2014-12-08 13:44:06,674 INFO     repeater     task nb300_lastensq: Time from /home/data/SP1411/proc/nb300/load/wrote_ens_time: 2014/12/08 13:43:53
2014-12-08 13:46:07,654 INFO     repeater     task nb300_lastensq starting 4.7 seconds late
2014-12-08 13:46:09,823 INFO     repeater     task nb300_lastensq ended after 2.2 seconds
2014-12-08 13:46:09,823 INFO     repeater     task nb300_lastensq: Time from /home/data/SP1411/proc/nb300/load/wrote_ens_time: 2014/12/08 13:45:54
2014-12-08 13:46:54,876 INFO     repeater     task ashtech_hcorrstats starting 1.6 seconds late
2014-12-08 13:46:55,806 INFO     repeater     task ashtech_hcorrstats ended after 0.9 seconds
2014-12-08 13:48:05,891 INFO     repeater     task nb300_lastensq starting 1.9 seconds late
2014-12-08 13:48:08,066 INFO     repeater     task nb300_lastensq ended after 2.2 seconds
2014-12-08 13:48:08,066 INFO     repeater     task nb300_lastensq: Time from /home/data/SP1411/proc/nb300/load/wrote_ens_time: 2014/12/08 13:47:54
2014-12-08 13:50:08,205 INFO     repeater     task nb300_lastensq starting 4.2 seconds late
2014-12-08 13:50:10,385 INFO     repeater     task nb300_lastensq ended after 2.2 seconds
2014-12-08 13:50:10,386 INFO     repeater     task nb300_lastensq: Time from /home/data/SP1411/proc/nb300/load/wrote_ens_time: 2014/12/08 13:49:54
2014-12-08 13:51:55,519 INFO     repeater     task nb300_beamplots starting 2.2 seconds late
2014-12-08 13:51:57,138 INFO     repeater     task nb300_beamplots output:
Starting procsetup

2014-12-08 13:51:57,138 INFO     repeater     task nb300_beamplots ended after 1.6 seconds
2014-12-08 13:51:57,138 INFO     repeater     task nb300_beamplots starting 3.9 seconds late
2014-12-08 13:51:58,861 INFO     repeater     task nb300_beamplots output:
Starting procsetup

2014-12-08 13:51:58,861 INFO     repeater     task nb300_beamplots ended after 1.7 seconds
2014-12-08 13:51:58,862 INFO     repeater     task ashtech_hcorrstats starting 5.6 seconds late
2014-12-08 13:51:59,763 INFO     repeater     task ashtech_hcorrstats ended after 0.9 seconds
2014-12-08 13:52:04,769 INFO     repeater     task nb300_lastensq starting 0.8 seconds late
2014-12-08 13:52:06,957 INFO     repeater     task nb300_lastensq ended after 2.2 seconds
2014-12-08 13:52:06,957 INFO     repeater     task nb300_lastensq: Time from /home/data/SP1411/proc/nb300/load/wrote_ens_time: 2014/12/08 13:51:54
2014-12-08 13:54:07,089 INFO     repeater     task nb300_lastensq starting 3.1 seconds late
2014-12-08 13:54:09,300 INFO     repeater     task nb300_lastensq ended after 2.2 seconds
2014-12-08 13:54:09,300 INFO     repeater     task nb300_lastensq: Time from /home/data/SP1411/proc/nb300/load/wrote_ens_time: 2014/12/08 13:53:54
2014-12-08 13:56:04,439 INFO     repeater     task nb300_lastensq starting 0.4 seconds late
2014-12-08 13:56:06,632 INFO     repeater     task nb300_lastensq ended after 2.2 seconds
2014-12-08 13:56:06,632 INFO     repeater     task nb300_lastensq: Time from /home/data/SP1411/proc/nb300/load/wrote_ens_time: 2014/12/08 13:55:54
2014-12-08 13:56:56,692 INFO     repeater     task ashtech_hcorrstats starting 3.4 seconds late
2014-12-08 13:56:57,589 INFO     repeater     task ashtech_hcorrstats ended after 0.9 seconds
2014-12-08 13:58:07,672 INFO     repeater     task nb300_lastensq starting 3.7 seconds late
2014-12-08 13:58:09,940 INFO     repeater     task nb300_lastensq ended after 2.3 seconds
2014-12-08 13:58:09,940 INFO     repeater     task nb300_lastensq: Time from /home/data/SP1411/proc/nb300/load/wrote_ens_time: 2014/12/08 13:57:54
2014-12-08 14:00:05,075 INFO     repeater     task nb300_lastensq starting 1.1 seconds late
2014-12-08 14:00:07,291 INFO     repeater     task nb300_lastensq ended after 2.2 seconds
2014-12-08 14:00:07,292 INFO     repeater     task nb300_lastensq: Time from /home/data/SP1411/proc/nb300/load/wrote_ens_time: 2014/12/08 13:59:54
2014-12-08 14:01:57,412 INFO     repeater     task nb300_quick starting 4.2 seconds late
2014-12-08 14:02:02,074 INFO     repeater     task nb300_quick ended after 4.7 seconds
2014-12-08 14:02:02,075 INFO     repeater     task nb300_3dayplots starting 8.8 seconds late
2014-12-08 14:02:07,311 INFO     repeater     task nb300_3dayplots ended after 5.2 seconds
2014-12-08 14:02:07,311 INFO     repeater     task nb300_beamplots starting 14.0 seconds late
2014-12-08 14:02:09,002 INFO     repeater     task nb300_beamplots output:
Starting procsetup

2014-12-08 14:02:09,003 INFO     repeater     task nb300_beamplots ended after 1.7 seconds
2014-12-08 14:02:09,003 INFO     repeater     task nb300_beamplots starting 15.7 seconds late
2014-12-08 14:02:10,641 INFO     repeater     task nb300_beamplots output:
Starting procsetup

2014-12-08 14:02:10,641 INFO     repeater     task nb300_beamplots ended after 1.6 seconds
2014-12-08 14:02:10,641 INFO     repeater     task ashtech_hcorrstats starting 17.4 seconds late
2014-12-08 14:02:11,542 INFO     repeater     task ashtech_hcorrstats ended after 0.9 seconds
2014-12-08 14:02:16,547 INFO     repeater     task nb300_lastensq starting 12.5 seconds late
2014-12-08 14:02:18,609 INFO     repeater     task nb300_lastensq ended after 2.1 seconds
2014-12-08 14:02:18,609 INFO     repeater     task nb300_lastensq: Time from /home/data/SP1411/proc/nb300/load/wrote_ens_time: 2014/12/08 14:01:54
2014-12-08 14:04:08,741 INFO     repeater     task nb300_lastensq starting 4.7 seconds late
2014-12-08 14:04:10,857 INFO     repeater     task nb300_lastensq ended after 2.1 seconds
2014-12-08 14:04:10,858 INFO     repeater     task nb300_lastensq: Time from /home/data/SP1411/proc/nb300/load/wrote_ens_time: 2014/12/08 14:03:54
2014-12-08 14:06:06,240 INFO     repeater     task nb300_lastensq starting 2.2 seconds late
2014-12-08 14:06:08,293 INFO     repeater     task nb300_lastensq ended after 2.1 seconds
2014-12-08 14:06:08,294 INFO     repeater     task nb300_lastensq: Time from /home/data/SP1411/proc/nb300/load/wrote_ens_time: 2014/12/08 14:05:54
2014-12-08 14:06:53,351 INFO     repeater     task ashtech_hcorrstats starting 0.1 seconds late
2014-12-08 14:06:54,247 INFO     repeater     task ashtech_hcorrstats ended after 0.9 seconds
2014-12-08 14:08:04,330 INFO     repeater     task nb300_lastensq starting 0.3 seconds late
2014-12-08 14:08:06,435 INFO     repeater     task nb300_lastensq ended after 2.1 seconds
2014-12-08 14:08:06,436 INFO     repeater     task nb300_lastensq: Time from /home/data/SP1411/proc/nb300/load/wrote_ens_time: 2014/12/08 14:07:54
2014-12-08 14:10:06,580 INFO     repeater     task nb300_lastensq starting 2.6 seconds late
2014-12-08 14:10:08,709 INFO     repeater     task nb300_lastensq ended after 2.1 seconds
2014-12-08 14:10:08,710 INFO     repeater     task nb300_lastensq: Time from /home/data/SP1411/proc/nb300/load/wrote_ens_time: 2014/12/08 14:09:54
2014-12-08 14:11:53,840 INFO     repeater     task nb300_beamplots starting 0.6 seconds late
2014-12-08 14:11:55,448 INFO     repeater     task nb300_beamplots output:
Starting procsetup

2014-12-08 14:11:55,449 INFO     repeater     task nb300_beamplots ended after 1.6 seconds
2014-12-08 14:11:55,449 INFO     repeater     task nb300_beamplots starting 2.2 seconds late
2014-12-08 14:11:57,175 INFO     repeater     task nb300_beamplots output:
Starting procsetup

2014-12-08 14:11:57,175 INFO     repeater     task nb300_beamplots ended after 1.7 seconds
2014-12-08 14:11:57,175 INFO     repeater     task ashtech_hcorrstats starting 3.9 seconds late
2014-12-08 14:11:58,094 INFO     repeater     task ashtech_hcorrstats ended after 0.9 seconds
2014-12-08 14:12:08,107 INFO     repeater     task nb300_lastensq starting 4.1 seconds late
2014-12-08 14:12:10,165 INFO     repeater     task nb300_lastensq ended after 2.1 seconds
2014-12-08 14:12:10,165 INFO     repeater     task nb300_lastensq: Time from /home/data/SP1411/proc/nb300/load/wrote_ens_time: 2014/12/08 14:11:54
2014-12-08 14:14:05,298 INFO     repeater     task nb300_lastensq starting 1.3 seconds late
2014-12-08 14:14:07,366 INFO     repeater     task nb300_lastensq ended after 2.1 seconds
2014-12-08 14:14:07,367 INFO     repeater     task nb300_lastensq: Time from /home/data/SP1411/proc/nb300/load/wrote_ens_time: 2014/12/08 14:13:54
2014-12-08 14:16:07,511 INFO     repeater     task nb300_lastensq starting 3.5 seconds late
2014-12-08 14:16:09,639 INFO     repeater     task nb300_lastensq ended after 2.1 seconds
2014-12-08 14:16:09,639 INFO     repeater     task nb300_lastensq: Time from /home/data/SP1411/proc/nb300/load/wrote_ens_time: 2014/12/08 14:15:54
2014-12-08 14:16:54,691 INFO     repeater     task ashtech_hcorrstats starting 1.4 seconds late
2014-12-08 14:16:55,589 INFO     repeater     task ashtech_hcorrstats ended after 0.9 seconds
2014-12-08 14:18:05,670 INFO     repeater     task nb300_lastensq starting 1.7 seconds late
2014-12-08 14:18:07,798 INFO     repeater     task nb300_lastensq ended after 2.1 seconds
2014-12-08 14:18:07,798 INFO     repeater     task nb300_lastensq: Time from /home/data/SP1411/proc/nb300/load/wrote_ens_time: 2014/12/08 14:17:54
2014-12-08 14:20:07,930 INFO     repeater     task nb300_lastensq starting 3.9 seconds late
2014-12-08 14:20:10,006 INFO     repeater     task nb300_lastensq ended after 2.1 seconds
2014-12-08 14:20:10,007 INFO     repeater     task nb300_lastensq: Time from /home/data/SP1411/proc/nb300/load/wrote_ens_time: 2014/12/08 14:19:54
2014-12-08 14:21:55,128 INFO     repeater     task nb300_beamplots starting 1.9 seconds late
2014-12-08 14:21:56,712 INFO     repeater     task nb300_beamplots output:
Starting procsetup

2014-12-08 14:21:56,713 INFO     repeater     task nb300_beamplots ended after 1.6 seconds
2014-12-08 14:21:56,713 INFO     repeater     task nb300_beamplots starting 3.4 seconds late
2014-12-08 14:21:58,410 INFO     repeater     task nb300_beamplots output:
Starting procsetup

2014-12-08 14:21:58,410 INFO     repeater     task nb300_beamplots ended after 1.7 seconds
2014-12-08 14:21:58,410 INFO     repeater     task ashtech_hcorrstats starting 5.1 seconds late
2014-12-08 14:21:59,308 INFO     repeater     task ashtech_hcorrstats ended after 0.9 seconds
2014-12-08 14:22:04,314 INFO     repeater     task nb300_lastensq starting 0.3 seconds late
2014-12-08 14:22:06,449 INFO     repeater     task nb300_lastensq ended after 2.1 seconds
2014-12-08 14:22:06,449 INFO     repeater     task nb300_lastensq: Time from /home/data/SP1411/proc/nb300/load/wrote_ens_time: 2014/12/08 14:21:55
2014-12-08 14:24:06,580 INFO     repeater     task nb300_lastensq starting 1.6 seconds late
2014-12-08 14:24:08,714 INFO     repeater     task nb300_lastensq ended after 2.1 seconds
2014-12-08 14:24:08,715 INFO     repeater     task nb300_lastensq: Time from /home/data/SP1411/proc/nb300/load/wrote_ens_time: 2014/12/08 14:23:55
2014-12-08 14:26:08,853 INFO     repeater     task nb300_lastensq starting 3.9 seconds late
2014-12-08 14:26:10,981 INFO     repeater     task nb300_lastensq ended after 2.1 seconds
2014-12-08 14:26:10,982 INFO     repeater     task nb300_lastensq: Time from /home/data/SP1411/proc/nb300/load/wrote_ens_time: 2014/12/08 14:25:55
2014-12-08 14:26:56,041 INFO     repeater     task ashtech_hcorrstats starting 2.8 seconds late
2014-12-08 14:26:56,963 INFO     repeater     task ashtech_hcorrstats ended after 0.9 seconds
2014-12-08 14:28:07,046 INFO     repeater     task nb300_lastensq starting 2.0 seconds late
2014-12-08 14:28:09,187 INFO     repeater     task nb300_lastensq output:
rbin_to_gbin: interp1 failed for /home/data/SP1411/gbin/nb300/gpshead/sp2014_341_36000.hdg.gbin
Traceback (most recent call last):
  File "/home/currents/programs/pycurrents/adcp/gbin.py", line 631, in rbin_to_gbin
    masked=False, method=method)
  File "int1.pyx", line 81, in int1.interp1 (num/src/int1.c:939)
  File "int1.pyx", line 199, in int1.interp1_core (num/src/int1.c:2890)
NonuniformError: Invalid input: The first argument is not monotonic
rbin_to_gbin: interp1 failed for /home/data/SP1411/gbin/nb300/gpshead/sp2014_341_43200.hdg.gbin
Traceback (most recent call last):
  File "/home/currents/programs/pycurrents/adcp/gbin.py", line 631, in rbin_to_gbin
    masked=False, method=method)
  File "int1.pyx", line 81, in int1.interp1 (num/src/int1.c:939)
  File "int1.pyx", line 199, in int1.interp1_core (num/src/int1.c:2890)
NonuniformError: Invalid input: The first argument is not monotonic

2014-12-08 14:28:09,187 INFO     repeater     task nb300_lastensq ended after 2.1 seconds
2014-12-08 14:28:09,188 INFO     repeater     task nb300_lastensq: Time from /home/data/SP1411/proc/nb300/load/wrote_ens_time: 2014/12/08 14:27:55
2014-12-08 14:30:09,530 INFO     repeater     task nb300_lastensq starting 4.5 seconds late
2014-12-08 14:30:11,655 INFO     repeater     task nb300_lastensq output:
rbin_to_gbin: interp1 failed for /home/data/SP1411/gbin/nb300/gpshead/sp2014_341_36000.hdg.gbin
Traceback (most recent call last):
  File "/home/currents/programs/pycurrents/adcp/gbin.py", line 631, in rbin_to_gbin
    masked=False, method=method)
  File "int1.pyx", line 81, in int1.interp1 (num/src/int1.c:939)
  File "int1.pyx", line 199, in int1.interp1_core (num/src/int1.c:2890)
NonuniformError: Invalid input: The first argument is not monotonic
rbin_to_gbin: interp1 failed for /home/data/SP1411/gbin/nb300/gpshead/sp2014_341_43200.hdg.gbin
Traceback (most recent call last):
  File "/home/currents/programs/pycurrents/adcp/gbin.py", line 631, in rbin_to_gbin
    masked=False, method=method)
  File "int1.pyx", line 81, in int1.interp1 (num/src/int1.c:939)
  File "int1.pyx", line 199, in int1.interp1_core (num/src/int1.c:2890)
NonuniformError: Invalid input: The first argument is not monotonic

2014-12-08 14:30:11,656 INFO     repeater     task nb300_lastensq ended after 2.1 seconds
2014-12-08 14:30:11,656 INFO     repeater     task nb300_lastensq: Time from /home/data/SP1411/proc/nb300/load/wrote_ens_time: 2014/12/08 14:29:55
2014-12-08 14:31:56,770 INFO     repeater     task nb300_quick starting 3.5 seconds late
2014-12-08 14:32:01,533 INFO     repeater     task nb300_quick ended after 4.8 seconds
2014-12-08 14:32:01,534 INFO     repeater     task nb300_3dayplots starting 8.3 seconds late
2014-12-08 14:32:06,818 INFO     repeater     task nb300_3dayplots ended after 5.3 seconds
2014-12-08 14:32:06,819 INFO     repeater     task nb300_beamplots starting 13.5 seconds late
2014-12-08 14:32:08,493 INFO     repeater     task nb300_beamplots output:
Starting procsetup

2014-12-08 14:32:08,493 INFO     repeater     task nb300_beamplots ended after 1.7 seconds
2014-12-08 14:32:08,494 INFO     repeater     task nb300_beamplots starting 15.2 seconds late
2014-12-08 14:32:10,101 INFO     repeater     task nb300_beamplots output:
Starting procsetup

2014-12-08 14:32:10,102 INFO     repeater     task nb300_beamplots ended after 1.6 seconds
2014-12-08 14:32:10,102 INFO     repeater     task ashtech_hcorrstats starting 16.8 seconds late
2014-12-08 14:32:10,993 INFO     repeater     task ashtech_hcorrstats ended after 0.9 seconds
2014-12-08 14:32:15,998 INFO     repeater     task nb300_lastensq starting 11.0 seconds late
2014-12-08 14:32:18,094 INFO     repeater     task nb300_lastensq output:
rbin_to_gbin: interp1 failed for /home/data/SP1411/gbin/nb300/gpshead/sp2014_341_36000.hdg.gbin
Traceback (most recent call last):
  File "/home/currents/programs/pycurrents/adcp/gbin.py", line 631, in rbin_to_gbin
    masked=False, method=method)
  File "int1.pyx", line 81, in int1.interp1 (num/src/int1.c:939)
  File "int1.pyx", line 199, in int1.interp1_core (num/src/int1.c:2890)
NonuniformError: Invalid input: The first argument is not monotonic
rbin_to_gbin: interp1 failed for /home/data/SP1411/gbin/nb300/gpshead/sp2014_341_43200.hdg.gbin
Traceback (most recent call last):
  File "/home/currents/programs/pycurrents/adcp/gbin.py", line 631, in rbin_to_gbin
    masked=False, method=method)
  File "int1.pyx", line 81, in int1.interp1 (num/src/int1.c:939)
  File "int1.pyx", line 199, in int1.interp1_core (num/src/int1.c:2890)
NonuniformError: Invalid input: The first argument is not monotonic

2014-12-08 14:32:18,095 INFO     repeater     task nb300_lastensq ended after 2.1 seconds
2014-12-08 14:32:18,095 INFO     repeater     task nb300_lastensq: Time from /home/data/SP1411/proc/nb300/load/wrote_ens_time: 2014/12/08 14:31:55
2014-12-08 14:34:08,221 INFO     repeater     task nb300_lastensq starting 3.2 seconds late
2014-12-08 14:34:10,345 INFO     repeater     task nb300_lastensq output:
rbin_to_gbin: interp1 failed for /home/data/SP1411/gbin/nb300/gpshead/sp2014_341_36000.hdg.gbin
Traceback (most recent call last):
  File "/home/currents/programs/pycurrents/adcp/gbin.py", line 631, in rbin_to_gbin
    masked=False, method=method)
  File "int1.pyx", line 81, in int1.interp1 (num/src/int1.c:939)
  File "int1.pyx", line 199, in int1.interp1_core (num/src/int1.c:2890)
NonuniformError: Invalid input: The first argument is not monotonic
rbin_to_gbin: interp1 failed for /home/data/SP1411/gbin/nb300/gpshead/sp2014_341_43200.hdg.gbin
Traceback (most recent call last):
  File "/home/currents/programs/pycurrents/adcp/gbin.py", line 631, in rbin_to_gbin
    masked=False, method=method)
  File "int1.pyx", line 81, in int1.interp1 (num/src/int1.c:939)
  File "int1.pyx", line 199, in int1.interp1_core (num/src/int1.c:2890)
NonuniformError: Invalid input: The first argument is not monotonic

2014-12-08 14:34:10,345 INFO     repeater     task nb300_lastensq ended after 2.1 seconds
2014-12-08 14:34:10,346 INFO     repeater     task nb300_lastensq: Time from /home/data/SP1411/proc/nb300/load/wrote_ens_time: 2014/12/08 14:33:55
2014-12-08 14:36:05,491 INFO     repeater     task nb300_lastensq starting 0.5 seconds late
2014-12-08 14:36:07,567 INFO     repeater     task nb300_lastensq output:
rbin_to_gbin: interp1 failed for /home/data/SP1411/gbin/nb300/gpshead/sp2014_341_36000.hdg.gbin
Traceback (most recent call last):
  File "/home/currents/programs/pycurrents/adcp/gbin.py", line 631, in rbin_to_gbin
    masked=False, method=method)
  File "int1.pyx", line 81, in int1.interp1 (num/src/int1.c:939)
  File "int1.pyx", line 199, in int1.interp1_core (num/src/int1.c:2890)
NonuniformError: Invalid input: The first argument is not monotonic
rbin_to_gbin: interp1 failed for /home/data/SP1411/gbin/nb300/gpshead/sp2014_341_43200.hdg.gbin
Traceback (most recent call last):
  File "/home/currents/programs/pycurrents/adcp/gbin.py", line 631, in rbin_to_gbin
    masked=False, method=method)
  File "int1.pyx", line 81, in int1.interp1 (num/src/int1.c:939)
  File "int1.pyx", line 199, in int1.interp1_core (num/src/int1.c:2890)
NonuniformError: Invalid input: The first argument is not monotonic

2014-12-08 14:36:07,567 INFO     repeater     task nb300_lastensq ended after 2.1 seconds
2014-12-08 14:36:07,567 INFO     repeater     task nb300_lastensq: Time from /home/data/SP1411/proc/nb300/load/wrote_ens_time: 2014/12/08 14:35:55
2014-12-08 14:36:57,630 INFO     repeater     task ashtech_hcorrstats starting 4.4 seconds late
2014-12-08 14:36:58,534 INFO     repeater     task ashtech_hcorrstats ended after 0.9 seconds
2014-12-08 14:38:08,613 INFO     repeater     task nb300_lastensq starting 3.6 seconds late
2014-12-08 14:38:10,765 INFO     repeater     task nb300_lastensq output:
rbin_to_gbin: interp1 failed for /home/data/SP1411/gbin/nb300/gpshead/sp2014_341_36000.hdg.gbin
Traceback (most recent call last):
  File "/home/currents/programs/pycurrents/adcp/gbin.py", line 631, in rbin_to_gbin
    masked=False, method=method)
  File "int1.pyx", line 81, in int1.interp1 (num/src/int1.c:939)
  File "int1.pyx", line 199, in int1.interp1_core (num/src/int1.c:2890)
NonuniformError: Invalid input: The first argument is not monotonic
rbin_to_gbin: interp1 failed for /home/data/SP1411/gbin/nb300/gpshead/sp2014_341_43200.hdg.gbin
Traceback (most recent call last):
  File "/home/currents/programs/pycurrents/adcp/gbin.py", line 631, in rbin_to_gbin
    masked=False, method=method)
  File "int1.pyx", line 81, in int1.interp1 (num/src/int1.c:939)
  File "int1.pyx", line 199, in int1.interp1_core (num/src/int1.c:2890)
NonuniformError: Invalid input: The first argument is not monotonic

2014-12-08 14:38:10,765 INFO     repeater     task nb300_lastensq ended after 2.2 seconds
2014-12-08 14:38:10,766 INFO     repeater     task nb300_lastensq: Time from /home/data/SP1411/proc/nb300/load/wrote_ens_time: 2014/12/08 14:37:55
2014-12-08 14:40:05,900 INFO     repeater     task nb300_lastensq starting 0.9 seconds late
2014-12-08 14:40:08,002 INFO     repeater     task nb300_lastensq output:
rbin_to_gbin: interp1 failed for /home/data/SP1411/gbin/nb300/gpshead/sp2014_341_36000.hdg.gbin
Traceback (most recent call last):
  File "/home/currents/programs/pycurrents/adcp/gbin.py", line 631, in rbin_to_gbin
    masked=False, method=method)
  File "int1.pyx", line 81, in int1.interp1 (num/src/int1.c:939)
  File "int1.pyx", line 199, in int1.interp1_core (num/src/int1.c:2890)
NonuniformError: Invalid input: The first argument is not monotonic
rbin_to_gbin: interp1 failed for /home/data/SP1411/gbin/nb300/gpshead/sp2014_341_43200.hdg.gbin
Traceback (most recent call last):
  File "/home/currents/programs/pycurrents/adcp/gbin.py", line 631, in rbin_to_gbin
    masked=False, method=method)
  File "int1.pyx", line 81, in int1.interp1 (num/src/int1.c:939)
  File "int1.pyx", line 199, in int1.interp1_core (num/src/int1.c:2890)
NonuniformError: Invalid input: The first argument is not monotonic

2014-12-08 14:40:08,002 INFO     repeater     task nb300_lastensq ended after 2.1 seconds
2014-12-08 14:40:08,002 INFO     repeater     task nb300_lastensq: Time from /home/data/SP1411/proc/nb300/load/wrote_ens_time: 2014/12/08 14:39:55
2014-12-08 14:41:58,125 INFO     repeater     task nb300_beamplots starting 4.9 seconds late
2014-12-08 14:41:59,802 INFO     repeater     task nb300_beamplots output:
Starting procsetup

2014-12-08 14:41:59,803 INFO     repeater     task nb300_beamplots ended after 1.7 seconds
2014-12-08 14:41:59,803 INFO     repeater     task nb300_beamplots starting 6.5 seconds late
2014-12-08 14:42:01,523 INFO     repeater     task nb300_beamplots output:
Starting procsetup

2014-12-08 14:42:01,524 INFO     repeater     task nb300_beamplots ended after 1.7 seconds
2014-12-08 14:42:01,524 INFO     repeater     task ashtech_hcorrstats starting 8.2 seconds late
2014-12-08 14:42:02,461 INFO     repeater     task ashtech_hcorrstats ended after 0.9 seconds
2014-12-08 14:42:07,467 INFO     repeater     task nb300_lastensq starting 2.5 seconds late
2014-12-08 14:42:09,548 INFO     repeater     task nb300_lastensq output:
rbin_to_gbin: interp1 failed for /home/data/SP1411/gbin/nb300/gpshead/sp2014_341_36000.hdg.gbin
Traceback (most recent call last):
  File "/home/currents/programs/pycurrents/adcp/gbin.py", line 631, in rbin_to_gbin
    masked=False, method=method)
  File "int1.pyx", line 81, in int1.interp1 (num/src/int1.c:939)
  File "int1.pyx", line 199, in int1.interp1_core (num/src/int1.c:2890)
NonuniformError: Invalid input: The first argument is not monotonic
rbin_to_gbin: interp1 failed for /home/data/SP1411/gbin/nb300/gpshead/sp2014_341_43200.hdg.gbin
Traceback (most recent call last):
  File "/home/currents/programs/pycurrents/adcp/gbin.py", line 631, in rbin_to_gbin
    masked=False, method=method)
  File "int1.pyx", line 81, in int1.interp1 (num/src/int1.c:939)
  File "int1.pyx", line 199, in int1.interp1_core (num/src/int1.c:2890)
NonuniformError: Invalid input: The first argument is not monotonic

2014-12-08 14:42:09,549 INFO     repeater     task nb300_lastensq ended after 2.1 seconds
2014-12-08 14:42:09,549 INFO     repeater     task nb300_lastensq: Time from /home/data/SP1411/proc/nb300/load/wrote_ens_time: 2014/12/08 14:41:55
2014-12-08 14:44:09,694 INFO     repeater     task nb300_lastensq starting 4.7 seconds late
2014-12-08 14:44:11,835 INFO     repeater     task nb300_lastensq output:
rbin_to_gbin: interp1 failed for /home/data/SP1411/gbin/nb300/gpshead/sp2014_341_36000.hdg.gbin
Traceback (most recent call last):
  File "/home/currents/programs/pycurrents/adcp/gbin.py", line 631, in rbin_to_gbin
    masked=False, method=method)
  File "int1.pyx", line 81, in int1.interp1 (num/src/int1.c:939)
  File "int1.pyx", line 199, in int1.interp1_core (num/src/int1.c:2890)
NonuniformError: Invalid input: The first argument is not monotonic
rbin_to_gbin: interp1 failed for /home/data/SP1411/gbin/nb300/gpshead/sp2014_341_43200.hdg.gbin
Traceback (most recent call last):
  File "/home/currents/programs/pycurrents/adcp/gbin.py", line 631, in rbin_to_gbin
    masked=False, method=method)
  File "int1.pyx", line 81, in int1.interp1 (num/src/int1.c:939)
  File "int1.pyx", line 199, in int1.interp1_core (num/src/int1.c:2890)
NonuniformError: Invalid input: The first argument is not monotonic

2014-12-08 14:44:11,836 INFO     repeater     task nb300_lastensq ended after 2.1 seconds
2014-12-08 14:44:11,836 INFO     repeater     task nb300_lastensq: Time from /home/data/SP1411/proc/nb300/load/wrote_ens_time: 2014/12/08 14:43:55
2014-12-08 14:46:06,964 INFO     repeater     task nb300_lastensq starting 2.0 seconds late
2014-12-08 14:46:09,076 INFO     repeater     task nb300_lastensq output:
rbin_to_gbin: interp1 failed for /home/data/SP1411/gbin/nb300/gpshead/sp2014_341_36000.hdg.gbin
Traceback (most recent call last):
  File "/home/currents/programs/pycurrents/adcp/gbin.py", line 631, in rbin_to_gbin
    masked=False, method=method)
  File "int1.pyx", line 81, in int1.interp1 (num/src/int1.c:939)
  File "int1.pyx", line 199, in int1.interp1_core (num/src/int1.c:2890)
NonuniformError: Invalid input: The first argument is not monotonic
rbin_to_gbin: interp1 failed for /home/data/SP1411/gbin/nb300/gpshead/sp2014_341_43200.hdg.gbin
Traceback (most recent call last):
  File "/home/currents/programs/pycurrents/adcp/gbin.py", line 631, in rbin_to_gbin
    masked=False, method=method)
  File "int1.pyx", line 81, in int1.interp1 (num/src/int1.c:939)
  File "int1.pyx", line 199, in int1.interp1_core (num/src/int1.c:2890)
NonuniformError: Invalid input: The first argument is not monotonic

2014-12-08 14:46:09,076 INFO     repeater     task nb300_lastensq ended after 2.1 seconds
2014-12-08 14:46:09,077 INFO     repeater     task nb300_lastensq: Time from /home/data/SP1411/proc/nb300/load/wrote_ens_time: 2014/12/08 14:45:55
2014-12-08 14:46:54,129 INFO     repeater     task ashtech_hcorrstats starting 0.9 seconds late
2014-12-08 14:46:55,054 INFO     repeater     task ashtech_hcorrstats ended after 0.9 seconds
2014-12-08 14:48:05,141 INFO     repeater     task nb300_lastensq starting 0.1 seconds late
2014-12-08 14:48:07,238 INFO     repeater     task nb300_lastensq output:
rbin_to_gbin: interp1 failed for /home/data/SP1411/gbin/nb300/gpshead/sp2014_341_36000.hdg.gbin
Traceback (most recent call last):
  File "/home/currents/programs/pycurrents/adcp/gbin.py", line 631, in rbin_to_gbin
    masked=False, method=method)
  File "int1.pyx", line 81, in int1.interp1 (num/src/int1.c:939)
  File "int1.pyx", line 199, in int1.interp1_core (num/src/int1.c:2890)
NonuniformError: Invalid input: The first argument is not monotonic
rbin_to_gbin: interp1 failed for /home/data/SP1411/gbin/nb300/gpshead/sp2014_341_43200.hdg.gbin
Traceback (most recent call last):
  File "/home/currents/programs/pycurrents/adcp/gbin.py", line 631, in rbin_to_gbin
    masked=False, method=method)
  File "int1.pyx", line 81, in int1.interp1 (num/src/int1.c:939)
  File "int1.pyx", line 199, in int1.interp1_core (num/src/int1.c:2890)
NonuniformError: Invalid input: The first argument is not monotonic

2014-12-08 14:48:07,238 INFO     repeater     task nb300_lastensq ended after 2.1 seconds
2014-12-08 14:48:07,239 INFO     repeater     task nb300_lastensq: Time from /home/data/SP1411/proc/nb300/load/wrote_ens_time: 2014/12/08 14:47:55
2014-12-08 14:50:07,366 INFO     repeater     task nb300_lastensq starting 2.4 seconds late
2014-12-08 14:50:09,492 INFO     repeater     task nb300_lastensq output:
rbin_to_gbin: interp1 failed for /home/data/SP1411/gbin/nb300/gpshead/sp2014_341_36000.hdg.gbin
Traceback (most recent call last):
  File "/home/currents/programs/pycurrents/adcp/gbin.py", line 631, in rbin_to_gbin
    masked=False, method=method)
  File "int1.pyx", line 81, in int1.interp1 (num/src/int1.c:939)
  File "int1.pyx", line 199, in int1.interp1_core (num/src/int1.c:2890)
NonuniformError: Invalid input: The first argument is not monotonic
rbin_to_gbin: interp1 failed for /home/data/SP1411/gbin/nb300/gpshead/sp2014_341_43200.hdg.gbin
Traceback (most recent call last):
  File "/home/currents/programs/pycurrents/adcp/gbin.py", line 631, in rbin_to_gbin
    masked=False, method=method)
  File "int1.pyx", line 81, in int1.interp1 (num/src/int1.c:939)
  File "int1.pyx", line 199, in int1.interp1_core (num/src/int1.c:2890)
NonuniformError: Invalid input: The first argument is not monotonic

2014-12-08 14:50:09,493 INFO     repeater     task nb300_lastensq ended after 2.1 seconds
2014-12-08 14:50:09,493 INFO     repeater     task nb300_lastensq: Time from /home/data/SP1411/proc/nb300/load/wrote_ens_time: 2014/12/08 14:49:55
2014-12-08 14:51:54,615 INFO     repeater     task nb300_beamplots starting 1.3 seconds late
2014-12-08 14:51:56,323 INFO     repeater     task nb300_beamplots output:
Starting procsetup

2014-12-08 14:51:56,323 INFO     repeater     task nb300_beamplots ended after 1.7 seconds
2014-12-08 14:51:56,323 INFO     repeater     task nb300_beamplots starting 3.0 seconds late
2014-12-08 14:51:58,051 INFO     repeater     task nb300_beamplots output:
Starting procsetup

2014-12-08 14:51:58,051 INFO     repeater     task nb300_beamplots ended after 1.7 seconds
2014-12-08 14:51:58,052 INFO     repeater     task ashtech_hcorrstats starting 4.8 seconds late
2014-12-08 14:51:58,996 INFO     repeater     task ashtech_hcorrstats ended after 0.9 seconds
2014-12-08 14:52:09,008 INFO     repeater     task nb300_lastensq starting 4.0 seconds late
2014-12-08 14:52:11,104 INFO     repeater     task nb300_lastensq output:
rbin_to_gbin: interp1 failed for /home/data/SP1411/gbin/nb300/gpshead/sp2014_341_36000.hdg.gbin
Traceback (most recent call last):
  File "/home/currents/programs/pycurrents/adcp/gbin.py", line 631, in rbin_to_gbin
    masked=False, method=method)
  File "int1.pyx", line 81, in int1.interp1 (num/src/int1.c:939)
  File "int1.pyx", line 199, in int1.interp1_core (num/src/int1.c:2890)
NonuniformError: Invalid input: The first argument is not monotonic
rbin_to_gbin: interp1 failed for /home/data/SP1411/gbin/nb300/gpshead/sp2014_341_43200.hdg.gbin
Traceback (most recent call last):
  File "/home/currents/programs/pycurrents/adcp/gbin.py", line 631, in rbin_to_gbin
    masked=False, method=method)
  File "int1.pyx", line 81, in int1.interp1 (num/src/int1.c:939)
  File "int1.pyx", line 199, in int1.interp1_core (num/src/int1.c:2890)
NonuniformError: Invalid input: The first argument is not monotonic

2014-12-08 14:52:11,105 INFO     repeater     task nb300_lastensq ended after 2.1 seconds
2014-12-08 14:52:11,105 INFO     repeater     task nb300_lastensq: Time from /home/data/SP1411/proc/nb300/load/wrote_ens_time: 2014/12/08 14:51:55
2014-12-08 14:54:06,233 INFO     repeater     task nb300_lastensq starting 1.2 seconds late
2014-12-08 14:54:08,383 INFO     repeater     task nb300_lastensq output:
rbin_to_gbin: interp1 failed for /home/data/SP1411/gbin/nb300/gpshead/sp2014_341_36000.hdg.gbin
Traceback (most recent call last):
  File "/home/currents/programs/pycurrents/adcp/gbin.py", line 631, in rbin_to_gbin
    masked=False, method=method)
  File "int1.pyx", line 81, in int1.interp1 (num/src/int1.c:939)
  File "int1.pyx", line 199, in int1.interp1_core (num/src/int1.c:2890)
NonuniformError: Invalid input: The first argument is not monotonic
rbin_to_gbin: interp1 failed for /home/data/SP1411/gbin/nb300/gpshead/sp2014_341_43200.hdg.gbin
Traceback (most recent call last):
  File "/home/currents/programs/pycurrents/adcp/gbin.py", line 631, in rbin_to_gbin
    masked=False, method=method)
  File "int1.pyx", line 81, in int1.interp1 (num/src/int1.c:939)
  File "int1.pyx", line 199, in int1.interp1_core (num/src/int1.c:2890)
NonuniformError: Invalid input: The first argument is not monotonic

2014-12-08 14:54:08,383 INFO     repeater     task nb300_lastensq ended after 2.1 seconds
2014-12-08 14:54:08,383 INFO     repeater     task nb300_lastensq: Time from /home/data/SP1411/proc/nb300/load/wrote_ens_time: 2014/12/08 14:53:55
2014-12-08 14:56:08,514 INFO     repeater     task nb300_lastensq starting 3.5 seconds late
2014-12-08 14:56:10,665 INFO     repeater     task nb300_lastensq output:
rbin_to_gbin: interp1 failed for /home/data/SP1411/gbin/nb300/gpshead/sp2014_341_36000.hdg.gbin
Traceback (most recent call last):
  File "/home/currents/programs/pycurrents/adcp/gbin.py", line 631, in rbin_to_gbin
    masked=False, method=method)
  File "int1.pyx", line 81, in int1.interp1 (num/src/int1.c:939)
  File "int1.pyx", line 199, in int1.interp1_core (num/src/int1.c:2890)
NonuniformError: Invalid input: The first argument is not monotonic
rbin_to_gbin: interp1 failed for /home/data/SP1411/gbin/nb300/gpshead/sp2014_341_43200.hdg.gbin
Traceback (most recent call last):
  File "/home/currents/programs/pycurrents/adcp/gbin.py", line 631, in rbin_to_gbin
    masked=False, method=method)
  File "int1.pyx", line 81, in int1.interp1 (num/src/int1.c:939)
  File "int1.pyx", line 199, in int1.interp1_core (num/src/int1.c:2890)
NonuniformError: Invalid input: The first argument is not monotonic

2014-12-08 14:56:10,665 INFO     repeater     task nb300_lastensq ended after 2.2 seconds
2014-12-08 14:56:10,665 INFO     repeater     task nb300_lastensq: Time from /home/data/SP1411/proc/nb300/load/wrote_ens_time: 2014/12/08 14:55:55
2014-12-08 14:56:55,712 INFO     repeater     task ashtech_hcorrstats starting 2.4 seconds late
2014-12-08 14:56:56,655 INFO     repeater     task ashtech_hcorrstats ended after 0.9 seconds
2014-12-08 14:58:06,731 INFO     repeater     task nb300_lastensq starting 1.7 seconds late
2014-12-08 14:58:08,824 INFO     repeater     task nb300_lastensq output:
rbin_to_gbin: interp1 failed for /home/data/SP1411/gbin/nb300/gpshead/sp2014_341_36000.hdg.gbin
Traceback (most recent call last):
  File "/home/currents/programs/pycurrents/adcp/gbin.py", line 631, in rbin_to_gbin
    masked=False, method=method)
  File "int1.pyx", line 81, in int1.interp1 (num/src/int1.c:939)
  File "int1.pyx", line 199, in int1.interp1_core (num/src/int1.c:2890)
NonuniformError: Invalid input: The first argument is not monotonic
rbin_to_gbin: interp1 failed for /home/data/SP1411/gbin/nb300/gpshead/sp2014_341_43200.hdg.gbin
Traceback (most recent call last):
  File "/home/currents/programs/pycurrents/adcp/gbin.py", line 631, in rbin_to_gbin
    masked=False, method=method)
  File "int1.pyx", line 81, in int1.interp1 (num/src/int1.c:939)
  File "int1.pyx", line 199, in int1.interp1_core (num/src/int1.c:2890)
NonuniformError: Invalid input: The first argument is not monotonic

2014-12-08 14:58:08,825 INFO     repeater     task nb300_lastensq ended after 2.1 seconds
2014-12-08 14:58:08,825 INFO     repeater     task nb300_lastensq: Time from /home/data/SP1411/proc/nb300/load/wrote_ens_time: 2014/12/08 14:57:55
2014-12-08 15:00:09,376 INFO     repeater     task nb300_lastensq starting 4.4 seconds late
2014-12-08 15:00:11,535 INFO     repeater     task nb300_lastensq output:
rbin_to_gbin: interp1 failed for /home/data/SP1411/gbin/nb300/gpshead/sp2014_341_36000.hdg.gbin
Traceback (most recent call last):
  File "/home/currents/programs/pycurrents/adcp/gbin.py", line 631, in rbin_to_gbin
    masked=False, method=method)
  File "int1.pyx", line 81, in int1.interp1 (num/src/int1.c:939)
  File "int1.pyx", line 199, in int1.interp1_core (num/src/int1.c:2890)
NonuniformError: Invalid input: The first argument is not monotonic
rbin_to_gbin: interp1 failed for /home/data/SP1411/gbin/nb300/gpshead/sp2014_341_43200.hdg.gbin
Traceback (most recent call last):
  File "/home/currents/programs/pycurrents/adcp/gbin.py", line 631, in rbin_to_gbin
    masked=False, method=method)
  File "int1.pyx", line 81, in int1.interp1 (num/src/int1.c:939)
  File "int1.pyx", line 199, in int1.interp1_core (num/src/int1.c:2890)
NonuniformError: Invalid input: The first argument is not monotonic

2014-12-08 15:00:11,535 INFO     repeater     task nb300_lastensq ended after 2.2 seconds
2014-12-08 15:00:11,536 INFO     repeater     task nb300_lastensq: Time from /home/data/SP1411/proc/nb300/load/wrote_ens_time: 2014/12/08 14:59:55
2014-12-08 15:01:56,655 INFO     repeater     task nb300_quick starting 3.4 seconds late
2014-12-08 15:02:01,432 INFO     repeater     task nb300_quick ended after 4.8 seconds
2014-12-08 15:02:01,432 INFO     repeater     task nb300_3dayplots starting 8.2 seconds late
2014-12-08 15:02:06,709 INFO     repeater     task nb300_3dayplots ended after 5.3 seconds
2014-12-08 15:02:06,709 INFO     repeater     task nb300_beamplots starting 13.4 seconds late
2014-12-08 15:02:08,400 INFO     repeater     task nb300_beamplots output:
Starting procsetup

2014-12-08 15:02:08,401 INFO     repeater     task nb300_beamplots ended after 1.7 seconds
2014-12-08 15:02:08,401 INFO     repeater     task nb300_beamplots starting 15.1 seconds late
2014-12-08 15:02:10,021 INFO     repeater     task nb300_beamplots output:
Starting procsetup

2014-12-08 15:02:10,022 INFO     repeater     task nb300_beamplots ended after 1.6 seconds
2014-12-08 15:02:10,022 INFO     repeater     task ashtech_hcorrstats starting 16.7 seconds late
2014-12-08 15:02:10,953 INFO     repeater     task ashtech_hcorrstats ended after 0.9 seconds
2014-12-08 15:02:15,958 INFO     repeater     task nb300_lastensq starting 11.0 seconds late
2014-12-08 15:02:18,113 INFO     repeater     task nb300_lastensq output:
rbin_to_gbin: interp1 failed for /home/data/SP1411/gbin/nb300/gpshead/sp2014_341_36000.hdg.gbin
Traceback (most recent call last):
  File "/home/currents/programs/pycurrents/adcp/gbin.py", line 631, in rbin_to_gbin
    masked=False, method=method)
  File "int1.pyx", line 81, in int1.interp1 (num/src/int1.c:939)
  File "int1.pyx", line 199, in int1.interp1_core (num/src/int1.c:2890)
NonuniformError: Invalid input: The first argument is not monotonic
rbin_to_gbin: interp1 failed for /home/data/SP1411/gbin/nb300/gpshead/sp2014_341_43200.hdg.gbin
Traceback (most recent call last):
  File "/home/currents/programs/pycurrents/adcp/gbin.py", line 631, in rbin_to_gbin
    masked=False, method=method)
  File "int1.pyx", line 81, in int1.interp1 (num/src/int1.c:939)
  File "int1.pyx", line 199, in int1.interp1_core (num/src/int1.c:2890)
NonuniformError: Invalid input: The first argument is not monotonic

2014-12-08 15:02:18,114 INFO     repeater     task nb300_lastensq ended after 2.2 seconds
2014-12-08 15:02:18,114 INFO     repeater     task nb300_lastensq: Time from /home/data/SP1411/proc/nb300/load/wrote_ens_time: 2014/12/08 15:01:55
2014-12-08 15:04:08,235 INFO     repeater     task nb300_lastensq starting 3.2 seconds late
2014-12-08 15:04:10,342 INFO     repeater     task nb300_lastensq output:
rbin_to_gbin: interp1 failed for /home/data/SP1411/gbin/nb300/gpshead/sp2014_341_36000.hdg.gbin
Traceback (most recent call last):
  File "/home/currents/programs/pycurrents/adcp/gbin.py", line 631, in rbin_to_gbin
    masked=False, method=method)
  File "int1.pyx", line 81, in int1.interp1 (num/src/int1.c:939)
  File "int1.pyx", line 199, in int1.interp1_core (num/src/int1.c:2890)
NonuniformError: Invalid input: The first argument is not monotonic
rbin_to_gbin: interp1 failed for /home/data/SP1411/gbin/nb300/gpshead/sp2014_341_43200.hdg.gbin
Traceback (most recent call last):
  File "/home/currents/programs/pycurrents/adcp/gbin.py", line 631, in rbin_to_gbin
    masked=False, method=method)
  File "int1.pyx", line 81, in int1.interp1 (num/src/int1.c:939)
  File "int1.pyx", line 199, in int1.interp1_core (num/src/int1.c:2890)
NonuniformError: Invalid input: The first argument is not monotonic

2014-12-08 15:04:10,343 INFO     repeater     task nb300_lastensq ended after 2.1 seconds
2014-12-08 15:04:10,343 INFO     repeater     task nb300_lastensq: Time from /home/data/SP1411/proc/nb300/load/wrote_ens_time: 2014/12/08 15:03:55
2014-12-08 15:06:05,478 INFO     repeater     task nb300_lastensq starting 0.5 seconds late
2014-12-08 15:06:07,632 INFO     repeater     task nb300_lastensq output:
rbin_to_gbin: interp1 failed for /home/data/SP1411/gbin/nb300/gpshead/sp2014_341_36000.hdg.gbin
Traceback (most recent call last):
  File "/home/currents/programs/pycurrents/adcp/gbin.py", line 631, in rbin_to_gbin
    masked=False, method=method)
  File "int1.pyx", line 81, in int1.interp1 (num/src/int1.c:939)
  File "int1.pyx", line 199, in int1.interp1_core (num/src/int1.c:2890)
NonuniformError: Invalid input: The first argument is not monotonic
rbin_to_gbin: interp1 failed for /home/data/SP1411/gbin/nb300/gpshead/sp2014_341_43200.hdg.gbin
Traceback (most recent call last):
  File "/home/currents/programs/pycurrents/adcp/gbin.py", line 631, in rbin_to_gbin
    masked=False, method=method)
  File "int1.pyx", line 81, in int1.interp1 (num/src/int1.c:939)
  File "int1.pyx", line 199, in int1.interp1_core (num/src/int1.c:2890)
NonuniformError: Invalid input: The first argument is not monotonic

2014-12-08 15:06:07,632 INFO     repeater     task nb300_lastensq ended after 2.2 seconds
2014-12-08 15:06:07,632 INFO     repeater     task nb300_lastensq: Time from /home/data/SP1411/proc/nb300/load/wrote_ens_time: 2014/12/08 15:05:55
2014-12-08 15:06:57,685 INFO     repeater     task ashtech_hcorrstats starting 4.4 seconds late
2014-12-08 15:06:58,624 INFO     repeater     task ashtech_hcorrstats ended after 0.9 seconds
2014-12-08 15:08:08,700 INFO     repeater     task nb300_lastensq starting 3.7 seconds late
2014-12-08 15:08:10,809 INFO     repeater     task nb300_lastensq output:
rbin_to_gbin: interp1 failed for /home/data/SP1411/gbin/nb300/gpshead/sp2014_341_36000.hdg.gbin
Traceback (most recent call last):
  File "/home/currents/programs/pycurrents/adcp/gbin.py", line 631, in rbin_to_gbin
    masked=False, method=method)
  File "int1.pyx", line 81, in int1.interp1 (num/src/int1.c:939)
  File "int1.pyx", line 199, in int1.interp1_core (num/src/int1.c:2890)
NonuniformError: Invalid input: The first argument is not monotonic
rbin_to_gbin: interp1 failed for /home/data/SP1411/gbin/nb300/gpshead/sp2014_341_43200.hdg.gbin
Traceback (most recent call last):
  File "/home/currents/programs/pycurrents/adcp/gbin.py", line 631, in rbin_to_gbin
    masked=False, method=method)
  File "int1.pyx", line 81, in int1.interp1 (num/src/int1.c:939)
  File "int1.pyx", line 199, in int1.interp1_core (num/src/int1.c:2890)
NonuniformError: Invalid input: The first argument is not monotonic

2014-12-08 15:08:10,809 INFO     repeater     task nb300_lastensq ended after 2.1 seconds
2014-12-08 15:08:10,809 INFO     repeater     task nb300_lastensq: Time from /home/data/SP1411/proc/nb300/load/wrote_ens_time: 2014/12/08 15:07:55
2014-12-08 15:10:05,945 INFO     repeater     task nb300_lastensq starting 0.9 seconds late
2014-12-08 15:10:08,085 INFO     repeater     task nb300_lastensq output:
rbin_to_gbin: interp1 failed for /home/data/SP1411/gbin/nb300/gpshead/sp2014_341_36000.hdg.gbin
Traceback (most recent call last):
  File "/home/currents/programs/pycurrents/adcp/gbin.py", line 631, in rbin_to_gbin
    masked=False, method=method)
  File "int1.pyx", line 81, in int1.interp1 (num/src/int1.c:939)
  File "int1.pyx", line 199, in int1.interp1_core (num/src/int1.c:2890)
NonuniformError: Invalid input: The first argument is not monotonic
rbin_to_gbin: interp1 failed for /home/data/SP1411/gbin/nb300/gpshead/sp2014_341_43200.hdg.gbin
Traceback (most recent call last):
  File "/home/currents/programs/pycurrents/adcp/gbin.py", line 631, in rbin_to_gbin
    masked=False, method=method)
  File "int1.pyx", line 81, in int1.interp1 (num/src/int1.c:939)
  File "int1.pyx", line 199, in int1.interp1_core (num/src/int1.c:2890)
NonuniformError: Invalid input: The first argument is not monotonic

2014-12-08 15:10:08,085 INFO     repeater     task nb300_lastensq ended after 2.1 seconds
2014-12-08 15:10:08,085 INFO     repeater     task nb300_lastensq: Time from /home/data/SP1411/proc/nb300/load/wrote_ens_time: 2014/12/08 15:09:55
2014-12-08 15:11:58,219 INFO     repeater     task nb300_beamplots starting 4.9 seconds late
2014-12-08 15:11:59,810 INFO     repeater     task nb300_beamplots output:
Starting procsetup

2014-12-08 15:11:59,811 INFO     repeater     task nb300_beamplots ended after 1.6 seconds
2014-12-08 15:11:59,811 INFO     repeater     task nb300_beamplots starting 6.5 seconds late
2014-12-08 15:12:01,505 INFO     repeater     task nb300_beamplots output:
Starting procsetup

2014-12-08 15:12:01,505 INFO     repeater     task nb300_beamplots ended after 1.7 seconds
2014-12-08 15:12:01,506 INFO     repeater     task ashtech_hcorrstats starting 8.2 seconds late
2014-12-08 15:12:02,428 INFO     repeater     task ashtech_hcorrstats ended after 0.9 seconds
2014-12-08 15:12:07,430 INFO     repeater     task nb300_lastensq starting 2.4 seconds late
2014-12-08 15:12:09,594 INFO     repeater     task nb300_lastensq output:
rbin_to_gbin: interp1 failed for /home/data/SP1411/gbin/nb300/gpshead/sp2014_341_36000.hdg.gbin
Traceback (most recent call last):
  File "/home/currents/programs/pycurrents/adcp/gbin.py", line 631, in rbin_to_gbin
    masked=False, method=method)
  File "int1.pyx", line 81, in int1.interp1 (num/src/int1.c:939)
  File "int1.pyx", line 199, in int1.interp1_core (num/src/int1.c:2890)
NonuniformError: Invalid input: The first argument is not monotonic
rbin_to_gbin: interp1 failed for /home/data/SP1411/gbin/nb300/gpshead/sp2014_341_43200.hdg.gbin
Traceback (most recent call last):
  File "/home/currents/programs/pycurrents/adcp/gbin.py", line 631, in rbin_to_gbin
    masked=False, method=method)
  File "int1.pyx", line 81, in int1.interp1 (num/src/int1.c:939)
  File "int1.pyx", line 199, in int1.interp1_core (num/src/int1.c:2890)
NonuniformError: Invalid input: The first argument is not monotonic

2014-12-08 15:12:09,594 INFO     repeater     task nb300_lastensq ended after 2.2 seconds
2014-12-08 15:12:09,594 INFO     repeater     task nb300_lastensq: Time from /home/data/SP1411/proc/nb300/load/wrote_ens_time: 2014/12/08 15:11:55
2014-12-08 15:14:09,738 INFO     repeater     task nb300_lastensq starting 4.7 seconds late
2014-12-08 15:14:11,845 INFO     repeater     task nb300_lastensq output:
rbin_to_gbin: interp1 failed for /home/data/SP1411/gbin/nb300/gpshead/sp2014_341_36000.hdg.gbin
Traceback (most recent call last):
  File "/home/currents/programs/pycurrents/adcp/gbin.py", line 631, in rbin_to_gbin
    masked=False, method=method)
  File "int1.pyx", line 81, in int1.interp1 (num/src/int1.c:939)
  File "int1.pyx", line 199, in int1.interp1_core (num/src/int1.c:2890)
NonuniformError: Invalid input: The first argument is not monotonic
rbin_to_gbin: interp1 failed for /home/data/SP1411/gbin/nb300/gpshead/sp2014_341_43200.hdg.gbin
Traceback (most recent call last):
  File "/home/currents/programs/pycurrents/adcp/gbin.py", line 631, in rbin_to_gbin
    masked=False, method=method)
  File "int1.pyx", line 81, in int1.interp1 (num/src/int1.c:939)
  File "int1.pyx", line 199, in int1.interp1_core (num/src/int1.c:2890)
NonuniformError: Invalid input: The first argument is not monotonic

2014-12-08 15:14:11,845 INFO     repeater     task nb300_lastensq ended after 2.1 seconds
2014-12-08 15:14:11,845 INFO     repeater     task nb300_lastensq: Time from /home/data/SP1411/proc/nb300/load/wrote_ens_time: 2014/12/08 15:13:56
2014-12-08 15:16:06,984 INFO     repeater     task nb300_lastensq starting 1.0 seconds late
2014-12-08 15:16:09,163 INFO     repeater     task nb300_lastensq output:
rbin_to_gbin: interp1 failed for /home/data/SP1411/gbin/nb300/gpshead/sp2014_341_36000.hdg.gbin
Traceback (most recent call last):
  File "/home/currents/programs/pycurrents/adcp/gbin.py", line 631, in rbin_to_gbin
    masked=False, method=method)
  File "int1.pyx", line 81, in int1.interp1 (num/src/int1.c:939)
  File "int1.pyx", line 199, in int1.interp1_core (num/src/int1.c:2890)
NonuniformError: Invalid input: The first argument is not monotonic
rbin_to_gbin: interp1 failed for /home/data/SP1411/gbin/nb300/gpshead/sp2014_341_43200.hdg.gbin
Traceback (most recent call last):
  File "/home/currents/programs/pycurrents/adcp/gbin.py", line 631, in rbin_to_gbin
    masked=False, method=method)
  File "int1.pyx", line 81, in int1.interp1 (num/src/int1.c:939)
  File "int1.pyx", line 199, in int1.interp1_core (num/src/int1.c:2890)
NonuniformError: Invalid input: The first argument is not monotonic

2014-12-08 15:16:09,163 INFO     repeater     task nb300_lastensq ended after 2.2 seconds
2014-12-08 15:16:09,164 INFO     repeater     task nb300_lastensq: Time from /home/data/SP1411/proc/nb300/load/wrote_ens_time: 2014/12/08 15:15:56
2014-12-08 15:16:54,218 INFO     repeater     task ashtech_hcorrstats starting 0.9 seconds late
2014-12-08 15:16:55,168 INFO     repeater     task ashtech_hcorrstats ended after 0.9 seconds
2014-12-08 15:18:10,255 INFO     repeater     task nb300_lastensq starting 4.3 seconds late
2014-12-08 15:18:12,377 INFO     repeater     task nb300_lastensq output:
rbin_to_gbin: interp1 failed for /home/data/SP1411/gbin/nb300/gpshead/sp2014_341_36000.hdg.gbin
Traceback (most recent call last):
  File "/home/currents/programs/pycurrents/adcp/gbin.py", line 631, in rbin_to_gbin
    masked=False, method=method)
  File "int1.pyx", line 81, in int1.interp1 (num/src/int1.c:939)
  File "int1.pyx", line 199, in int1.interp1_core (num/src/int1.c:2890)
NonuniformError: Invalid input: The first argument is not monotonic
rbin_to_gbin: interp1 failed for /home/data/SP1411/gbin/nb300/gpshead/sp2014_341_43200.hdg.gbin
Traceback (most recent call last):
  File "/home/currents/programs/pycurrents/adcp/gbin.py", line 631, in rbin_to_gbin
    masked=False, method=method)
  File "int1.pyx", line 81, in int1.interp1 (num/src/int1.c:939)
  File "int1.pyx", line 199, in int1.interp1_core (num/src/int1.c:2890)
NonuniformError: Invalid input: The first argument is not monotonic

2014-12-08 15:18:12,378 INFO     repeater     task nb300_lastensq ended after 2.1 seconds
2014-12-08 15:18:12,378 INFO     repeater     task nb300_lastensq: Time from /home/data/SP1411/proc/nb300/load/wrote_ens_time: 2014/12/08 15:17:56
2014-12-08 15:20:07,501 INFO     repeater     task nb300_lastensq starting 1.5 seconds late
2014-12-08 15:20:09,669 INFO     repeater     task nb300_lastensq output:
rbin_to_gbin: interp1 failed for /home/data/SP1411/gbin/nb300/gpshead/sp2014_341_36000.hdg.gbin
Traceback (most recent call last):
  File "/home/currents/programs/pycurrents/adcp/gbin.py", line 631, in rbin_to_gbin
    masked=False, method=method)
  File "int1.pyx", line 81, in int1.interp1 (num/src/int1.c:939)
  File "int1.pyx", line 199, in int1.interp1_core (num/src/int1.c:2890)
NonuniformError: Invalid input: The first argument is not monotonic
rbin_to_gbin: interp1 failed for /home/data/SP1411/gbin/nb300/gpshead/sp2014_341_43200.hdg.gbin
Traceback (most recent call last):
  File "/home/currents/programs/pycurrents/adcp/gbin.py", line 631, in rbin_to_gbin
    masked=False, method=method)
  File "int1.pyx", line 81, in int1.interp1 (num/src/int1.c:939)
  File "int1.pyx", line 199, in int1.interp1_core (num/src/int1.c:2890)
NonuniformError: Invalid input: The first argument is not monotonic

2014-12-08 15:20:09,669 INFO     repeater     task nb300_lastensq ended after 2.2 seconds
2014-12-08 15:20:09,669 INFO     repeater     task nb300_lastensq: Time from /home/data/SP1411/proc/nb300/load/wrote_ens_time: 2014/12/08 15:19:56
2014-12-08 15:21:54,785 INFO     repeater     task nb300_beamplots starting 1.5 seconds late
2014-12-08 15:21:56,458 INFO     repeater     task nb300_beamplots output:
Starting procsetup

2014-12-08 15:21:56,458 INFO     repeater     task nb300_beamplots ended after 1.7 seconds
2014-12-08 15:21:56,459 INFO     repeater     task nb300_beamplots starting 3.2 seconds late
2014-12-08 15:21:58,154 INFO     repeater     task nb300_beamplots output:
Starting procsetup

2014-12-08 15:21:58,155 INFO     repeater     task nb300_beamplots ended after 1.7 seconds
2014-12-08 15:21:58,155 INFO     repeater     task ashtech_hcorrstats starting 4.9 seconds late
2014-12-08 15:21:59,081 INFO     repeater     task ashtech_hcorrstats ended after 0.9 seconds
2014-12-08 15:22:09,093 INFO     repeater     task nb300_lastensq starting 3.1 seconds late
2014-12-08 15:22:11,283 INFO     repeater     task nb300_lastensq output:
rbin_to_gbin: interp1 failed for /home/data/SP1411/gbin/nb300/gpshead/sp2014_341_36000.hdg.gbin
Traceback (most recent call last):
  File "/home/currents/programs/pycurrents/adcp/gbin.py", line 631, in rbin_to_gbin
    masked=False, method=method)
  File "int1.pyx", line 81, in int1.interp1 (num/src/int1.c:939)
  File "int1.pyx", line 199, in int1.interp1_core (num/src/int1.c:2890)
NonuniformError: Invalid input: The first argument is not monotonic
rbin_to_gbin: interp1 failed for /home/data/SP1411/gbin/nb300/gpshead/sp2014_341_43200.hdg.gbin
Traceback (most recent call last):
  File "/home/currents/programs/pycurrents/adcp/gbin.py", line 631, in rbin_to_gbin
    masked=False, method=method)
  File "int1.pyx", line 81, in int1.interp1 (num/src/int1.c:939)
  File "int1.pyx", line 199, in int1.interp1_core (num/src/int1.c:2890)
NonuniformError: Invalid input: The first argument is not monotonic

2014-12-08 15:22:11,283 INFO     repeater     task nb300_lastensq ended after 2.2 seconds
2014-12-08 15:22:11,284 INFO     repeater     task nb300_lastensq: Time from /home/data/SP1411/proc/nb300/load/wrote_ens_time: 2014/12/08 15:21:56
2014-12-08 15:24:06,408 INFO     repeater     task nb300_lastensq starting 0.4 seconds late
2014-12-08 15:24:08,571 INFO     repeater     task nb300_lastensq output:
rbin_to_gbin: interp1 failed for /home/data/SP1411/gbin/nb300/gpshead/sp2014_341_36000.hdg.gbin
Traceback (most recent call last):
  File "/home/currents/programs/pycurrents/adcp/gbin.py", line 631, in rbin_to_gbin
    masked=False, method=method)
  File "int1.pyx", line 81, in int1.interp1 (num/src/int1.c:939)
  File "int1.pyx", line 199, in int1.interp1_core (num/src/int1.c:2890)
NonuniformError: Invalid input: The first argument is not monotonic
rbin_to_gbin: interp1 failed for /home/data/SP1411/gbin/nb300/gpshead/sp2014_341_43200.hdg.gbin
Traceback (most recent call last):
  File "/home/currents/programs/pycurrents/adcp/gbin.py", line 631, in rbin_to_gbin
    masked=False, method=method)
  File "int1.pyx", line 81, in int1.interp1 (num/src/int1.c:939)
  File "int1.pyx", line 199, in int1.interp1_core (num/src/int1.c:2890)
NonuniformError: Invalid input: The first argument is not monotonic

2014-12-08 15:24:08,571 INFO     repeater     task nb300_lastensq ended after 2.2 seconds
2014-12-08 15:24:08,571 INFO     repeater     task nb300_lastensq: Time from /home/data/SP1411/proc/nb300/load/wrote_ens_time: 2014/12/08 15:23:56
2014-12-08 15:26:08,708 INFO     repeater     task nb300_lastensq starting 2.7 seconds late
2014-12-08 15:26:10,817 INFO     repeater     task nb300_lastensq output:
rbin_to_gbin: interp1 failed for /home/data/SP1411/gbin/nb300/gpshead/sp2014_341_36000.hdg.gbin
Traceback (most recent call last):
  File "/home/currents/programs/pycurrents/adcp/gbin.py", line 631, in rbin_to_gbin
    masked=False, method=method)
  File "int1.pyx", line 81, in int1.interp1 (num/src/int1.c:939)
  File "int1.pyx", line 199, in int1.interp1_core (num/src/int1.c:2890)
NonuniformError: Invalid input: The first argument is not monotonic
rbin_to_gbin: interp1 failed for /home/data/SP1411/gbin/nb300/gpshead/sp2014_341_43200.hdg.gbin
Traceback (most recent call last):
  File "/home/currents/programs/pycurrents/adcp/gbin.py", line 631, in rbin_to_gbin
    masked=False, method=method)
  File "int1.pyx", line 81, in int1.interp1 (num/src/int1.c:939)
  File "int1.pyx", line 199, in int1.interp1_core (num/src/int1.c:2890)
NonuniformError: Invalid input: The first argument is not monotonic

2014-12-08 15:26:10,817 INFO     repeater     task nb300_lastensq ended after 2.1 seconds
2014-12-08 15:26:10,817 INFO     repeater     task nb300_lastensq: Time from /home/data/SP1411/proc/nb300/load/wrote_ens_time: 2014/12/08 15:25:56
2014-12-08 15:26:55,872 INFO     repeater     task ashtech_hcorrstats starting 2.6 seconds late
2014-12-08 15:26:56,825 INFO     repeater     task ashtech_hcorrstats ended after 1.0 seconds
2014-12-08 15:28:06,910 INFO     repeater     task nb300_lastensq starting 0.9 seconds late
2014-12-08 15:28:09,088 INFO     repeater     task nb300_lastensq output:
rbin_to_gbin: interp1 failed for /home/data/SP1411/gbin/nb300/gpshead/sp2014_341_36000.hdg.gbin
Traceback (most recent call last):
  File "/home/currents/programs/pycurrents/adcp/gbin.py", line 631, in rbin_to_gbin
    masked=False, method=method)
  File "int1.pyx", line 81, in int1.interp1 (num/src/int1.c:939)
  File "int1.pyx", line 199, in int1.interp1_core (num/src/int1.c:2890)
NonuniformError: Invalid input: The first argument is not monotonic
rbin_to_gbin: interp1 failed for /home/data/SP1411/gbin/nb300/gpshead/sp2014_341_43200.hdg.gbin
Traceback (most recent call last):
  File "/home/currents/programs/pycurrents/adcp/gbin.py", line 631, in rbin_to_gbin
    masked=False, method=method)
  File "int1.pyx", line 81, in int1.interp1 (num/src/int1.c:939)
  File "int1.pyx", line 199, in int1.interp1_core (num/src/int1.c:2890)
NonuniformError: Invalid input: The first argument is not monotonic

2014-12-08 15:28:09,089 INFO     repeater     task nb300_lastensq ended after 2.2 seconds
2014-12-08 15:28:09,089 INFO     repeater     task nb300_lastensq: Time from /home/data/SP1411/proc/nb300/load/wrote_ens_time: 2014/12/08 15:27:56
2014-12-08 15:30:09,227 INFO     repeater     task nb300_lastensq starting 3.2 seconds late
2014-12-08 15:30:11,344 INFO     repeater     task nb300_lastensq output:
rbin_to_gbin: interp1 failed for /home/data/SP1411/gbin/nb300/gpshead/sp2014_341_36000.hdg.gbin
Traceback (most recent call last):
  File "/home/currents/programs/pycurrents/adcp/gbin.py", line 631, in rbin_to_gbin
    masked=False, method=method)
  File "int1.pyx", line 81, in int1.interp1 (num/src/int1.c:939)
  File "int1.pyx", line 199, in int1.interp1_core (num/src/int1.c:2890)
NonuniformError: Invalid input: The first argument is not monotonic
rbin_to_gbin: interp1 failed for /home/data/SP1411/gbin/nb300/gpshead/sp2014_341_43200.hdg.gbin
Traceback (most recent call last):
  File "/home/currents/programs/pycurrents/adcp/gbin.py", line 631, in rbin_to_gbin
    masked=False, method=method)
  File "int1.pyx", line 81, in int1.interp1 (num/src/int1.c:939)
  File "int1.pyx", line 199, in int1.interp1_core (num/src/int1.c:2890)
NonuniformError: Invalid input: The first argument is not monotonic

2014-12-08 15:30:11,344 INFO     repeater     task nb300_lastensq ended after 2.1 seconds
2014-12-08 15:30:11,345 INFO     repeater     task nb300_lastensq: Time from /home/data/SP1411/proc/nb300/load/wrote_ens_time: 2014/12/08 15:29:56
2014-12-08 15:31:56,474 INFO     repeater     task nb300_quick starting 3.2 seconds late
2014-12-08 15:32:01,256 INFO     repeater     task nb300_quick ended after 4.8 seconds
2014-12-08 15:32:01,256 INFO     repeater     task nb300_3dayplots starting 8.0 seconds late
2014-12-08 15:32:06,447 INFO     repeater     task nb300_3dayplots ended after 5.2 seconds
2014-12-08 15:32:06,448 INFO     repeater     task nb300_beamplots starting 13.2 seconds late
2014-12-08 15:32:08,127 INFO     repeater     task nb300_beamplots output:
Starting procsetup

2014-12-08 15:32:08,128 INFO     repeater     task nb300_beamplots ended after 1.7 seconds
2014-12-08 15:32:08,128 INFO     repeater     task nb300_beamplots starting 14.9 seconds late
2014-12-08 15:32:09,844 INFO     repeater     task nb300_beamplots output:
Starting procsetup

2014-12-08 15:32:09,844 INFO     repeater     task nb300_beamplots ended after 1.7 seconds
2014-12-08 15:32:09,845 INFO     repeater     task ashtech_hcorrstats starting 16.6 seconds late
2014-12-08 15:32:10,766 INFO     repeater     task ashtech_hcorrstats ended after 0.9 seconds
2014-12-08 15:32:15,770 INFO     repeater     task nb300_lastensq starting 9.8 seconds late
2014-12-08 15:32:17,911 INFO     repeater     task nb300_lastensq output:
rbin_to_gbin: interp1 failed for /home/data/SP1411/gbin/nb300/gpshead/sp2014_341_36000.hdg.gbin
Traceback (most recent call last):
  File "/home/currents/programs/pycurrents/adcp/gbin.py", line 631, in rbin_to_gbin
    masked=False, method=method)
  File "int1.pyx", line 81, in int1.interp1 (num/src/int1.c:939)
  File "int1.pyx", line 199, in int1.interp1_core (num/src/int1.c:2890)
NonuniformError: Invalid input: The first argument is not monotonic
rbin_to_gbin: interp1 failed for /home/data/SP1411/gbin/nb300/gpshead/sp2014_341_43200.hdg.gbin
Traceback (most recent call last):
  File "/home/currents/programs/pycurrents/adcp/gbin.py", line 631, in rbin_to_gbin
    masked=False, method=method)
  File "int1.pyx", line 81, in int1.interp1 (num/src/int1.c:939)
  File "int1.pyx", line 199, in int1.interp1_core (num/src/int1.c:2890)
NonuniformError: Invalid input: The first argument is not monotonic

2014-12-08 15:32:17,911 INFO     repeater     task nb300_lastensq ended after 2.1 seconds
2014-12-08 15:32:17,911 INFO     repeater     task nb300_lastensq: Time from /home/data/SP1411/proc/nb300/load/wrote_ens_time: 2014/12/08 15:31:56
2014-12-08 15:34:08,035 INFO     repeater     task nb300_lastensq starting 2.0 seconds late
2014-12-08 15:34:10,173 INFO     repeater     task nb300_lastensq output:
rbin_to_gbin: interp1 failed for /home/data/SP1411/gbin/nb300/gpshead/sp2014_341_36000.hdg.gbin
Traceback (most recent call last):
  File "/home/currents/programs/pycurrents/adcp/gbin.py", line 631, in rbin_to_gbin
    masked=False, method=method)
  File "int1.pyx", line 81, in int1.interp1 (num/src/int1.c:939)
  File "int1.pyx", line 199, in int1.interp1_core (num/src/int1.c:2890)
NonuniformError: Invalid input: The first argument is not monotonic
rbin_to_gbin: interp1 failed for /home/data/SP1411/gbin/nb300/gpshead/sp2014_341_43200.hdg.gbin
Traceback (most recent call last):
  File "/home/currents/programs/pycurrents/adcp/gbin.py", line 631, in rbin_to_gbin
    masked=False, method=method)
  File "int1.pyx", line 81, in int1.interp1 (num/src/int1.c:939)
  File "int1.pyx", line 199, in int1.interp1_core (num/src/int1.c:2890)
NonuniformError: Invalid input: The first argument is not monotonic

2014-12-08 15:34:10,174 INFO     repeater     task nb300_lastensq ended after 2.1 seconds
2014-12-08 15:34:10,174 INFO     repeater     task nb300_lastensq: Time from /home/data/SP1411/proc/nb300/load/wrote_ens_time: 2014/12/08 15:33:56
2014-12-08 15:36:10,315 INFO     repeater     task nb300_lastensq starting 4.3 seconds late
2014-12-08 15:36:12,450 INFO     repeater     task nb300_lastensq output:
rbin_to_gbin: interp1 failed for /home/data/SP1411/gbin/nb300/gpshead/sp2014_341_36000.hdg.gbin
Traceback (most recent call last):
  File "/home/currents/programs/pycurrents/adcp/gbin.py", line 631, in rbin_to_gbin
    masked=False, method=method)
  File "int1.pyx", line 81, in int1.interp1 (num/src/int1.c:939)
  File "int1.pyx", line 199, in int1.interp1_core (num/src/int1.c:2890)
NonuniformError: Invalid input: The first argument is not monotonic
rbin_to_gbin: interp1 failed for /home/data/SP1411/gbin/nb300/gpshead/sp2014_341_43200.hdg.gbin
Traceback (most recent call last):
  File "/home/currents/programs/pycurrents/adcp/gbin.py", line 631, in rbin_to_gbin
    masked=False, method=method)
  File "int1.pyx", line 81, in int1.interp1 (num/src/int1.c:939)
  File "int1.pyx", line 199, in int1.interp1_core (num/src/int1.c:2890)
NonuniformError: Invalid input: The first argument is not monotonic

2014-12-08 15:36:12,451 INFO     repeater     task nb300_lastensq ended after 2.1 seconds
2014-12-08 15:36:12,451 INFO     repeater     task nb300_lastensq: Time from /home/data/SP1411/proc/nb300/load/wrote_ens_time: 2014/12/08 15:35:56
2014-12-08 15:36:57,512 INFO     repeater     task ashtech_hcorrstats starting 4.2 seconds late
2014-12-08 15:36:58,439 INFO     repeater     task ashtech_hcorrstats ended after 0.9 seconds
2014-12-08 15:38:08,525 INFO     repeater     task nb300_lastensq starting 2.5 seconds late
2014-12-08 15:38:10,646 INFO     repeater     task nb300_lastensq output:
rbin_to_gbin: interp1 failed for /home/data/SP1411/gbin/nb300/gpshead/sp2014_341_36000.hdg.gbin
Traceback (most recent call last):
  File "/home/currents/programs/pycurrents/adcp/gbin.py", line 631, in rbin_to_gbin
    masked=False, method=method)
  File "int1.pyx", line 81, in int1.interp1 (num/src/int1.c:939)
  File "int1.pyx", line 199, in int1.interp1_core (num/src/int1.c:2890)
NonuniformError: Invalid input: The first argument is not monotonic
rbin_to_gbin: interp1 failed for /home/data/SP1411/gbin/nb300/gpshead/sp2014_341_43200.hdg.gbin
Traceback (most recent call last):
  File "/home/currents/programs/pycurrents/adcp/gbin.py", line 631, in rbin_to_gbin
    masked=False, method=method)
  File "int1.pyx", line 81, in int1.interp1 (num/src/int1.c:939)
  File "int1.pyx", line 199, in int1.interp1_core (num/src/int1.c:2890)
NonuniformError: Invalid input: The first argument is not monotonic

2014-12-08 15:38:10,646 INFO     repeater     task nb300_lastensq ended after 2.1 seconds
2014-12-08 15:38:10,647 INFO     repeater     task nb300_lastensq: Time from /home/data/SP1411/proc/nb300/load/wrote_ens_time: 2014/12/08 15:37:56
2014-12-08 15:40:10,797 INFO     repeater     task nb300_lastensq starting 4.8 seconds late
2014-12-08 15:40:13,007 INFO     repeater     task nb300_lastensq output:
rbin_to_gbin: interp1 failed for /home/data/SP1411/gbin/nb300/gpshead/sp2014_341_36000.hdg.gbin
Traceback (most recent call last):
  File "/home/currents/programs/pycurrents/adcp/gbin.py", line 631, in rbin_to_gbin
    masked=False, method=method)
  File "int1.pyx", line 81, in int1.interp1 (num/src/int1.c:939)
  File "int1.pyx", line 199, in int1.interp1_core (num/src/int1.c:2890)
NonuniformError: Invalid input: The first argument is not monotonic
rbin_to_gbin: interp1 failed for /home/data/SP1411/gbin/nb300/gpshead/sp2014_341_43200.hdg.gbin
Traceback (most recent call last):
  File "/home/currents/programs/pycurrents/adcp/gbin.py", line 631, in rbin_to_gbin
    masked=False, method=method)
  File "int1.pyx", line 81, in int1.interp1 (num/src/int1.c:939)
  File "int1.pyx", line 199, in int1.interp1_core (num/src/int1.c:2890)
NonuniformError: Invalid input: The first argument is not monotonic

2014-12-08 15:40:13,007 INFO     repeater     task nb300_lastensq ended after 2.2 seconds
2014-12-08 15:40:13,008 INFO     repeater     task nb300_lastensq: Time from /home/data/SP1411/proc/nb300/load/wrote_ens_time: 2014/12/08 15:39:56
2014-12-08 15:41:58,128 INFO     repeater     task nb300_beamplots starting 4.9 seconds late
2014-12-08 15:41:59,829 INFO     repeater     task nb300_beamplots output:
Starting procsetup

2014-12-08 15:41:59,829 INFO     repeater     task nb300_beamplots ended after 1.7 seconds
2014-12-08 15:41:59,830 INFO     repeater     task nb300_beamplots starting 6.6 seconds late
2014-12-08 15:42:01,466 INFO     repeater     task nb300_beamplots output:
Starting procsetup

2014-12-08 15:42:01,466 INFO     repeater     task nb300_beamplots ended after 1.6 seconds
2014-12-08 15:42:01,467 INFO     repeater     task ashtech_hcorrstats starting 8.2 seconds late
2014-12-08 15:42:02,395 INFO     repeater     task ashtech_hcorrstats ended after 0.9 seconds
2014-12-08 15:42:07,398 INFO     repeater     task nb300_lastensq starting 1.4 seconds late
2014-12-08 15:42:09,553 INFO     repeater     task nb300_lastensq output:
rbin_to_gbin: interp1 failed for /home/data/SP1411/gbin/nb300/gpshead/sp2014_341_36000.hdg.gbin
Traceback (most recent call last):
  File "/home/currents/programs/pycurrents/adcp/gbin.py", line 631, in rbin_to_gbin
    masked=False, method=method)
  File "int1.pyx", line 81, in int1.interp1 (num/src/int1.c:939)
  File "int1.pyx", line 199, in int1.interp1_core (num/src/int1.c:2890)
NonuniformError: Invalid input: The first argument is not monotonic
rbin_to_gbin: interp1 failed for /home/data/SP1411/gbin/nb300/gpshead/sp2014_341_43200.hdg.gbin
Traceback (most recent call last):
  File "/home/currents/programs/pycurrents/adcp/gbin.py", line 631, in rbin_to_gbin
    masked=False, method=method)
  File "int1.pyx", line 81, in int1.interp1 (num/src/int1.c:939)
  File "int1.pyx", line 199, in int1.interp1_core (num/src/int1.c:2890)
NonuniformError: Invalid input: The first argument is not monotonic

2014-12-08 15:42:09,553 INFO     repeater     task nb300_lastensq ended after 2.2 seconds
2014-12-08 15:42:09,554 INFO     repeater     task nb300_lastensq: Time from /home/data/SP1411/proc/nb300/load/wrote_ens_time: 2014/12/08 15:41:56
2014-12-08 15:44:09,697 INFO     repeater     task nb300_lastensq starting 3.7 seconds late
2014-12-08 15:44:11,895 INFO     repeater     task nb300_lastensq output:
rbin_to_gbin: interp1 failed for /home/data/SP1411/gbin/nb300/gpshead/sp2014_341_36000.hdg.gbin
Traceback (most recent call last):
  File "/home/currents/programs/pycurrents/adcp/gbin.py", line 631, in rbin_to_gbin
    masked=False, method=method)
  File "int1.pyx", line 81, in int1.interp1 (num/src/int1.c:939)
  File "int1.pyx", line 199, in int1.interp1_core (num/src/int1.c:2890)
NonuniformError: Invalid input: The first argument is not monotonic
rbin_to_gbin: interp1 failed for /home/data/SP1411/gbin/nb300/gpshead/sp2014_341_43200.hdg.gbin
Traceback (most recent call last):
  File "/home/currents/programs/pycurrents/adcp/gbin.py", line 631, in rbin_to_gbin
    masked=False, method=method)
  File "int1.pyx", line 81, in int1.interp1 (num/src/int1.c:939)
  File "int1.pyx", line 199, in int1.interp1_core (num/src/int1.c:2890)
NonuniformError: Invalid input: The first argument is not monotonic

2014-12-08 15:44:11,895 INFO     repeater     task nb300_lastensq ended after 2.2 seconds
2014-12-08 15:44:11,895 INFO     repeater     task nb300_lastensq: Time from /home/data/SP1411/proc/nb300/load/wrote_ens_time: 2014/12/08 15:43:56
2014-12-08 15:46:07,015 INFO     repeater     task nb300_lastensq starting 1.0 seconds late
2014-12-08 15:46:09,158 INFO     repeater     task nb300_lastensq output:
rbin_to_gbin: interp1 failed for /home/data/SP1411/gbin/nb300/gpshead/sp2014_341_36000.hdg.gbin
Traceback (most recent call last):
  File "/home/currents/programs/pycurrents/adcp/gbin.py", line 631, in rbin_to_gbin
    masked=False, method=method)
  File "int1.pyx", line 81, in int1.interp1 (num/src/int1.c:939)
  File "int1.pyx", line 199, in int1.interp1_core (num/src/int1.c:2890)
NonuniformError: Invalid input: The first argument is not monotonic
rbin_to_gbin: interp1 failed for /home/data/SP1411/gbin/nb300/gpshead/sp2014_341_43200.hdg.gbin
Traceback (most recent call last):
  File "/home/currents/programs/pycurrents/adcp/gbin.py", line 631, in rbin_to_gbin
    masked=False, method=method)
  File "int1.pyx", line 81, in int1.interp1 (num/src/int1.c:939)
  File "int1.pyx", line 199, in int1.interp1_core (num/src/int1.c:2890)
NonuniformError: Invalid input: The first argument is not monotonic

2014-12-08 15:46:09,158 INFO     repeater     task nb300_lastensq ended after 2.1 seconds
2014-12-08 15:46:09,158 INFO     repeater     task nb300_lastensq: Time from /home/data/SP1411/proc/nb300/load/wrote_ens_time: 2014/12/08 15:45:56
2014-12-08 15:46:54,213 INFO     repeater     task ashtech_hcorrstats starting 0.9 seconds late
2014-12-08 15:46:55,141 INFO     repeater     task ashtech_hcorrstats ended after 0.9 seconds
2014-12-08 15:48:10,228 INFO     repeater     task nb300_lastensq starting 4.2 seconds late
2014-12-08 15:48:12,368 INFO     repeater     task nb300_lastensq output:
rbin_to_gbin: interp1 failed for /home/data/SP1411/gbin/nb300/gpshead/sp2014_341_36000.hdg.gbin
Traceback (most recent call last):
  File "/home/currents/programs/pycurrents/adcp/gbin.py", line 631, in rbin_to_gbin
    masked=False, method=method)
  File "int1.pyx", line 81, in int1.interp1 (num/src/int1.c:939)
  File "int1.pyx", line 199, in int1.interp1_core (num/src/int1.c:2890)
NonuniformError: Invalid input: The first argument is not monotonic
rbin_to_gbin: interp1 failed for /home/data/SP1411/gbin/nb300/gpshead/sp2014_341_43200.hdg.gbin
Traceback (most recent call last):
  File "/home/currents/programs/pycurrents/adcp/gbin.py", line 631, in rbin_to_gbin
    masked=False, method=method)
  File "int1.pyx", line 81, in int1.interp1 (num/src/int1.c:939)
  File "int1.pyx", line 199, in int1.interp1_core (num/src/int1.c:2890)
NonuniformError: Invalid input: The first argument is not monotonic

2014-12-08 15:48:12,368 INFO     repeater     task nb300_lastensq ended after 2.1 seconds
2014-12-08 15:48:12,368 INFO     repeater     task nb300_lastensq: Time from /home/data/SP1411/proc/nb300/load/wrote_ens_time: 2014/12/08 15:47:56
2014-12-08 15:50:07,505 INFO     repeater     task nb300_lastensq starting 1.5 seconds late
2014-12-08 15:50:09,693 INFO     repeater     task nb300_lastensq output:
rbin_to_gbin: interp1 failed for /home/data/SP1411/gbin/nb300/gpshead/sp2014_341_36000.hdg.gbin
Traceback (most recent call last):
  File "/home/currents/programs/pycurrents/adcp/gbin.py", line 631, in rbin_to_gbin
    masked=False, method=method)
  File "int1.pyx", line 81, in int1.interp1 (num/src/int1.c:939)
  File "int1.pyx", line 199, in int1.interp1_core (num/src/int1.c:2890)
NonuniformError: Invalid input: The first argument is not monotonic
rbin_to_gbin: interp1 failed for /home/data/SP1411/gbin/nb300/gpshead/sp2014_341_43200.hdg.gbin
Traceback (most recent call last):
  File "/home/currents/programs/pycurrents/adcp/gbin.py", line 631, in rbin_to_gbin
    masked=False, method=method)
  File "int1.pyx", line 81, in int1.interp1 (num/src/int1.c:939)
  File "int1.pyx", line 199, in int1.interp1_core (num/src/int1.c:2890)
NonuniformError: Invalid input: The first argument is not monotonic

2014-12-08 15:50:09,693 INFO     repeater     task nb300_lastensq ended after 2.2 seconds
2014-12-08 15:50:09,693 INFO     repeater     task nb300_lastensq: Time from /home/data/SP1411/proc/nb300/load/wrote_ens_time: 2014/12/08 15:49:56
2014-12-08 15:51:54,814 INFO     repeater     task nb300_beamplots starting 1.5 seconds late
2014-12-08 15:51:56,495 INFO     repeater     task nb300_beamplots output:
Starting procsetup

2014-12-08 15:51:56,495 INFO     repeater     task nb300_beamplots ended after 1.7 seconds
2014-12-08 15:51:56,496 INFO     repeater     task nb300_beamplots starting 3.2 seconds late
2014-12-08 15:51:58,189 INFO     repeater     task nb300_beamplots output:
Starting procsetup

2014-12-08 15:51:58,189 INFO     repeater     task nb300_beamplots ended after 1.7 seconds
2014-12-08 15:51:58,190 INFO     repeater     task ashtech_hcorrstats starting 4.9 seconds late
2014-12-08 15:51:59,103 INFO     repeater     task ashtech_hcorrstats ended after 0.9 seconds
2014-12-08 15:52:09,116 INFO     repeater     task nb300_lastensq starting 3.1 seconds late
2014-12-08 15:52:11,324 INFO     repeater     task nb300_lastensq output:
rbin_to_gbin: interp1 failed for /home/data/SP1411/gbin/nb300/gpshead/sp2014_341_36000.hdg.gbin
Traceback (most recent call last):
  File "/home/currents/programs/pycurrents/adcp/gbin.py", line 631, in rbin_to_gbin
    masked=False, method=method)
  File "int1.pyx", line 81, in int1.interp1 (num/src/int1.c:939)
  File "int1.pyx", line 199, in int1.interp1_core (num/src/int1.c:2890)
NonuniformError: Invalid input: The first argument is not monotonic
rbin_to_gbin: interp1 failed for /home/data/SP1411/gbin/nb300/gpshead/sp2014_341_43200.hdg.gbin
Traceback (most recent call last):
  File "/home/currents/programs/pycurrents/adcp/gbin.py", line 631, in rbin_to_gbin
    masked=False, method=method)
  File "int1.pyx", line 81, in int1.interp1 (num/src/int1.c:939)
  File "int1.pyx", line 199, in int1.interp1_core (num/src/int1.c:2890)
NonuniformError: Invalid input: The first argument is not monotonic

2014-12-08 15:52:11,324 INFO     repeater     task nb300_lastensq ended after 2.2 seconds
2014-12-08 15:52:11,324 INFO     repeater     task nb300_lastensq: Time from /home/data/SP1411/proc/nb300/load/wrote_ens_time: 2014/12/08 15:51:56
2014-12-08 15:54:06,457 INFO     repeater     task nb300_lastensq starting 0.5 seconds late
2014-12-08 15:54:08,661 INFO     repeater     task nb300_lastensq output:
rbin_to_gbin: interp1 failed for /home/data/SP1411/gbin/nb300/gpshead/sp2014_341_36000.hdg.gbin
Traceback (most recent call last):
  File "/home/currents/programs/pycurrents/adcp/gbin.py", line 631, in rbin_to_gbin
    masked=False, method=method)
  File "int1.pyx", line 81, in int1.interp1 (num/src/int1.c:939)
  File "int1.pyx", line 199, in int1.interp1_core (num/src/int1.c:2890)
NonuniformError: Invalid input: The first argument is not monotonic
rbin_to_gbin: interp1 failed for /home/data/SP1411/gbin/nb300/gpshead/sp2014_341_43200.hdg.gbin
Traceback (most recent call last):
  File "/home/currents/programs/pycurrents/adcp/gbin.py", line 631, in rbin_to_gbin
    masked=False, method=method)
  File "int1.pyx", line 81, in int1.interp1 (num/src/int1.c:939)
  File "int1.pyx", line 199, in int1.interp1_core (num/src/int1.c:2890)
NonuniformError: Invalid input: The first argument is not monotonic

2014-12-08 15:54:08,662 INFO     repeater     task nb300_lastensq ended after 2.2 seconds
2014-12-08 15:54:08,662 INFO     repeater     task nb300_lastensq: Time from /home/data/SP1411/proc/nb300/load/wrote_ens_time: 2014/12/08 15:53:56
2014-12-08 15:56:08,807 INFO     repeater     task nb300_lastensq starting 2.8 seconds late
2014-12-08 15:56:10,984 INFO     repeater     task nb300_lastensq output:
rbin_to_gbin: interp1 failed for /home/data/SP1411/gbin/nb300/gpshead/sp2014_341_36000.hdg.gbin
Traceback (most recent call last):
  File "/home/currents/programs/pycurrents/adcp/gbin.py", line 631, in rbin_to_gbin
    masked=False, method=method)
  File "int1.pyx", line 81, in int1.interp1 (num/src/int1.c:939)
  File "int1.pyx", line 199, in int1.interp1_core (num/src/int1.c:2890)
NonuniformError: Invalid input: The first argument is not monotonic
rbin_to_gbin: interp1 failed for /home/data/SP1411/gbin/nb300/gpshead/sp2014_341_43200.hdg.gbin
Traceback (most recent call last):
  File "/home/currents/programs/pycurrents/adcp/gbin.py", line 631, in rbin_to_gbin
    masked=False, method=method)
  File "int1.pyx", line 81, in int1.interp1 (num/src/int1.c:939)
  File "int1.pyx", line 199, in int1.interp1_core (num/src/int1.c:2890)
NonuniformError: Invalid input: The first argument is not monotonic

2014-12-08 15:56:10,984 INFO     repeater     task nb300_lastensq ended after 2.2 seconds
2014-12-08 15:56:10,984 INFO     repeater     task nb300_lastensq: Time from /home/data/SP1411/proc/nb300/load/wrote_ens_time: 2014/12/08 15:55:56
2014-12-08 15:56:56,038 INFO     repeater     task ashtech_hcorrstats starting 2.8 seconds late
2014-12-08 15:56:56,987 INFO     repeater     task ashtech_hcorrstats ended after 0.9 seconds
2014-12-08 15:58:07,076 INFO     repeater     task nb300_lastensq starting 1.1 seconds late
2014-12-08 15:58:09,281 INFO     repeater     task nb300_lastensq output:
rbin_to_gbin: interp1 failed for /home/data/SP1411/gbin/nb300/gpshead/sp2014_341_36000.hdg.gbin
Traceback (most recent call last):
  File "/home/currents/programs/pycurrents/adcp/gbin.py", line 631, in rbin_to_gbin
    masked=False, method=method)
  File "int1.pyx", line 81, in int1.interp1 (num/src/int1.c:939)
  File "int1.pyx", line 199, in int1.interp1_core (num/src/int1.c:2890)
NonuniformError: Invalid input: The first argument is not monotonic
rbin_to_gbin: interp1 failed for /home/data/SP1411/gbin/nb300/gpshead/sp2014_341_43200.hdg.gbin
Traceback (most recent call last):
  File "/home/currents/programs/pycurrents/adcp/gbin.py", line 631, in rbin_to_gbin
    masked=False, method=method)
  File "int1.pyx", line 81, in int1.interp1 (num/src/int1.c:939)
  File "int1.pyx", line 199, in int1.interp1_core (num/src/int1.c:2890)
NonuniformError: Invalid input: The first argument is not monotonic

2014-12-08 15:58:09,281 INFO     repeater     task nb300_lastensq ended after 2.2 seconds
2014-12-08 15:58:09,281 INFO     repeater     task nb300_lastensq: Time from /home/data/SP1411/proc/nb300/load/wrote_ens_time: 2014/12/08 15:57:56
2014-12-08 16:00:09,418 INFO     repeater     task nb300_lastensq starting 3.4 seconds late
2014-12-08 16:00:11,583 INFO     repeater     task nb300_lastensq output:
rbin_to_gbin: interp1 failed for /home/data/SP1411/gbin/nb300/gpshead/sp2014_341_36000.hdg.gbin
Traceback (most recent call last):
  File "/home/currents/programs/pycurrents/adcp/gbin.py", line 631, in rbin_to_gbin
    masked=False, method=method)
  File "int1.pyx", line 81, in int1.interp1 (num/src/int1.c:939)
  File "int1.pyx", line 199, in int1.interp1_core (num/src/int1.c:2890)
NonuniformError: Invalid input: The first argument is not monotonic
rbin_to_gbin: interp1 failed for /home/data/SP1411/gbin/nb300/gpshead/sp2014_341_43200.hdg.gbin
Traceback (most recent call last):
  File "/home/currents/programs/pycurrents/adcp/gbin.py", line 631, in rbin_to_gbin
    masked=False, method=method)
  File "int1.pyx", line 81, in int1.interp1 (num/src/int1.c:939)
  File "int1.pyx", line 199, in int1.interp1_core (num/src/int1.c:2890)
NonuniformError: Invalid input: The first argument is not monotonic

2014-12-08 16:00:11,583 INFO     repeater     task nb300_lastensq ended after 2.2 seconds
2014-12-08 16:00:11,583 INFO     repeater     task nb300_lastensq: Time from /home/data/SP1411/proc/nb300/load/wrote_ens_time: 2014/12/08 15:59:56
2014-12-08 16:01:56,704 INFO     repeater     task nb300_quick starting 3.5 seconds late
2014-12-08 16:02:01,412 INFO     repeater     task nb300_quick ended after 4.7 seconds
2014-12-08 16:02:01,412 INFO     repeater     task nb300_3dayplots starting 8.2 seconds late
2014-12-08 16:02:06,696 INFO     repeater     task nb300_3dayplots ended after 5.3 seconds
2014-12-08 16:02:06,696 INFO     repeater     task nb300_beamplots starting 13.4 seconds late
2014-12-08 16:02:08,397 INFO     repeater     task nb300_beamplots output:
Starting procsetup

2014-12-08 16:02:08,397 INFO     repeater     task nb300_beamplots ended after 1.7 seconds
2014-12-08 16:02:08,398 INFO     repeater     task nb300_beamplots starting 15.1 seconds late
2014-12-08 16:02:10,124 INFO     repeater     task nb300_beamplots output:
Starting procsetup

2014-12-08 16:02:10,124 INFO     repeater     task nb300_beamplots ended after 1.7 seconds
2014-12-08 16:02:10,124 INFO     repeater     task ashtech_hcorrstats starting 16.8 seconds late
2014-12-08 16:02:11,050 INFO     repeater     task ashtech_hcorrstats ended after 0.9 seconds
2014-12-08 16:02:16,056 INFO     repeater     task nb300_lastensq starting 10.1 seconds late
