2014-12-08 06:34:08,524 INFO     repeater     task nb300_lastensq: Time from /home/data/SP1411/proc/nb300/load/wrote_ens_time: 2014/12/08 06:33:53
2014-12-08 06:36:03,665 INFO     repeater     task nb300_lastensq starting 0.7 seconds late
2014-12-08 06:36:05,754 INFO     repeater     task nb300_lastensq ended after 2.1 seconds
2014-12-08 06:36:05,754 INFO     repeater     task nb300_lastensq: Time from /home/data/SP1411/proc/nb300/load/wrote_ens_time: 2014/12/08 06:35:53
2014-12-08 06:36:55,815 INFO     repeater     task ashtech_hcorrstats starting 2.5 seconds late
2014-12-08 06:36:56,745 INFO     repeater     task ashtech_hcorrstats ended after 0.9 seconds
2014-12-08 06:38:06,825 INFO     repeater     task nb300_lastensq starting 3.8 seconds late
2014-12-08 06:38:08,951 INFO     repeater     task nb300_lastensq ended after 2.1 seconds
2014-12-08 06:38:08,952 INFO     repeater     task nb300_lastensq: Time from /home/data/SP1411/proc/nb300/load/wrote_ens_time: 2014/12/08 06:37:53
2014-12-08 06:40:04,086 INFO     repeater     task nb300_lastensq starting 1.1 seconds late
2014-12-08 06:40:06,221 INFO     repeater     task nb300_lastensq ended after 2.1 seconds
2014-12-08 06:40:06,221 INFO     repeater     task nb300_lastensq: Time from /home/data/SP1411/proc/nb300/load/wrote_ens_time: 2014/12/08 06:39:53
2014-12-08 06:41:56,349 INFO     repeater     task nb300_beamplots starting 3.1 seconds late
2014-12-08 06:41:58,048 INFO     repeater     task nb300_beamplots output:
Starting procsetup

2014-12-08 06:41:58,048 INFO     repeater     task nb300_beamplots ended after 1.7 seconds
2014-12-08 06:41:58,048 INFO     repeater     task nb300_beamplots starting 4.8 seconds late
2014-12-08 06:41:59,779 INFO     repeater     task nb300_beamplots output:
Starting procsetup

2014-12-08 06:41:59,780 INFO     repeater     task nb300_beamplots ended after 1.7 seconds
2014-12-08 06:41:59,780 INFO     repeater     task ashtech_hcorrstats starting 6.5 seconds late
2014-12-08 06:42:00,705 INFO     repeater     task ashtech_hcorrstats ended after 0.9 seconds
2014-12-08 06:42:05,711 INFO     repeater     task nb300_lastensq starting 2.7 seconds late
2014-12-08 06:42:07,828 INFO     repeater     task nb300_lastensq ended after 2.1 seconds
2014-12-08 06:42:07,829 INFO     repeater     task nb300_lastensq: Time from /home/data/SP1411/proc/nb300/load/wrote_ens_time: 2014/12/08 06:41:53
2014-12-08 06:44:07,970 INFO     repeater     task nb300_lastensq starting 5.0 seconds late
2014-12-08 06:44:10,095 INFO     repeater     task nb300_lastensq ended after 2.1 seconds
2014-12-08 06:44:10,095 INFO     repeater     task nb300_lastensq: Time from /home/data/SP1411/proc/nb300/load/wrote_ens_time: 2014/12/08 06:43:53
2014-12-08 06:46:05,228 INFO     repeater     task nb300_lastensq starting 2.2 seconds late
2014-12-08 06:46:07,316 INFO     repeater     task nb300_lastensq ended after 2.1 seconds
2014-12-08 06:46:07,317 INFO     repeater     task nb300_lastensq: Time from /home/data/SP1411/proc/nb300/load/wrote_ens_time: 2014/12/08 06:45:53
2014-12-08 06:46:57,372 INFO     repeater     task ashtech_hcorrstats starting 4.1 seconds late
2014-12-08 06:46:58,328 INFO     repeater     task ashtech_hcorrstats ended after 1.0 seconds
2014-12-08 06:48:03,404 INFO     repeater     task nb300_lastensq starting 0.4 seconds late
2014-12-08 06:48:05,486 INFO     repeater     task nb300_lastensq ended after 2.1 seconds
2014-12-08 06:48:05,486 INFO     repeater     task nb300_lastensq: Time from /home/data/SP1411/proc/nb300/load/wrote_ens_time: 2014/12/08 06:47:53
2014-12-08 06:50:05,634 INFO     repeater     task nb300_lastensq starting 2.6 seconds late
2014-12-08 06:50:07,728 INFO     repeater     task nb300_lastensq ended after 2.1 seconds
2014-12-08 06:50:07,729 INFO     repeater     task nb300_lastensq: Time from /home/data/SP1411/proc/nb300/load/wrote_ens_time: 2014/12/08 06:49:53
2014-12-08 06:51:57,865 INFO     repeater     task nb300_beamplots starting 4.6 seconds late
2014-12-08 06:51:59,549 INFO     repeater     task nb300_beamplots output:
Starting procsetup

2014-12-08 06:51:59,549 INFO     repeater     task nb300_beamplots ended after 1.7 seconds
2014-12-08 06:51:59,550 INFO     repeater     task nb300_beamplots starting 6.3 seconds late
2014-12-08 06:52:01,250 INFO     repeater     task nb300_beamplots output:
Starting procsetup

2014-12-08 06:52:01,250 INFO     repeater     task nb300_beamplots ended after 1.7 seconds
2014-12-08 06:52:01,250 INFO     repeater     task ashtech_hcorrstats starting 8.0 seconds late
2014-12-08 06:52:02,178 INFO     repeater     task ashtech_hcorrstats ended after 0.9 seconds
2014-12-08 06:52:07,184 INFO     repeater     task nb300_lastensq starting 4.2 seconds late
2014-12-08 06:52:09,321 INFO     repeater     task nb300_lastensq ended after 2.1 seconds
2014-12-08 06:52:09,322 INFO     repeater     task nb300_lastensq: Time from /home/data/SP1411/proc/nb300/load/wrote_ens_time: 2014/12/08 06:51:53
2014-12-08 06:54:04,454 INFO     repeater     task nb300_lastensq starting 1.5 seconds late
2014-12-08 06:54:06,594 INFO     repeater     task nb300_lastensq ended after 2.1 seconds
2014-12-08 06:54:06,594 INFO     repeater     task nb300_lastensq: Time from /home/data/SP1411/proc/nb300/load/wrote_ens_time: 2014/12/08 06:53:53
2014-12-08 06:56:06,744 INFO     repeater     task nb300_lastensq starting 3.7 seconds late
2014-12-08 06:56:08,888 INFO     repeater     task nb300_lastensq ended after 2.1 seconds
2014-12-08 06:56:08,888 INFO     repeater     task nb300_lastensq: Time from /home/data/SP1411/proc/nb300/load/wrote_ens_time: 2014/12/08 06:55:53
2014-12-08 06:56:53,940 INFO     repeater     task ashtech_hcorrstats starting 0.7 seconds late
2014-12-08 06:56:54,870 INFO     repeater     task ashtech_hcorrstats ended after 0.9 seconds
2014-12-08 06:58:04,954 INFO     repeater     task nb300_lastensq starting 2.0 seconds late
2014-12-08 06:58:07,053 INFO     repeater     task nb300_lastensq ended after 2.1 seconds
2014-12-08 06:58:07,054 INFO     repeater     task nb300_lastensq: Time from /home/data/SP1411/proc/nb300/load/wrote_ens_time: 2014/12/08 06:57:53
2014-12-08 07:00:07,197 INFO     repeater     task nb300_lastensq starting 4.2 seconds late
2014-12-08 07:00:09,287 INFO     repeater     task nb300_lastensq ended after 2.1 seconds
2014-12-08 07:00:09,287 INFO     repeater     task nb300_lastensq: Time from /home/data/SP1411/proc/nb300/load/wrote_ens_time: 2014/12/08 06:59:53
2014-12-08 07:01:54,414 INFO     repeater     task nb300_quick starting 1.2 seconds late
2014-12-08 07:01:58,949 INFO     repeater     task nb300_quick ended after 4.5 seconds
2014-12-08 07:01:58,949 INFO     repeater     task nb300_3dayplots starting 5.7 seconds late
2014-12-08 07:02:04,030 INFO     repeater     task nb300_3dayplots ended after 5.1 seconds
2014-12-08 07:02:04,031 INFO     repeater     task nb300_beamplots starting 10.8 seconds late
2014-12-08 07:02:05,602 INFO     repeater     task nb300_beamplots output:
Starting procsetup

2014-12-08 07:02:05,602 INFO     repeater     task nb300_beamplots ended after 1.6 seconds
2014-12-08 07:02:05,602 INFO     repeater     task nb300_beamplots starting 12.3 seconds late
2014-12-08 07:02:07,324 INFO     repeater     task nb300_beamplots output:
Starting procsetup

2014-12-08 07:02:07,324 INFO     repeater     task nb300_beamplots ended after 1.7 seconds
2014-12-08 07:02:07,325 INFO     repeater     task ashtech_hcorrstats starting 14.0 seconds late
2014-12-08 07:02:08,247 INFO     repeater     task ashtech_hcorrstats ended after 0.9 seconds
2014-12-08 07:02:13,253 INFO     repeater     task nb300_lastensq starting 10.3 seconds late
2014-12-08 07:02:15,346 INFO     repeater     task nb300_lastensq ended after 2.1 seconds
2014-12-08 07:02:15,346 INFO     repeater     task nb300_lastensq: Time from /home/data/SP1411/proc/nb300/load/wrote_ens_time: 2014/12/08 07:01:53
2014-12-08 07:04:05,475 INFO     repeater     task nb300_lastensq starting 2.5 seconds late
2014-12-08 07:04:07,588 INFO     repeater     task nb300_lastensq ended after 2.1 seconds
2014-12-08 07:04:07,589 INFO     repeater     task nb300_lastensq: Time from /home/data/SP1411/proc/nb300/load/wrote_ens_time: 2014/12/08 07:03:53
2014-12-08 07:06:07,731 INFO     repeater     task nb300_lastensq starting 4.7 seconds late
2014-12-08 07:06:09,834 INFO     repeater     task nb300_lastensq ended after 2.1 seconds
2014-12-08 07:06:09,835 INFO     repeater     task nb300_lastensq: Time from /home/data/SP1411/proc/nb300/load/wrote_ens_time: 2014/12/08 07:05:53
2014-12-08 07:06:54,893 INFO     repeater     task ashtech_hcorrstats starting 1.6 seconds late
2014-12-08 07:06:55,825 INFO     repeater     task ashtech_hcorrstats ended after 0.9 seconds
2014-12-08 07:08:05,912 INFO     repeater     task nb300_lastensq starting 2.9 seconds late
2014-12-08 07:08:08,074 INFO     repeater     task nb300_lastensq ended after 2.2 seconds
2014-12-08 07:08:08,074 INFO     repeater     task nb300_lastensq: Time from /home/data/SP1411/proc/nb300/load/wrote_ens_time: 2014/12/08 07:07:53
2014-12-08 07:10:03,204 INFO     repeater     task nb300_lastensq starting 0.2 seconds late
2014-12-08 07:10:05,351 INFO     repeater     task nb300_lastensq ended after 2.1 seconds
2014-12-08 07:10:05,351 INFO     repeater     task nb300_lastensq: Time from /home/data/SP1411/proc/nb300/load/wrote_ens_time: 2014/12/08 07:09:53
2014-12-08 07:11:55,476 INFO     repeater     task nb300_beamplots starting 2.2 seconds late
2014-12-08 07:11:57,153 INFO     repeater     task nb300_beamplots output:
Starting procsetup

2014-12-08 07:11:57,154 INFO     repeater     task nb300_beamplots ended after 1.7 seconds
2014-12-08 07:11:57,154 INFO     repeater     task nb300_beamplots starting 3.9 seconds late
2014-12-08 07:11:58,863 INFO     repeater     task nb300_beamplots output:
Starting procsetup

2014-12-08 07:11:58,863 INFO     repeater     task nb300_beamplots ended after 1.7 seconds
2014-12-08 07:11:58,863 INFO     repeater     task ashtech_hcorrstats starting 5.6 seconds late
2014-12-08 07:11:59,787 INFO     repeater     task ashtech_hcorrstats ended after 0.9 seconds
2014-12-08 07:12:04,793 INFO     repeater     task nb300_lastensq starting 1.8 seconds late
2014-12-08 07:12:06,898 INFO     repeater     task nb300_lastensq ended after 2.1 seconds
2014-12-08 07:12:06,899 INFO     repeater     task nb300_lastensq: Time from /home/data/SP1411/proc/nb300/load/wrote_ens_time: 2014/12/08 07:11:53
2014-12-08 07:14:07,040 INFO     repeater     task nb300_lastensq starting 4.0 seconds late
2014-12-08 07:14:09,205 INFO     repeater     task nb300_lastensq ended after 2.2 seconds
2014-12-08 07:14:09,205 INFO     repeater     task nb300_lastensq: Time from /home/data/SP1411/proc/nb300/load/wrote_ens_time: 2014/12/08 07:13:53
2014-12-08 07:16:04,341 INFO     repeater     task nb300_lastensq starting 1.3 seconds late
2014-12-08 07:16:06,495 INFO     repeater     task nb300_lastensq ended after 2.2 seconds
2014-12-08 07:16:06,496 INFO     repeater     task nb300_lastensq: Time from /home/data/SP1411/proc/nb300/load/wrote_ens_time: 2014/12/08 07:15:53
2014-12-08 07:16:56,548 INFO     repeater     task ashtech_hcorrstats starting 3.3 seconds late
2014-12-08 07:16:57,476 INFO     repeater     task ashtech_hcorrstats ended after 0.9 seconds
2014-12-08 07:18:07,561 INFO     repeater     task nb300_lastensq starting 4.6 seconds late
2014-12-08 07:18:09,715 INFO     repeater     task nb300_lastensq ended after 2.2 seconds
2014-12-08 07:18:09,715 INFO     repeater     task nb300_lastensq: Time from /home/data/SP1411/proc/nb300/load/wrote_ens_time: 2014/12/08 07:17:53
2014-12-08 07:20:04,854 INFO     repeater     task nb300_lastensq starting 1.9 seconds late
2014-12-08 07:20:07,007 INFO     repeater     task nb300_lastensq ended after 2.2 seconds
2014-12-08 07:20:07,007 INFO     repeater     task nb300_lastensq: Time from /home/data/SP1411/proc/nb300/load/wrote_ens_time: 2014/12/08 07:19:53
2014-12-08 07:21:57,132 INFO     repeater     task nb300_beamplots starting 3.9 seconds late
2014-12-08 07:21:58,833 INFO     repeater     task nb300_beamplots output:
Starting procsetup

2014-12-08 07:21:58,833 INFO     repeater     task nb300_beamplots ended after 1.7 seconds
2014-12-08 07:21:58,834 INFO     repeater     task nb300_beamplots starting 5.6 seconds late
2014-12-08 07:22:00,570 INFO     repeater     task nb300_beamplots output:
Starting procsetup

2014-12-08 07:22:00,571 INFO     repeater     task nb300_beamplots ended after 1.7 seconds
2014-12-08 07:22:00,571 INFO     repeater     task ashtech_hcorrstats starting 7.3 seconds late
2014-12-08 07:22:01,499 INFO     repeater     task ashtech_hcorrstats ended after 0.9 seconds
2014-12-08 07:22:06,504 INFO     repeater     task nb300_lastensq starting 3.5 seconds late
2014-12-08 07:22:08,674 INFO     repeater     task nb300_lastensq ended after 2.2 seconds
2014-12-08 07:22:08,674 INFO     repeater     task nb300_lastensq: Time from /home/data/SP1411/proc/nb300/load/wrote_ens_time: 2014/12/08 07:21:53
2014-12-08 07:24:03,800 INFO     repeater     task nb300_lastensq starting 0.8 seconds late
2014-12-08 07:24:05,947 INFO     repeater     task nb300_lastensq ended after 2.1 seconds
2014-12-08 07:24:05,947 INFO     repeater     task nb300_lastensq: Time from /home/data/SP1411/proc/nb300/load/wrote_ens_time: 2014/12/08 07:23:53
2014-12-08 07:26:06,080 INFO     repeater     task nb300_lastensq starting 3.1 seconds late
2014-12-08 07:26:08,193 INFO     repeater     task nb300_lastensq ended after 2.1 seconds
2014-12-08 07:26:08,193 INFO     repeater     task nb300_lastensq: Time from /home/data/SP1411/proc/nb300/load/wrote_ens_time: 2014/12/08 07:25:53
2014-12-08 07:26:58,261 INFO     repeater     task ashtech_hcorrstats starting 5.0 seconds late
2014-12-08 07:26:59,207 INFO     repeater     task ashtech_hcorrstats ended after 0.9 seconds
2014-12-08 07:28:04,285 INFO     repeater     task nb300_lastensq starting 1.3 seconds late
2014-12-08 07:28:06,480 INFO     repeater     task nb300_lastensq ended after 2.2 seconds
2014-12-08 07:28:06,481 INFO     repeater     task nb300_lastensq: Time from /home/data/SP1411/proc/nb300/load/wrote_ens_time: 2014/12/08 07:27:53
2014-12-08 07:30:06,617 INFO     repeater     task nb300_lastensq starting 3.6 seconds late
2014-12-08 07:30:08,796 INFO     repeater     task nb300_lastensq ended after 2.2 seconds
2014-12-08 07:30:08,797 INFO     repeater     task nb300_lastensq: Time from /home/data/SP1411/proc/nb300/load/wrote_ens_time: 2014/12/08 07:29:53
2014-12-08 07:31:53,922 INFO     repeater     task nb300_quick starting 0.7 seconds late
2014-12-08 07:31:58,569 INFO     repeater     task nb300_quick ended after 4.6 seconds
2014-12-08 07:31:58,570 INFO     repeater     task nb300_3dayplots starting 5.3 seconds late
2014-12-08 07:32:03,665 INFO     repeater     task nb300_3dayplots ended after 5.1 seconds
2014-12-08 07:32:03,666 INFO     repeater     task nb300_beamplots starting 10.4 seconds late
2014-12-08 07:32:05,334 INFO     repeater     task nb300_beamplots output:
Starting procsetup

2014-12-08 07:32:05,334 INFO     repeater     task nb300_beamplots ended after 1.7 seconds
2014-12-08 07:32:05,335 INFO     repeater     task nb300_beamplots starting 12.1 seconds late
2014-12-08 07:32:06,963 INFO     repeater     task nb300_beamplots output:
Starting procsetup

2014-12-08 07:32:06,963 INFO     repeater     task nb300_beamplots ended after 1.6 seconds
2014-12-08 07:32:06,963 INFO     repeater     task ashtech_hcorrstats starting 13.7 seconds late
2014-12-08 07:32:07,887 INFO     repeater     task ashtech_hcorrstats ended after 0.9 seconds
2014-12-08 07:32:12,888 INFO     repeater     task nb300_lastensq starting 9.9 seconds late
2014-12-08 07:32:15,059 INFO     repeater     task nb300_lastensq ended after 2.2 seconds
2014-12-08 07:32:15,059 INFO     repeater     task nb300_lastensq: Time from /home/data/SP1411/proc/nb300/load/wrote_ens_time: 2014/12/08 07:31:53
2014-12-08 07:34:05,181 INFO     repeater     task nb300_lastensq starting 2.2 seconds late
2014-12-08 07:34:07,327 INFO     repeater     task nb300_lastensq ended after 2.1 seconds
2014-12-08 07:34:07,327 INFO     repeater     task nb300_lastensq: Time from /home/data/SP1411/proc/nb300/load/wrote_ens_time: 2014/12/08 07:33:53
2014-12-08 07:36:07,465 INFO     repeater     task nb300_lastensq starting 4.5 seconds late
2014-12-08 07:36:09,634 INFO     repeater     task nb300_lastensq ended after 2.2 seconds
2014-12-08 07:36:09,635 INFO     repeater     task nb300_lastensq: Time from /home/data/SP1411/proc/nb300/load/wrote_ens_time: 2014/12/08 07:35:53
2014-12-08 07:36:54,689 INFO     repeater     task ashtech_hcorrstats starting 1.4 seconds late
2014-12-08 07:36:55,613 INFO     repeater     task ashtech_hcorrstats ended after 0.9 seconds
2014-12-08 07:38:05,691 INFO     repeater     task nb300_lastensq starting 2.7 seconds late
2014-12-08 07:38:07,841 INFO     repeater     task nb300_lastensq ended after 2.1 seconds
2014-12-08 07:38:07,841 INFO     repeater     task nb300_lastensq: Time from /home/data/SP1411/proc/nb300/load/wrote_ens_time: 2014/12/08 07:37:53
2014-12-08 07:40:07,976 INFO     repeater     task nb300_lastensq starting 5.0 seconds late
2014-12-08 07:40:10,103 INFO     repeater     task nb300_lastensq ended after 2.1 seconds
2014-12-08 07:40:10,103 INFO     repeater     task nb300_lastensq: Time from /home/data/SP1411/proc/nb300/load/wrote_ens_time: 2014/12/08 07:39:53
2014-12-08 07:41:55,229 INFO     repeater     task nb300_beamplots starting 2.0 seconds late
2014-12-08 07:41:56,910 INFO     repeater     task nb300_beamplots output:
Starting procsetup

2014-12-08 07:41:56,910 INFO     repeater     task nb300_beamplots ended after 1.7 seconds
2014-12-08 07:41:56,910 INFO     repeater     task nb300_beamplots starting 3.6 seconds late
2014-12-08 07:41:58,652 INFO     repeater     task nb300_beamplots output:
Starting procsetup

2014-12-08 07:41:58,653 INFO     repeater     task nb300_beamplots ended after 1.7 seconds
2014-12-08 07:41:58,653 INFO     repeater     task ashtech_hcorrstats starting 5.4 seconds late
2014-12-08 07:41:59,574 INFO     repeater     task ashtech_hcorrstats ended after 0.9 seconds
2014-12-08 07:42:04,580 INFO     repeater     task nb300_lastensq starting 1.6 seconds late
2014-12-08 07:42:06,700 INFO     repeater     task nb300_lastensq ended after 2.1 seconds
2014-12-08 07:42:06,700 INFO     repeater     task nb300_lastensq: Time from /home/data/SP1411/proc/nb300/load/wrote_ens_time: 2014/12/08 07:41:53
2014-12-08 07:44:06,848 INFO     repeater     task nb300_lastensq starting 3.8 seconds late
2014-12-08 07:44:09,030 INFO     repeater     task nb300_lastensq ended after 2.2 seconds
2014-12-08 07:44:09,030 INFO     repeater     task nb300_lastensq: Time from /home/data/SP1411/proc/nb300/load/wrote_ens_time: 2014/12/08 07:43:53
2014-12-08 07:46:04,195 INFO     repeater     task nb300_lastensq starting 1.2 seconds late
2014-12-08 07:46:06,380 INFO     repeater     task nb300_lastensq ended after 2.2 seconds
2014-12-08 07:46:06,380 INFO     repeater     task nb300_lastensq: Time from /home/data/SP1411/proc/nb300/load/wrote_ens_time: 2014/12/08 07:45:53
2014-12-08 07:46:56,439 INFO     repeater     task ashtech_hcorrstats starting 3.2 seconds late
2014-12-08 07:46:57,392 INFO     repeater     task ashtech_hcorrstats ended after 1.0 seconds
2014-12-08 07:48:07,478 INFO     repeater     task nb300_lastensq starting 4.5 seconds late
2014-12-08 07:48:09,610 INFO     repeater     task nb300_lastensq ended after 2.1 seconds
2014-12-08 07:48:09,610 INFO     repeater     task nb300_lastensq: Time from /home/data/SP1411/proc/nb300/load/wrote_ens_time: 2014/12/08 07:47:53
2014-12-08 07:50:04,741 INFO     repeater     task nb300_lastensq starting 1.7 seconds late
2014-12-08 07:50:06,933 INFO     repeater     task nb300_lastensq ended after 2.2 seconds
2014-12-08 07:50:06,933 INFO     repeater     task nb300_lastensq: Time from /home/data/SP1411/proc/nb300/load/wrote_ens_time: 2014/12/08 07:49:53
2014-12-08 07:51:57,062 INFO     repeater     task nb300_beamplots starting 3.8 seconds late
2014-12-08 07:51:58,738 INFO     repeater     task nb300_beamplots output:
Starting procsetup

2014-12-08 07:51:58,739 INFO     repeater     task nb300_beamplots ended after 1.7 seconds
2014-12-08 07:51:58,739 INFO     repeater     task nb300_beamplots starting 5.5 seconds late
2014-12-08 07:52:00,360 INFO     repeater     task nb300_beamplots output:
Starting procsetup

2014-12-08 07:52:00,360 INFO     repeater     task nb300_beamplots ended after 1.6 seconds
2014-12-08 07:52:00,361 INFO     repeater     task ashtech_hcorrstats starting 7.1 seconds late
2014-12-08 07:52:01,295 INFO     repeater     task ashtech_hcorrstats ended after 0.9 seconds
2014-12-08 07:52:06,301 INFO     repeater     task nb300_lastensq starting 3.3 seconds late
2014-12-08 07:52:08,432 INFO     repeater     task nb300_lastensq ended after 2.1 seconds
2014-12-08 07:52:08,432 INFO     repeater     task nb300_lastensq: Time from /home/data/SP1411/proc/nb300/load/wrote_ens_time: 2014/12/08 07:51:53
2014-12-08 07:54:03,561 INFO     repeater     task nb300_lastensq starting 0.6 seconds late
2014-12-08 07:54:05,699 INFO     repeater     task nb300_lastensq ended after 2.1 seconds
2014-12-08 07:54:05,699 INFO     repeater     task nb300_lastensq: Time from /home/data/SP1411/proc/nb300/load/wrote_ens_time: 2014/12/08 07:53:53
2014-12-08 07:56:05,838 INFO     repeater     task nb300_lastensq starting 2.8 seconds late
2014-12-08 07:56:07,981 INFO     repeater     task nb300_lastensq ended after 2.1 seconds
2014-12-08 07:56:07,981 INFO     repeater     task nb300_lastensq: Time from /home/data/SP1411/proc/nb300/load/wrote_ens_time: 2014/12/08 07:55:53
2014-12-08 07:56:58,041 INFO     repeater     task ashtech_hcorrstats starting 4.8 seconds late
2014-12-08 07:56:58,979 INFO     repeater     task ashtech_hcorrstats ended after 0.9 seconds
2014-12-08 07:58:04,051 INFO     repeater     task nb300_lastensq starting 1.1 seconds late
2014-12-08 07:58:06,184 INFO     repeater     task nb300_lastensq ended after 2.1 seconds
2014-12-08 07:58:06,187 INFO     repeater     task nb300_lastensq: Time from /home/data/SP1411/proc/nb300/load/wrote_ens_time: 2014/12/08 07:57:53
2014-12-08 08:00:06,328 INFO     repeater     task nb300_lastensq starting 3.3 seconds late
2014-12-08 08:00:08,502 INFO     repeater     task nb300_lastensq ended after 2.2 seconds
2014-12-08 08:00:08,502 INFO     repeater     task nb300_lastensq: Time from /home/data/SP1411/proc/nb300/load/wrote_ens_time: 2014/12/08 07:59:53
2014-12-08 08:01:53,621 INFO     repeater     task nb300_quick starting 0.4 seconds late
2014-12-08 08:01:58,175 INFO     repeater     task nb300_quick ended after 4.6 seconds
2014-12-08 08:01:58,175 INFO     repeater     task nb300_3dayplots starting 4.9 seconds late
2014-12-08 08:02:03,268 INFO     repeater     task nb300_3dayplots ended after 5.1 seconds
2014-12-08 08:02:03,269 INFO     repeater     task nb300_beamplots starting 10.0 seconds late
2014-12-08 08:02:04,939 INFO     repeater     task nb300_beamplots output:
Starting procsetup

2014-12-08 08:02:04,939 INFO     repeater     task nb300_beamplots ended after 1.7 seconds
2014-12-08 08:02:04,939 INFO     repeater     task nb300_beamplots starting 11.7 seconds late
2014-12-08 08:02:06,558 INFO     repeater     task nb300_beamplots output:
Starting procsetup

2014-12-08 08:02:06,558 INFO     repeater     task nb300_beamplots ended after 1.6 seconds
2014-12-08 08:02:06,558 INFO     repeater     task ashtech_hcorrstats starting 13.3 seconds late
2014-12-08 08:02:07,483 INFO     repeater     task ashtech_hcorrstats ended after 0.9 seconds
2014-12-08 08:02:12,489 INFO     repeater     task nb300_lastensq starting 9.5 seconds late
2014-12-08 08:02:14,609 INFO     repeater     task nb300_lastensq ended after 2.1 seconds
2014-12-08 08:02:14,609 INFO     repeater     task nb300_lastensq: Time from /home/data/SP1411/proc/nb300/load/wrote_ens_time: 2014/12/08 08:01:53
2014-12-08 08:04:04,744 INFO     repeater     task nb300_lastensq starting 1.7 seconds late
2014-12-08 08:04:06,845 INFO     repeater     task nb300_lastensq ended after 2.1 seconds
2014-12-08 08:04:06,845 INFO     repeater     task nb300_lastensq: Time from /home/data/SP1411/proc/nb300/load/wrote_ens_time: 2014/12/08 08:03:53
2014-12-08 08:06:06,994 INFO     repeater     task nb300_lastensq starting 4.0 seconds late
2014-12-08 08:06:09,043 INFO     repeater     task nb300_lastensq ended after 2.0 seconds
2014-12-08 08:06:09,043 INFO     repeater     task nb300_lastensq: Time from /home/data/SP1411/proc/nb300/load/wrote_ens_time: 2014/12/08 08:05:53
2014-12-08 08:06:54,092 INFO     repeater     task ashtech_hcorrstats starting 0.8 seconds late
2014-12-08 08:06:55,030 INFO     repeater     task ashtech_hcorrstats ended after 0.9 seconds
2014-12-08 08:08:05,115 INFO     repeater     task nb300_lastensq starting 2.1 seconds late
2014-12-08 08:08:07,241 INFO     repeater     task nb300_lastensq ended after 2.1 seconds
2014-12-08 08:08:07,242 INFO     repeater     task nb300_lastensq: Time from /home/data/SP1411/proc/nb300/load/wrote_ens_time: 2014/12/08 08:07:53
2014-12-08 08:10:07,371 INFO     repeater     task nb300_lastensq starting 4.4 seconds late
2014-12-08 08:10:09,434 INFO     repeater     task nb300_lastensq ended after 2.1 seconds
2014-12-08 08:10:09,434 INFO     repeater     task nb300_lastensq: Time from /home/data/SP1411/proc/nb300/load/wrote_ens_time: 2014/12/08 08:09:53
2014-12-08 08:11:54,562 INFO     repeater     task nb300_beamplots starting 1.3 seconds late
2014-12-08 08:11:56,225 INFO     repeater     task nb300_beamplots output:
Starting procsetup

2014-12-08 08:11:56,225 INFO     repeater     task nb300_beamplots ended after 1.7 seconds
2014-12-08 08:11:56,225 INFO     repeater     task nb300_beamplots starting 3.0 seconds late
2014-12-08 08:11:57,963 INFO     repeater     task nb300_beamplots output:
Starting procsetup

2014-12-08 08:11:57,964 INFO     repeater     task nb300_beamplots ended after 1.7 seconds
2014-12-08 08:11:57,964 INFO     repeater     task ashtech_hcorrstats starting 4.7 seconds late
2014-12-08 08:11:58,896 INFO     repeater     task ashtech_hcorrstats ended after 0.9 seconds
2014-12-08 08:12:03,901 INFO     repeater     task nb300_lastensq starting 0.9 seconds late
2014-12-08 08:12:05,958 INFO     repeater     task nb300_lastensq ended after 2.1 seconds
2014-12-08 08:12:05,958 INFO     repeater     task nb300_lastensq: Time from /home/data/SP1411/proc/nb300/load/wrote_ens_time: 2014/12/08 08:11:53
2014-12-08 08:14:06,094 INFO     repeater     task nb300_lastensq starting 3.1 seconds late
2014-12-08 08:14:08,208 INFO     repeater     task nb300_lastensq ended after 2.1 seconds
2014-12-08 08:14:08,208 INFO     repeater     task nb300_lastensq: Time from /home/data/SP1411/proc/nb300/load/wrote_ens_time: 2014/12/08 08:13:53
2014-12-08 08:16:03,344 INFO     repeater     task nb300_lastensq starting 0.3 seconds late
2014-12-08 08:16:05,428 INFO     repeater     task nb300_lastensq ended after 2.1 seconds
2014-12-08 08:16:05,428 INFO     repeater     task nb300_lastensq: Time from /home/data/SP1411/proc/nb300/load/wrote_ens_time: 2014/12/08 08:15:53
2014-12-08 08:16:55,490 INFO     repeater     task ashtech_hcorrstats starting 2.2 seconds late
2014-12-08 08:16:56,424 INFO     repeater     task ashtech_hcorrstats ended after 0.9 seconds
2014-12-08 08:18:06,503 INFO     repeater     task nb300_lastensq starting 3.5 seconds late
2014-12-08 08:18:08,574 INFO     repeater     task nb300_lastensq ended after 2.1 seconds
2014-12-08 08:18:08,574 INFO     repeater     task nb300_lastensq: Time from /home/data/SP1411/proc/nb300/load/wrote_ens_time: 2014/12/08 08:17:53
2014-12-08 08:20:03,703 INFO     repeater     task nb300_lastensq starting 0.7 seconds late
2014-12-08 08:20:05,824 INFO     repeater     task nb300_lastensq ended after 2.1 seconds
2014-12-08 08:20:05,825 INFO     repeater     task nb300_lastensq: Time from /home/data/SP1411/proc/nb300/load/wrote_ens_time: 2014/12/08 08:19:53
2014-12-08 08:21:55,959 INFO     repeater     task nb300_beamplots starting 2.7 seconds late
2014-12-08 08:21:57,639 INFO     repeater     task nb300_beamplots output:
Starting procsetup

2014-12-08 08:21:57,639 INFO     repeater     task nb300_beamplots ended after 1.7 seconds
2014-12-08 08:21:57,640 INFO     repeater     task nb300_beamplots starting 4.4 seconds late
2014-12-08 08:21:59,343 INFO     repeater     task nb300_beamplots output:
Starting procsetup

2014-12-08 08:21:59,343 INFO     repeater     task nb300_beamplots ended after 1.7 seconds
2014-12-08 08:21:59,343 INFO     repeater     task ashtech_hcorrstats starting 6.1 seconds late
2014-12-08 08:22:00,275 INFO     repeater     task ashtech_hcorrstats ended after 0.9 seconds
2014-12-08 08:22:05,281 INFO     repeater     task nb300_lastensq starting 2.3 seconds late
2014-12-08 08:22:07,405 INFO     repeater     task nb300_lastensq ended after 2.1 seconds
2014-12-08 08:22:07,405 INFO     repeater     task nb300_lastensq: Time from /home/data/SP1411/proc/nb300/load/wrote_ens_time: 2014/12/08 08:21:53
2014-12-08 08:24:07,545 INFO     repeater     task nb300_lastensq starting 4.5 seconds late
2014-12-08 08:24:09,666 INFO     repeater     task nb300_lastensq ended after 2.1 seconds
2014-12-08 08:24:09,666 INFO     repeater     task nb300_lastensq: Time from /home/data/SP1411/proc/nb300/load/wrote_ens_time: 2014/12/08 08:23:53
2014-12-08 08:26:04,798 INFO     repeater     task nb300_lastensq starting 1.8 seconds late
2014-12-08 08:26:06,876 INFO     repeater     task nb300_lastensq ended after 2.1 seconds
2014-12-08 08:26:06,877 INFO     repeater     task nb300_lastensq: Time from /home/data/SP1411/proc/nb300/load/wrote_ens_time: 2014/12/08 08:25:53
2014-12-08 08:26:56,942 INFO     repeater     task ashtech_hcorrstats starting 3.7 seconds late
2014-12-08 08:26:57,894 INFO     repeater     task ashtech_hcorrstats ended after 1.0 seconds
2014-12-08 08:28:07,972 INFO     repeater     task nb300_lastensq starting 5.0 seconds late
2014-12-08 08:28:10,041 INFO     repeater     task nb300_lastensq ended after 2.1 seconds
2014-12-08 08:28:10,041 INFO     repeater     task nb300_lastensq: Time from /home/data/SP1411/proc/nb300/load/wrote_ens_time: 2014/12/08 08:27:53
2014-12-08 08:30:05,175 INFO     repeater     task nb300_lastensq starting 2.2 seconds late
2014-12-08 08:30:07,311 INFO     repeater     task nb300_lastensq ended after 2.1 seconds
2014-12-08 08:30:07,311 INFO     repeater     task nb300_lastensq: Time from /home/data/SP1411/proc/nb300/load/wrote_ens_time: 2014/12/08 08:29:53
2014-12-08 08:31:57,444 INFO     repeater     task nb300_quick starting 4.2 seconds late
2014-12-08 08:32:01,969 INFO     repeater     task nb300_quick ended after 4.5 seconds
2014-12-08 08:32:01,970 INFO     repeater     task nb300_3dayplots starting 8.7 seconds late
2014-12-08 08:32:07,154 INFO     repeater     task nb300_3dayplots ended after 5.2 seconds
2014-12-08 08:32:07,155 INFO     repeater     task nb300_beamplots starting 13.9 seconds late
2014-12-08 08:32:08,854 INFO     repeater     task nb300_beamplots output:
Starting procsetup

2014-12-08 08:32:08,854 INFO     repeater     task nb300_beamplots ended after 1.7 seconds
2014-12-08 08:32:08,855 INFO     repeater     task nb300_beamplots starting 15.6 seconds late
2014-12-08 08:32:10,501 INFO     repeater     task nb300_beamplots output:
Starting procsetup

2014-12-08 08:32:10,501 INFO     repeater     task nb300_beamplots ended after 1.6 seconds
2014-12-08 08:32:10,501 INFO     repeater     task ashtech_hcorrstats starting 17.2 seconds late
2014-12-08 08:32:11,424 INFO     repeater     task ashtech_hcorrstats ended after 0.9 seconds
2014-12-08 08:32:16,430 INFO     repeater     task nb300_lastensq starting 13.4 seconds late
2014-12-08 08:32:18,556 INFO     repeater     task nb300_lastensq ended after 2.1 seconds
2014-12-08 08:32:18,556 INFO     repeater     task nb300_lastensq: Time from /home/data/SP1411/proc/nb300/load/wrote_ens_time: 2014/12/08 08:31:53
2014-12-08 08:34:03,684 INFO     repeater     task nb300_lastensq starting 0.7 seconds late
2014-12-08 08:34:05,804 INFO     repeater     task nb300_lastensq ended after 2.1 seconds
2014-12-08 08:34:05,804 INFO     repeater     task nb300_lastensq: Time from /home/data/SP1411/proc/nb300/load/wrote_ens_time: 2014/12/08 08:33:53
2014-12-08 08:36:05,941 INFO     repeater     task nb300_lastensq starting 2.9 seconds late
2014-12-08 08:36:08,068 INFO     repeater     task nb300_lastensq ended after 2.1 seconds
2014-12-08 08:36:08,068 INFO     repeater     task nb300_lastensq: Time from /home/data/SP1411/proc/nb300/load/wrote_ens_time: 2014/12/08 08:35:53
2014-12-08 08:36:58,125 INFO     repeater     task ashtech_hcorrstats starting 4.9 seconds late
2014-12-08 08:36:59,070 INFO     repeater     task ashtech_hcorrstats ended after 0.9 seconds
2014-12-08 08:38:04,134 INFO     repeater     task nb300_lastensq starting 1.1 seconds late
2014-12-08 08:38:06,254 INFO     repeater     task nb300_lastensq ended after 2.1 seconds
2014-12-08 08:38:06,254 INFO     repeater     task nb300_lastensq: Time from /home/data/SP1411/proc/nb300/load/wrote_ens_time: 2014/12/08 08:37:53
2014-12-08 08:40:06,384 INFO     repeater     task nb300_lastensq starting 3.4 seconds late
2014-12-08 08:40:08,508 INFO     repeater     task nb300_lastensq ended after 2.1 seconds
2014-12-08 08:40:08,508 INFO     repeater     task nb300_lastensq: Time from /home/data/SP1411/proc/nb300/load/wrote_ens_time: 2014/12/08 08:39:53
2014-12-08 08:41:53,633 INFO     repeater     task nb300_beamplots starting 0.4 seconds late
2014-12-08 08:41:55,249 INFO     repeater     task nb300_beamplots output:
Starting procsetup

2014-12-08 08:41:55,249 INFO     repeater     task nb300_beamplots ended after 1.6 seconds
2014-12-08 08:41:55,250 INFO     repeater     task nb300_beamplots starting 2.0 seconds late
2014-12-08 08:41:56,978 INFO     repeater     task nb300_beamplots output:
Starting procsetup

2014-12-08 08:41:56,978 INFO     repeater     task nb300_beamplots ended after 1.7 seconds
2014-12-08 08:41:56,979 INFO     repeater     task ashtech_hcorrstats starting 3.7 seconds late
2014-12-08 08:41:57,911 INFO     repeater     task ashtech_hcorrstats ended after 0.9 seconds
2014-12-08 08:42:07,924 INFO     repeater     task nb300_lastensq starting 4.9 seconds late
2014-12-08 08:42:10,001 INFO     repeater     task nb300_lastensq ended after 2.1 seconds
2014-12-08 08:42:10,001 INFO     repeater     task nb300_lastensq: Time from /home/data/SP1411/proc/nb300/load/wrote_ens_time: 2014/12/08 08:41:53
2014-12-08 08:44:05,124 INFO     repeater     task nb300_lastensq starting 2.1 seconds late
2014-12-08 08:44:07,260 INFO     repeater     task nb300_lastensq ended after 2.1 seconds
2014-12-08 08:44:07,260 INFO     repeater     task nb300_lastensq: Time from /home/data/SP1411/proc/nb300/load/wrote_ens_time: 2014/12/08 08:43:53
2014-12-08 08:46:07,394 INFO     repeater     task nb300_lastensq starting 4.4 seconds late
2014-12-08 08:46:09,518 INFO     repeater     task nb300_lastensq ended after 2.1 seconds
2014-12-08 08:46:09,518 INFO     repeater     task nb300_lastensq: Time from /home/data/SP1411/proc/nb300/load/wrote_ens_time: 2014/12/08 08:45:53
2014-12-08 08:46:54,572 INFO     repeater     task ashtech_hcorrstats starting 1.3 seconds late
2014-12-08 08:46:55,502 INFO     repeater     task ashtech_hcorrstats ended after 0.9 seconds
2014-12-08 08:48:05,577 INFO     repeater     task nb300_lastensq starting 2.6 seconds late
2014-12-08 08:48:07,717 INFO     repeater     task nb300_lastensq ended after 2.1 seconds
2014-12-08 08:48:07,718 INFO     repeater     task nb300_lastensq: Time from /home/data/SP1411/proc/nb300/load/wrote_ens_time: 2014/12/08 08:47:53
2014-12-08 08:50:07,860 INFO     repeater     task nb300_lastensq starting 4.9 seconds late
2014-12-08 08:50:09,941 INFO     repeater     task nb300_lastensq ended after 2.1 seconds
2014-12-08 08:50:09,942 INFO     repeater     task nb300_lastensq: Time from /home/data/SP1411/proc/nb300/load/wrote_ens_time: 2014/12/08 08:49:53
2014-12-08 08:51:55,073 INFO     repeater     task nb300_beamplots starting 1.8 seconds late
2014-12-08 08:51:56,656 INFO     repeater     task nb300_beamplots output:
Starting procsetup

2014-12-08 08:51:56,656 INFO     repeater     task nb300_beamplots ended after 1.6 seconds
2014-12-08 08:51:56,656 INFO     repeater     task nb300_beamplots starting 3.4 seconds late
2014-12-08 08:51:58,376 INFO     repeater     task nb300_beamplots output:
Starting procsetup

2014-12-08 08:51:58,376 INFO     repeater     task nb300_beamplots ended after 1.7 seconds
2014-12-08 08:51:58,377 INFO     repeater     task ashtech_hcorrstats starting 5.1 seconds late
2014-12-08 08:51:59,297 INFO     repeater     task ashtech_hcorrstats ended after 0.9 seconds
2014-12-08 08:52:04,303 INFO     repeater     task nb300_lastensq starting 1.3 seconds late
2014-12-08 08:52:06,426 INFO     repeater     task nb300_lastensq ended after 2.1 seconds
2014-12-08 08:52:06,427 INFO     repeater     task nb300_lastensq: Time from /home/data/SP1411/proc/nb300/load/wrote_ens_time: 2014/12/08 08:51:53
2014-12-08 08:54:06,558 INFO     repeater     task nb300_lastensq starting 3.6 seconds late
2014-12-08 08:54:08,659 INFO     repeater     task nb300_lastensq ended after 2.1 seconds
2014-12-08 08:54:08,659 INFO     repeater     task nb300_lastensq: Time from /home/data/SP1411/proc/nb300/load/wrote_ens_time: 2014/12/08 08:53:53
2014-12-08 08:56:03,787 INFO     repeater     task nb300_lastensq starting 0.8 seconds late
2014-12-08 08:56:05,937 INFO     repeater     task nb300_lastensq ended after 2.1 seconds
2014-12-08 08:56:05,937 INFO     repeater     task nb300_lastensq: Time from /home/data/SP1411/proc/nb300/load/wrote_ens_time: 2014/12/08 08:55:53
2014-12-08 08:56:55,999 INFO     repeater     task ashtech_hcorrstats starting 2.7 seconds late
2014-12-08 08:56:56,929 INFO     repeater     task ashtech_hcorrstats ended after 0.9 seconds
2014-12-08 08:58:07,011 INFO     repeater     task nb300_lastensq starting 4.0 seconds late
2014-12-08 08:58:09,146 INFO     repeater     task nb300_lastensq ended after 2.1 seconds
2014-12-08 08:58:09,147 INFO     repeater     task nb300_lastensq: Time from /home/data/SP1411/proc/nb300/load/wrote_ens_time: 2014/12/08 08:57:53
2014-12-08 09:00:04,270 INFO     repeater     task nb300_lastensq starting 1.3 seconds late
2014-12-08 09:00:06,388 INFO     repeater     task nb300_lastensq ended after 2.1 seconds
2014-12-08 09:00:06,388 INFO     repeater     task nb300_lastensq: Time from /home/data/SP1411/proc/nb300/load/wrote_ens_time: 2014/12/08 08:59:53
2014-12-08 09:01:56,521 INFO     repeater     task nb300_quick starting 3.3 seconds late
2014-12-08 09:02:01,112 INFO     repeater     task nb300_quick ended after 4.6 seconds
2014-12-08 09:02:01,112 INFO     repeater     task nb300_3dayplots starting 7.9 seconds late
2014-12-08 09:02:06,266 INFO     repeater     task nb300_3dayplots ended after 5.2 seconds
2014-12-08 09:02:06,266 INFO     repeater     task nb300_beamplots starting 13.0 seconds late
2014-12-08 09:02:07,960 INFO     repeater     task nb300_beamplots output:
Starting procsetup

2014-12-08 09:02:07,961 INFO     repeater     task nb300_beamplots ended after 1.7 seconds
2014-12-08 09:02:07,961 INFO     repeater     task nb300_beamplots starting 14.7 seconds late
2014-12-08 09:02:09,690 INFO     repeater     task nb300_beamplots output:
Starting procsetup

2014-12-08 09:02:09,690 INFO     repeater     task nb300_beamplots ended after 1.7 seconds
2014-12-08 09:02:09,691 INFO     repeater     task ashtech_hcorrstats starting 16.4 seconds late
2014-12-08 09:02:10,640 INFO     repeater     task ashtech_hcorrstats ended after 0.9 seconds
2014-12-08 09:02:15,641 INFO     repeater     task nb300_lastensq starting 12.6 seconds late
2014-12-08 09:02:17,731 INFO     repeater     task nb300_lastensq ended after 2.1 seconds
2014-12-08 09:02:17,731 INFO     repeater     task nb300_lastensq: Time from /home/data/SP1411/proc/nb300/load/wrote_ens_time: 2014/12/08 09:01:53
2014-12-08 09:04:07,861 INFO     repeater     task nb300_lastensq starting 4.9 seconds late
2014-12-08 09:04:09,968 INFO     repeater     task nb300_lastensq ended after 2.1 seconds
2014-12-08 09:04:09,968 INFO     repeater     task nb300_lastensq: Time from /home/data/SP1411/proc/nb300/load/wrote_ens_time: 2014/12/08 09:03:53
2014-12-08 09:06:05,109 INFO     repeater     task nb300_lastensq starting 2.1 seconds late
2014-12-08 09:06:07,284 INFO     repeater     task nb300_lastensq ended after 2.2 seconds
2014-12-08 09:06:07,285 INFO     repeater     task nb300_lastensq: Time from /home/data/SP1411/proc/nb300/load/wrote_ens_time: 2014/12/08 09:05:53
2014-12-08 09:06:57,333 INFO     repeater     task ashtech_hcorrstats starting 4.1 seconds late
2014-12-08 09:06:58,276 INFO     repeater     task ashtech_hcorrstats ended after 0.9 seconds
2014-12-08 09:08:03,347 INFO     repeater     task nb300_lastensq starting 0.3 seconds late
2014-12-08 09:08:05,500 INFO     repeater     task nb300_lastensq ended after 2.2 seconds
2014-12-08 09:08:05,501 INFO     repeater     task nb300_lastensq: Time from /home/data/SP1411/proc/nb300/load/wrote_ens_time: 2014/12/08 09:07:53
2014-12-08 09:10:05,645 INFO     repeater     task nb300_lastensq starting 2.6 seconds late
2014-12-08 09:10:07,787 INFO     repeater     task nb300_lastensq ended after 2.1 seconds
2014-12-08 09:10:07,787 INFO     repeater     task nb300_lastensq: Time from /home/data/SP1411/proc/nb300/load/wrote_ens_time: 2014/12/08 09:09:53
2014-12-08 09:11:57,908 INFO     repeater     task nb300_beamplots starting 4.6 seconds late
2014-12-08 09:11:59,514 INFO     repeater     task nb300_beamplots output:
Starting procsetup

2014-12-08 09:11:59,514 INFO     repeater     task nb300_beamplots ended after 1.6 seconds
2014-12-08 09:11:59,515 INFO     repeater     task nb300_beamplots starting 6.2 seconds late
2014-12-08 09:12:01,254 INFO     repeater     task nb300_beamplots output:
Starting procsetup

2014-12-08 09:12:01,255 INFO     repeater     task nb300_beamplots ended after 1.7 seconds
2014-12-08 09:12:01,255 INFO     repeater     task ashtech_hcorrstats starting 8.0 seconds late
2014-12-08 09:12:02,184 INFO     repeater     task ashtech_hcorrstats ended after 0.9 seconds
2014-12-08 09:12:07,189 INFO     repeater     task nb300_lastensq starting 4.2 seconds late
2014-12-08 09:12:09,296 INFO     repeater     task nb300_lastensq ended after 2.1 seconds
2014-12-08 09:12:09,296 INFO     repeater     task nb300_lastensq: Time from /home/data/SP1411/proc/nb300/load/wrote_ens_time: 2014/12/08 09:11:53
2014-12-08 09:14:04,428 INFO     repeater     task nb300_lastensq starting 1.4 seconds late
2014-12-08 09:14:06,575 INFO     repeater     task nb300_lastensq ended after 2.1 seconds
2014-12-08 09:14:06,575 INFO     repeater     task nb300_lastensq: Time from /home/data/SP1411/proc/nb300/load/wrote_ens_time: 2014/12/08 09:13:53
2014-12-08 09:16:06,723 INFO     repeater     task nb300_lastensq starting 3.7 seconds late
2014-12-08 09:16:08,881 INFO     repeater     task nb300_lastensq ended after 2.2 seconds
2014-12-08 09:16:08,882 INFO     repeater     task nb300_lastensq: Time from /home/data/SP1411/proc/nb300/load/wrote_ens_time: 2014/12/08 09:15:53
2014-12-08 09:16:53,929 INFO     repeater     task ashtech_hcorrstats starting 0.7 seconds late
2014-12-08 09:16:54,871 INFO     repeater     task ashtech_hcorrstats ended after 0.9 seconds
2014-12-08 09:18:04,951 INFO     repeater     task nb300_lastensq starting 2.0 seconds late
2014-12-08 09:18:07,097 INFO     repeater     task nb300_lastensq ended after 2.1 seconds
2014-12-08 09:18:07,098 INFO     repeater     task nb300_lastensq: Time from /home/data/SP1411/proc/nb300/load/wrote_ens_time: 2014/12/08 09:17:53
2014-12-08 09:20:07,241 INFO     repeater     task nb300_lastensq starting 4.2 seconds late
2014-12-08 09:20:09,411 INFO     repeater     task nb300_lastensq ended after 2.2 seconds
2014-12-08 09:20:09,411 INFO     repeater     task nb300_lastensq: Time from /home/data/SP1411/proc/nb300/load/wrote_ens_time: 2014/12/08 09:19:53
2014-12-08 09:21:54,535 INFO     repeater     task nb300_beamplots starting 1.3 seconds late
2014-12-08 09:21:56,144 INFO     repeater     task nb300_beamplots output:
Starting procsetup

2014-12-08 09:21:56,144 INFO     repeater     task nb300_beamplots ended after 1.6 seconds
2014-12-08 09:21:56,144 INFO     repeater     task nb300_beamplots starting 2.9 seconds late
2014-12-08 09:21:57,878 INFO     repeater     task nb300_beamplots output:
Starting procsetup

2014-12-08 09:21:57,878 INFO     repeater     task nb300_beamplots ended after 1.7 seconds
2014-12-08 09:21:57,879 INFO     repeater     task ashtech_hcorrstats starting 4.6 seconds late
2014-12-08 09:21:58,814 INFO     repeater     task ashtech_hcorrstats ended after 0.9 seconds
2014-12-08 09:22:03,819 INFO     repeater     task nb300_lastensq starting 0.8 seconds late
2014-12-08 09:22:05,925 INFO     repeater     task nb300_lastensq ended after 2.1 seconds
2014-12-08 09:22:05,926 INFO     repeater     task nb300_lastensq: Time from /home/data/SP1411/proc/nb300/load/wrote_ens_time: 2014/12/08 09:21:53
2014-12-08 09:24:06,071 INFO     repeater     task nb300_lastensq starting 3.1 seconds late
2014-12-08 09:24:08,229 INFO     repeater     task nb300_lastensq ended after 2.2 seconds
2014-12-08 09:24:08,230 INFO     repeater     task nb300_lastensq: Time from /home/data/SP1411/proc/nb300/load/wrote_ens_time: 2014/12/08 09:23:53
2014-12-08 09:26:03,360 INFO     repeater     task nb300_lastensq starting 0.4 seconds late
2014-12-08 09:26:05,513 INFO     repeater     task nb300_lastensq ended after 2.2 seconds
2014-12-08 09:26:05,514 INFO     repeater     task nb300_lastensq: Time from /home/data/SP1411/proc/nb300/load/wrote_ens_time: 2014/12/08 09:25:53
2014-12-08 09:26:55,569 INFO     repeater     task ashtech_hcorrstats starting 2.3 seconds late
2014-12-08 09:26:56,508 INFO     repeater     task ashtech_hcorrstats ended after 0.9 seconds
2014-12-08 09:28:06,593 INFO     repeater     task nb300_lastensq starting 3.6 seconds late
2014-12-08 09:28:08,768 INFO     repeater     task nb300_lastensq ended after 2.2 seconds
2014-12-08 09:28:08,768 INFO     repeater     task nb300_lastensq: Time from /home/data/SP1411/proc/nb300/load/wrote_ens_time: 2014/12/08 09:27:53
2014-12-08 09:30:03,898 INFO     repeater     task nb300_lastensq starting 0.9 seconds late
2014-12-08 09:30:06,060 INFO     repeater     task nb300_lastensq ended after 2.2 seconds
2014-12-08 09:30:06,060 INFO     repeater     task nb300_lastensq: Time from /home/data/SP1411/proc/nb300/load/wrote_ens_time: 2014/12/08 09:29:53
2014-12-08 09:31:56,197 INFO     repeater     task nb300_quick starting 3.0 seconds late
2014-12-08 09:32:00,769 INFO     repeater     task nb300_quick ended after 4.6 seconds
2014-12-08 09:32:00,770 INFO     repeater     task nb300_3dayplots starting 7.5 seconds late
2014-12-08 09:32:05,939 INFO     repeater     task nb300_3dayplots ended after 5.2 seconds
2014-12-08 09:32:05,940 INFO     repeater     task nb300_beamplots starting 12.7 seconds late
2014-12-08 09:32:07,625 INFO     repeater     task nb300_beamplots output:
Starting procsetup

2014-12-08 09:32:07,625 INFO     repeater     task nb300_beamplots ended after 1.7 seconds
2014-12-08 09:32:07,626 INFO     repeater     task nb300_beamplots starting 14.4 seconds late
2014-12-08 09:32:09,286 INFO     repeater     task nb300_beamplots output:
Starting procsetup

2014-12-08 09:32:09,287 INFO     repeater     task nb300_beamplots ended after 1.7 seconds
2014-12-08 09:32:09,287 INFO     repeater     task ashtech_hcorrstats starting 16.0 seconds late
2014-12-08 09:32:10,215 INFO     repeater     task ashtech_hcorrstats ended after 0.9 seconds
2014-12-08 09:32:15,221 INFO     repeater     task nb300_lastensq starting 12.2 seconds late
2014-12-08 09:32:17,346 INFO     repeater     task nb300_lastensq ended after 2.1 seconds
2014-12-08 09:32:17,346 INFO     repeater     task nb300_lastensq: Time from /home/data/SP1411/proc/nb300/load/wrote_ens_time: 2014/12/08 09:31:53
2014-12-08 09:34:07,477 INFO     repeater     task nb300_lastensq starting 4.5 seconds late
2014-12-08 09:34:09,663 INFO     repeater     task nb300_lastensq ended after 2.2 seconds
2014-12-08 09:34:09,663 INFO     repeater     task nb300_lastensq: Time from /home/data/SP1411/proc/nb300/load/wrote_ens_time: 2014/12/08 09:33:53
2014-12-08 09:36:04,780 INFO     repeater     task nb300_lastensq starting 1.8 seconds late
2014-12-08 09:36:06,969 INFO     repeater     task nb300_lastensq ended after 2.2 seconds
2014-12-08 09:36:06,970 INFO     repeater     task nb300_lastensq: Time from /home/data/SP1411/proc/nb300/load/wrote_ens_time: 2014/12/08 09:35:53
2014-12-08 09:36:57,022 INFO     repeater     task ashtech_hcorrstats starting 3.7 seconds late
2014-12-08 09:36:57,968 INFO     repeater     task ashtech_hcorrstats ended after 0.9 seconds
2014-12-08 09:38:03,034 INFO     repeater     task nb300_lastensq starting 0.0 seconds late
2014-12-08 09:38:05,203 INFO     repeater     task nb300_lastensq ended after 2.2 seconds
2014-12-08 09:38:05,203 INFO     repeater     task nb300_lastensq: Time from /home/data/SP1411/proc/nb300/load/wrote_ens_time: 2014/12/08 09:37:53
2014-12-08 09:40:05,350 INFO     repeater     task nb300_lastensq starting 2.4 seconds late
2014-12-08 09:40:07,499 INFO     repeater     task nb300_lastensq ended after 2.1 seconds
2014-12-08 09:40:07,500 INFO     repeater     task nb300_lastensq: Time from /home/data/SP1411/proc/nb300/load/wrote_ens_time: 2014/12/08 09:39:53
2014-12-08 09:41:57,633 INFO     repeater     task nb300_beamplots starting 4.4 seconds late
2014-12-08 09:41:59,302 INFO     repeater     task nb300_beamplots output:
Starting procsetup

2014-12-08 09:41:59,302 INFO     repeater     task nb300_beamplots ended after 1.7 seconds
2014-12-08 09:41:59,303 INFO     repeater     task nb300_beamplots starting 6.0 seconds late
2014-12-08 09:42:00,923 INFO     repeater     task nb300_beamplots output:
Starting procsetup

2014-12-08 09:42:00,924 INFO     repeater     task nb300_beamplots ended after 1.6 seconds
2014-12-08 09:42:00,924 INFO     repeater     task ashtech_hcorrstats starting 7.6 seconds late
2014-12-08 09:42:01,850 INFO     repeater     task ashtech_hcorrstats ended after 0.9 seconds
2014-12-08 09:42:06,856 INFO     repeater     task nb300_lastensq starting 3.9 seconds late
2014-12-08 09:42:09,041 INFO     repeater     task nb300_lastensq ended after 2.2 seconds
2014-12-08 09:42:09,041 INFO     repeater     task nb300_lastensq: Time from /home/data/SP1411/proc/nb300/load/wrote_ens_time: 2014/12/08 09:41:53
2014-12-08 09:44:04,180 INFO     repeater     task nb300_lastensq starting 1.2 seconds late
2014-12-08 09:44:06,314 INFO     repeater     task nb300_lastensq ended after 2.1 seconds
2014-12-08 09:44:06,314 INFO     repeater     task nb300_lastensq: Time from /home/data/SP1411/proc/nb300/load/wrote_ens_time: 2014/12/08 09:43:53
2014-12-08 09:46:06,457 INFO     repeater     task nb300_lastensq starting 3.5 seconds late
2014-12-08 09:46:08,616 INFO     repeater     task nb300_lastensq ended after 2.2 seconds
2014-12-08 09:46:08,616 INFO     repeater     task nb300_lastensq: Time from /home/data/SP1411/proc/nb300/load/wrote_ens_time: 2014/12/08 09:45:53
2014-12-08 09:46:53,673 INFO     repeater     task ashtech_hcorrstats starting 0.4 seconds late
2014-12-08 09:46:54,599 INFO     repeater     task ashtech_hcorrstats ended after 0.9 seconds
2014-12-08 09:48:04,671 INFO     repeater     task nb300_lastensq starting 1.7 seconds late
2014-12-08 09:48:06,868 INFO     repeater     task nb300_lastensq ended after 2.2 seconds
2014-12-08 09:48:06,868 INFO     repeater     task nb300_lastensq: Time from /home/data/SP1411/proc/nb300/load/wrote_ens_time: 2014/12/08 09:47:53
2014-12-08 09:50:07,011 INFO     repeater     task nb300_lastensq starting 4.0 seconds late
2014-12-08 09:50:09,165 INFO     repeater     task nb300_lastensq ended after 2.2 seconds
2014-12-08 09:50:09,165 INFO     repeater     task nb300_lastensq: Time from /home/data/SP1411/proc/nb300/load/wrote_ens_time: 2014/12/08 09:49:53
2014-12-08 09:51:54,271 INFO     repeater     task nb300_beamplots starting 1.0 seconds late
2014-12-08 09:51:55,991 INFO     repeater     task nb300_beamplots output:
Starting procsetup

2014-12-08 09:51:55,991 INFO     repeater     task nb300_beamplots ended after 1.7 seconds
2014-12-08 09:51:55,991 INFO     repeater     task nb300_beamplots starting 2.7 seconds late
2014-12-08 09:51:57,632 INFO     repeater     task nb300_beamplots output:
Starting procsetup

2014-12-08 09:51:57,632 INFO     repeater     task nb300_beamplots ended after 1.6 seconds
2014-12-08 09:51:57,633 INFO     repeater     task ashtech_hcorrstats starting 4.4 seconds late
2014-12-08 09:51:58,574 INFO     repeater     task ashtech_hcorrstats ended after 0.9 seconds
2014-12-08 09:52:03,580 INFO     repeater     task nb300_lastensq starting 0.6 seconds late
2014-12-08 09:52:05,721 INFO     repeater     task nb300_lastensq ended after 2.1 seconds
2014-12-08 09:52:05,721 INFO     repeater     task nb300_lastensq: Time from /home/data/SP1411/proc/nb300/load/wrote_ens_time: 2014/12/08 09:51:53
2014-12-08 09:54:05,854 INFO     repeater     task nb300_lastensq starting 2.9 seconds late
2014-12-08 09:54:08,038 INFO     repeater     task nb300_lastensq ended after 2.2 seconds
2014-12-08 09:54:08,039 INFO     repeater     task nb300_lastensq: Time from /home/data/SP1411/proc/nb300/load/wrote_ens_time: 2014/12/08 09:53:53
2014-12-08 09:56:03,169 INFO     repeater     task nb300_lastensq starting 0.2 seconds late
2014-12-08 09:56:05,375 INFO     repeater     task nb300_lastensq ended after 2.2 seconds
2014-12-08 09:56:05,376 INFO     repeater     task nb300_lastensq: Time from /home/data/SP1411/proc/nb300/load/wrote_ens_time: 2014/12/08 09:55:53
2014-12-08 09:56:55,435 INFO     repeater     task ashtech_hcorrstats starting 2.2 seconds late
2014-12-08 09:56:56,389 INFO     repeater     task ashtech_hcorrstats ended after 1.0 seconds
2014-12-08 09:58:06,467 INFO     repeater     task nb300_lastensq starting 3.5 seconds late
2014-12-08 09:58:08,640 INFO     repeater     task nb300_lastensq ended after 2.2 seconds
2014-12-08 09:58:08,641 INFO     repeater     task nb300_lastensq: Time from /home/data/SP1411/proc/nb300/load/wrote_ens_time: 2014/12/08 09:57:53
2014-12-08 10:00:03,788 INFO     repeater     task nb300_lastensq starting 0.8 seconds late
2014-12-08 10:00:06,003 INFO     repeater     task nb300_lastensq ended after 2.2 seconds
2014-12-08 10:00:06,004 INFO     repeater     task nb300_lastensq: Time from /home/data/SP1411/proc/nb300/load/wrote_ens_time: 2014/12/08 09:59:53
2014-12-08 10:01:56,128 INFO     repeater     task nb300_quick starting 2.9 seconds late
2014-12-08 10:02:00,710 INFO     repeater     task nb300_quick ended after 4.6 seconds
2014-12-08 10:02:00,711 INFO     repeater     task nb300_3dayplots starting 7.5 seconds late
2014-12-08 10:02:05,834 INFO     repeater     task nb300_3dayplots ended after 5.1 seconds
2014-12-08 10:02:05,835 INFO     repeater     task nb300_beamplots starting 12.6 seconds late
2014-12-08 10:02:07,507 INFO     repeater     task nb300_beamplots output:
Starting procsetup

2014-12-08 10:02:07,508 INFO     repeater     task nb300_beamplots ended after 1.7 seconds
2014-12-08 10:02:07,508 INFO     repeater     task nb300_beamplots starting 14.2 seconds late
2014-12-08 10:02:09,217 INFO     repeater     task nb300_beamplots output:
Starting procsetup

2014-12-08 10:02:09,217 INFO     repeater     task nb300_beamplots ended after 1.7 seconds
2014-12-08 10:02:09,217 INFO     repeater     task ashtech_hcorrstats starting 15.9 seconds late
2014-12-08 10:02:10,140 INFO     repeater     task ashtech_hcorrstats ended after 0.9 seconds
2014-12-08 10:02:15,146 INFO     repeater     task nb300_lastensq starting 12.1 seconds late
2014-12-08 10:02:17,269 INFO     repeater     task nb300_lastensq ended after 2.1 seconds
2014-12-08 10:02:17,269 INFO     repeater     task nb300_lastensq: Time from /home/data/SP1411/proc/nb300/load/wrote_ens_time: 2014/12/08 10:01:53
2014-12-08 10:04:07,393 INFO     repeater     task nb300_lastensq starting 4.4 seconds late
2014-12-08 10:04:09,508 INFO     repeater     task nb300_lastensq ended after 2.1 seconds
2014-12-08 10:04:09,509 INFO     repeater     task nb300_lastensq: Time from /home/data/SP1411/proc/nb300/load/wrote_ens_time: 2014/12/08 10:03:53
2014-12-08 10:06:04,635 INFO     repeater     task nb300_lastensq starting 1.6 seconds late
2014-12-08 10:06:06,688 INFO     repeater     task nb300_lastensq ended after 2.1 seconds
2014-12-08 10:06:06,689 INFO     repeater     task nb300_lastensq: Time from /home/data/SP1411/proc/nb300/load/wrote_ens_time: 2014/12/08 10:05:53
2014-12-08 10:06:56,749 INFO     repeater     task ashtech_hcorrstats starting 3.5 seconds late
2014-12-08 10:06:57,682 INFO     repeater     task ashtech_hcorrstats ended after 0.9 seconds
2014-12-08 10:08:07,757 INFO     repeater     task nb300_lastensq starting 4.8 seconds late
2014-12-08 10:08:09,874 INFO     repeater     task nb300_lastensq ended after 2.1 seconds
2014-12-08 10:08:09,874 INFO     repeater     task nb300_lastensq: Time from /home/data/SP1411/proc/nb300/load/wrote_ens_time: 2014/12/08 10:07:53
2014-12-08 10:10:05,017 INFO     repeater     task nb300_lastensq starting 2.0 seconds late
2014-12-08 10:10:07,134 INFO     repeater     task nb300_lastensq ended after 2.1 seconds
2014-12-08 10:10:07,134 INFO     repeater     task nb300_lastensq: Time from /home/data/SP1411/proc/nb300/load/wrote_ens_time: 2014/12/08 10:09:53
2014-12-08 10:11:57,255 INFO     repeater     task nb300_beamplots starting 4.0 seconds late
2014-12-08 10:11:58,823 INFO     repeater     task nb300_beamplots output:
Starting procsetup

2014-12-08 10:11:58,823 INFO     repeater     task nb300_beamplots ended after 1.6 seconds
2014-12-08 10:11:58,824 INFO     repeater     task nb300_beamplots starting 5.6 seconds late
2014-12-08 10:12:00,551 INFO     repeater     task nb300_beamplots output:
Starting procsetup

2014-12-08 10:12:00,552 INFO     repeater     task nb300_beamplots ended after 1.7 seconds
2014-12-08 10:12:00,552 INFO     repeater     task ashtech_hcorrstats starting 7.3 seconds late
2014-12-08 10:12:01,487 INFO     repeater     task ashtech_hcorrstats ended after 0.9 seconds
2014-12-08 10:12:06,491 INFO     repeater     task nb300_lastensq starting 3.5 seconds late
2014-12-08 10:12:08,558 INFO     repeater     task nb300_lastensq ended after 2.1 seconds
2014-12-08 10:12:08,558 INFO     repeater     task nb300_lastensq: Time from /home/data/SP1411/proc/nb300/load/wrote_ens_time: 2014/12/08 10:11:53
2014-12-08 10:14:03,691 INFO     repeater     task nb300_lastensq starting 0.7 seconds late
2014-12-08 10:14:05,824 INFO     repeater     task nb300_lastensq ended after 2.1 seconds
2014-12-08 10:14:05,825 INFO     repeater     task nb300_lastensq: Time from /home/data/SP1411/proc/nb300/load/wrote_ens_time: 2014/12/08 10:13:53
2014-12-08 10:16:05,958 INFO     repeater     task nb300_lastensq starting 3.0 seconds late
2014-12-08 10:16:08,081 INFO     repeater     task nb300_lastensq ended after 2.1 seconds
2014-12-08 10:16:08,082 INFO     repeater     task nb300_lastensq: Time from /home/data/SP1411/proc/nb300/load/wrote_ens_time: 2014/12/08 10:15:53
2014-12-08 10:16:58,143 INFO     repeater     task ashtech_hcorrstats starting 4.9 seconds late
2014-12-08 10:16:59,070 INFO     repeater     task ashtech_hcorrstats ended after 0.9 seconds
2014-12-08 10:18:04,145 INFO     repeater     task nb300_lastensq starting 1.1 seconds late
2014-12-08 10:18:06,217 INFO     repeater     task nb300_lastensq ended after 2.1 seconds
2014-12-08 10:18:06,218 INFO     repeater     task nb300_lastensq: Time from /home/data/SP1411/proc/nb300/load/wrote_ens_time: 2014/12/08 10:17:53
2014-12-08 10:20:06,348 INFO     repeater     task nb300_lastensq starting 3.3 seconds late
2014-12-08 10:20:08,454 INFO     repeater     task nb300_lastensq ended after 2.1 seconds
2014-12-08 10:20:08,454 INFO     repeater     task nb300_lastensq: Time from /home/data/SP1411/proc/nb300/load/wrote_ens_time: 2014/12/08 10:19:53
2014-12-08 10:21:53,569 INFO     repeater     task nb300_beamplots starting 0.3 seconds late
2014-12-08 10:21:55,144 INFO     repeater     task nb300_beamplots output:
Starting procsetup

2014-12-08 10:21:55,145 INFO     repeater     task nb300_beamplots ended after 1.6 seconds
2014-12-08 10:21:55,145 INFO     repeater     task nb300_beamplots starting 1.9 seconds late
2014-12-08 10:21:56,847 INFO     repeater     task nb300_beamplots output:
Starting procsetup

2014-12-08 10:21:56,848 INFO     repeater     task nb300_beamplots ended after 1.7 seconds
2014-12-08 10:21:56,848 INFO     repeater     task ashtech_hcorrstats starting 3.6 seconds late
2014-12-08 10:21:57,771 INFO     repeater     task ashtech_hcorrstats ended after 0.9 seconds
2014-12-08 10:22:07,781 INFO     repeater     task nb300_lastensq starting 4.8 seconds late
2014-12-08 10:22:09,913 INFO     repeater     task nb300_lastensq ended after 2.1 seconds
2014-12-08 10:22:09,913 INFO     repeater     task nb300_lastensq: Time from /home/data/SP1411/proc/nb300/load/wrote_ens_time: 2014/12/08 10:21:53
2014-12-08 10:24:05,041 INFO     repeater     task nb300_lastensq starting 2.0 seconds late
2014-12-08 10:24:07,121 INFO     repeater     task nb300_lastensq ended after 2.1 seconds
2014-12-08 10:24:07,121 INFO     repeater     task nb300_lastensq: Time from /home/data/SP1411/proc/nb300/load/wrote_ens_time: 2014/12/08 10:23:53
2014-12-08 10:26:07,260 INFO     repeater     task nb300_lastensq starting 4.3 seconds late
2014-12-08 10:26:09,413 INFO     repeater     task nb300_lastensq ended after 2.2 seconds
2014-12-08 10:26:09,413 INFO     repeater     task nb300_lastensq: Time from /home/data/SP1411/proc/nb300/load/wrote_ens_time: 2014/12/08 10:25:53
2014-12-08 10:26:54,462 INFO     repeater     task ashtech_hcorrstats starting 1.2 seconds late
2014-12-08 10:26:55,387 INFO     repeater     task ashtech_hcorrstats ended after 0.9 seconds
2014-12-08 10:28:05,470 INFO     repeater     task nb300_lastensq starting 2.5 seconds late
2014-12-08 10:28:07,605 INFO     repeater     task nb300_lastensq ended after 2.1 seconds
2014-12-08 10:28:07,605 INFO     repeater     task nb300_lastensq: Time from /home/data/SP1411/proc/nb300/load/wrote_ens_time: 2014/12/08 10:27:53
2014-12-08 10:30:07,761 INFO     repeater     task nb300_lastensq starting 4.8 seconds late
2014-12-08 10:30:09,885 INFO     repeater     task nb300_lastensq ended after 2.1 seconds
2014-12-08 10:30:09,885 INFO     repeater     task nb300_lastensq: Time from /home/data/SP1411/proc/nb300/load/wrote_ens_time: 2014/12/08 10:29:53
2014-12-08 10:31:55,014 INFO     repeater     task nb300_quick starting 1.8 seconds late
2014-12-08 10:31:59,646 INFO     repeater     task nb300_quick ended after 4.6 seconds
2014-12-08 10:31:59,647 INFO     repeater     task nb300_3dayplots starting 6.4 seconds late
2014-12-08 10:32:04,757 INFO     repeater     task nb300_3dayplots ended after 5.1 seconds
2014-12-08 10:32:04,757 INFO     repeater     task nb300_beamplots starting 11.5 seconds late
2014-12-08 10:32:06,421 INFO     repeater     task nb300_beamplots output:
Starting procsetup

2014-12-08 10:32:06,421 INFO     repeater     task nb300_beamplots ended after 1.7 seconds
2014-12-08 10:32:06,421 INFO     repeater     task nb300_beamplots starting 13.1 seconds late
2014-12-08 10:32:08,147 INFO     repeater     task nb300_beamplots output:
Starting procsetup

2014-12-08 10:32:08,153 INFO     repeater     task nb300_beamplots ended after 1.7 seconds
2014-12-08 10:32:08,154 INFO     repeater     task ashtech_hcorrstats starting 14.9 seconds late
2014-12-08 10:32:09,089 INFO     repeater     task ashtech_hcorrstats ended after 0.9 seconds
2014-12-08 10:32:14,091 INFO     repeater     task nb300_lastensq starting 11.1 seconds late
2014-12-08 10:32:16,190 INFO     repeater     task nb300_lastensq ended after 2.1 seconds
2014-12-08 10:32:16,191 INFO     repeater     task nb300_lastensq: Time from /home/data/SP1411/proc/nb300/load/wrote_ens_time: 2014/12/08 10:31:53
2014-12-08 10:34:06,318 INFO     repeater     task nb300_lastensq starting 3.3 seconds late
2014-12-08 10:34:08,396 INFO     repeater     task nb300_lastensq ended after 2.1 seconds
2014-12-08 10:34:08,396 INFO     repeater     task nb300_lastensq: Time from /home/data/SP1411/proc/nb300/load/wrote_ens_time: 2014/12/08 10:33:53
2014-12-08 10:36:03,544 INFO     repeater     task nb300_lastensq starting 0.5 seconds late
2014-12-08 10:36:05,624 INFO     repeater     task nb300_lastensq ended after 2.1 seconds
2014-12-08 10:36:05,624 INFO     repeater     task nb300_lastensq: Time from /home/data/SP1411/proc/nb300/load/wrote_ens_time: 2014/12/08 10:35:53
2014-12-08 10:36:55,688 INFO     repeater     task ashtech_hcorrstats starting 2.4 seconds late
2014-12-08 10:36:56,610 INFO     repeater     task ashtech_hcorrstats ended after 0.9 seconds
2014-12-08 10:38:06,698 INFO     repeater     task nb300_lastensq starting 3.7 seconds late
2014-12-08 10:38:08,846 INFO     repeater     task nb300_lastensq ended after 2.1 seconds
2014-12-08 10:38:08,847 INFO     repeater     task nb300_lastensq: Time from /home/data/SP1411/proc/nb300/load/wrote_ens_time: 2014/12/08 10:37:53
2014-12-08 10:40:03,978 INFO     repeater     task nb300_lastensq starting 1.0 seconds late
2014-12-08 10:40:06,083 INFO     repeater     task nb300_lastensq ended after 2.1 seconds
2014-12-08 10:40:06,084 INFO     repeater     task nb300_lastensq: Time from /home/data/SP1411/proc/nb300/load/wrote_ens_time: 2014/12/08 10:39:53
2014-12-08 10:41:56,219 INFO     repeater     task nb300_beamplots starting 2.9 seconds late
2014-12-08 10:41:57,908 INFO     repeater     task nb300_beamplots output:
Starting procsetup

2014-12-08 10:41:57,908 INFO     repeater     task nb300_beamplots ended after 1.7 seconds
2014-12-08 10:41:57,909 INFO     repeater     task nb300_beamplots starting 4.6 seconds late
2014-12-08 10:41:59,638 INFO     repeater     task nb300_beamplots output:
Starting procsetup

2014-12-08 10:41:59,638 INFO     repeater     task nb300_beamplots ended after 1.7 seconds
2014-12-08 10:41:59,639 INFO     repeater     task ashtech_hcorrstats starting 6.4 seconds late
2014-12-08 10:42:00,572 INFO     repeater     task ashtech_hcorrstats ended after 0.9 seconds
2014-12-08 10:42:05,578 INFO     repeater     task nb300_lastensq starting 2.6 seconds late
2014-12-08 10:42:07,659 INFO     repeater     task nb300_lastensq ended after 2.1 seconds
2014-12-08 10:42:07,660 INFO     repeater     task nb300_lastensq: Time from /home/data/SP1411/proc/nb300/load/wrote_ens_time: 2014/12/08 10:41:53
2014-12-08 10:44:07,804 INFO     repeater     task nb300_lastensq starting 4.8 seconds late
2014-12-08 10:44:09,957 INFO     repeater     task nb300_lastensq ended after 2.2 seconds
2014-12-08 10:44:09,958 INFO     repeater     task nb300_lastensq: Time from /home/data/SP1411/proc/nb300/load/wrote_ens_time: 2014/12/08 10:43:53
2014-12-08 10:46:05,088 INFO     repeater     task nb300_lastensq starting 2.1 seconds late
2014-12-08 10:46:07,228 INFO     repeater     task nb300_lastensq ended after 2.1 seconds
2014-12-08 10:46:07,228 INFO     repeater     task nb300_lastensq: Time from /home/data/SP1411/proc/nb300/load/wrote_ens_time: 2014/12/08 10:45:53
2014-12-08 10:46:57,282 INFO     repeater     task ashtech_hcorrstats starting 4.0 seconds late
2014-12-08 10:46:58,216 INFO     repeater     task ashtech_hcorrstats ended after 0.9 seconds
2014-12-08 10:48:03,281 INFO     repeater     task nb300_lastensq starting 0.3 seconds late
2014-12-08 10:48:05,389 INFO     repeater     task nb300_lastensq ended after 2.1 seconds
2014-12-08 10:48:05,390 INFO     repeater     task nb300_lastensq: Time from /home/data/SP1411/proc/nb300/load/wrote_ens_time: 2014/12/08 10:47:53
2014-12-08 10:50:05,521 INFO     repeater     task nb300_lastensq starting 2.5 seconds late
2014-12-08 10:50:07,703 INFO     repeater     task nb300_lastensq ended after 2.2 seconds
2014-12-08 10:50:07,703 INFO     repeater     task nb300_lastensq: Time from /home/data/SP1411/proc/nb300/load/wrote_ens_time: 2014/12/08 10:49:53
2014-12-08 10:51:57,830 INFO     repeater     task nb300_beamplots starting 4.6 seconds late
2014-12-08 10:51:59,487 INFO     repeater     task nb300_beamplots output:
Starting procsetup

2014-12-08 10:51:59,488 INFO     repeater     task nb300_beamplots ended after 1.7 seconds
2014-12-08 10:51:59,488 INFO     repeater     task nb300_beamplots starting 6.2 seconds late
2014-12-08 10:52:01,186 INFO     repeater     task nb300_beamplots output:
Starting procsetup

2014-12-08 10:52:01,186 INFO     repeater     task nb300_beamplots ended after 1.7 seconds
2014-12-08 10:52:01,186 INFO     repeater     task ashtech_hcorrstats starting 7.9 seconds late
2014-12-08 10:52:02,126 INFO     repeater     task ashtech_hcorrstats ended after 0.9 seconds
2014-12-08 10:52:07,131 INFO     repeater     task nb300_lastensq starting 4.1 seconds late
2014-12-08 10:52:09,216 INFO     repeater     task nb300_lastensq ended after 2.1 seconds
2014-12-08 10:52:09,217 INFO     repeater     task nb300_lastensq: Time from /home/data/SP1411/proc/nb300/load/wrote_ens_time: 2014/12/08 10:51:53
2014-12-08 10:54:04,351 INFO     repeater     task nb300_lastensq starting 1.4 seconds late
2014-12-08 10:54:06,489 INFO     repeater     task nb300_lastensq ended after 2.1 seconds
2014-12-08 10:54:06,490 INFO     repeater     task nb300_lastensq: Time from /home/data/SP1411/proc/nb300/load/wrote_ens_time: 2014/12/08 10:53:53
2014-12-08 10:56:06,628 INFO     repeater     task nb300_lastensq starting 3.6 seconds late
2014-12-08 10:56:08,733 INFO     repeater     task nb300_lastensq ended after 2.1 seconds
2014-12-08 10:56:08,733 INFO     repeater     task nb300_lastensq: Time from /home/data/SP1411/proc/nb300/load/wrote_ens_time: 2014/12/08 10:55:53
2014-12-08 10:56:53,783 INFO     repeater     task ashtech_hcorrstats starting 0.5 seconds late
2014-12-08 10:56:54,731 INFO     repeater     task ashtech_hcorrstats ended after 0.9 seconds
2014-12-08 10:58:04,809 INFO     repeater     task nb300_lastensq starting 1.8 seconds late
2014-12-08 10:58:06,904 INFO     repeater     task nb300_lastensq ended after 2.1 seconds
2014-12-08 10:58:06,904 INFO     repeater     task nb300_lastensq: Time from /home/data/SP1411/proc/nb300/load/wrote_ens_time: 2014/12/08 10:57:53
2014-12-08 11:00:07,047 INFO     repeater     task nb300_lastensq starting 4.0 seconds late
2014-12-08 11:00:09,204 INFO     repeater     task nb300_lastensq ended after 2.2 seconds
2014-12-08 11:00:09,204 INFO     repeater     task nb300_lastensq: Time from /home/data/SP1411/proc/nb300/load/wrote_ens_time: 2014/12/08 10:59:53
2014-12-08 11:01:54,328 INFO     repeater     task nb300_quick starting 1.1 seconds late
2014-12-08 11:01:58,956 INFO     repeater     task nb300_quick ended after 4.6 seconds
2014-12-08 11:01:58,956 INFO     repeater     task nb300_3dayplots starting 5.7 seconds late
2014-12-08 11:02:04,186 INFO     repeater     task nb300_3dayplots ended after 5.2 seconds
2014-12-08 11:02:04,187 INFO     repeater     task nb300_beamplots starting 10.9 seconds late
2014-12-08 11:02:05,747 INFO     repeater     task nb300_beamplots output:
Starting procsetup

2014-12-08 11:02:05,748 INFO     repeater     task nb300_beamplots ended after 1.6 seconds
2014-12-08 11:02:05,748 INFO     repeater     task nb300_beamplots starting 12.5 seconds late
2014-12-08 11:02:07,448 INFO     repeater     task nb300_beamplots output:
Starting procsetup

2014-12-08 11:02:07,448 INFO     repeater     task nb300_beamplots ended after 1.7 seconds
2014-12-08 11:02:07,449 INFO     repeater     task ashtech_hcorrstats starting 14.2 seconds late
2014-12-08 11:02:08,344 INFO     repeater     task ashtech_hcorrstats ended after 0.9 seconds
2014-12-08 11:02:13,350 INFO     repeater     task nb300_lastensq starting 10.4 seconds late
2014-12-08 11:02:15,509 INFO     repeater     task nb300_lastensq ended after 2.2 seconds
2014-12-08 11:02:15,509 INFO     repeater     task nb300_lastensq: Time from /home/data/SP1411/proc/nb300/load/wrote_ens_time: 2014/12/08 11:01:53
2014-12-08 11:04:05,631 INFO     repeater     task nb300_lastensq starting 2.6 seconds late
2014-12-08 11:04:07,727 INFO     repeater     task nb300_lastensq ended after 2.1 seconds
2014-12-08 11:04:07,727 INFO     repeater     task nb300_lastensq: Time from /home/data/SP1411/proc/nb300/load/wrote_ens_time: 2014/12/08 11:03:53
2014-12-08 11:06:07,868 INFO     repeater     task nb300_lastensq starting 4.9 seconds late
2014-12-08 11:06:09,959 INFO     repeater     task nb300_lastensq ended after 2.1 seconds
2014-12-08 11:06:09,960 INFO     repeater     task nb300_lastensq: Time from /home/data/SP1411/proc/nb300/load/wrote_ens_time: 2014/12/08 11:05:53
2014-12-08 11:06:55,021 INFO     repeater     task ashtech_hcorrstats starting 1.7 seconds late
2014-12-08 11:06:55,931 INFO     repeater     task ashtech_hcorrstats ended after 0.9 seconds
2014-12-08 11:08:06,007 INFO     repeater     task nb300_lastensq starting 3.0 seconds late
2014-12-08 11:08:08,144 INFO     repeater     task nb300_lastensq ended after 2.1 seconds
2014-12-08 11:08:08,145 INFO     repeater     task nb300_lastensq: Time from /home/data/SP1411/proc/nb300/load/wrote_ens_time: 2014/12/08 11:07:53
2014-12-08 11:10:03,284 INFO     repeater     task nb300_lastensq starting 0.3 seconds late
2014-12-08 11:10:05,420 INFO     repeater     task nb300_lastensq ended after 2.1 seconds
2014-12-08 11:10:05,421 INFO     repeater     task nb300_lastensq: Time from /home/data/SP1411/proc/nb300/load/wrote_ens_time: 2014/12/08 11:09:53
2014-12-08 11:11:55,541 INFO     repeater     task nb300_beamplots starting 2.3 seconds late
2014-12-08 11:11:57,242 INFO     repeater     task nb300_beamplots output:
Starting procsetup

2014-12-08 11:11:57,242 INFO     repeater     task nb300_beamplots ended after 1.7 seconds
2014-12-08 11:11:57,242 INFO     repeater     task nb300_beamplots starting 4.0 seconds late
2014-12-08 11:11:58,876 INFO     repeater     task nb300_beamplots output:
Starting procsetup

2014-12-08 11:11:58,876 INFO     repeater     task nb300_beamplots ended after 1.6 seconds
2014-12-08 11:11:58,877 INFO     repeater     task ashtech_hcorrstats starting 5.6 seconds late
2014-12-08 11:11:59,782 INFO     repeater     task ashtech_hcorrstats ended after 0.9 seconds
2014-12-08 11:12:04,788 INFO     repeater     task nb300_lastensq starting 1.8 seconds late
2014-12-08 11:12:06,939 INFO     repeater     task nb300_lastensq ended after 2.2 seconds
2014-12-08 11:12:06,939 INFO     repeater     task nb300_lastensq: Time from /home/data/SP1411/proc/nb300/load/wrote_ens_time: 2014/12/08 11:11:53
2014-12-08 11:14:07,071 INFO     repeater     task nb300_lastensq starting 4.1 seconds late
2014-12-08 11:14:09,186 INFO     repeater     task nb300_lastensq ended after 2.1 seconds
2014-12-08 11:14:09,186 INFO     repeater     task nb300_lastensq: Time from /home/data/SP1411/proc/nb300/load/wrote_ens_time: 2014/12/08 11:13:53
2014-12-08 11:16:04,318 INFO     repeater     task nb300_lastensq starting 1.3 seconds late
2014-12-08 11:16:06,468 INFO     repeater     task nb300_lastensq ended after 2.2 seconds
2014-12-08 11:16:06,469 INFO     repeater     task nb300_lastensq: Time from /home/data/SP1411/proc/nb300/load/wrote_ens_time: 2014/12/08 11:15:53
2014-12-08 11:16:56,526 INFO     repeater     task ashtech_hcorrstats starting 3.3 seconds late
2014-12-08 11:16:57,436 INFO     repeater     task ashtech_hcorrstats ended after 0.9 seconds
2014-12-08 11:18:07,522 INFO     repeater     task nb300_lastensq starting 4.5 seconds late
2014-12-08 11:18:09,638 INFO     repeater     task nb300_lastensq ended after 2.1 seconds
2014-12-08 11:18:09,639 INFO     repeater     task nb300_lastensq: Time from /home/data/SP1411/proc/nb300/load/wrote_ens_time: 2014/12/08 11:17:53
2014-12-08 11:20:04,780 INFO     repeater     task nb300_lastensq starting 1.8 seconds late
2014-12-08 11:20:06,945 INFO     repeater     task nb300_lastensq ended after 2.2 seconds
2014-12-08 11:20:06,946 INFO     repeater     task nb300_lastensq: Time from /home/data/SP1411/proc/nb300/load/wrote_ens_time: 2014/12/08 11:19:53
2014-12-08 11:21:57,069 INFO     repeater     task nb300_beamplots starting 3.8 seconds late
2014-12-08 11:21:58,755 INFO     repeater     task nb300_beamplots output:
Starting procsetup

2014-12-08 11:21:58,756 INFO     repeater     task nb300_beamplots ended after 1.7 seconds
2014-12-08 11:21:58,756 INFO     repeater     task nb300_beamplots starting 5.5 seconds late
2014-12-08 11:22:00,408 INFO     repeater     task nb300_beamplots output:
Starting procsetup

2014-12-08 11:22:00,408 INFO     repeater     task nb300_beamplots ended after 1.7 seconds
2014-12-08 11:22:00,408 INFO     repeater     task ashtech_hcorrstats starting 7.1 seconds late
2014-12-08 11:22:01,308 INFO     repeater     task ashtech_hcorrstats ended after 0.9 seconds
2014-12-08 11:22:06,314 INFO     repeater     task nb300_lastensq starting 3.3 seconds late
2014-12-08 11:22:08,418 INFO     repeater     task nb300_lastensq ended after 2.1 seconds
2014-12-08 11:22:08,422 INFO     repeater     task nb300_lastensq: Time from /home/data/SP1411/proc/nb300/load/wrote_ens_time: 2014/12/08 11:21:53
2014-12-08 11:24:03,568 INFO     repeater     task nb300_lastensq starting 0.6 seconds late
2014-12-08 11:24:05,762 INFO     repeater     task nb300_lastensq ended after 2.2 seconds
2014-12-08 11:24:05,762 INFO     repeater     task nb300_lastensq: Time from /home/data/SP1411/proc/nb300/load/wrote_ens_time: 2014/12/08 11:23:53
2014-12-08 11:26:05,900 INFO     repeater     task nb300_lastensq starting 2.9 seconds late
2014-12-08 11:26:08,013 INFO     repeater     task nb300_lastensq ended after 2.1 seconds
2014-12-08 11:26:08,014 INFO     repeater     task nb300_lastensq: Time from /home/data/SP1411/proc/nb300/load/wrote_ens_time: 2014/12/08 11:25:53
2014-12-08 11:26:58,072 INFO     repeater     task ashtech_hcorrstats starting 4.8 seconds late
2014-12-08 11:26:58,982 INFO     repeater     task ashtech_hcorrstats ended after 0.9 seconds
2014-12-08 11:28:04,054 INFO     repeater     task nb300_lastensq starting 1.1 seconds late
2014-12-08 11:28:06,173 INFO     repeater     task nb300_lastensq ended after 2.1 seconds
2014-12-08 11:28:06,173 INFO     repeater     task nb300_lastensq: Time from /home/data/SP1411/proc/nb300/load/wrote_ens_time: 2014/12/08 11:27:53
2014-12-08 11:30:06,321 INFO     repeater     task nb300_lastensq starting 3.3 seconds late
2014-12-08 11:30:08,447 INFO     repeater     task nb300_lastensq ended after 2.1 seconds
2014-12-08 11:30:08,448 INFO     repeater     task nb300_lastensq: Time from /home/data/SP1411/proc/nb300/load/wrote_ens_time: 2014/12/08 11:29:53
2014-12-08 11:31:53,566 INFO     repeater     task nb300_quick starting 0.3 seconds late
2014-12-08 11:31:58,233 INFO     repeater     task nb300_quick ended after 4.7 seconds
2014-12-08 11:31:58,234 INFO     repeater     task nb300_3dayplots starting 5.0 seconds late
2014-12-08 11:32:03,486 INFO     repeater     task nb300_3dayplots ended after 5.3 seconds
2014-12-08 11:32:03,486 INFO     repeater     task nb300_beamplots starting 10.2 seconds late
2014-12-08 11:32:05,140 INFO     repeater     task nb300_beamplots output:
Starting procsetup

2014-12-08 11:32:05,140 INFO     repeater     task nb300_beamplots ended after 1.7 seconds
2014-12-08 11:32:05,141 INFO     repeater     task nb300_beamplots starting 11.9 seconds late
2014-12-08 11:32:06,759 INFO     repeater     task nb300_beamplots output:
Starting procsetup

2014-12-08 11:32:06,759 INFO     repeater     task nb300_beamplots ended after 1.6 seconds
2014-12-08 11:32:06,759 INFO     repeater     task ashtech_hcorrstats starting 13.5 seconds late
2014-12-08 11:32:07,661 INFO     repeater     task ashtech_hcorrstats ended after 0.9 seconds
2014-12-08 11:32:12,664 INFO     repeater     task nb300_lastensq starting 9.7 seconds late
2014-12-08 11:32:14,843 INFO     repeater     task nb300_lastensq ended after 2.2 seconds
2014-12-08 11:32:14,844 INFO     repeater     task nb300_lastensq: Time from /home/data/SP1411/proc/nb300/load/wrote_ens_time: 2014/12/08 11:31:53
2014-12-08 11:34:04,974 INFO     repeater     task nb300_lastensq starting 2.0 seconds late
2014-12-08 11:34:07,141 INFO     repeater     task nb300_lastensq ended after 2.2 seconds
2014-12-08 11:34:07,141 INFO     repeater     task nb300_lastensq: Time from /home/data/SP1411/proc/nb300/load/wrote_ens_time: 2014/12/08 11:33:53
2014-12-08 11:36:07,284 INFO     repeater     task nb300_lastensq starting 4.3 seconds late
2014-12-08 11:36:09,464 INFO     repeater     task nb300_lastensq ended after 2.2 seconds
2014-12-08 11:36:09,464 INFO     repeater     task nb300_lastensq: Time from /home/data/SP1411/proc/nb300/load/wrote_ens_time: 2014/12/08 11:35:53
2014-12-08 11:36:54,509 INFO     repeater     task ashtech_hcorrstats starting 1.2 seconds late
2014-12-08 11:36:55,417 INFO     repeater     task ashtech_hcorrstats ended after 0.9 seconds
2014-12-08 11:38:05,497 INFO     repeater     task nb300_lastensq starting 2.5 seconds late
2014-12-08 11:38:07,715 INFO     repeater     task nb300_lastensq ended after 2.2 seconds
2014-12-08 11:38:07,715 INFO     repeater     task nb300_lastensq: Time from /home/data/SP1411/proc/nb300/load/wrote_ens_time: 2014/12/08 11:37:53
2014-12-08 11:40:07,861 INFO     repeater     task nb300_lastensq starting 4.9 seconds late
2014-12-08 11:40:10,006 INFO     repeater     task nb300_lastensq ended after 2.1 seconds
2014-12-08 11:40:10,007 INFO     repeater     task nb300_lastensq: Time from /home/data/SP1411/proc/nb300/load/wrote_ens_time: 2014/12/08 11:39:53
2014-12-08 11:41:55,128 INFO     repeater     task nb300_beamplots starting 1.9 seconds late
2014-12-08 11:41:56,814 INFO     repeater     task nb300_beamplots output:
Starting procsetup

2014-12-08 11:41:56,814 INFO     repeater     task nb300_beamplots ended after 1.7 seconds
2014-12-08 11:41:56,814 INFO     repeater     task nb300_beamplots starting 3.5 seconds late
2014-12-08 11:41:58,520 INFO     repeater     task nb300_beamplots output:
Starting procsetup

2014-12-08 11:41:58,521 INFO     repeater     task nb300_beamplots ended after 1.7 seconds
2014-12-08 11:41:58,521 INFO     repeater     task ashtech_hcorrstats starting 5.2 seconds late
2014-12-08 11:41:59,413 INFO     repeater     task ashtech_hcorrstats ended after 0.9 seconds
2014-12-08 11:42:04,419 INFO     repeater     task nb300_lastensq starting 1.4 seconds late
2014-12-08 11:42:06,606 INFO     repeater     task nb300_lastensq ended after 2.2 seconds
2014-12-08 11:42:06,611 INFO     repeater     task nb300_lastensq: Time from /home/data/SP1411/proc/nb300/load/wrote_ens_time: 2014/12/08 11:41:53
2014-12-08 11:44:06,751 INFO     repeater     task nb300_lastensq starting 3.8 seconds late
2014-12-08 11:44:08,907 INFO     repeater     task nb300_lastensq ended after 2.2 seconds
2014-12-08 11:44:08,908 INFO     repeater     task nb300_lastensq: Time from /home/data/SP1411/proc/nb300/load/wrote_ens_time: 2014/12/08 11:43:53
2014-12-08 11:46:04,034 INFO     repeater     task nb300_lastensq starting 1.0 seconds late
2014-12-08 11:46:06,211 INFO     repeater     task nb300_lastensq ended after 2.2 seconds
2014-12-08 11:46:06,211 INFO     repeater     task nb300_lastensq: Time from /home/data/SP1411/proc/nb300/load/wrote_ens_time: 2014/12/08 11:45:53
2014-12-08 11:46:56,276 INFO     repeater     task ashtech_hcorrstats starting 3.0 seconds late
2014-12-08 11:46:57,192 INFO     repeater     task ashtech_hcorrstats ended after 0.9 seconds
2014-12-08 11:48:07,261 INFO     repeater     task nb300_lastensq starting 4.3 seconds late
2014-12-08 11:48:09,394 INFO     repeater     task nb300_lastensq ended after 2.1 seconds
2014-12-08 11:48:09,394 INFO     repeater     task nb300_lastensq: Time from /home/data/SP1411/proc/nb300/load/wrote_ens_time: 2014/12/08 11:47:53
2014-12-08 11:50:04,535 INFO     repeater     task nb300_lastensq starting 1.5 seconds late
2014-12-08 11:50:06,727 INFO     repeater     task nb300_lastensq ended after 2.2 seconds
2014-12-08 11:50:06,728 INFO     repeater     task nb300_lastensq: Time from /home/data/SP1411/proc/nb300/load/wrote_ens_time: 2014/12/08 11:49:53
2014-12-08 11:51:56,848 INFO     repeater     task nb300_beamplots starting 3.6 seconds late
2014-12-08 11:51:58,557 INFO     repeater     task nb300_beamplots output:
Starting procsetup

2014-12-08 11:51:58,558 INFO     repeater     task nb300_beamplots ended after 1.7 seconds
2014-12-08 11:51:58,558 INFO     repeater     task nb300_beamplots starting 5.3 seconds late
2014-12-08 11:52:00,289 INFO     repeater     task nb300_beamplots output:
Starting procsetup

2014-12-08 11:52:00,290 INFO     repeater     task nb300_beamplots ended after 1.7 seconds
2014-12-08 11:52:00,290 INFO     repeater     task ashtech_hcorrstats starting 7.0 seconds late
2014-12-08 11:52:01,192 INFO     repeater     task ashtech_hcorrstats ended after 0.9 seconds
2014-12-08 11:52:06,197 INFO     repeater     task nb300_lastensq starting 3.2 seconds late
2014-12-08 11:52:08,399 INFO     repeater     task nb300_lastensq ended after 2.2 seconds
2014-12-08 11:52:08,399 INFO     repeater     task nb300_lastensq: Time from /home/data/SP1411/proc/nb300/load/wrote_ens_time: 2014/12/08 11:51:53
2014-12-08 11:54:03,518 INFO     repeater     task nb300_lastensq starting 0.5 seconds late
2014-12-08 11:54:05,721 INFO     repeater     task nb300_lastensq ended after 2.2 seconds
2014-12-08 11:54:05,721 INFO     repeater     task nb300_lastensq: Time from /home/data/SP1411/proc/nb300/load/wrote_ens_time: 2014/12/08 11:53:53
2014-12-08 11:56:05,841 INFO     repeater     task nb300_lastensq starting 2.8 seconds late
2014-12-08 11:56:07,980 INFO     repeater     task nb300_lastensq ended after 2.1 seconds
2014-12-08 11:56:07,981 INFO     repeater     task nb300_lastensq: Time from /home/data/SP1411/proc/nb300/load/wrote_ens_time: 2014/12/08 11:55:53
2014-12-08 11:56:58,032 INFO     repeater     task ashtech_hcorrstats starting 4.8 seconds late
2014-12-08 11:56:58,934 INFO     repeater     task ashtech_hcorrstats ended after 0.9 seconds
2014-12-08 11:58:04,003 INFO     repeater     task nb300_lastensq starting 1.0 seconds late
2014-12-08 11:58:06,205 INFO     repeater     task nb300_lastensq ended after 2.2 seconds
2014-12-08 11:58:06,205 INFO     repeater     task nb300_lastensq: Time from /home/data/SP1411/proc/nb300/load/wrote_ens_time: 2014/12/08 11:57:53
2014-12-08 12:00:06,335 INFO     repeater     task nb300_lastensq starting 3.3 seconds late
2014-12-08 12:00:08,536 INFO     repeater     task nb300_lastensq ended after 2.2 seconds
2014-12-08 12:00:08,536 INFO     repeater     task nb300_lastensq: Time from /home/data/SP1411/proc/nb300/load/wrote_ens_time: 2014/12/08 11:59:53
2014-12-08 12:01:53,667 INFO     repeater     task nb300_quick starting 0.4 seconds late
2014-12-08 12:01:58,265 INFO     repeater     task nb300_quick ended after 4.6 seconds
2014-12-08 12:01:58,265 INFO     repeater     task nb300_3dayplots starting 5.0 seconds late
2014-12-08 12:02:03,429 INFO     repeater     task nb300_3dayplots ended after 5.2 seconds
2014-12-08 12:02:03,429 INFO     repeater     task nb300_beamplots starting 10.2 seconds late
2014-12-08 12:02:05,085 INFO     repeater     task nb300_beamplots output:
Starting procsetup

2014-12-08 12:02:05,086 INFO     repeater     task nb300_beamplots ended after 1.7 seconds
2014-12-08 12:02:05,086 INFO     repeater     task nb300_beamplots starting 11.8 seconds late
2014-12-08 12:02:06,803 INFO     repeater     task nb300_beamplots output:
Starting procsetup

2014-12-08 12:02:06,803 INFO     repeater     task nb300_beamplots ended after 1.7 seconds
2014-12-08 12:02:06,804 INFO     repeater     task ashtech_hcorrstats starting 13.5 seconds late
2014-12-08 12:02:07,694 INFO     repeater     task ashtech_hcorrstats ended after 0.9 seconds
2014-12-08 12:02:12,699 INFO     repeater     task nb300_lastensq starting 9.7 seconds late
2014-12-08 12:02:14,775 INFO     repeater     task nb300_lastensq ended after 2.1 seconds
2014-12-08 12:02:14,775 INFO     repeater     task nb300_lastensq: Time from /home/data/SP1411/proc/nb300/load/wrote_ens_time: 2014/12/08 12:01:53
2014-12-08 12:04:04,895 INFO     repeater     task nb300_lastensq starting 1.9 seconds late
2014-12-08 12:04:07,045 INFO     repeater     task nb300_lastensq ended after 2.2 seconds
2014-12-08 12:04:07,045 INFO     repeater     task nb300_lastensq: Time from /home/data/SP1411/proc/nb300/load/wrote_ens_time: 2014/12/08 12:03:53
2014-12-08 12:06:07,185 INFO     repeater     task nb300_lastensq starting 4.2 seconds late
2014-12-08 12:06:09,238 INFO     repeater     task nb300_lastensq ended after 2.1 seconds
2014-12-08 12:06:09,238 INFO     repeater     task nb300_lastensq: Time from /home/data/SP1411/proc/nb300/load/wrote_ens_time: 2014/12/08 12:05:53
2014-12-08 12:06:54,296 INFO     repeater     task ashtech_hcorrstats starting 1.0 seconds late
2014-12-08 12:06:55,201 INFO     repeater     task ashtech_hcorrstats ended after 0.9 seconds
2014-12-08 12:08:05,281 INFO     repeater     task nb300_lastensq starting 2.3 seconds late
2014-12-08 12:08:07,337 INFO     repeater     task nb300_lastensq ended after 2.1 seconds
2014-12-08 12:08:07,337 INFO     repeater     task nb300_lastensq: Time from /home/data/SP1411/proc/nb300/load/wrote_ens_time: 2014/12/08 12:07:53
2014-12-08 12:10:07,482 INFO     repeater     task nb300_lastensq starting 4.5 seconds late
2014-12-08 12:10:09,603 INFO     repeater     task nb300_lastensq ended after 2.1 seconds
2014-12-08 12:10:09,603 INFO     repeater     task nb300_lastensq: Time from /home/data/SP1411/proc/nb300/load/wrote_ens_time: 2014/12/08 12:09:53
2014-12-08 12:11:54,714 INFO     repeater     task nb300_beamplots starting 1.4 seconds late
2014-12-08 12:11:56,275 INFO     repeater     task nb300_beamplots output:
Starting procsetup

2014-12-08 12:11:56,276 INFO     repeater     task nb300_beamplots ended after 1.6 seconds
2014-12-08 12:11:56,276 INFO     repeater     task nb300_beamplots starting 3.0 seconds late
2014-12-08 12:11:57,982 INFO     repeater     task nb300_beamplots output:
Starting procsetup

2014-12-08 12:11:57,983 INFO     repeater     task nb300_beamplots ended after 1.7 seconds
2014-12-08 12:11:57,983 INFO     repeater     task ashtech_hcorrstats starting 4.7 seconds late
2014-12-08 12:11:58,880 INFO     repeater     task ashtech_hcorrstats ended after 0.9 seconds
2014-12-08 12:12:03,884 INFO     repeater     task nb300_lastensq starting 0.9 seconds late
2014-12-08 12:12:05,995 INFO     repeater     task nb300_lastensq ended after 2.1 seconds
2014-12-08 12:12:05,995 INFO     repeater     task nb300_lastensq: Time from /home/data/SP1411/proc/nb300/load/wrote_ens_time: 2014/12/08 12:11:53
2014-12-08 12:14:06,128 INFO     repeater     task nb300_lastensq starting 3.1 seconds late
2014-12-08 12:14:08,206 INFO     repeater     task nb300_lastensq ended after 2.1 seconds
2014-12-08 12:14:08,206 INFO     repeater     task nb300_lastensq: Time from /home/data/SP1411/proc/nb300/load/wrote_ens_time: 2014/12/08 12:13:53
2014-12-08 12:16:03,344 INFO     repeater     task nb300_lastensq starting 0.3 seconds late
2014-12-08 12:16:05,465 INFO     repeater     task nb300_lastensq ended after 2.1 seconds
2014-12-08 12:16:05,466 INFO     repeater     task nb300_lastensq: Time from /home/data/SP1411/proc/nb300/load/wrote_ens_time: 2014/12/08 12:15:53
2014-12-08 12:16:55,528 INFO     repeater     task ashtech_hcorrstats starting 2.3 seconds late
2014-12-08 12:16:56,437 INFO     repeater     task ashtech_hcorrstats ended after 0.9 seconds
2014-12-08 12:18:06,511 INFO     repeater     task nb300_lastensq starting 3.5 seconds late
2014-12-08 12:18:08,583 INFO     repeater     task nb300_lastensq ended after 2.1 seconds
2014-12-08 12:18:08,584 INFO     repeater     task nb300_lastensq: Time from /home/data/SP1411/proc/nb300/load/wrote_ens_time: 2014/12/08 12:17:53
2014-12-08 12:20:03,724 INFO     repeater     task nb300_lastensq starting 0.7 seconds late
2014-12-08 12:20:05,843 INFO     repeater     task nb300_lastensq ended after 2.1 seconds
2014-12-08 12:20:05,843 INFO     repeater     task nb300_lastensq: Time from /home/data/SP1411/proc/nb300/load/wrote_ens_time: 2014/12/08 12:19:53
2014-12-08 12:21:55,969 INFO     repeater     task nb300_beamplots starting 2.7 seconds late
2014-12-08 12:21:57,630 INFO     repeater     task nb300_beamplots output:
Starting procsetup

2014-12-08 12:21:57,630 INFO     repeater     task nb300_beamplots ended after 1.7 seconds
2014-12-08 12:21:57,630 INFO     repeater     task nb300_beamplots starting 4.4 seconds late
2014-12-08 12:21:59,337 INFO     repeater     task nb300_beamplots output:
Starting procsetup

2014-12-08 12:21:59,337 INFO     repeater     task nb300_beamplots ended after 1.7 seconds
2014-12-08 12:21:59,337 INFO     repeater     task ashtech_hcorrstats starting 6.1 seconds late
2014-12-08 12:22:00,237 INFO     repeater     task ashtech_hcorrstats ended after 0.9 seconds
2014-12-08 12:22:05,240 INFO     repeater     task nb300_lastensq starting 2.2 seconds late
2014-12-08 12:22:07,378 INFO     repeater     task nb300_lastensq ended after 2.1 seconds
2014-12-08 12:22:07,379 INFO     repeater     task nb300_lastensq: Time from /home/data/SP1411/proc/nb300/load/wrote_ens_time: 2014/12/08 12:21:53
2014-12-08 12:24:07,523 INFO     repeater     task nb300_lastensq starting 4.5 seconds late
2014-12-08 12:24:09,659 INFO     repeater     task nb300_lastensq ended after 2.1 seconds
2014-12-08 12:24:09,659 INFO     repeater     task nb300_lastensq: Time from /home/data/SP1411/proc/nb300/load/wrote_ens_time: 2014/12/08 12:23:53
2014-12-08 12:26:04,788 INFO     repeater     task nb300_lastensq starting 1.8 seconds late
2014-12-08 12:26:06,864 INFO     repeater     task nb300_lastensq ended after 2.1 seconds
2014-12-08 12:26:06,864 INFO     repeater     task nb300_lastensq: Time from /home/data/SP1411/proc/nb300/load/wrote_ens_time: 2014/12/08 12:25:53
2014-12-08 12:26:56,923 INFO     repeater     task ashtech_hcorrstats starting 3.6 seconds late
2014-12-08 12:26:57,838 INFO     repeater     task ashtech_hcorrstats ended after 0.9 seconds
2014-12-08 12:28:07,918 INFO     repeater     task nb300_lastensq starting 4.9 seconds late
2014-12-08 12:28:10,028 INFO     repeater     task nb300_lastensq ended after 2.1 seconds
2014-12-08 12:28:10,028 INFO     repeater     task nb300_lastensq: Time from /home/data/SP1411/proc/nb300/load/wrote_ens_time: 2014/12/08 12:27:53
2014-12-08 12:30:05,162 INFO     repeater     task nb300_lastensq starting 2.2 seconds late
2014-12-08 12:30:07,276 INFO     repeater     task nb300_lastensq ended after 2.1 seconds
2014-12-08 12:30:07,276 INFO     repeater     task nb300_lastensq: Time from /home/data/SP1411/proc/nb300/load/wrote_ens_time: 2014/12/08 12:29:53
2014-12-08 12:31:57,404 INFO     repeater     task nb300_quick starting 4.2 seconds late
2014-12-08 12:32:02,122 INFO     repeater     task nb300_quick ended after 4.7 seconds
2014-12-08 12:32:02,122 INFO     repeater     task nb300_3dayplots starting 8.9 seconds late
2014-12-08 12:32:07,387 INFO     repeater     task nb300_3dayplots ended after 5.3 seconds
2014-12-08 12:32:07,387 INFO     repeater     task nb300_beamplots starting 14.1 seconds late
2014-12-08 12:32:09,059 INFO     repeater     task nb300_beamplots output:
Starting procsetup

2014-12-08 12:32:09,060 INFO     repeater     task nb300_beamplots ended after 1.7 seconds
2014-12-08 12:32:09,060 INFO     repeater     task nb300_beamplots starting 15.8 seconds late
2014-12-08 12:32:10,750 INFO     repeater     task nb300_beamplots output:
Starting procsetup

2014-12-08 12:32:10,750 INFO     repeater     task nb300_beamplots ended after 1.7 seconds
2014-12-08 12:32:10,750 INFO     repeater     task ashtech_hcorrstats starting 17.5 seconds late
2014-12-08 12:32:11,641 INFO     repeater     task ashtech_hcorrstats ended after 0.9 seconds
2014-12-08 12:32:16,646 INFO     repeater     task nb300_lastensq starting 13.6 seconds late
2014-12-08 12:32:18,783 INFO     repeater     task nb300_lastensq ended after 2.1 seconds
2014-12-08 12:32:18,784 INFO     repeater     task nb300_lastensq: Time from /home/data/SP1411/proc/nb300/load/wrote_ens_time: 2014/12/08 12:31:53
2014-12-08 12:34:03,904 INFO     repeater     task nb300_lastensq starting 0.9 seconds late
2014-12-08 12:34:05,988 INFO     repeater     task nb300_lastensq ended after 2.1 seconds
2014-12-08 12:34:05,989 INFO     repeater     task nb300_lastensq: Time from /home/data/SP1411/proc/nb300/load/wrote_ens_time: 2014/12/08 12:33:53
2014-12-08 12:36:06,134 INFO     repeater     task nb300_lastensq starting 3.1 seconds late
2014-12-08 12:36:08,208 INFO     repeater     task nb300_lastensq ended after 2.1 seconds
2014-12-08 12:36:08,209 INFO     repeater     task nb300_lastensq: Time from /home/data/SP1411/proc/nb300/load/wrote_ens_time: 2014/12/08 12:35:53
2014-12-08 12:36:58,272 INFO     repeater     task ashtech_hcorrstats starting 5.0 seconds late
2014-12-08 12:36:59,173 INFO     repeater     task ashtech_hcorrstats ended after 0.9 seconds
2014-12-08 12:38:04,248 INFO     repeater     task nb300_lastensq starting 1.2 seconds late
2014-12-08 12:38:06,382 INFO     repeater     task nb300_lastensq ended after 2.1 seconds
2014-12-08 12:38:06,383 INFO     repeater     task nb300_lastensq: Time from /home/data/SP1411/proc/nb300/load/wrote_ens_time: 2014/12/08 12:37:53
2014-12-08 12:40:06,510 INFO     repeater     task nb300_lastensq starting 3.5 seconds late
2014-12-08 12:40:08,607 INFO     repeater     task nb300_lastensq ended after 2.1 seconds
2014-12-08 12:40:08,608 INFO     repeater     task nb300_lastensq: Time from /home/data/SP1411/proc/nb300/load/wrote_ens_time: 2014/12/08 12:39:53
2014-12-08 12:41:53,739 INFO     repeater     task nb300_beamplots starting 0.5 seconds late
2014-12-08 12:41:55,395 INFO     repeater     task nb300_beamplots output:
Starting procsetup

2014-12-08 12:41:55,395 INFO     repeater     task nb300_beamplots ended after 1.7 seconds
2014-12-08 12:41:55,396 INFO     repeater     task nb300_beamplots starting 2.1 seconds late
2014-12-08 12:41:57,101 INFO     repeater     task nb300_beamplots output:
Starting procsetup

2014-12-08 12:41:57,101 INFO     repeater     task nb300_beamplots ended after 1.7 seconds
2014-12-08 12:41:57,102 INFO     repeater     task ashtech_hcorrstats starting 3.8 seconds late
2014-12-08 12:41:58,004 INFO     repeater     task ashtech_hcorrstats ended after 0.9 seconds
2014-12-08 12:42:03,010 INFO     repeater     task nb300_lastensq starting 0.0 seconds late
2014-12-08 12:42:05,092 INFO     repeater     task nb300_lastensq ended after 2.1 seconds
2014-12-08 12:42:05,092 INFO     repeater     task nb300_lastensq: Time from /home/data/SP1411/proc/nb300/load/wrote_ens_time: 2014/12/08 12:41:53
2014-12-08 12:44:05,226 INFO     repeater     task nb300_lastensq starting 2.2 seconds late
2014-12-08 12:44:07,366 INFO     repeater     task nb300_lastensq ended after 2.1 seconds
